21.024333333333335;-92.10030112042236
22.24;-91.60719114833104
23.654666666666667;-91.21528550501534
24.481333333333335;-91.33117426806504
25.375333333333334;-90.97625961722814
26.138666666666666;-91.80379520678086
27.345333333333333;-92.11522029254007
28.662333333333333;-92.24330919944711
29.73333333333333;-91.61688977460513
31.194333333333333;-91.22704677807468
31.94366666666666;-91.62994924855717
32.58733333333333;-92.14840548318755
33.80166666666667;-91.4079181312512
34.91;-92.35235440854906
36.092333333333336;-91.92935289482068
37.552;-92.04681612084426
38.968333333333334;-92.24139994172528
39.961666666666666;-92.2310549796822
41.469666666666676;-92.99131830536538
43.367;-92.92446231377609
44.29566666666667;-92.01372857484891
45.236;-92.60161798519691
47.050333333333334;-92.7448679773518
47.714;-92.71159992834839
50.48;-91.89827742358898
52.22733333333334;-91.73663439726732
53.14533333333333;-92.52719704790888
55.025666666666666;-92.9996596929652
55.733666666666664;-92.09291198155762
56.650666666666666;-92.94850054539934
57.269000000000005;-91.82989082506954
57.88833333333333;-93.04344448722311
58.53033333333334;-91.81733948016699
59.18366666666666;-93.29090421247531
60.35666666666666;-91.63521420040158
61.695;-92.43295859865196
62.77866666666667;-92.35464308531368
64.01733333333334;-91.91560561971002
65.05366666666667;-92.97378900289974
67.10133333333333;-92.56335744133523
68.5;-92.71958391880531
69.76366666666667;-93.4715488988008
71.168;-92.71685372324245
71.932;-91.96779937868544
74.57800000000002;-91.83491419466988
76.37766666666667;-91.3156307344393
78.38733333333333;-91.3694299369398
79.71266666666666;-92.65329348816823
83.58066666666667;-92.46455121983087
84.80833333333334;-91.86229217245416
85.34966666666666;-92.9270493633894
85.99099999999999;-92.8376478898477
86.60966666666667;-93.35579875183792
87.50433333333335;-93.63423170113275
88.71966666666667;-93.17417249830083
89.923;-93.05993971331469
90.63033333333333;-93.36121226779434
91.26333333333334;-92.0292309973371
92.97633333333333;-91.9406198690492
94.04766666666667;-91.44708407230117
95.38366666666667;-91.64104992158333
95.96933333333334;-91.52153959525324
96.698;-93.31162488109739
97.48233333333333;-92.47400724589897
98.14566666666667;-92.96546894260538
98.80733333333335;-92.42217984745035
100.099;-91.89671924829821
101.42399999999999;-91.63104626402342
102.043;-92.64089968488486
102.585;-91.74466869452598
103.546;-91.07721880285482
104.10933333333332;-92.4575213829513
105.68033333333334;-91.8859034080555
106.952;-92.3008006225423
109.04966666666667;-92.04889421315104
111.335;-91.43561490440683
111.89799999999998;-91.28241396423124
112.46100000000001;-91.77248962193596
112.93566666666668;-92.06711302388887
113.27766666666668;-91.5692214459256
114.23833333333333;-92.84913692085115
115.33366666666666;-92.89243845701726
117.03399999999999;-92.74462129416158
118.21499999999999;-92.31033118853858
118.95466666666665;-92.22682368510071
119.78333333333335;-92.07854456616624
156.3166666666667;-92.40080019676239
175.17033333333333;-90.58040492495633
176.07766666666666;-92.13606973686937
176.819;-91.61159727547916
177.715;-91.77440723720487
178.65466666666669;-92.04424241176034
179.48433333333332;-91.83438363074572
180.20366666666666;-92.16381998785451
182.338;-93.93685425639804
184.34066666666664;-93.6629246111967
185.68966666666665;-93.21485583929743
187.93566666666666;-93.59121784963094
189.21900000000002;-92.6719879627727
189.72733333333335;-91.72162990140427
190.369;-92.16595980194235
191.16566666666665;-92.2211588746516
192.72799999999998;-92.65091728366647
194.24300000000002;-92.55406592572551
196.67466666666667;-91.87994223765119
198.33333333333334;-91.22880122243988
199.242;-92.30270369819225
200.059;-92.22687797278874
200.889;-92.49400194384256
201.53033333333335;-93.16238927297006
202.77966666666666;-92.5613607706536
203.57666666666668;-94.29976241054187
205.091;-92.69941253717167
206.02033333333335;-91.43290086871112
207.08233333333337;-91.61189527268544
207.7023333333333;-92.59307706356785
208.443;-91.47556979198129
209.4273333333333;-91.87011897263358
210.54433333333336;-93.21110963575143
211.26399999999998;-92.77412348327643
211.97166666666666;-91.23863761750171
213.16633333333334;-92.75952065529395
213.587;-92.55696452804047
214.6483333333333;-92.42283385785453
215.70966666666666;-92.59718005814099
216.29600000000002;-92.0406418467469
216.86033333333333;-92.02810379201763
218.38633333333334;-92.22287449644479
219.87966666666668;-92.26808512732761
221.019;-91.95042746005826
221.694;-92.00913586775594
222.612;-91.31929989137778
223.5856666666667;-91.87457198462104
224.89133333333334;-92.81719800607355
226.5186666666667;-91.65451898227194
228.65366666666668;-92.1442812866153
230.18066666666664;-91.92347476876522
231.17633333333333;-92.45943245007614
231.707;-92.46306968736464
232.55933333333334;-93.11613495619794
233.245;-92.93068777007308
236.85066666666668;-92.67880977153445
239.2396666666667;-92.01468532623593
240.03666666666666;-91.87265739376441
240.778;-92.34398970446021
241.20933333333335;-92.08193217360181
242.547;-92.71209683868243
244.51666666666668;-93.43619308464993
245.755;-92.86404520156202
246.76166666666666;-93.29909176373587
247.53599999999997;-92.46578752002239
249.1063333333333;-92.61072705722862
250.51099999999997;-92.98526097108264
251.37333333333333;-92.19764220463452
252.21400000000003;-93.18455857031078
252.867;-91.94114439466156
253.89566666666667;-91.96800021598962
255.10133333333332;-92.96565076601244
256.6066666666667;-91.709587593685
257.49133333333333;-92.99108726660396
258.465;-92.38093119891633
260.48966666666666;-91.87799239769205
261.596;-92.40491837207755
262.6573333333333;-91.99795676860066
263.133;-92.79380765364877
263.97366666666665;-93.66041958941545
265.86499999999995;-93.7713060323789
268.0656666666667;-93.6640646301015
268.917;-92.05434332386481
269.5363333333333;-91.60277314719148
269.9893333333334;-91.65267734264854
270.687;-91.64980650730085
271.38366666666667;-92.65854420242808
272.346;-93.4931549750861
273.59566666666666;-93.37932914556788
275.06666666666666;-93.48803842754671
276.4386666666667;-93.01732965089255
277.30233333333337;-92.0135769158827
278.15433333333334;-92.85162050876052
278.81800000000004;-92.81881693466188
280.50966666666665;-93.60969067644395
282.22433333333333;-93.41068632787639
282.75499999999994;-92.98830037316326
283.34133333333335;-93.15363457021516
284.7236666666667;-93.3790705608753
285.896;-93.66754627516937
286.9026666666667;-93.54492979430546
288.25233333333335;-93.28005316853913
289.03766666666667;-92.83886538080091
290.0553333333333;-92.49180114068677
291.84766666666667;-92.9059275732861
292.8326666666667;-93.6540132105842
293.585;-92.25622147685094
295.288;-93.51392136681484
296.39433333333335;-93.95587640113587
297.47866666666664;-94.66505755847818
300.344;-94.43558961814031
301.318;-93.6885428601671
301.683;-94.1029902016499
303.26466666666664;-94.4894126001061
304.4923333333333;-93.96149996607532
305.33366666666666;-93.25173052385477
305.865;-91.64772030278036
306.8603333333333;-94.08743540962485
307.5133333333333;-93.08593032473507
308.14366666666666;-93.72225252303663
308.952;-94.74349263641926
309.9253333333333;-94.30220022289961
310.7436666666666;-93.29351066162766
311.7833333333333;-92.57249263083105
312.33666666666664;-91.76110149433259
313.24333333333334;-91.89093947676524
314.9356666666667;-93.01745050732146
317.3346666666667;-92.73506475910408
318.297;-92.8822727783571
319.1263333333334;-93.12590190072308
319.8666666666666;-91.8999371810146
320.6526666666667;-91.65498551308053
322.00166666666667;-92.38254157249445
322.8643333333334;-92.19303922577053
324.18033333333335;-92.98565027197496
324.7663333333333;-92.79190716690253
325.541;-92.23500808338495
326.01666666666665;-92.39566967944324
326.82433333333336;-92.71298374982263
327.721;-93.44597635643647
328.7166666666667;-93.43872534862692
329.65666666666664;-93.95996781696482
330.497;-92.64583881573847
331.39366666666666;-92.89244024961101
333.374;-92.81932734734123
334.0706666666667;-92.2547979816352
334.78833333333336;-92.99705348165645
336.2573333333333;-92.46867969609619
337.6616666666667;-92.17142113075725
338.833;-92.68267089830167
340.19266666666664;-92.74383465937278
340.801;-92.89051575988427
341.885;-92.90950700714382
343.68766666666664;-92.09572740730925
344.82666666666665;-91.3840341201129
345.4243333333334;-91.7523929413378
346.44166666666666;-92.91592097006942
347.10566666666665;-93.11664622355035
347.814;-94.02686909105599
348.82033333333334;-93.83428086888003
350.6566666666667;-92.24300000625624
352.2049999999999;-91.73398953985476
353.83200000000005;-92.34773766137808
354.41799999999995;-92.82563552155187
354.83799999999997;-92.41920828853128
355.2916666666667;-92.28986801514925
356.47566666666665;-91.52616602969525
357.47166666666664;-92.09654654973058
358.6116666666667;-91.6659366370533
359.076;-92.59775450070524
359.6403333333333;-91.66368968286639
360.78;-92.35746240045513
361.5323333333333;-92.07584653440597
363.60066666666665;-93.73963817161184
365.017;-93.67585576782704
365.79133333333334;-93.31474706188013
366.5653333333333;-92.93934176342023
367.3506666666667;-93.09042009492906
369.01966666666664;-92.84324131926753
369.8036666666667;-91.94267550692328
370.157;-92.22337802058706
371.06166666666667;-92.03327197916201
372.40766666666667;-92.41275062191335
373.5883333333333;-92.79517251919145
374.99033333333335;-92.94017629925972
376.105;-92.37499205757621
376.6016666666667;-92.86463842314271
377.01;-92.72003616903075
378.20166666666665;-93.62566103996413
379.978;-93.01666386187247
381.037;-93.34389300149908
382.3503333333333;-92.90326393214907
383.4653333333333;-92.50283650091662
384.01666666666665;-92.72289737056872
385.14300000000003;-92.76152967217048
385.92633333333333;-92.55493628350875
387.30566666666664;-92.65687034726847
388.376;-93.57219404480064
390.16366666666664;-93.08907426568986
390.6603333333333;-93.41125332930505
391.124;-93.04133738390863
391.6313333333333;-92.36347209092199
392.3486666666667;-93.74003802032432
393.26399999999995;-94.11175562985012
394.12466666666666;-93.5948971986073
394.89733333333334;-92.59173469268133
396.24399999999997;-93.0546832846744
397.5466666666666;-92.23774662405063
398.672;-93.53669880630181
399.5;-93.57334676432166
400.43800000000005;-94.65990301165763
401.08899999999994;-95.67651961807476
402.049;-94.4504319299814
403.8136666666666;-92.38467507063221
404.1893333333333;-94.30825841889452
404.84;-93.94843655540032
405.535;-92.73476029480486
406.2753333333333;-92.71531349670623
407.281;-92.83394725509694
407.68966666666665;-92.71351217755556
408.15433333333334;-93.11994344272144
410.0553333333333;-92.95187084500725
412.28766666666667;-92.34766800308714
413.459;-93.4525074502113
414.53133333333335;-93.8067988143207
415.54766666666666;-93.38393531256018
415.8796666666667;-94.18492700939055
416.2556666666667;-93.21897252844998
416.5756666666666;-93.09428978124623
417.6476666666667;-92.81504101735248
419.13933333333335;-92.40645627607199
419.51500000000004;-92.68076223469433
420.13366666666667;-93.22937096835126
421.52566666666667;-92.7976369399102
422.74066666666675;-93.93779076918422
423.558;-93.65924417825806
424.21033333333327;-93.59814953694043
425.92366666666663;-91.503278367144
426.587;-92.40251752778367
427.5156666666667;-93.75610344844863
428.35633333333334;-93.71075647160471
429.38466666666665;-93.33676314705137
431.154;-93.2692130572914
433.57466666666664;-93.01189390366456
435.1116666666667;-93.73210322523775
435.9963333333333;-93.28993585431817
436.5706666666667;-92.67603321546777
437.03433333333334;-92.85547225858218
437.48766666666666;-92.9408058021566
438.6366666666667;-92.4295918336477
440.33833333333337;-93.31921739382872
441.167;-91.60514574108001
441.9073333333333;-93.26678135660372
442.449;-92.70243840382048
442.9793333333333;-91.78489901032547
444.051;-92.5776679045556
444.73633333333333;-91.80223132446675
446.36100000000005;-92.0579257159888
447.0903333333333;-93.00111129611331
447.83066666666673;-93.42148066923066
448.74766666666665;-92.56174924248857
449.8533333333333;-92.81555396734439
451.258;-92.77443635830294
452.397;-93.51133444235874
454.0666666666666;-93.48434078754437
454.7516666666667;-92.7864336556686
455.28266666666667;-91.44875552936836
455.7803333333333;-92.04324469955904
457.46166666666664;-93.19194843037337
457.94800000000004;-92.71729739579199
458.4793333333334;-93.22537219631892
459.43;-92.94644360871828
460.348;-93.42968953245276
460.66833333333335;-93.01510013700477
461.122;-92.59487155494939
461.509;-92.66665448753619
462.4823333333334;-92.08477564135707
463.49966666666666;-92.67187985848098
464.0853333333334;-92.83932225990463
464.74899999999997;-92.51426925507239
465.3016666666667;-91.59513467632
465.78833333333336;-92.50447407141655
467.1046666666666;-92.75841835379258
468.786;-94.08423902618607
469.49333333333334;-94.12076909917083
470.0683333333333;-93.39451477625336
470.47766666666666;-93.20323029331792
470.83200000000005;-93.70827253601463
471.252;-94.18816163472692
471.92633333333333;-93.37721487065657
472.93266666666665;-91.2564417651479
473.3413333333333;-91.61344883895129
474.3476666666667;-92.39661787726354
475.4206666666667;-92.28348899630097
477.3666666666666;-92.0456142304777
478.55033333333336;-92.71641578364176
479.468;-93.21542025266615
480.47433333333333;-93.27660424968873
481.22599999999994;-92.37604672096765
482.33200000000005;-93.07981219184522
483.858;-93.32957331653131
485.4503333333334;-92.99057971609803
487.673;-93.71591983788954
489.8953333333333;-92.32905772260504
491.487;-91.6218350514211
492.34933333333333;-92.97724298441355
493.0566666666667;-92.11096113482678
493.44366666666673;-91.55644263837202
494.0963333333334;-93.63692397479052
494.406;-91.76253794068194
494.9923333333333;-92.23629709008355
496.407;-91.75402869887681
496.8163333333334;-92.4211954091609
498.32033333333334;-92.71419931054227
500.83033333333333;-92.37032091139582
502.7326666666666;-91.83677824798043
504.4463333333333;-92.94143820785983
505.63000000000005;-92.72788754956186
506.459;-93.92180739550427
507.74199999999996;-93.35621770820973
508.82633333333337;-92.78819743030806
509.25700000000006;-93.09919672328147
510.04266666666666;-93.78428410110283
511.204;-93.43719377879336
512.2213333333333;-92.75802911151726
514.035;-92.67268066958938
515.506;-93.52626549232758
517.1423333333333;-92.36384792696984
519.4196666666667;-92.76870536418204
520.5026666666666;-91.70395991592282
521.719;-92.31299566675222
522.5263333333334;-92.09613790062161
523.1456666666667;-93.114238115813
524.0523333333332;-93.10217932708858
525.4226666666667;-92.94533027062381
526.86;-92.64839516567594
528.1423333333333;-93.22294443278103
529.1819999999999;-93.08609184049766
530.011;-93.93579053171979
531.1836666666667;-92.63384900102633
531.6370000000001;-93.61003098722006
533.0300000000001;-93.34915351266983
533.7483333333333;-93.05334993411547
534.4666666666667;-92.67608037233292
534.8539999999999;-92.4334872119266
535.451;-92.35106436504418
536.6123333333334;-93.21400440277293
537.84;-92.4153983264024
539.212;-92.18678215737063
540.0636666666666;-93.20401157716101
540.9483333333334;-92.67281191138073
542.2199999999999;-92.02975343074384
543.447;-93.15820524554977
545.2049999999999;-92.13394054295387
546.6646666666667;-92.56067259444107
548.39;-92.00707655724497
550.004;-92.17964689543354
550.9996666666667;-91.78313501274995
551.8843333333333;-92.43998130243926
553.123;-91.8231270209802
554.1623333333333;-92.77257417082456
555.5446666666667;-91.46427723754137
557.0153333333334;-91.87310353866734
557.6233333333333;-92.28065821324776
559.3483333333334;-92.27946899339885
560.5096666666667;-92.88747548260207
561.9253333333332;-92.62131291197436
563.0306666666667;-93.48434858582611
564.8960000000001;-92.89976869600903
565.713;-93.40697149601257
566.4316666666667;-92.46602651001814
567.0070000000001;-93.30488149769661
567.626;-94.41387050374072
568.7203333333333;-92.58285725485558
569.572;-93.40700053760466
570.346;-92.40570473935557
571.2633333333333;-91.50430921114645
571.9823333333333;-91.69380669652278
572.4693333333333;-92.1879096247703
574.1610000000001;-91.93183157410527
575.0776666666666;-92.3656743086514
575.7076666666667;-92.31029767960378
576.4253333333332;-93.97494852066768
576.9219999999999;-93.49591082116967
577.3633333333333;-93.06884557564463
577.7053333333333;-93.7975174605741
578.114;-94.18074499617964
578.501;-93.39202530717378
579.5953333333333;-92.91986295490362
581.3206666666666;-93.52032284354617
583.5646666666667;-93.04466043641935
585.8760000000001;-92.9452295781229
586.4616666666667;-93.48484860009384
586.9483333333334;-92.23244532092706
587.91;-92.3037351197467
588.3856666666667;-93.06474517486832
588.7616666666667;-91.80727215321762
589.6456666666667;-91.77581715247301
590.3196666666668;-92.42836569298201
591.57;-93.77038214522891
592.189;-92.56617992586503
593.4163333333332;-92.8479281143425
594.091;-91.50229834339319
594.4666666666666;-92.0067728344682
594.9533333333333;-92.29082118862476
598.2040000000001;-91.88692685193433
598.8896666666666;-91.63404491917204
600.4263333333333;-93.78253121606394
601.7429999999999;-94.09633223733358
602.3733333333333;-92.47083584975057
603.3580000000001;-91.65377344902214
604.0876666666667;-91.83021145232132
604.6513333333334;-91.78657079202276
605.558;-92.39913292784877
606.9073333333333;-93.15431450000413
608.6550000000001;-92.284024587006
609.4953333333334;-93.78339814278456
610.1806666666666;-92.83832541208673
610.5016666666667;-92.59639540417118
610.8886666666666;-93.99478774506865
611.53;-92.18689864906624
612.0386666666667;-93.47361325085114
613.0786666666667;-93.32074770773225
614.6266666666667;-93.2523921121618
616.2083333333334;-93.00709722668022
617.9223333333333;-92.19502662699958
618.7406666666667;-92.78919271218396
619.4376666666667;-92.59394339508141
620.1126666666668;-92.40401547659164
620.8316666666667;-92.68529279065172
622.534;-92.57351486913754
622.965;-92.00877765652004
623.5843333333333;-92.71771222975487
624.1039999999999;-93.369225826739
625.7076666666667;-91.18830337605442
626.6476666666666;-91.56922360910872
627.311;-92.20777976404145
628.6383333333333;-92.91649545807181
629.534;-93.55160034772314
630.4520000000001;-94.07200716301357
631.7896666666667;-92.57160808288748
633.6576666666666;-92.43957711604835
634.653;-93.33096425827593
635.7913333333333;-92.23336487825655
636.3666666666667;-91.68244138241734
636.9526666666667;-92.35632774244212
637.694;-92.71346576066405
638.6226666666666;-93.10242511184538
639.6066666666667;-92.70548930015933
640.403;-92.94408196618205
641.1773333333334;-92.51545382879912
641.6856666666667;-93.60992497633926
642.9683333333334;-92.9977425479082
644.1956666666666;-93.77018134802417
645.2353333333333;-93.8346138002691
647.1923333333334;-92.37735093445131
648.6853333333333;-92.74943515942762
650.9843333333334;-92.46849324349466
651.968;-92.76705233726143
652.8523333333333;-92.69598621867291
653.6153333333333;-92.67145955660772
654.9193333333334;-91.81601608879903
655.9806666666667;-91.72363571050316
656.7213333333333;-92.63361618412964
658.18;-93.28409996802435
659.7053333333333;-92.75855704617929
660.4133333333333;-92.57439277416196
661.4853333333333;-93.09946226571302
663.3863333333333;-92.93536129403567
664.3919999999999;-91.31916645190715
665.6086666666666;-91.43235231184379
667.1343333333333;-92.44461753503997
668.98;-93.59464321273596
670.1186666666666;-93.37151229874357
671.9536666666667;-93.17839131068502
673.4683333333334;-93.08925338999948
673.9879999999999;-93.64769102235307
675.159;-93.21535764111883
675.5676666666667;-94.26154202832157
676.1096666666666;-94.49011752719602
676.9276666666666;-93.82519688186517
679.2493333333333;-93.44822868105344
680.3439999999999;-92.5354878299139
681.6933333333333;-93.05772835171365
682.5553333333334;-93.39978103719311
683.5286666666666;-93.19827647347165
683.959;-93.9580093867601
684.8986666666666;-93.70293842371628
686.5673333333334;-94.09826116854344
688.2019999999999;-93.1653426602852
689.0636666666668;-92.17056798199698
689.8376666666667;-91.89447354052757
690.578;-92.35745133183603
692.2813333333334;-93.06587139191272
693.2763333333334;-92.34350036400983
693.6746666666667;-92.4476132331983
694.5923333333334;-92.79616039042205
695.9966666666666;-91.75223914103492
697.2133333333333;-91.88466813689386
699.0606666666666;-92.26909938426301
700.3986666666666;-92.77378341497075
701.582;-92.98932343097229
703.3066666666667;-91.31308067598218
704.2576666666668;-93.26697355821149
704.844;-92.3635711144524
705.253;-92.22434443989003
705.9156666666667;-92.8668095577215
706.712;-93.3000366163179
707.9513333333334;-92.3425991882273
708.9246666666667;-93.09058367614676
710.02;-92.63486414214852
710.4956666666667;-93.47930048786145
711.1036666666668;-93.24018117514633
712.2980000000001;-93.24935227887222
713.9796666666667;-92.07134343937207
714.6873333333333;-94.10476580276452
715.4176666666666;-93.394177646929
716.314;-92.18215442665098
717.5196666666667;-92.92989396150891
719.677;-93.36099565301232
720.861;-93.20817338780563
721.779;-92.86436868805757
722.3976666666666;-92.52054406980844
723.1716666666667;-92.75277382315771
723.8789999999999;-93.32403991553056
724.774;-92.59719112098765
725.227;-93.23238719334113
726.0116666666667;-93.8345533584098
726.6296666666667;-94.00766730411154
727.1153333333333;-93.25214905454409
727.9663333333333;-93.43470842515592
729.0366666666667;-93.3684448104869
730.1186666666666;-92.67768821239518
731.0343333333334;-92.88940819914163
731.6416666666668;-93.4399732982505
732.2813333333334;-92.85632906602189
732.7896666666667;-91.80125014246758
733.1436666666667;-93.44444731612091
736.1819999999999;-93.71035536201643
737.564;-94.34048253273014
738.2933333333334;-93.8922873548808
739.3766666666667;-93.90014079842226
740.393;-93.24028943197004
741.013;-93.48090496708676
742.2633333333333;-92.83495495892966
743.236;-92.40356992876306
745.1149999999999;-92.36829961504898
746.9406666666667;-93.01322536940253
748.3560000000001;-92.40852357505679
749.4286666666667;-93.94395114355906
750.5126666666666;-92.98183266547441
751.4973333333334;-93.65146946870537
752.7693333333333;-93.21780639092822
753.61;-93.05154350271573
755.899;-91.37098509631119
756.8393333333333;-92.38622657886334
757.4813333333333;-92.84231349591482
758.311;-92.1419506983361
759.0186666666667;-92.72692301879192
760.9203333333334;-91.84953081008632
761.9716666666667;-92.46132290012761
763.0556666666666;-93.24723823744384
763.7963333333333;-93.19158036782048
764.648;-92.11395841888252
765.3556666666667;-92.80672869403581
766.5056666666666;-93.75164565687298
767.2906666666667;-92.83766639858163
768.6623333333333;-93.02182709314127
769.5803333333333;-92.76166362631871
770.4206666666665;-91.51645316180398
771.3493333333332;-92.32963221469998
772.378;-92.7344514727068
773.1966666666667;-91.42832746118815
773.9490000000001;-91.54942495564052
775.3753333333334;-92.75184217154833
776.1386666666666;-93.3628035721492
776.7356666666666;-93.94684064486623
777.6313333333333;-93.08986350758262
779.1796666666665;-92.03676105692556
780.3413333333333;-93.40177591528783
781.735;-92.96531784019223
782.8303333333333;-92.53243092656155
783.4503333333333;-92.66180424932188
784.3576666666667;-93.74632171616308
785.4193333333333;-92.66826257524276
786.337;-93.20483567083329
787.7966666666666;-92.86603534291345
788.5600000000001;-93.61709176323417
789.234;-91.077087466273
789.6543333333333;-91.89381428852136
790.0413333333332;-92.86287328999177
790.9376666666667;-93.04795929525585
791.5790000000001;-93.50696721015402
792.0880000000001;-92.97936729833943
792.5413333333335;-92.57797177004187
793.1943333333334;-92.7288952565766
793.5813333333334;-91.99095000567368
794.1006666666667;-92.84984044684037
794.4433333333333;-92.52294683641256
794.8299999999999;-92.35848525822726
795.2510000000001;-92.76467094706794
796.6893333333334;-93.33512947028845
799.067;-93.2742124963431
800.5596666666667;-93.37635468308375
801.4879999999999;-93.69189212649812
802.373;-92.31332221151953
803.8113333333334;-92.53789211982053
804.9836666666666;-92.84602333521624
805.8246666666668;-93.7733767730935
806.9423333333334;-93.25156733801897
807.9706666666667;-92.26159960769141
809.2416666666667;-91.908067340947
809.9716666666667;-92.20480714232615
811.532;-92.14695779264943
812.3286666666667;-92.44518140300364
812.9926666666667;-92.63988488679115
814.1423333333333;-93.8727456971776
814.8506666666667;-92.76385146028451
815.5476666666667;-93.28851650100796
815.8906666666667;-94.24918258359429
817.4256666666666;-93.49005227457425
818.3760000000001;-93.16911006182663
819.5696666666666;-92.78912854468967
820.1443333333333;-91.68328080079148
821.029;-92.5983372402313
821.715;-92.5588525842238
822.3789999999999;-92.14515997194462
823.043;-92.7494888985243
823.9609999999999;-93.09493415356795
824.5473333333333;-92.43247760166109
825.2446666666666;-92.99120590095391
826.7376666666665;-92.51972475397967
827.4343333333333;-91.83324587327031
828.5633333333334;-92.67625650284909
829.3046666666665;-92.51412891848749
830.677;-93.67335756575223
831.7056666666667;-93.06810914279747
833.2556666666666;-91.39273881611331
834.0966666666667;-92.99603948567612
835.015;-92.62496009632002
835.7343333333333;-92.16472350422883
836.8186666666667;-93.32622150235517
837.4163333333332;-93.17215592723156
840.139;-93.52330474483489
841.1133333333333;-93.95291670495882
842.0210000000001;-92.76477060793464
842.7293333333333;-92.6314949582781
843.5593333333333;-93.17933113030809
844.687;-92.68864083227993
845.096;-92.17465767234168
846.1466666666666;-93.79567807715728
847.4406666666667;-92.73912823651064
849.808;-93.20676738405214
850.9920000000001;-93.66574045683508
851.5893333333333;-93.3554221285373
852.2643333333334;-93.7044915010335
854.0793333333335;-94.3793809755926
855.5076666666668;-93.30154293819392
856.5363333333333;-92.73933929261432
857.0893333333333;-92.66414364438741
857.676;-93.34160120776686
858.948;-93.47844209716426
861.715;-93.62944032607177
862.2460000000001;-93.12863336997331
863.1753333333332;-92.18574187406657
864.0156666666668;-92.52831849868423
865.5766666666667;-92.5022864967773
866.739;-92.61554812897724
867.292;-93.08017334845476
867.7676666666666;-92.94228334008864
868.3536666666668;-93.2331993999303
869.1396666666666;-92.24783254152399
870.1239999999999;-93.21223978295876
873.055;-92.95206227699548
873.9066666666668;-91.65417785906864
874.9333333333333;-93.13704794387509
876.881;-92.519502674946
879.1476666666666;-91.31289613756873
882.1353333333333;-92.4966693837776
883.3629999999999;-92.88614119535356
884.2926666666667;-92.19023936174345
884.8903333333334;-92.1580038755724
885.2993333333334;-92.47036898012716
886.1173333333335;-91.95314037718205
887.744;-91.60762519528205
888.7510000000001;-91.80433713660817
889.4483333333333;-91.26821323217067
891.8603333333334;-91.17611064405429
892.2913333333332;-92.69613418113371
893.1526666666667;-93.81948448591747
894.311;-92.98980170564714
895.4156666666668;-93.84480819762052
897.8046666666665;-92.41785766146397
900.2943333333333;-93.0640268280253
900.8366666666667;-93.55282420870518
901.7333333333332;-92.89654038676102
902.5743333333334;-93.1156415933054
903.759;-92.06310484883119
904.9433333333333;-92.74418454188873
905.8506666666666;-92.9893749334168
907.0796666666666;-93.79258493594796
909.658;-92.91875895128456
910.3876666666666;-93.83303689721636
910.9186666666666;-92.36484521503365
911.7813333333334;-91.45485066559719
913.1210000000001;-91.50015522074065
913.8073333333333;-91.59903477404416
914.6483333333332;-92.15348655992008
915.4780000000001;-92.68475155260842
916.1306666666666;-91.25192443073341
916.784;-92.73524784510546
917.7133333333333;-92.85960228270785
918.776;-93.5631465067558
919.5619999999999;-92.08309171707354
920.9899999999999;-91.97413955301928
921.8863333333333;-92.02503788466592
923.4033333333333;-92.64968360815575
924.5653333333333;-92.56800190984578
925.4943333333334;-93.36479798778112
926.3576666666667;-92.51853420252971
927.4976666666668;-92.4752287485733
928.0843333333332;-92.94261813998443
929.0353333333334;-93.48012700712958
930.628;-94.29524947026086
931.7233333333334;-92.99837180026692
932.6863333333334;-92.62919250445043
933.284;-92.46055942999969
934.0023333333334;-92.91284279617237
935.0646666666667;-93.14798962957042
937.0776666666667;-92.22714185906547
939.1233333333333;-93.18512222803595
939.8196666666666;-93.15717307685765
940.3386666666665;-93.10549684331362
941.102;-93.28130189271891
942.02;-93.50289717504589
942.7393333333333;-92.64695457265816
943.4920000000001;-91.55537437328402
944.0893333333333;-92.56993478025171
944.6206666666667;-93.3161293004849
946.1259999999999;-93.87782726517771
946.7896666666667;-93.02837794861578
948.0740000000001;-92.57450983271102
948.9596666666666;-91.8564831659091
949.8783333333334;-92.21625764041653
951.2393333333333;-94.57083257234908
953.3646666666667;-92.52160434278589
955.1686666666668;-92.21415236692678
956.486;-91.2648708126249
957.2266666666668;-92.76799500835202
958.2116666666667;-91.1766552555116
959.8270000000001;-92.9391862126149
961.7640000000001;-92.04466322194428
964.0659999999999;-92.96960260521519
965.3283333333334;-92.28428532905585
966.0703333333335;-92.24929888848051
966.9773333333333;-92.82403823892491
968.1176666666667;-92.93462212330641
969.6666666666666;-92.42193029204978
972.033;-92.04985334911169
974.277;-92.26339236170504
975.5596666666667;-91.82297635314357
976.8310000000001;-92.61278739478315
977.9253333333332;-93.50287577761696
978.4780000000001;-93.2845778565683
979.264;-91.60808541303965
980.3263333333333;-93.49348252528152
981.6213333333334;-93.54968786712101
982.7496666666667;-93.59394326378681
984.1330000000002;-92.92362464955832
984.6643333333333;-92.46640276523128
985.7153333333332;-91.32424928518967
987.4976666666666;-92.56746058537388
988.1506666666666;-92.09203598720782
989.1370000000001;-94.3369333557504
989.944;-93.40406111526278
990.5523333333334;-91.9744890922924
991.7800000000001;-92.42527696283923
992.8296666666666;-93.44416171048209
993.582;-93.45136576785305
994.7550000000001;-92.45311643159224
995.419;-92.74888112693229
996.7463333333334;-93.81625542884944
997.974;-93.65145858685617
998.4499999999999;-94.31009721234847
999.7763333333334;-92.40544413551683
1000.6273333333334;-92.7667655152955
1001.5213333333332;-93.64444260056503
1002.417;-93.18103657990804
1003.3773333333334;-92.84048325267025
1004.9343333333333;-92.77613902709412
1005.5859999999999;-93.17483814078804
1006.6366666666667;-94.33727589845923
1007.433;-93.00739366316802
1008.0856666666667;-93.50046516088177
1009.735;-92.86057824268745
1010.609;-93.37059514192055
1011.6936666666667;-92.82179334108748
1012.192;-93.50895334595158
1013.1663333333332;-93.23453466261498
1014.0633333333332;-94.7028533481737
1014.8493333333332;-93.60521050158184
1016.4423333333334;-93.56034412838441
1017.6716666666667;-92.41048837399981
1018.0590000000001;-92.0068312746485
1019.4196666666667;-92.42102868508957
1019.7406666666667;-92.89947865135811
1020.7473333333334;-93.41423905900572
1022.43;-92.36790519793863
1023.3486666666666;-93.1588386454022
1024.2006666666666;-93.63735098855865
1025.3633333333335;-92.85128168626866
1026.6143333333334;-92.18007092297566
1027.6106666666667;-93.60766956077086
1028.042333333333;-92.55939653614072
1028.795;-92.89214638920095
1029.4806666666666;-92.92116021623485
1030.8410000000001;-92.07015631711025
1031.6930000000002;-92.69559966544074
1032.512;-92.81304337420444
1032.8770000000002;-92.5687259284397
1034.4926666666668;-93.53981352100814
1035.5000000000002;-92.62587504654181
1036.009;-92.20765517241949
1036.5069999999998;-92.53710601323104
1037.0826666666667;-92.38309520165241
1037.8680000000002;-92.09094994510345
1039.494;-93.35677616636535
1040.1363333333331;-93.78231268144422
1040.9216666666666;-93.13831981813993
1042.848;-92.54036030805405
1044.863;-93.72091837475529
1045.7259999999999;-93.13344851611139
1046.2353333333333;-93.20940714070537
1046.822;-94.27220418567128
1047.586;-92.97574194301023
1048.5040000000001;-91.55896903373588
1050.938;-92.63673741456094
1051.8346666666666;-93.3171557551232
1052.4436666666668;-92.51999962349849
1053.395;-93.5001160485282
1054.0806666666667;-93.87677703199401
1055.1326666666666;-92.61592578035629
1056.018;-92.48568647936047
1056.693;-92.71199297639293
1057.8110000000001;-93.3571511564821
1059.5266666666666;-92.55642455768536
1060.6226666666666;-93.28525222484076
1061.3086666666668;-93.13695601028698
1062.1269999999997;-93.51906513485307
1062.846;-92.95003196950006
1064.561;-92.9842416723323
1066.1213333333333;-91.94051441004703
1067.6490000000001;-93.79882246185608
1068.9663333333335;-92.60137572266827
1070.5253333333333;-92.75301965488183
1072.0956666666666;-92.47021304324194
1073.0686666666668;-93.02468156280271
1074.0203333333332;-94.27925644980924
1075.3803333333333;-94.53292766668015
1076.4973333333335;-94.17121759433427
1077.6480000000001;-92.69384946727342
1079.3856666666668;-92.8271689436649
1079.7839999999999;-92.95261897468717
1080.6253333333334;-93.35093237079704
1081.5553333333335;-93.65865247126219
1082.396;-93.87400643877359
1083.4586666666667;-93.04379447487699
1084.0003333333334;-92.98300263010614
1085.7493333333334;-92.36643166341973
1086.6343333333334;-93.24003684233762
1087.9283333333335;-93.84916591902522
1089.0226666666667;-93.57687829892717
1089.8516666666667;-93.58713288895552
1090.6253333333332;-93.04341705099688
1091.8643333333332;-92.75657691641527
1093.6443333333334;-94.65645629014537
1094.3856666666668;-94.11915566988593
1095.1046666666668;-94.07154495239291
1095.8349999999998;-94.33489051126685
1096.532;-93.98128799565869
1097.8373333333334;-93.51890094770717
1098.6229999999998;-93.38452016316316
1100.482;-93.24819793296108
1101.9093333333333;-91.74109983161826
1102.7066666666667;-92.16294210045095
1104.256;-91.77918286669474
1105.728;-93.05924062424187
1109.1353333333334;-92.22379148112556
1110.8623333333333;-94.53688728964855
1111.7036666666665;-93.97764839964672
1113.1866666666667;-93.375839407716
1114.747;-92.91443128463989
1116.1623333333334;-93.39074116782449
1116.6163333333334;-94.33023266833588
1117.2466666666667;-93.93123221907818
1117.9776666666667;-93.44558269683603
1118.6076666666668;-92.98856789003518
1119.3153333333332;-91.98823747003286
1121.5733333333335;-93.55015674063283
1124.0636666666667;-93.4686521728581
1126.0890000000002;-94.10915370699078
1126.7533333333333;-93.06048080744031
1128.0936666666666;-93.19029604194766
1128.8903333333335;-93.30102459782441
1129.8093333333334;-93.1402345510136
1131.4806666666666;-92.57710355479806
1132.2886666666666;-94.1129548743105
1133.0856666666666;-92.83656377595972
1134.2586666666666;-92.94158878632057
1135.6850000000002;-93.42602453960185
1137.6973333333333;-92.89460984713955
1138.2726666666667;-93.34683038188001
1139.346;-91.85299130144818
1140.463;-92.0054329680535
1141.4143333333334;-91.59019899809257
1142.7643333333333;-93.12228075510521
1143.9043333333332;-92.17920490940064
1144.8553333333332;-92.58917211012377
1145.9063333333334;-93.55496341274835
1146.6809999999998;-91.88971410915839
1147.0573333333334;-93.08858991240788
1147.6656666666665;-93.58426870651464
1149.1593333333333;-93.90780231005229
1150.5753333333332;-93.36481763481353
1151.7816666666668;-92.94550811071568
1152.301666666667;-93.836427170496
1154.216333333333;-94.01253330270633
1155.9653333333333;-94.53383759149821
1157.8916666666667;-93.79870691744928
1160.5243333333335;-94.80224093449081
1161.2653333333333;-92.76846475675607
1162.0723333333333;-93.1981374987773
1162.99;-93.99631545674106
1163.5213333333334;-93.5037595475644
1164.206;-93.54715482823983
1165.7306666666666;-92.66953458160356
1167.5873333333334;-92.39070610934526
1168.229;-92.49327843235311
1168.5606666666665;-92.10940337193215
1170.0649999999998;-92.84154387110036
1170.4736666666668;-92.19738171315458
1170.9716666666666;-93.14466489046727
1171.834;-93.24971152442139
1173.0396666666668;-92.05435284648544
1173.5259999999998;-92.53676390199854
1174.046;-93.45315298576608
1174.4546666666668;-93.48071253255316
1175.3283333333334;-94.55798694374658
1176.357;-93.59095926488763
1176.9433333333334;-93.39190674234955
1178.4806666666666;-94.44527128658044
1179.1329999999998;-93.91918417050337
1180.006666666667;-93.13885174604151
1182.7373333333333;-93.10687527469923
1185.2363333333333;-93.07186865953655
1185.6566666666668;-92.05271738099356
1206.7456666666667;-93.194604130611
1248.3386666666668;-91.53438728603744
1249.0910000000001;-91.96593810292804
1250.3516666666667;-91.02356970574257
1251.5336666666667;-92.21352592636156
1252.6499999999999;-93.36068764217202
1253.9666666666665;-94.94242577729487
1254.774333333333;-93.22611473138704
1256.2343333333336;-94.92000118066117
1257.1746666666668;-92.92692835733901
1259.6636666666666;-94.2292592687068
1261.5316666666668;-95.4732389823939
1262.206;-95.33979532520958
1262.803;-95.01375523393082
1264.527;-94.12859317809537
1265.4446666666665;-93.95416028170003
1266.4733333333334;-95.36150449325898
1268.1436666666666;-94.93469606544369
1270.3006666666668;-95.45362792235689
1271.8386666666668;-93.78323011042737
1273.4756666666665;-94.97175086434895
1275.644;-93.12978474831198
1276.4619999999998;-93.0914780605357
1277.9663333333335;-95.16709452560542
1279.2596666666666;-94.07655526344138
1280.8076666666666;-95.53180798505133
1283.075;-97.6526074623952
1284.6896666666669;-95.27797582169552
1285.652;-95.10515157685029
1287.2556666666667;-95.24629569661332
1288.5276666666666;-94.13919601694246
1289.313;-93.34417133391197
1291.415;-94.84489003077992
1293.262;-93.39395165138767
1294.5563333333334;-94.78053552699696
1296.3043333333333;-93.66161464984104
1299.0476666666666;-93.22801151931873
1303.439;-92.9526784194343
1306.1596666666667;-94.37018033280465
1307.7186666666666;-93.87995675756753
1309.753;-93.61040409450635
1311.345;-93.43409542933064
1311.7316666666668;-93.74411129970738
1312.6713333333335;-95.89309294368199
1314.6176666666668;-94.77433649341366
1316.2986666666666;-95.06056630498155
1317.7143333333333;-94.51598454935214
1318.456;-95.06282278407205
1321.5746666666666;-94.42457538054373
1323.1009999999999;-94.4928400608896
1323.7643333333333;-93.73013046844856
1325.069;-93.80026654285061
1327.0040000000001;-94.82563883163117
1327.6009999999999;-94.44873642503505
1328.906;-93.40428728601856
1330.3103333333333;-93.87413815842338
1332.4769999999999;-94.26778568752212
1334.4536666666665;-94.05185864788396
1335.5913333333335;-95.52158162917411
1336.4756666666667;-93.73310650206965
1337.0503333333334;-94.87948396651518
1338.422;-94.23169533572087
1339.517;-93.74821426641446
1340.722;-92.73783296167662
1342.2593333333332;-95.50788665058847
1343.9733333333334;-93.26572949908171
1344.4376666666667;-93.90742880603986
1347.0033333333333;-91.76081372753757
1347.7773333333332;-92.64372299280772
1348.5626666666667;-93.28092142212353
1351.052;-92.99000488905742
1351.8813333333335;-94.08280693356558
1354.1036666666666;-93.94243484030427
1355.0106666666668;-94.03880373157607
1355.8073333333334;-94.87607500128621
1356.9573333333333;-94.0230999703256
1358.4286666666667;-93.14291564357946
1359.977;-93.50746127191853
1361.9896666666666;-93.76978826655076
1363.5046666666667;-93.81861000550012
1363.9913333333334;-92.43231378814696
1365.4956666666667;-93.69836784789436
1366.2700000000002;-93.20531671325017
1367.4193333333333;-93.03977179963567
1369.344;-93.10316269451558
1370.6386666666667;-93.66090089195995
1371.3583333333333;-94.23346306630091
1373.1386666666667;-95.21230276671523
1374.4773333333333;-93.24211788317008
1375.3513333333333;-93.0800911567541
1376.7446666666667;-93.98007410926317
1378.3476666666666;-93.42788803895357
1380.1836666666668;-93.4518303988149
1381.92;-93.21432722887333
1383.9426666666666;-94.14242616494967
1385.3029999999999;-93.79291612264792
1386.077;-94.94151477318945
1386.9836666666667;-95.43231234013057
1387.9129999999998;-94.83443681368958
1388.6760000000002;-94.11015567189821
1390.0146666666667;-92.4963587327807
1392.4583333333333;-93.78628727276659
1393.5863333333334;-93.38253217674496
1394.5266666666666;-94.17563150582939
1396.0420000000001;-93.14166032239073
1397.214;-91.78807379331988
1399.1499999999999;-93.20814691307558
1400.3663333333334;-94.40791087004509
1401.3280000000002;-93.80778104532719
1402.4113333333332;-93.43177089265892
1403.6276666666665;-93.26414291295374
1404.2583333333332;-92.87829209866447
1405.1313333333335;-92.41374197874536
1406.0490000000002;-93.87202392518833
1406.8673333333334;-93.3223320598897
1407.442;-93.37783157117504
1408.869;-94.14489160212841
1409.4000000000003;-93.29061257946672
1412.3769999999997;-94.27409699766332
1414.3583333333333;-94.65931620902467
1414.9776666666667;-93.9725040850638
1417.3443333333335;-95.00830799176859
1418.8819999999998;-94.90421898734186
1419.8656666666666;-95.32763247873683
1420.9163333333336;-94.97842662659228
1421.5686666666668;-95.3694412220895
1422.564;-95.11777371918441
1424.079;-94.71685235880402
1425.8486666666668;-94.92226918657678
1426.988;-93.06130007508327
1428.2376666666667;-94.01991571541184
1429.1556666666665;-93.56535688934275
1430.5146666666667;-93.26869013670972
1433.202;-93.31099770651784
1434.662333333333;-94.5169929905997
1436.2330000000002;-93.88278762267552
1436.5756666666666;-93.47049397814612
1437.0069999999998;-93.50679112305869
1437.7146666666667;-94.1129542970082
1439.6506666666667;-93.52594395915646
1440.6119999999999;-93.7213789671597
1441.3856666666668;-92.62932011659817
1441.905;-93.03564984981877
1443.3100000000002;-93.29723699584231
1445.0906666666667;-93.7872361838866
1446.925;-93.7878496853122
1448.4183333333333;-93.60520250018064
1449.38;-95.15445527254433
1450.9163333333333;-93.02276129649752
1452.055333333333;-94.04488737263806
1452.597;-93.55522466124728
1454.8516666666667;-94.27390474882753
1456.5873333333336;-93.5236725546848
1459.231;-94.50549542578523
1460.2703333333332;-92.85164380421121
1460.822666666667;-93.00948930850412
1461.707;-94.15039162859607
1462.5916666666665;-92.89771269330427
1463.8296666666668;-94.51054935763523
1465.9196666666667;-94.14786207581565
1468.0753333333332;-92.73554448748249
1469.457;-92.82862456886572
1470.1313333333335;-93.65634565389446
1470.607;-94.40783932382745
1471.3029999999999;-94.3590556444407
1472.5856666666668;-92.90312637093292
1474.1566666666665;-94.90849806393518
1475.9153333333331;-94.3951491873807
1478.2043333333331;-95.26153923513965
1479.9296666666667;-94.77744381544643
1481.7763333333332;-93.22857182330277
1483.3586666666667;-92.78198812462668
1484.3643333333337;-93.5311783847614
1485.183;-93.44696934358018
1486.1779999999999;-94.24008216757125
1487.892;-93.48946010040973
1490.8563333333332;-92.52852178572056
1492.437;-91.93566359396219
1493.51;-94.20360380804236
1497.0603333333336;-93.26522705884477
1498.2879999999998;-93.994248207704
1498.9066666666665;-94.68025913963639
1500.9080000000001;-94.27570477708863
1501.2616666666665;-93.91559110538623
1503.031;-95.20614605291983
1504.3583333333333;-94.78457053390558
1506.691;-95.20844719831908
1507.6863333333333;-94.08074523771306
1508.4373333333333;-94.84905190728168
1509.6539999999998;-93.58034276816613
1511.1023333333333;-93.36440305518255
1512.3073333333334;-93.37088090095305
1513.9993333333334;-92.67790396671455
1515.0833333333333;-93.60074970678758
1516.698333333333;-93.52573268085474
1518.6329999999998;-92.76524462349633
1519.1966666666667;-92.63716249274762
1520.988;-93.19688724884348
1522.4036666666668;-93.87142584703093
1523.0339999999999;-92.76479123680848
1524.8586666666667;-92.78082839815112
1526.54;-92.31773712571893
1527.3913333333333;-93.96236889142585
1528.1323333333332;-93.26276810649676
1529.436333333333;-93.47980527503753
1529.7896666666666;-93.27553177083169
1531.9903333333334;-92.59352791557967
1532.8416666666665;-93.39720107765334
1533.826;-92.66747604224273
1534.8100000000002;-93.63951038795275
1535.8826666666666;-93.60802454066388
1536.9773333333333;-94.42143840970552
1537.95;-92.68029849425255
1538.6903333333332;-94.86477011778224
1540.3819999999998;-92.88960288440127
1542.0626666666667;-93.26393549521438
1543.4563333333335;-92.12571420494062
1545.8680000000002;-92.64054548978801
1548.522;-93.08784763834961
1549.086;-91.47202981911988
1549.4733333333334;-93.27687940398451
1553.1970000000001;-93.33649534068601
1553.5833333333333;-91.53529485423155
