0:00:00;-92;150
0:00:00.298000;-88;150
0:00:01.029000;-90;150
0:00:01.129000;-88;150
0:00:01.560000;-90;150
0:00:01.992000;-91;150
0:00:03.785000;-89;150
0:00:04.814000;-94;150
0:00:05.047000;-95;150
0:00:05.146000;-91;150
0:00:05.251000;-96;150
0:00:05.345000;-94;150
0:00:05.677000;-95;150
0:00:05.976000;-92;150
0:00:06.308000;-91;150
0:00:06.407000;-90;150
0:00:06.640000;-89;150
0:00:06.938000;-94;150
0:00:07.171000;-97;150
0:00:07.370000;-95;150
0:00:07.503000;-92;150
0:00:07.868000;-94;150
0:00:08.599000;-90;150
0:00:09.330000;-92;150
0:00:09.529000;-91;150
0:00:10.293000;-94;150
0:00:10.492000;-94;150
0:00:10.592000;-89;150
0:00:10.824000;-91;150
0:00:11.024000;-90;150
0:00:11.256000;-96;150
0:00:11.788000;-89;150
0:00:12.486000;-93;150
0:00:12.918000;-91;150
0:00:13.250000;-89;150
0:00:13.649000;-91;150
0:00:14.678000;-91;150
0:00:15.442000;-91;150
0:00:15.742000;-92;150
0:00:15.941000;-89;150
0:00:16.173000;-90;150
0:00:16.372000;-89;150
0:00:16.804000;-94;150
0:00:17.003000;-87;150
0:00:17.202000;-89;150
0:00:17.401000;-84;150
0:00:17.833000;-88;150
0:00:18.032000;-93;150
0:00:18.232000;-94;150
0:00:18.563000;-91;150
0:00:19.095000;-96;150
0:00:19.626000;-91;150
0:00:20.656000;-94;150
0:00:20.991000;-91;150
0:00:21.188000;-90;150
0:00:21.586000;-90;150
0:00:22.018000;-91;150
0:00:22.117000;-95;150
0:00:22.217000;-92;150
0:00:22.449000;-89;150
0:00:22.748000;-95;150
0:00:23.279000;-91;150
0:00:24.010000;-91;150
0:00:24.242000;-91;150
0:00:24.442000;-92;150
0:00:24.641000;-91;150
0:00:25.073000;-91;150
0:00:25.937000;-92;150
0:00:26.036000;-88;150
0:00:26.635000;-92;150
0:00:26.767000;-95;150
0:00:26.867000;-89;150
0:00:27.066000;-97;150
0:00:27.265000;-91;150
0:00:27.464000;-95;150
0:00:27.597000;-96;150
0:00:27.697000;-93;150
0:00:27.996000;-92;150
0:00:28.627000;-90;150
0:00:28.859000;-92;150
0:00:29.158000;-91;150
0:00:29.357000;-94;150
0:00:29.457000;-95;150
0:00:29.556000;-90;150
0:00:30.187000;-93;150
0:00:30.918000;-92;150
0:00:31.117000;-94;150
0:00:31.250000;-87;150
0:00:31.748000;-91;150
0:00:31.947000;-89;150
0:00:33.010000;-88;150
0:00:33.209000;-89;150
0:00:33.442000;-87;150
0:00:33.641000;-92;150
0:00:33.973000;-90;150
0:00:34.172000;-95;150
0:00:34.305000;-88;150
0:00:34.438000;-91;150
0:00:34.604000;-90;150
0:00:34.703000;-91;150
0:00:35.102000;-89;150
0:00:35.334000;-93;150
0:00:35.434000;-94;150
0:00:36.463000;-90;150
0:00:37.525000;-91;150
0:00:38.156000;-93;150
0:00:38.788000;-91;150
0:00:39.087000;-87;150
0:00:39.319000;-89;150
0:00:39.718000;-94;150
0:00:40.249000;-95;150
0:00:40.582000;-97;150
0:00:41.112000;-93;150
0:00:42.673000;-93;150
0:00:43.936000;-91;150
0:00:44.666000;-93;150
0:00:44.932000;-92;150
0:00:44.998000;-88;150
0:00:45.297000;-95;150
0:00:45.397000;-88;150
0:00:45.596000;-88;150
0:00:46.128000;-92;150
0:00:46.327000;-93;150
0:00:46.493000;-91;150
0:00:46.891000;-91;150
0:00:47.090000;-91;150
0:00:47.920000;-93;150
0:00:48.452000;-94;150
0:00:48.983000;-92;150
0:00:49.713000;-93;150
0:00:50.975000;-92;150
0:00:52.004000;-93;150
0:00:52.435000;-91;150
0:00:53.897000;-92;150
0:00:54.329000;-92;150
0:00:55.392000;-93;150
0:00:56.189000;-95;150
0:00:57.252000;-95;150
0:00:57.351000;-94;150
0:00:57.550000;-87;150
0:00:57.749000;-90;150
0:00:57.982000;-89;150
0:00:58.413000;-89;150
0:00:59.642000;-93;150
0:01:00.272000;-93;150
0:01:00.904000;-90;150
0:01:01.004000;-93;150
0:01:02.266000;-92;150
0:01:02.997000;-94;150
0:01:03.661000;-90;150
0:01:04.093000;-89;150
0:01:04.192000;-91;150
0:01:04.292000;-90;150
0:01:05.887000;-93;150
0:01:06.053000;-87;150
0:01:06.285000;-89;150
0:01:06.684000;-96;150
0:01:07.249000;-92;150
0:01:07.448000;-89;150
0:01:07.780000;-92;150
0:01:07.979000;-92;150
0:01:08.378000;-90;150
0:01:09.009000;-91;150
0:01:09.773000;-90;150
0:01:10.204000;-93;150
0:01:11.433000;-95;150
0:01:11.566000;-92;150
0:01:12.197000;-93;150
0:01:13.426000;-93;150
0:01:18.276000;-94;150
0:01:18.508000;-90;150
0:01:19.671000;-94;150
0:01:20.402000;-91;150
0:01:20.602000;-92;150
0:01:23.027000;-90;150
0:01:23.259000;-92;150
0:01:23.458000;-91;150
0:01:23.857000;-91;150
0:01:24.422000;-95;150
0:01:24.621000;-93;150
0:01:26.282000;-93;150
0:01:26.515000;-95;150
0:01:27.976000;-91;150
0:01:29.039000;-92;150
0:01:29.239000;-94;150
0:01:29.771000;-98;150
0:01:30.402000;-93;150
0:01:30.834000;-93;150
0:01:31.365000;-92;150
0:01:31.963000;-91;150
0:01:32.495000;-91;150
0:01:32.694000;-92;150
0:01:33.027000;-93;150
0:01:34.056000;-93;150
0:01:34.189000;-92;150
0:01:34.388000;-90;150
0:01:35.318000;-91;150
0:01:36.680000;-92;150
0:01:37.112000;-92;150
0:01:38.275000;-92;150
0:01:39.105000;-92;150
0:01:39.637000;-93;150
0:01:40.667000;-92;150
0:01:41.198000;-93;150
0:01:41.297000;-91;150
0:01:41.496000;-93;150
0:01:41.729000;-92;150
0:01:43.389000;-93;150
0:01:43.588000;-93;150
0:01:44.318000;-90;150
0:01:44.518000;-92;150
0:01:44.750000;-91;150
0:01:45.680000;-92;150
0:01:46.643000;-92;150
0:01:51.592000;-92;150
0:01:53.086000;-94;150
0:01:53.285000;-93;150
0:01:53.518000;-91;150
0:01:53.917000;-93;150
0:01:55.478000;-92;150
0:01:55.711000;-92;150
0:01:57.073000;-92;150
0:01:58.036000;-94;150
0:01:58.235000;-93;150
0:02:00.029000;-92;150
0:02:00.228000;-94;150
0:02:01.324000;-91;150
0:02:01.490000;-97;150
0:02:01.889000;-94;150
0:02:02.088000;-93;150
0:02:02.420000;-93;150
0:02:02.619000;-92;150
0:02:02.951000;-95;150
0:02:05.143000;-94;150
0:02:05.375000;-92;150
0:02:06.206000;-92;150
0:02:07.469000;-92;150
0:02:08.199000;-92;150
0:02:08.431000;-94;150
0:02:09.030000;-93;150
0:02:09.694000;-93;150
0:02:10.392000;-93;150
0:02:13.781000;-92;150
0:02:14.212000;-92;150
0:02:14.412000;-95;150
0:02:14.843000;-96;150
0:02:15.341000;-94;150
0:02:15.872000;-92;150
0:02:17.035000;-93;150
0:02:17.267000;-92;150
0:02:17.466000;-94;150
0:02:17.998000;-91;150
0:02:19.692000;-93;150
0:02:19.791000;-95;150
0:02:21.154000;-92;150
0:02:22.216000;-92;150
0:02:23.777000;-93;150
0:02:24.010000;-93;150
0:02:24.641000;-94;150
0:02:24.740000;-91;150
0:02:25.970000;-93;150
0:02:26.202000;-94;150
0:02:26.700000;-93;150
0:02:27.763000;-93;150
0:02:28.162000;-92;150
0:02:29.125000;-94;150
0:02:29.623000;-94;150
0:02:29.855000;-93;150
0:02:31.019000;-92;150
0:02:31.649000;-93;150
0:02:32.580000;-94;150
0:02:33.211000;-94;150
0:02:33.743000;-94;150
0:02:34.606000;-92;150
0:02:35.138000;-96;150
0:02:35.337000;-92;150
0:02:36.068000;-91;150
0:02:36.599000;-94;150
0:02:38.459000;-94;150
0:02:38.991000;-93;150
0:02:39.223000;-91;150
0:02:39.954000;-95;150
0:02:40.984000;-94;150
0:02:41.748000;-93;150
0:02:42.446000;-92;150
0:02:42.678000;-93;150
0:02:43.276000;-95;150
0:02:43.608000;-94;150
0:02:43.808000;-94;150
0:02:44.871000;-93;150
0:02:45.170000;-92;150
0:02:45.269000;-92;150
0:02:45.502000;-92;150
0:02:46.365000;-93;150
0:02:47.295000;-96;150
0:02:47.760000;-95;150
0:02:47.926000;-96;150
0:02:49.487000;-92;150
0:02:49.587000;-93;150
0:02:51.048000;-93;150
0:02:51.580000;-95;150
0:02:51.912000;-95;150
0:02:55.135000;-94;150
0:02:55.367000;-96;150
0:02:55.566000;-94;150
0:02:56.397000;-94;150
0:02:56.629000;-94;150
0:02:56.828000;-94;150
0:02:57.858000;-92;150
0:02:58.389000;-94;150
0:02:58.588000;-94;150
0:02:59.120000;-90;150
0:02:59.220000;-92;150
0:02:59.983000;-92;150
0:03:01.346000;-92;150
0:03:01.545000;-92;150
0:03:02.077000;-94;150
0:03:02.409000;-95;150
0:03:02.741000;-92;150
0:03:02.907000;-94;150
0:03:04.501000;-93;150
0:03:04.999000;-92;150
0:03:05.332000;-91;150
0:03:06.262000;-93;150
0:03:06.693000;-94;150
0:03:06.892000;-91;150
0:03:07.856000;-95;150
0:03:08.055000;-94;150
0:03:09.648000;-93;150
0:03:10.180000;-93;150
0:03:10.379000;-91;150
0:03:11.110000;-91;150
0:03:11.642000;-91;150
0:03:12.272000;-90;150
0:03:12.472000;-91;150
0:03:13.236000;-92;150
0:03:13.834000;-92;150
0:03:14.033000;-93;150
0:03:14.665000;-94;150
0:03:15.096000;-92;150
0:03:15.296000;-91;150
0:03:15.927000;-91;150
0:03:16.126000;-91;150
0:03:16.358000;-94;150
0:03:16.557000;-91;150
0:03:17.321000;-92;150
0:03:17.952000;-96;150
0:03:18.351000;-93;150
0:03:18.551000;-93;150
0:03:18.982000;-95;150
0:03:20.112000;-92;150
0:03:20.345000;-89;150
0:03:20.544000;-92;150
0:03:20.876000;-88;150
0:03:21.308000;-86;150
0:03:21.607000;-96;150
0:03:22.571000;-86;150
0:03:22.670000;-95;150
0:03:23.501000;-91;150
0:03:23.899000;-90;150
0:03:24.431000;-94;150
0:03:24.630000;-94;150
0:03:24.830000;-92;150
0:03:25.062000;-93;150
0:03:25.660000;-90;150
0:03:25.793000;-97;150
0:03:25.893000;-91;150
0:03:26.092000;-92;150
0:03:26.291000;-89;150
0:03:29.546000;-94;150
0:03:29.779000;-89;150
0:03:30.808000;-87;150
0:03:31.340000;-85;150
0:03:31.539000;-96;150
0:03:32.070000;-89;150
0:03:32.568000;-91;150
0:03:32.800000;-89;150
0:03:33.199000;-87;150
0:03:33.398000;-87;150
0:03:33.531000;-89;150
0:03:33.730000;-89;150
0:03:33.929000;-98;150
0:03:34.561000;-89;150
0:03:34.860000;-94;150
0:03:35.192000;-92;150
0:03:36.652000;-90;150
0:03:37.215000;-92;150
0:03:39.801000;-91;150
0:03:40;-88;150
0:03:42.092000;-91;150
0:03:42.291000;-93;150
0:03:42.723000;-92;150
0:03:44.414000;-95;150
0:03:44.812000;-93;150
0:03:45.044000;-93;150
0:03:45.772000;-95;150
0:03:46.203000;-96;150
0:03:46.402000;-95;150
0:03:46.601000;-94;150
0:03:47.164000;-92;150
0:03:47.364000;-93;150
0:03:48.723000;-94;150
0:03:49.484000;-95;150
0:03:50.081000;-94;150
0:03:50.313000;-94;150
0:03:50.743000;-95;150
0:03:50.941000;-95;150
0:03:51.140000;-95;150
0:03:51.571000;-94;150
0:03:52.001000;-96;150
0:03:52.201000;-94;150
0:03:52.400000;-96;150
0:03:52.632000;-95;150
0:03:52.831000;-93;150
0:03:53.030000;-95;150
0:03:53.759000;-93;150
0:03:54.389000;-97;150
0:03:54.588000;-96;150
0:03:55.516000;-92;150
0:03:55.747000;-94;150
0:03:56.378000;-94;150
0:03:56.577000;-94;150
0:03:57.074000;-95;150
0:03:57.504000;-92;150
0:03:58.763000;-93;150
0:03:59.393000;-92;150
0:04:01.383000;-93;150
0:04:01.582000;-93;150
0:04:02.013000;-95;150
0:04:02.212000;-93;150
0:04:02.411000;-93;150
0:04:02.677000;-94;150
0:04:04.633000;-91;150
0:04:04.831000;-93;150
0:04:05.030000;-91;150
0:04:05.859000;-93;150
0:04:07.184000;-92;150
0:04:07.350000;-92;150
0:04:08.609000;-93;150
0:04:08.808000;-94;150
0:04:09.040000;-93;150
0:04:10.798000;-94;150
0:04:10.997000;-95;150
0:04:11.561000;-94;150
0:04:11.760000;-94;150
0:04:11.959000;-94;150
0:04:13.119000;-92;150
0:04:14.776000;-91;150
0:04:15.406000;-95;150
0:04:15.937000;-94;150
0:04:16.766000;-92;150
0:04:17.198000;-93;150
0:04:18.324000;-91;150
0:04:18.523000;-93;150
0:04:18.755000;-92;150
0:04:19.285000;-91;150
0:04:19.783000;-93;150
0:04:20.347000;-94;150
0:04:21.707000;-92;150
0:04:21.939000;-94;150
0:04:22.172000;-94;150
0:04:22.338000;-92;150
0:04:23.069000;-92;150
0:04:24.461000;-93;150
0:04:24.859000;-96;150
0:04:25.390000;-93;150
0:04:26.053000;-93;150
0:04:26.252000;-95;150
0:04:26.451000;-94;150
0:04:26.882000;-93;150
0:04:27.081000;-94;150
0:04:27.280000;-93;150
0:04:28.009000;-94;150
0:04:28.208000;-95;150
0:04:28.441000;-95;150
0:04:28.640000;-93;150
0:04:29.702000;-92;150
0:04:29.901000;-90;150
0:04:30.133000;-92;150
0:04:30.332000;-93;150
0:04:30.763000;-94;150
0:04:31.160000;-93;150
0:04:32.221000;-92;150
0:04:33.150000;-91;150
0:04:34.211000;-93;150
0:04:34.409000;-92;150
0:04:34.609000;-93;150
0:04:35.470000;-92;150
0:04:36.499000;-94;150
0:04:37.128000;-93;150
0:04:37.559000;-94;150
0:04:37.858000;-96;150
0:04:38.090000;-95;150
0:04:38.654000;-92;150
0:04:39.019000;-89;150
0:04:39.450000;-88;150
0:04:39.649000;-95;150
0:04:41.108000;-92;150
0:04:41.341000;-89;150
0:04:42.170000;-94;150
0:04:42.369000;-91;150
0:04:42.900000;-90;150
0:04:44.260000;-92;150
0:04:45.221000;-90;150
0:04:45.420000;-90;150
0:04:45.619000;-91;150
0:04:46.051000;-89;150
0:04:46.250000;-91;150
0:04:47.178000;-91;150
0:04:47.411000;-92;150
0:04:48.538000;-90;150
0:04:48.970000;-91;150
0:04:49.467000;-89;150
0:04:49.666000;-90;150
0:04:49.898000;-91;150
0:04:50.727000;-91;150
0:04:51.258000;-90;150
0:04:51.490000;-91;150
0:04:52.021000;-92;150
0:04:52.651000;-91;150
0:04:52.850000;-93;150
0:04:53.281000;-92;150
0:04:53.779000;-90;150
0:04:54.011000;-90;150
0:04:54.210000;-91;150
0:04:54.409000;-89;150
0:04:54.641000;-92;150
0:04:55.570000;-91;150
0:04:56.101000;-90;150
0:04:56.300000;-92;150
0:04:56.532000;-90;150
0:04:56.731000;-89;150
0:04:56.930000;-88;150
0:04:57.030000;-92;150
0:04:57.693000;-87;150
0:04:57.892000;-94;150
0:04:58.125000;-91;150
0:04:58.423000;-89;150
0:04:58.822000;-93;150
0:04:59.784000;-92;150
0:04:59.983000;-94;150
0:05:00.514000;-92;150
0:05:00.713000;-92;150
0:05:00.945000;-88;150
0:05:01.144000;-90;150
0:05:01.343000;-89;150
0:05:01.542000;-92;150
0:05:04.363000;-91;150
0:05:04.595000;-91;150
0:05:04.993000;-93;150
0:05:05.225000;-91;150
0:05:05.425000;-92;150
0:05:05.624000;-92;150
0:05:06.154000;-92;150
0:05:06.354000;-92;150
0:05:06.553000;-92;150
0:05:06.785000;-92;150
0:05:06.984000;-90;150
0:05:07.183000;-90;150
0:05:07.514000;-91;150
0:05:08.775000;-91;150
0:05:09.703000;-92;150
0:05:10.268000;-93;150
0:05:10.765000;-91;150
0:05:10.964000;-93;150
0:05:11.196000;-91;150
0:05:11.594000;-94;150
0:05:12.025000;-93;150
0:05:12.224000;-95;150
0:05:12.457000;-92;150
0:05:12.656000;-92;150
0:05:12.755000;-94;150
0:05:12.855000;-90;150
0:05:13.087000;-88;150
0:05:13.186000;-92;150
0:05:13.585000;-94;150
0:05:14.845000;-89;150
0:05:15.476000;-88;150
0:05:15.907000;-91;150
0:05:16.106000;-90;150
0:05:16.305000;-90;150
0:05:16.537000;-89;150
0:05:16.736000;-91;150
0:05:16.935000;-91;150
0:05:17.167000;-92;150
0:05:18.129000;-88;150
0:05:18.527000;-89;150
0:05:18.759000;-89;150
0:05:19.456000;-92;150
0:05:19.887000;-90;150
0:05:20.086000;-91;150
0:05:20.517000;-91;150
0:05:20.715000;-90;150
0:05:21.908000;-92;150
0:05:22.008000;-96;150
0:05:22.306000;-90;150
0:05:22.539000;-90;150
0:05:22.936000;-90;150
0:05:23.367000;-89;150
0:05:24.628000;-91;150
0:05:25.092000;-89;150
0:05:25.755000;-88;150
0:05:27.579000;-90;150
0:05:27.977000;-89;150
0:05:28.906000;-90;150
0:05:29.669000;-89;150
0:05:29.868000;-90;150
0:05:30.100000;-89;150
0:05:30.300000;-91;150
0:05:30.731000;-89;150
0:05:31.261000;-90;150
0:05:32.388000;-90;150
0:05:32.620000;-90;150
0:05:34.079000;-90;150
0:05:34.278000;-89;150
0:05:35.240000;-91;150
0:05:35.439000;-93;150
0:05:35.671000;-90;150
0:05:36.103000;-90;150
0:05:36.799000;-91;150
0:05:37.429000;-91;150
0:05:38.059000;-91;150
0:05:39.334000;-90;150
0:05:39.765000;-90;150
0:05:40.296000;-90;150
0:05:41.025000;-90;150
0:05:42.385000;-89;150
0:05:42.817000;-91;150
0:05:43.745000;-90;150
0:05:43.944000;-91;150
0:05:44.674000;-89;150
0:05:45.702000;-90;150
0:05:45.934000;-89;150
0:05:47.592000;-89;150
0:05:47.825000;-90;150
0:05:48.355000;-89;150
0:05:48.554000;-88;150
0:05:49.947000;-91;150
0:05:50.379000;-90;150
0:05:50.776000;-91;150
0:05:51.639000;-90;150
0:05:52.700000;-88;150
0:05:52.899000;-89;150
0:05:53.098000;-90;150
0:05:53.529000;-94;150
0:05:54.259000;-92;150
0:05:54.790000;-86;150
0:05:55.022000;-86;150
0:05:55.420000;-87;150
0:05:55.619000;-87;150
0:05:55.818000;-85;150
0:05:55.917000;-92;150
0:05:56.050000;-84;150
0:05:56.249000;-84;150
0:05:56.448000;-85;150
0:05:56.680000;-93;150
0:05:56.879000;-87;150
0:05:57.211000;-88;150
0:05:57.741000;-94;150
0:05:58.138000;-92;150
0:05:58.337000;-93;150
0:05:58.569000;-89;150
0:05:58.767000;-92;150
0:05:59.198000;-90;150
0:05:59.397000;-91;150
0:05:59.596000;-85;150
0:05:59.827000;-89;150
0:06:00.358000;-87;150
0:06:00.656000;-93;150
0:06:03.605000;-90;150
0:06:04.333000;-90;150
0:06:05.295000;-90;150
0:06:05.726000;-91;150
0:06:06.355000;-89;150
0:06:06.554000;-89;150
0:06:08.773000;-91;150
0:06:09.535000;-88;150
0:06:09.734000;-90;150
0:06:10.363000;-90;150
0:06:10.595000;-90;150
0:06:11.522000;-90;150
0:06:12.483000;-90;150
0:06:12.682000;-90;150
0:06:12.914000;-89;150
0:06:13.544000;-88;150
0:06:14.174000;-90;150
0:06:14.373000;-89;150
0:06:15.003000;-88;150
0:06:15.533000;-89;150
0:06:15.731000;-91;150
0:06:15.997000;-89;150
0:06:16.163000;-90;150
0:06:16.362000;-90;150
0:06:17.423000;-90;150
0:06:17.854000;-89;150
0:06:18.052000;-89;150
0:06:18.284000;-90;150
0:06:21.102000;-88;150
0:06:21.301000;-89;150
0:06:21.931000;-89;150
0:06:22.893000;-90;150
0:06:23.291000;-91;150
0:06:23.523000;-90;150
0:06:23.722000;-90;150
0:06:23.921000;-89;150
0:06:24.153000;-89;150
0:06:24.352000;-90;150
0:06:24.983000;-90;150
0:06:25.182000;-89;150
0:06:25.415000;-90;150
0:06:25.614000;-90;150
0:06:26.774000;-88;150
0:06:27.006000;-92;150
0:06:27.205000;-90;150
0:06:27.404000;-90;150
0:06:28.134000;-90;150
0:06:28.897000;-90;150
0:06:29.096000;-91;150
0:06:29.295000;-91;150
0:06:29.726000;-90;150
0:06:32.346000;-89;150
0:06:32.545000;-91;150
0:06:32.777000;-89;150
0:06:32.976000;-90;150
0:06:33.804000;-91;150
0:06:34.235000;-89;150
0:06:34.434000;-90;150
0:06:34.866000;-90;150
0:06:35.265000;-87;150
0:06:37.289000;-90;150
0:06:37.488000;-91;150
0:06:37.820000;-90;150
0:06:38.052000;-90;150
0:06:38.484000;-89;150
0:06:38.684000;-91;150
0:06:39.614000;-94;150
0:06:40.776000;-90;150
0:06:44.960000;-91;150
0:06:46.456000;-93;150
0:06:46.655000;-91;150
0:06:47.286000;-93;150
0:06:48.615000;-90;150
0:06:48.847000;-91;150
0:06:49.047000;-90;150
0:06:49.246000;-89;150
0:06:49.478000;-89;150
0:06:49.677000;-90;150
0:06:50.208000;-89;150
0:06:50.640000;-90;150
0:06:50.839000;-88;150
0:06:51.569000;-90;150
0:06:51.768000;-88;150
0:06:52;-91;150
0:06:52.200000;-89;150
0:06:52.399000;-94;150
0:06:52.631000;-90;150
0:06:52.830000;-91;150
0:06:53.029000;-90;150
0:06:53.262000;-87;150
0:06:53.461000;-89;150
0:06:53.693000;-89;150
0:06:53.892000;-93;150
0:06:54.091000;-88;150
0:06:54.323000;-89;150
0:06:55.054000;-87;150
0:06:59.138000;-92;150
0:06:59.637000;-90;150
0:06:59.836000;-95;150
0:07:00.068000;-88;150
0:07:00.467000;-97;150
0:07:01.098000;-88;150
0:07:01.430000;-94;150
0:07:01.961000;-86;150
0:07:02.061000;-86;150
0:07:02.160000;-92;150
0:07:02.924000;-92;150
0:07:03.123000;-93;150
0:07:03.554000;-91;150
0:07:04.185000;-87;150
0:07:04.684000;-90;150
0:07:04.916000;-85;150
0:07:05.514000;-91;150
0:07:05.847000;-94;150
0:07:05.946000;-87;150
0:07:06.146000;-93;150
0:07:06.677000;-88;150
0:07:06.942000;-88;150
0:07:07.108000;-85;150
0:07:07.208000;-91;150
0:07:07.640000;-94;150
0:07:07.939000;-88;150
0:07:08.803000;-87;150
0:07:09.002000;-87;150
0:07:09.201000;-87;150
0:07:09.434000;-86;150
0:07:09.633000;-91;150
0:07:09.832000;-92;150
0:07:10.064000;-92;150
0:07:10.263000;-88;150
0:07:11.326000;-87;150
0:07:11.525000;-92;150
0:07:12.921000;-89;150
0:07:13.220000;-91;150
0:07:13.950000;-87;150
0:07:14.780000;-88;150
0:07:15.411000;-89;150
0:07:15.611000;-92;150
0:07:16.042000;-91;150
0:07:16.275000;-91;150
0:07:17.835000;-91;150
0:07:18.234000;-92;150
0:07:18.466000;-93;150
0:07:18.666000;-87;150
0:07:18.932000;-88;150
0:07:19.064000;-87;150
0:07:19.297000;-88;150
0:07:19.795000;-90;150
0:07:20.027000;-85;150
0:07:20.558000;-86;150
0:07:22.020000;-90;150
0:07:24.312000;-90;150
0:07:24.544000;-90;150
0:07:24.743000;-89;150
0:07:25.175000;-90;150
0:07:25.374000;-90;150
0:07:25.606000;-90;150
0:07:25.805000;-90;150
0:07:26.004000;-92;150
0:07:26.236000;-89;150
0:07:26.436000;-88;150
0:07:26.967000;-93;150
0:07:27.067000;-88;150
0:07:27.797000;-89;150
0:07:28.030000;-88;150
0:07:28.229000;-87;150
0:07:28.428000;-89;150
0:07:28.528000;-91;150
0:07:28.760000;-87;150
0:07:28.860000;-85;150
0:07:29.725000;-89;150
0:07:30.023000;-91;150
0:07:30.256000;-93;150
0:07:30.355000;-97;150
0:07:30.455000;-89;150
0:07:30.654000;-86;150
0:07:30.987000;-91;150
0:07:31.086000;-88;150
0:07:31.186000;-91;150
0:07:31.916000;-89;150
0:07:32.148000;-92;150
0:07:32.414000;-92;150
0:07:32.547000;-86;150
0:07:33.078000;-87;150
0:07:33.178000;-96;150
0:07:33.311000;-87;150
0:07:33.809000;-94;150
0:07:34.406000;-95;150
0:07:34.638000;-89;150
0:07:34.838000;-93;150
0:07:34.937000;-89;150
0:07:35.402000;-90;150
0:07:35.568000;-88;150
0:07:35.800000;-91;150
0:07:35.999000;-90;150
0:07:37.060000;-93;150
0:07:37.690000;-91;150
0:07:38.419000;-92;150
0:07:43.695000;-91;150
0:07:47.973000;-92;150
0:07:48.172000;-90;150
0:07:51.951000;-92;150
0:07:52.182000;-93;150
0:07:52.382000;-90;150
0:07:56.597000;-92;150
0:07:58.389000;-92;150
0:07:59.119000;-90;150
0:08:01.308000;-91;150
0:08:01.541000;-89;150
0:08:04.063000;-91;150
0:08:06.154000;-93;150
0:08:09.506000;-89;150
0:08:11.198000;-92;150
0:08:13.719000;-89;150
0:08:13.918000;-91;150
0:08:14.117000;-92;150
0:08:14.350000;-89;150
0:08:16.540000;-89;150
0:08:23.473000;-90;150
0:08:24.735000;-91;150
0:08:24.934000;-91;150
0:08:26.924000;-91;150
0:08:27.454000;-90;150
0:08:32.693000;-89;150
0:08:32.892000;-92;150
0:08:33.123000;-90;150
0:08:34.151000;-90;150
0:08:35.081000;-92;150
0:08:35.512000;-89;150
0:08:38.531000;-91;150
0:08:39.460000;-91;150
0:08:39.659000;-89;150
0:08:39.858000;-92;150
0:08:40.289000;-90;150
0:08:42.281000;-89;150
0:08:44.771000;-90;150
0:08:49.746000;-89;150
0:08:52.036000;-90;150
0:08:52.268000;-91;150
0:08:55.618000;-90;150
0:08:57.013000;-90;150
0:08:57.212000;-90;150
0:09:00.164000;-89;150
0:09:00.363000;-91;150
0:09:00.562000;-89;150
0:09:00.794000;-90;150
0:09:07.398000;-90;150
0:09:07.630000;-92;150
0:09:08.460000;-91;150
0:09:08.659000;-92;150
0:09:08.891000;-91;150
0:09:09.090000;-90;150
0:09:13.671000;-90;150
0:09:13.871000;-89;150
0:09:15.996000;-91;150
0:09:16.727000;-90;150
0:09:17.357000;-91;150
0:09:17.557000;-90;150
0:09:18.055000;-90;150
0:09:18.686000;-91;150
0:09:19.217000;-89;150
0:09:19.649000;-92;150
0:09:20.081000;-90;150
0:09:20.280000;-90;150
0:09:20.579000;-90;150
0:09:21.110000;-93;150
0:09:21.342000;-91;150
0:09:21.542000;-91;150
0:09:21.774000;-91;150
0:09:21.973000;-92;150
0:09:23.003000;-90;150
0:09:23.268000;-89;150
0:09:23.434000;-90;150
0:09:23.833000;-91;150
0:09:24.065000;-91;150
0:09:24.264000;-91;150
0:09:25.194000;-89;150
0:09:25.393000;-89;150
0:09:25.626000;-91;150
0:09:25.825000;-92;150
0:09:26.986000;-91;150
0:09:27.185000;-92;150
0:09:28.015000;-89;150
0:09:29.177000;-91;150
0:09:29.410000;-89;150
0:09:30.671000;-92;150
0:09:31.933000;-93;150
0:09:32.332000;-89;150
0:09:32.764000;-90;150
0:09:34.989000;-93;150
0:09:35.720000;-91;150
0:09:36.152000;-91;150
0:09:37.314000;-89;150
0:09:37.413000;-90;150
0:09:37.513000;-92;150
0:09:38.377000;-89;150
0:09:38.576000;-85;150
0:09:39.008000;-92;150
0:09:39.108000;-90;150
0:09:39.340000;-92;150
0:09:39.639000;-92;150
0:09:39.838000;-94;150
0:09:40.137000;-95;150
0:09:40.768000;-92;150
0:09:40.967000;-91;150
0:09:41.232000;-90;150
0:09:41.398000;-91;150
0:09:41.598000;-91;150
0:09:41.930000;-98;150
0:09:42.228000;-91;150
0:09:42.959000;-91;150
0:09:43.158000;-90;150
0:09:43.390000;-89;150
0:09:43.589000;-91;150
0:09:43.789000;-92;150
0:09:44.021000;-93;150
0:09:44.220000;-90;150
0:09:44.419000;-91;150
0:09:44.652000;-91;150
0:09:45.183000;-93;150
0:09:45.382000;-90;150
0:09:46.545000;-92;150
0:09:46.843000;-90;150
0:09:47.076000;-90;150
0:09:47.607000;-89;150
0:09:47.806000;-91;150
0:09:48.038000;-89;150
0:09:48.238000;-91;150
0:09:48.670000;-90;150
0:09:49.301000;-90;150
0:09:49.799000;-90;150
0:09:49.998000;-89;150
0:09:50.231000;-90;150
0:09:50.430000;-90;150
0:09:51.991000;-91;150
0:09:52.623000;-89;150
0:09:52.822000;-91;150
0:09:53.021000;-90;150
0:09:54.084000;-88;150
0:09:54.715000;-90;150
0:09:55.347000;-89;150
0:09:55.546000;-90;150
0:09:55.778000;-90;150
0:09:58.204000;-92;150
0:09:59.167000;-91;150
0:09:59.366000;-88;150
0:09:59.898000;-92;150
0:10:00.097000;-91;150
0:10:00.495000;-92;150
0:10:00.728000;-92;150
0:10:01.226000;-92;150
0:10:01.425000;-92;150
0:10:01.658000;-91;150
0:10:05.313000;-93;150
0:10:05.612000;-94;150
0:10:05.712000;-87;150
0:10:05.944000;-91;150
0:10:06.044000;-94;150
0:10:06.143000;-88;150
0:10:08.965000;-89;150
0:10:09.197000;-90;150
0:10:09.595000;-91;150
0:10:12.252000;-90;150
0:10:12.451000;-90;150
0:10:12.716000;-91;150
0:10:12.882000;-90;150
0:10:13.082000;-93;150
0:10:13.612000;-92;150
0:10:13.811000;-89;150
0:10:14.044000;-89;150
0:10:14.873000;-92;150
0:10:16.034000;-91;150
0:10:16.233000;-93;150
0:10:17.295000;-91;150
0:10:18.223000;-91;150
0:10:18.422000;-91;150
0:10:18.621000;-91;150
0:10:20.414000;-90;150
0:10:20.812000;-92;150
0:10:21.243000;-90;150
0:10:21.442000;-91;150
0:10:21.708000;-90;150
0:10:21.874000;-90;150
0:10:23.035000;-91;150
0:10:23.897000;-91;150
0:10:25.156000;-95;150
0:10:25.354000;-93;150
0:10:26.480000;-93;150
0:10:27.410000;-94;150
0:10:27.841000;-94;150
0:10:28.173000;-93;150
0:10:29.432000;-92;150
0:10:29.631000;-92;150
0:10:29.863000;-94;150
0:10:30.062000;-94;150
0:10:30.494000;-94;150
0:10:30.693000;-93;150
0:10:31.754000;-94;150
0:10:32.186000;-93;150
0:10:32.683000;-92;150
0:10:32.915000;-92;150
0:10:34.276000;-91;150
0:10:34.508000;-92;150
0:10:34.708000;-95;150
0:10:35.172000;-92;150
0:10:35.470000;-90;150
0:10:35.967000;-92;150
0:10:36.730000;-93;150
0:10:37.062000;-92;150
0:10:37.261000;-91;150
0:10:37.891000;-92;150
0:10:38.719000;-92;150
0:10:38.951000;-89;150
0:10:39.282000;-91;150
0:10:39.481000;-91;150
0:10:40.243000;-91;150
0:10:40.641000;-92;150
0:10:40.873000;-90;150
0:10:41.072000;-92;150
0:10:41.271000;-95;150
0:10:42.134000;-92;150
0:10:43.162000;-92;150
0:10:43.394000;-92;150
0:10:43.593000;-91;150
0:10:45.783000;-92;150
0:10:49.265000;-91;150
0:10:49.464000;-91;150
0:10:49.696000;-90;150
0:10:50.094000;-91;150
0:10:50.326000;-92;150
0:10:50.724000;-92;150
0:10:50.958000;-90;150
0:10:51.157000;-92;150
0:10:51.356000;-92;150
0:10:51.588000;-92;150
0:10:52.715000;-92;150
0:10:53.444000;-91;150
0:10:53.676000;-93;150
0:10:53.875000;-90;150
0:10:55.434000;-92;150
0:10:55.633000;-91;150
0:10:55.865000;-92;150
0:10:56.362000;-91;150
0:10:56.594000;-92;150
0:10:56.793000;-91;150
0:10:56.992000;-91;150
0:10:57.522000;-91;150
0:10:57.754000;-92;150
0:10:57.953000;-93;150
0:10:58.185000;-90;150
0:10:58.384000;-89;150
0:10:58.583000;-91;150
0:10:59.444000;-91;150
0:11:00.173000;-92;150
0:11:00.405000;-90;150
0:11:00.605000;-90;150
0:11:00.936000;-90;150
0:11:02.295000;-92;150
0:11:02.494000;-91;150
0:11:03.224000;-93;150
0:11:03.855000;-93;150
0:11:04.054000;-91;150
0:11:05.115000;-91;150
0:11:05.314000;-91;150
0:11:05.646000;-89;150
0:11:06.376000;-91;150
0:11:07.405000;-91;150
0:11:07.638000;-92;150
0:11:08.566000;-90;150
0:11:09.195000;-92;150
0:11:09.427000;-91;150
0:11:09.859000;-91;150
0:11:10.058000;-92;150
0:11:10.256000;-90;150
0:11:10.455000;-91;150
0:11:11.417000;-92;150
0:11:11.816000;-91;150
0:11:12.147000;-91;150
0:11:12.346000;-91;150
0:11:15.199000;-92;150
0:11:16.228000;-90;150
0:11:17.058000;-90;150
0:11:17.291000;-90;150
0:11:17.490000;-92;150
0:11:18.948000;-91;150
0:11:21.039000;-90;150
0:11:21.238000;-89;150
0:11:21.437000;-91;150
0:11:21.669000;-90;150
0:11:22.576000;-90;150
0:11:22.809000;-93;150
0:11:23.638000;-90;150
0:11:24.401000;-89;150
0:11:24.633000;-92;150
0:11:25.662000;-92;150
0:11:26.060000;-93;150
0:11:27.555000;-92;150
0:11:28.186000;-91;150
0:11:28.684000;-94;150
0:11:28.817000;-93;150
0:11:30.411000;-93;150
0:11:32.204000;-92;150
0:11:32.702000;-91;150
0:11:33.332000;-91;150
0:11:34.162000;-90;150
0:11:34.792000;-92;150
0:11:35.025000;-91;150
0:11:35.224000;-91;150
0:11:35.655000;-93;150
0:11:35.855000;-94;150
0:11:36.054000;-91;150
0:11:37.116000;-92;150
0:11:37.315000;-90;150
0:11:39.973000;-92;150
0:11:40.172000;-89;150
0:11:40.505000;-91;150
0:11:41.634000;-92;150
0:11:41.866000;-91;150
0:11:50.895000;-92;150
0:11:52.290000;-91;150
0:11:52.489000;-92;150
0:11:52.722000;-92;150
0:11:56.174000;-91;150
0:11:56.904000;-91;150
0:11:57.136000;-92;150
0:11:57.667000;-91;150
0:11:57.866000;-92;150
0:11:58.298000;-91;150
0:11:58.929000;-91;150
0:11:59.128000;-91;150
0:11:59.460000;-91;150
0:12:01.023000;-93;150
0:12:01.454000;-92;150
0:12:01.853000;-90;150
0:12:03.113000;-91;150
0:12:03.743000;-90;150
0:12:04.274000;-91;150
0:12:04.474000;-94;150
0:12:05.302000;-91;150
0:12:06.162000;-92;150
0:12:06.361000;-93;150
0:12:09.078000;-91;150
0:12:10.571000;-92;150
0:12:12.129000;-93;150
0:12:12.328000;-92;150
0:12:12.959000;-91;150
0:12:13.390000;-92;150
0:12:13.589000;-92;150
0:12:13.788000;-93;150
0:12:15.048000;-90;150
0:12:15.280000;-92;150
0:12:15.479000;-92;150
0:12:15.910000;-91;150
0:12:16.110000;-92;150
0:12:16.541000;-90;150
0:12:17.470000;-92;150
0:12:18.100000;-93;150
0:12:19.361000;-94;150
0:12:19.560000;-92;150
0:12:20.290000;-92;150
0:12:20.788000;-91;150
0:12:22.048000;-91;150
0:12:22.479000;-92;150
0:12:22.678000;-90;150
0:12:23.309000;-91;150
0:12:23.739000;-91;150
0:12:23.938000;-92;150
0:12:24.137000;-91;150
0:12:24.469000;-91;150
0:12:25.397000;-93;150
0:12:25.630000;-91;150
0:12:25.828000;-91;150
0:12:26.061000;-91;150
0:12:26.260000;-92;150
0:12:26.458000;-91;150
0:12:26.691000;-91;150
0:12:27.221000;-93;150
0:12:28.150000;-92;150
0:12:28.581000;-92;150
0:12:28.780000;-90;150
0:12:28.979000;-93;150
0:12:29.278000;-91;150
0:12:29.809000;-90;150
0:12:31.500000;-91;150
0:12:31.699000;-90;150
0:12:32.264000;-91;150
0:12:32.662000;-90;150
0:12:32.894000;-92;150
0:12:33.093000;-91;150
0:12:33.924000;-91;150
0:12:35.185000;-90;150
0:12:35.484000;-93;150
0:12:36.015000;-91;150
0:12:36.247000;-90;150
0:12:36.878000;-90;150
0:12:37.077000;-91;150
0:12:37.276000;-91;150
0:12:37.508000;-90;150
0:12:38.671000;-93;150
0:12:38.870000;-90;150
0:12:40.132000;-92;150
0:12:40.530000;-92;150
0:12:40.729000;-92;150
0:12:40.962000;-91;150
0:12:42.555000;-90;150
0:12:43.352000;-92;150
0:12:43.883000;-89;150
0:12:44.314000;-91;150
0:12:45.375000;-93;150
0:12:46.304000;-91;150
0:12:46.536000;-91;150
0:12:47.034000;-90;150
0:12:47.266000;-89;150
0:12:47.465000;-91;150
0:12:47.863000;-92;150
0:12:48.725000;-93;150
0:12:48.925000;-91;150
0:12:49.555000;-91;150
0:12:49.787000;-93;150
0:12:50.052000;-93;150
0:12:50.185000;-92;150
0:12:50.716000;-93;150
0:12:51.347000;-91;150
0:12:52.077000;-91;150
0:12:52.276000;-91;150
0:12:52.807000;-92;150
0:12:53.205000;-90;150
0:12:53.437000;-91;150
0:12:55.330000;-90;150
0:12:55.762000;-93;150
0:12:56.392000;-95;150
0:12:56.591000;-96;150
0:12:57.419000;-98;150
0:12:57.585000;-93;150
0:12:57.652000;-94;150
0:12:57.851000;-94;150
0:12:58.050000;-90;150
0:12:59.112000;-91;150
0:12:59.643000;-91;150
0:12:59.842000;-91;150
0:13:00.274000;-91;150
0:13:00.904000;-92;150
0:13:01.103000;-92;150
0:13:01.833000;-92;150
0:13:02.663000;-91;150
0:13:02.895000;-91;150
0:13:03.094000;-91;150
0:13:03.293000;-92;150
0:13:03.724000;-93;150
0:13:03.923000;-92;150
0:13:04.156000;-94;150
0:13:08.669000;-92;150
0:13:08.868000;-93;150
0:13:09.101000;-92;150
0:13:10.461000;-91;150
0:13:10.660000;-92;150
0:13:11.059000;-90;150
0:13:11.290000;-93;150
0:13:11.489000;-91;150
0:13:11.688000;-94;150
0:13:12.119000;-92;150
0:13:12.318000;-91;150
0:13:12.551000;-94;150
0:13:13.381000;-93;150
0:13:14.011000;-90;150
0:13:14.443000;-92;150
0:13:14.642000;-92;150
0:13:14.841000;-92;150
0:13:15.073000;-91;150
0:13:15.272000;-91;150
0:13:15.504000;-91;150
0:13:15.704000;-92;150
0:13:15.903000;-92;150
0:13:16.235000;-92;150
0:13:17.596000;-92;150
0:13:17.828000;-91;150
0:13:18.990000;-92;150
0:13:20.151000;-92;150
0:13:21.413000;-93;150
0:13:22.774000;-89;150
0:13:25.198000;-91;150
0:13:26.128000;-90;150
0:13:26.327000;-91;150
0:13:30.346000;-91;150
0:13:30.545000;-91;150
0:13:30.744000;-91;150
0:13:31.938000;-89;150
0:13:32.137000;-94;150
0:13:32.336000;-93;150
0:13:33.067000;-91;150
0:13:33.797000;-94;150
0:13:34.030000;-91;150
0:13:34.229000;-90;150
0:13:34.660000;-91;150
0:13:35.390000;-91;150
0:13:35.921000;-92;150
0:13:36.220000;-91;150
0:13:36.553000;-95;150
0:13:36.752000;-93;150
0:13:37.383000;-91;150
0:13:37.582000;-93;150
0:13:40.970000;-92;150
0:13:41.601000;-92;150
0:13:42.032000;-94;150
0:13:42.232000;-93;150
0:13:42.663000;-91;150
0:13:44.025000;-91;150
0:13:44.257000;-92;150
0:13:44.456000;-91;150
0:13:44.689000;-93;150
0:13:44.888000;-92;150
0:13:45.088000;-91;150
0:13:45.718000;-91;150
0:13:45.917000;-92;150
0:13:46.150000;-91;150
0:13:48.241000;-92;150
0:13:48.473000;-91;150
0:13:48.672000;-93;150
0:13:49.403000;-92;150
0:13:49.834000;-97;150
0:13:50.166000;-91;150
0:13:51.826000;-91;150
0:13:52.690000;-93;150
0:13:52.888000;-93;150
0:13:53.087000;-91;150
0:13:55.973000;-93;150
0:13:56.702000;-96;150
0:13:57.001000;-94;150
0:13:58.063000;-92;150
0:13:59.191000;-90;150
0:13:59.688000;-91;150
0:13:59.921000;-91;150
0:14:02.843000;-91;150
0:14:04.734000;-92;150
0:14:05.696000;-93;150
0:14:06.128000;-90;150
0:14:06.559000;-91;150
0:14:06.957000;-91;150
0:14:07.820000;-94;150
0:14:09.048000;-94;150
0:14:09.280000;-92;150
0:14:11.901000;-91;150
0:14:12.300000;-92;150
0:14:12.732000;-91;150
0:14:12.933000;-93;150
0:14:16.087000;-89;150
0:14:17.347000;-93;150
0:14:17.679000;-92;150
0:14:17.878000;-91;150
0:14:18.077000;-94;150
0:14:23.546000;-93;150
0:14:23.646000;-98;150
0:14:29.981000;-90;150
0:14:30.180000;-90;150
0:14:30.513000;-91;150
0:14:35.261000;-89;150
0:14:35.460000;-89;150
0:14:35.659000;-87;150
0:14:35.891000;-88;150
0:14:43.796000;-89;150
0:14:44.859000;-90;150
0:14:50.006000;-91;150
0:14:50.238000;-92;150
0:14:50.637000;-93;150
0:14:50.869000;-92;150
0:14:51.501000;-93;150
0:14:52.231000;-91;150
0:14:52.430000;-93;150
0:14:54.621000;-91;150
0:14:55.019000;-94;150
0:14:55.218000;-93;150
0:14:55.450000;-91;150
0:14:56.213000;-91;150
0:14:56.445000;-91;150
0:14:56.645000;-96;150
0:14:58.670000;-91;150
0:14:58.902000;-92;150
0:14:59.399000;-94;150
0:14:59.830000;-93;150
0:15:00.261000;-95;150
0:15:00.892000;-92;150
0:15:01.323000;-91;150
0:15:01.522000;-91;150
0:15:01.754000;-93;150
0:15:02.086000;-92;150
0:15:02.948000;-92;150
0:15:03.147000;-93;150
0:15:03.911000;-92;150
0:15:04.111000;-90;150
0:15:04.641000;-91;150
0:15:04.972000;-92;150
0:15:05.404000;-91;150
0:15:06.896000;-92;150
0:15:07.128000;-93;150
0:15:07.327000;-92;150
0:15:07.725000;-92;150
0:15:07.990000;-90;150
0:15:08.421000;-93;150
0:15:08.620000;-91;150
0:15:08.819000;-91;150
0:15:09.250000;-91;150
0:15:09.980000;-92;150
0:15:10.212000;-91;150
0:15:10.411000;-91;150
0:15:10.875000;-91;150
0:15:11.075000;-92;150
0:15:11.274000;-92;150
0:15:12.036000;-92;150
0:15:12.235000;-91;150
0:15:12.368000;-92;150
0:15:14.060000;-91;150
0:15:15.121000;-90;150
0:15:18.573000;-92;150
0:15:18.871000;-92;150
0:15:20.165000;-92;150
0:15:28.188000;-89;150
0:15:28.587000;-91;150
0:15:29.348000;-90;150
0:15:29.779000;-92;150
0:15:29.978000;-90;150
0:15:30.641000;-91;150
0:15:31.670000;-90;150
0:15:32.565000;-94;150
0:15:32.764000;-91;150
0:15:33.196000;-92;150
0:15:33.527000;-97;150
0:15:35.118000;-91;150
0:15:36.345000;-91;150
0:15:36.643000;-90;150
0:15:36.842000;-90;150
0:15:37.041000;-92;150
0:15:37.273000;-92;150
0:15:37.472000;-92;150
0:15:37.671000;-92;150
0:15:37.871000;-91;150
0:15:38.003000;-93;150
0:15:38.567000;-92;150
0:15:42.614000;-91;150
0:15:43.012000;-91;150
0:15:43.344000;-92;150
0:15:44.537000;-90;150
0:15:44.736000;-92;150
0:15:48.686000;-91;150
0:15:48.917000;-90;150
0:15:49.613000;-91;150
0:15:50.111000;-92;150
0:15:50.310000;-92;150
0:15:50.741000;-91;150
0:15:51.272000;-90;150
0:15:52.433000;-93;150
0:15:52.633000;-91;150
0:15:52.765000;-92;150
0:15:54.790000;-93;150
0:15:55.753000;-90;150
0:15:55.985000;-93;150
0:15:57.379000;-91;150
0:15:58.208000;-91;150
0:15:59.799000;-91;150
0:15:59.998000;-91;150
0:16:00.230000;-92;150
0:16:00.561000;-91;150
0:16:00.793000;-91;150
0:16:00.992000;-89;150
0:16:01.424000;-92;150
0:16:02.083000;-90;150
0:16:03.249000;-92;150
0:16:03.647000;-93;150
0:16:03.979000;-93;150
0:16:04.178000;-92;150
0:16:04.377000;-91;150
0:16:05.271000;-91;150
0:16:05.901000;-90;150
0:16:06.133000;-94;150
0:16:07.957000;-90;150
0:16:08.155000;-92;150
0:16:08.387000;-93;150
0:16:08.587000;-90;150
0:16:08.785000;-92;150
0:16:09.018000;-94;150
0:16:09.216000;-91;150
0:16:09.382000;-91;150
0:16:10.079000;-91;150
0:16:10.278000;-92;150
0:16:11.871000;-91;150
0:16:12.103000;-91;150
0:16:12.535000;-91;150
0:16:12.767000;-91;150
0:16:15.091000;-93;150
0:16:15.224000;-92;150
0:16:15.423000;-91;150
0:16:17.778000;-94;150
0:16:17.976000;-90;150
0:16:18.208000;-92;150
0:16:18.639000;-91;150
0:16:18.838000;-93;150
0:16:20.628000;-91;150
0:16:20.860000;-93;150
0:16:21.059000;-94;150
0:16:21.623000;-91;150
0:16:21.855000;-92;150
0:16:22.253000;-90;150
0:16:22.685000;-92;150
0:16:22.850000;-90;150
0:16:23.016000;-93;150
0:16:23.846000;-94;150
0:16:24.410000;-95;150
0:16:24.543000;-89;150
0:16:24.742000;-90;150
0:16:24.941000;-93;150
0:16:25.140000;-90;150
0:16:25.372000;-92;150
0:16:26.302000;-90;150
0:16:26.633000;-90;150
0:16:26.832000;-90;150
0:16:28.159000;-91;150
0:16:28.889000;-92;150
0:16:29.088000;-91;150
0:16:29.320000;-92;150
0:16:29.519000;-90;150
0:16:29.718000;-90;150
0:16:30.182000;-90;150
0:16:30.381000;-90;150
0:16:30.613000;-90;150
0:16:30.812000;-90;150
0:16:31.012000;-91;150
0:16:31.343000;-91;150
0:16:31.542000;-92;150
0:16:31.675000;-90;150
0:16:31.907000;-92;150
0:16:32.305000;-91;150
0:16:32.538000;-90;150
0:16:32.737000;-93;150
0:16:35.192000;-92;150
0:16:37.117000;-94;150
0:16:37.780000;-89;150
0:16:38.410000;-92;150
0:16:38.742000;-91;150
0:16:38.940000;-92;150
0:16:39.272000;-91;150
0:16:39.603000;-93;150
0:16:39.802000;-93;150
0:16:40.432000;-90;150
0:16:40.764000;-92;150
0:16:40.996000;-89;150
0:16:41.195000;-93;150
0:16:41.394000;-92;150
0:16:41.627000;-90;150
0:16:41.826000;-92;150
0:16:42.025000;-91;150
0:16:42.390000;-91;150
0:16:42.589000;-93;150
0:16:42.788000;-92;150
0:16:42.987000;-91;150
0:16:43.220000;-90;150
0:16:43.419000;-93;150
0:16:43.651000;-92;150
0:16:43.883000;-94;150
0:16:44.714000;-93;150
0:16:45.112000;-92;150
0:16:45.211000;-92;150
0:16:46.207000;-93;150
0:16:46.406000;-92;150
0:16:48.995000;-91;150
0:16:49.197000;-93;150
0:16:49.429000;-92;150
0:16:49.761000;-92;150
0:16:50.591000;-91;150
0:16:50.790000;-93;150
0:16:51.255000;-90;150
0:16:53.245000;-90;150
0:16:53.377000;-94;150
0:16:53.543000;-93;150
0:16:53.775000;-91;150
0:16:55.168000;-88;150
0:16:55.401000;-91;150
0:16:56.164000;-93;150
0:16:56.363000;-91;150
0:16:56.695000;-91;150
0:16:56.927000;-91;150
0:16:57.126000;-89;150
0:16:57.358000;-93;150
0:16:57.557000;-93;150
0:16:59.050000;-90;150
0:16:59.481000;-93;150
0:17:01.173000;-90;150
0:17:01.372000;-91;150
0:17:01.604000;-92;150
0:17:02.267000;-91;150
0:17:10.030000;-91;150
0:17:13.580000;-91;150
0:17:13.845000;-93;150
0:17:14.011000;-93;150
0:17:15.505000;-92;150
0:17:15.737000;-94;150
0:17:15.936000;-91;150
0:17:16.136000;-90;150
0:17:17.330000;-95;150
0:17:17.529000;-89;150
0:17:18.193000;-90;150
0:17:18.392000;-89;150
0:17:18.591000;-90;150
0:17:19.354000;-92;150
0:17:20.183000;-91;150
0:17:20.946000;-92;150
0:17:21.079000;-97;150
0:17:22.671000;-95;150
0:17:22.804000;-91;150
0:17:23.202000;-89;150
0:17:23.600000;-91;150
0:17:23.700000;-95;150
0:17:23.899000;-89;150
0:17:24.065000;-90;150
0:17:24.264000;-89;150
0:17:24.695000;-88;150
0:17:25.325000;-90;150
0:17:25.524000;-90;150
0:17:25.989000;-89;150
0:17:27.051000;-90;150
0:17:27.383000;-89;150
0:17:28.080000;-89;150
0:17:28.511000;-89;150
0:17:30.172000;-91;150
0:17:30.902000;-89;150
0:17:31.201000;-92;150
0:17:31.300000;-95;150
0:17:31.965000;-89;150
0:17:32.164000;-92;150
0:17:32.396000;-95;150
0:17:32.695000;-91;150
0:17:32.994000;-90;150
0:17:34.420000;-90;150
0:17:34.951000;-91;150
0:17:35.183000;-96;150
0:17:35.382000;-89;150
0:17:35.813000;-91;150
0:17:36.046000;-88;150
0:17:36.245000;-90;150
0:17:37.505000;-90;150
0:17:37.605000;-92;150
0:17:38.501000;-93;150
0:17:38.799000;-90;150
0:17:41.387000;-93;150
0:17:41.586000;-92;150
0:17:43.611000;-94;150
0:17:44.474000;-92;150
0:17:44.872000;-92;150
0:17:45.137000;-94;150
0:17:45.536000;-91;150
0:17:45.768000;-95;150
0:17:45.967000;-91;150
0:17:47.029000;-92;150
0:17:47.261000;-93;150
0:17:47.692000;-90;150
0:17:48.754000;-95;150
0:17:49.716000;-90;150
0:17:50.446000;-89;150
0:17:51.010000;-92;150
0:17:54.326000;-91;150
0:17:54.525000;-92;150
0:17:54.724000;-93;150
0:17:54.923000;-94;150
0:17:56.980000;-91;150
0:17:57.046000;-98;150
0:17:57.146000;-90;150
0:17:57.345000;-93;150
0:17:58.041000;-92;150
0:17:58.273000;-92;150
0:17:59.202000;-89;150
0:17:59.401000;-90;150
0:17:59.634000;-90;150
0:17:59.833000;-91;150
0:18:00.198000;-90;150
0:18:00.829000;-90;150
0:18:01.692000;-94;150
0:18:02.986000;-92;150
0:18:03.384000;-91;150
0:18:03.616000;-95;150
0:18:04.014000;-92;150
0:18:04.246000;-91;150
0:18:04.478000;-92;150
0:18:04.677000;-91;150
0:18:04.909000;-94;150
0:18:05.108000;-91;150
0:18:10.247000;-91;150
0:18:10.579000;-93;150
0:18:10.977000;-92;150
0:18:11.408000;-94;150
0:18:11.839000;-93;150
0:18:14.824000;-93;150
0:18:16.451000;-92;150
0:18:17.181000;-93;150
0:18:17.579000;-93;150
0:18:17.811000;-90;150
0:18:17.944000;-93;150
0:18:18.475000;-92;150
0:18:18.906000;-91;150
0:18:19.670000;-90;150
0:18:20.797000;-93;150
0:18:21.893000;-94;150
0:18:22.291000;-94;150
0:18:22.557000;-94;150
0:18:23.187000;-98;150
0:18:24.050000;-93;150
0:18:24.249000;-93;150
0:18:25.542000;-93;150
0:18:26.571000;-92;150
0:18:27.865000;-92;150
0:18:28.097000;-93;150
0:18:28.628000;-91;150
0:18:29.059000;-91;150
0:18:29.258000;-93;150
0:18:29.689000;-93;150
0:18:29.888000;-94;150
0:18:30.120000;-91;150
0:18:32.044000;-91;150
0:18:32.243000;-93;150
0:18:33.138000;-91;150
0:18:33.337000;-94;150
0:18:33.536000;-93;150
0:18:35.261000;-92;150
0:18:35.461000;-90;150
0:18:35.693000;-91;150
0:18:35.892000;-93;150
0:18:36.323000;-94;150
0:18:36.754000;-94;150
0:18:37.285000;-91;150
0:18:37.517000;-91;150
0:18:37.716000;-92;150
0:18:38.479000;-92;150
0:18:39.441000;-93;150
0:18:40.039000;-91;150
0:18:51.518000;-92;150
0:18:51.949000;-91;150
0:18:52.148000;-90;150
0:18:52.347000;-91;150
0:18:52.480000;-92;150
0:18:53.011000;-93;150
0:18:53.641000;-94;150
0:18:54.172000;-91;150
0:18:54.404000;-92;150
0:18:55.035000;-93;150
0:18:55.333000;-94;150
0:18:55.698000;-92;150
0:18:57.822000;-91;150
0:18:58.585000;-92;150
0:19:01.339000;-91;150
0:19:04.358000;-91;150
0:20:29.342000;-92;150
0:20:29.541000;-92;150
0:20:29.674000;-94;150
0:20:29.873000;-94;150
0:20:30.304000;-91;150
0:20:31.167000;-93;150
0:20:32.428000;-92;150
0:20:33.091000;-96;150
0:20:33.720000;-91;150
0:20:34.152000;-92;150
0:20:34.252000;-92;150
0:20:34.981000;-93;150
0:20:35.413000;-91;150
0:20:35.778000;-91;150
0:20:35.977000;-91;150
0:20:36.376000;-91;150
0:20:36.608000;-93;150
0:20:36.807000;-94;150
0:20:37.006000;-93;150
0:20:37.271000;-90;150
0:20:37.670000;-92;150
0:20:37.902000;-91;150
0:20:38.101000;-93;150
0:20:38.300000;-91;150
0:20:38.532000;-92;150
0:20:38.764000;-90;150
0:20:39.262000;-91;150
0:20:40.257000;-93;150
0:20:40.489000;-94;150
0:20:41.850000;-95;150
0:20:42.612000;-91;150
0:20:43.011000;-89;150
0:20:43.342000;-93;150
0:20:43.774000;-92;150
0:20:44.205000;-92;150
0:20:44.603000;-92;150
0:20:44.702000;-91;150
0:20:44.868000;-91;150
0:20:45.067000;-92;150
0:20:46.095000;-93;150
0:20:46.360000;-90;150
0:20:46.791000;-90;150
0:20:46.991000;-93;150
0:20:47.190000;-93;150
0:20:47.654000;-92;150
0:20:47.853000;-91;150
0:20:48.052000;-92;150
0:20:48.285000;-93;150
0:20:49.114000;-92;150
0:20:49.445000;-93;150
0:20:49.876000;-91;150
0:20:50.075000;-93;150
0:20:50.274000;-90;150
0:20:52.430000;-92;150
0:20:52.662000;-91;150
0:20:53.360000;-92;150
0:20:53.724000;-89;150
0:20:53.956000;-92;150
0:20:54.155000;-92;150
0:20:54.354000;-91;150
0:20:54.554000;-93;150
0:20:54.786000;-92;150
0:20:55.217000;-90;150
0:20:55.449000;-92;150
0:20:55.648000;-91;150
0:20:56.079000;-91;150
0:20:56.278000;-90;150
0:20:56.478000;-92;150
0:20:57.042000;-90;150
0:20:57.441000;-92;150
0:20:59.397000;-92;150
0:20:59.629000;-90;150
0:21:00.027000;-92;150
0:21:00.658000;-90;150
0:21:01.089000;-93;150
0:21:01.155000;-92;150
0:21:01.321000;-93;150
0:21:01.753000;-90;150
0:21:01.952000;-92;150
0:21:02.615000;-90;150
0:21:03.047000;-94;150
0:21:03.976000;-91;150
0:21:04.308000;-94;150
0:21:05.038000;-91;150
0:21:05.569000;-92;150
0:21:05.834000;-92;150
0:21:06.033000;-91;150
0:21:06.232000;-92;150
0:21:06.464000;-97;150
0:21:06.996000;-93;150
0:21:07.394000;-94;150
0:21:08.457000;-93;150
0:21:08.722000;-92;150
0:21:08.921000;-95;150
0:21:09.320000;-91;150
0:21:09.751000;-92;150
0:21:10.216000;-93;150
0:21:10.614000;-94;150
0:21:10.847000;-93;150
0:21:11.245000;-90;150
0:21:11.477000;-93;150
0:21:11.709000;-91;150
0:21:11.908000;-91;150
0:21:12.538000;-91;150
0:21:13.400000;-92;150
0:21:14.994000;-94;150
0:21:15.524000;-91;150
0:21:16.055000;-91;150
0:21:16.121000;-94;150
0:21:16.287000;-93;150
0:21:16.719000;-92;150
0:21:17.117000;-91;150
0:21:17.548000;-92;150
0:21:17.647000;-92;150
0:21:17.780000;-90;150
0:21:18.211000;-91;150
0:21:18.411000;-91;150
0:21:18.643000;-92;150
0:21:18.842000;-90;150
0:21:19.041000;-92;150
0:21:21.298000;-92;150
0:21:21.497000;-91;150
0:21:22.791000;-91;150
0:21:23.686000;-91;150
0:21:24.947000;-91;150
0:21:25.179000;-90;150
0:21:25.677000;-92;150
0:21:25.909000;-91;150
0:21:26.108000;-91;150
0:21:26.970000;-92;150
0:21:27.401000;-91;150
0:21:28.265000;-91;150
0:21:28.464000;-93;150
0:21:28.696000;-92;150
0:21:28.895000;-91;150
0:21:29.393000;-91;150
0:21:29.559000;-95;150
0:21:29.758000;-92;150
0:21:30.587000;-91;150
0:21:31.250000;-91;150
0:21:31.681000;-92;150
0:21:31.980000;-91;150
0:21:32.179000;-93;150
0:21:32.544000;-90;150
0:21:32.776000;-89;150
0:21:33.307000;-92;150
0:21:33.738000;-90;150
0:21:33.938000;-93;150
0:21:35.762000;-93;150
0:21:35.961000;-91;150
0:21:36.889000;-91;150
0:21:37.354000;-94;150
0:21:37.553000;-91;150
0:21:38.084000;-90;150
0:21:38.316000;-91;150
0:21:38.515000;-91;150
0:21:39.709000;-91;150
0:21:40.140000;-90;150
0:21:40.339000;-92;150
0:21:40.573000;-91;150
0:21:41.270000;-91;150
0:21:41.503000;-92;150
0:21:41.868000;-92;150
0:21:42.067000;-91;150
0:21:42.266000;-94;150
0:21:43.228000;-91;150
0:21:43.660000;-92;150
0:21:44.058000;-91;150
0:21:44.290000;-91;150
0:21:44.489000;-92;150
0:21:44.721000;-90;150
0:21:44.954000;-90;150
0:21:45.152000;-91;150
0:21:45.351000;-90;150
0:21:45.584000;-92;150
0:21:46.015000;-91;150
0:21:46.313000;-91;150
0:21:46.546000;-89;150
0:21:47.508000;-91;150
0:21:47.839000;-90;150
0:21:48.370000;-91;150
0:21:48.801000;-90;150
0:21:49;-90;150
0:21:49.432000;-92;150
0:21:49.664000;-91;150
0:21:50.825000;-89;150
0:21:51.024000;-91;150
0:21:51.256000;-90;150
0:21:52.317000;-90;150
0:21:52.748000;-90;150
0:21:53.279000;-90;150
0:21:53.478000;-90;150
0:21:53.810000;-92;150
0:21:54.241000;-94;150
0:21:55.203000;-90;150
0:21:55.402000;-90;150
0:21:56.165000;-91;150
0:21:56.596000;-92;150
0:21:56.829000;-89;150
0:21:57.957000;-89;150
0:21:58.421000;-90;150
0:21:58.620000;-91;150
0:21:59.052000;-94;150
0:21:59.915000;-90;150
0:22:00.114000;-92;150
0:22:00.412000;-90;150
0:22:00.977000;-93;150
0:22:01.209000;-90;150
0:22:01.408000;-90;150
0:22:01.607000;-89;150
0:22:02.039000;-91;150
0:22:02.271000;-93;150
0:22:02.470000;-90;150
0:22:02.537000;-91;150
0:22:02.702000;-91;150
0:22:02.901000;-94;150
0:22:03.531000;-90;150
0:22:04.194000;-91;150
0:22:04.427000;-89;150
0:22:04.958000;-91;150
0:22:05.455000;-92;150
0:22:05.919000;-90;150
0:22:08.140000;-92;150
0:22:08.572000;-92;150
0:22:08.804000;-93;150
0:22:09.003000;-91;150
0:22:10.065000;-90;150
0:22:10.729000;-91;150
0:22:11.259000;-91;150
0:22:11.790000;-89;150
0:22:11.989000;-92;150
0:22:13.183000;-91;150
0:22:13.581000;-90;150
0:22:14.012000;-91;150
0:22:14.212000;-89;150
0:22:14.477000;-90;150
0:22:14.676000;-92;150
0:22:15.107000;-91;150
0:22:15.305000;-91;150
0:22:15.935000;-89;150
0:22:16.002000;-91;150
0:22:16.168000;-90;150
0:22:16.367000;-90;150
0:22:16.599000;-90;150
0:22:17.097000;-94;150
0:22:17.462000;-93;150
0:22:17.992000;-91;150
0:22:18.225000;-90;150
0:22:18.623000;-92;150
0:22:18.856000;-92;150
0:22:19.188000;-93;150
0:22:19.386000;-93;150
0:22:19.585000;-92;150
0:22:20.091000;-91;150
0:22:20.754000;-91;150
0:22:20.987000;-92;150
0:22:21.185000;-90;150
0:22:22.579000;-91;150
0:22:22.811000;-91;150
0:22:23.342000;-91;150
0:22:23.542000;-93;150
0:22:23.973000;-91;150
0:22:24.405000;-92;150
0:22:24.604000;-91;150
0:22:24.803000;-91;150
0:22:26.098000;-91;150
0:22:26.562000;-92;150
0:22:26.960000;-92;150
0:22:29.317000;-90;150
0:22:29.450000;-91;150
0:22:30.080000;-91;150
0:22:30.279000;-89;150
0:22:30.478000;-90;150
0:22:30.676000;-91;150
0:22:30.909000;-92;150
0:22:31.772000;-89;150
0:22:31.971000;-91;150
0:22:32.203000;-90;150
0:22:32.402000;-91;150
0:22:32.501000;-90;150
0:22:33.563000;-92;150
0:22:33.795000;-91;150
0:22:34.559000;-91;150
0:22:35.190000;-91;150
0:22:35.422000;-90;150
0:22:35.654000;-93;150
0:22:35.854000;-91;150
0:22:36.053000;-91;150
0:22:37.016000;-90;150
0:22:37.248000;-90;150
0:22:37.447000;-95;150
0:22:37.878000;-91;150
0:22:38.077000;-89;150
0:22:38.541000;-90;150
0:22:40.432000;-89;150
0:22:40.665000;-92;150
0:22:42.027000;-90;150
0:22:43.752000;-91;150
0:22:43.951000;-91;150
0:22:44.415000;-91;150
0:22:44.615000;-91;150
0:22:45.378000;-91;150
0:22:45.577000;-92;150
0:22:45.776000;-91;150
0:22:45.908000;-91;150
0:22:46.107000;-91;150
0:22:46.539000;-93;150
0:22:46.738000;-90;150
0:22:47.401000;-91;150
0:22:47.600000;-90;150
0:22:47.833000;-90;150
0:22:48.231000;-90;150
0:22:48.895000;-91;150
0:22:50.156000;-91;150
0:22:50.488000;-91;150
0:22:51.121000;-90;150
0:22:51.320000;-91;150
0:22:51.552000;-91;150
0:22:51.984000;-90;150
0:22:52.216000;-91;150
0:22:52.415000;-91;150
0:22:52.614000;-91;150
0:22:52.946000;-91;150
0:22:53.509000;-89;150
0:22:53.709000;-92;150
0:22:53.907000;-92;150
0:22:54.438000;-91;150
0:22:55.002000;-92;150
0:22:55.201000;-91;150
0:22:55.433000;-92;150
0:22:56.030000;-92;150
0:22:56.494000;-90;150
0:22:57.854000;-90;150
0:22:58.219000;-91;150
0:22:59.379000;-90;150
0:22:59.578000;-92;150
0:23:01.304000;-89;150
0:23:01.503000;-90;150
0:23:01.702000;-92;150
0:23:01.934000;-90;150
0:23:02.133000;-91;150
0:23:02.598000;-91;150
0:23:02.797000;-91;150
0:23:02.996000;-90;150
0:23:03.195000;-93;150
0:23:03.627000;-91;150
0:23:03.860000;-89;150
0:23:04.158000;-92;150
0:23:05.352000;-93;150
0:23:05.883000;-90;150
0:23:06.082000;-90;150
0:23:06.314000;-90;150
0:23:06.513000;-91;150
0:23:06.712000;-92;150
0:23:06.978000;-92;150
0:23:07.177000;-89;150
0:23:07.377000;-90;150
0:23:07.609000;-89;150
0:23:08.471000;-92;150
0:23:08.869000;-91;150
0:23:09.964000;-90;150
0:23:10.395000;-90;150
0:23:10.793000;-91;150
0:23:11.025000;-90;150
0:23:11.224000;-89;150
0:23:11.456000;-90;150
0:23:11.688000;-90;150
0:23:11.887000;-91;150
0:23:14.343000;-91;150
0:23:15.106000;-90;150
0:23:15.306000;-89;150
0:23:15.504000;-92;150
0:23:15.836000;-90;150
0:23:16.268000;-91;150
0:23:16.666000;-91;150
0:23:17.329000;-91;150
0:23:18.059000;-89;150
0:23:19.153000;-90;150
0:23:19.583000;-91;150
0:23:20.180000;-89;150
0:23:20.445000;-89;150
0:23:20.843000;-89;150
0:23:21.572000;-91;150
0:23:22.369000;-89;150
0:23:22.567000;-90;150
0:23:23.065000;-91;150
0:23:23.297000;-93;150
0:23:23.430000;-90;150
0:23:23.861000;-90;150
0:23:24.060000;-92;150
0:23:25.985000;-93;150
0:23:26.650000;-91;150
0:23:26.849000;-90;150
0:23:27.081000;-91;150
0:23:27.281000;-93;150
0:23:27.480000;-93;150
0:23:27.712000;-90;150
0:23:28.243000;-92;150
0:23:28.740000;-91;150
0:23:29.271000;-92;150
0:23:29.371000;-93;150
0:23:29.935000;-88;150
0:23:30.798000;-92;150
0:23:31.030000;-93;150
0:23:32.292000;-93;150
0:23:32.723000;-91;150
0:23:32.956000;-92;150
0:23:33.155000;-90;150
0:23:33.387000;-91;150
0:23:33.785000;-92;150
0:23:34.018000;-91;150
0:23:34.748000;-91;150
0:23:35.412000;-90;150
0:23:35.943000;-91;150
0:23:36.374000;-90;150
0:23:36.905000;-91;150
0:23:38.399000;-94;150
0:23:38.631000;-92;150
0:23:39.162000;-96;150
0:23:39.560000;-91;150
0:23:40.125000;-93;150
0:23:40.524000;-91;150
0:23:41.818000;-89;150
0:23:43.543000;-91;150
0:23:43.941000;-92;150
0:23:44.273000;-89;150
0:23:44.506000;-92;150
0:23:44.704000;-92;150
0:23:44.903000;-90;150
0:23:45.368000;-92;150
0:23:45.534000;-90;150
0:23:45.766000;-90;150
0:23:46.927000;-92;150
0:23:48.884000;-90;150
0:23:49.083000;-92;150
0:23:49.912000;-92;150
0:23:50.277000;-90;150
0:23:50.509000;-92;150
0:23:50.708000;-91;150
0:23:51.139000;-91;150
0:23:52.301000;-91;150
0:23:52.499000;-94;150
0:23:52.698000;-91;150
0:23:52.931000;-92;150
0:23:53.362000;-91;150
0:23:53.594000;-90;150
0:23:53.992000;-90;150
0:23:54.423000;-92;150
0:23:54.622000;-91;150
0:23:55.518000;-90;150
0:23:55.717000;-90;150
0:23:55.916000;-90;150
0:23:56.148000;-91;150
0:23:57.641000;-92;150
0:23:57.774000;-91;150
0:23:57.973000;-92;150
0:23:59.235000;-90;150
0:23:59.899000;-91;150
0:24:00.529000;-93;150
0:24:00.729000;-92;150
0:24:02.222000;-90;150
0:24:02.686000;-91;150
0:24:02.885000;-92;150
0:24:03.383000;-90;150
0:24:03.615000;-92;150
0:24:03.847000;-90;150
0:24:04.046000;-93;150
0:24:04.278000;-91;150
0:24:04.477000;-92;150
0:24:04.677000;-91;150
0:24:05.971000;-91;150
0:24:08.559000;-91;150
0:24:09.322000;-92;150
0:24:09.521000;-90;150
0:24:10.350000;-93;150
0:24:10.550000;-92;150
0:24:11.114000;-90;150
0:24:12.474000;-90;150
0:24:12.706000;-92;150
0:24:12.772000;-92;150
0:24:14.233000;-91;150
0:24:14.864000;-90;150
0:24:15.262000;-92;150
0:24:15.495000;-91;150
0:24:16.159000;-93;150
0:24:18.583000;-92;150
0:24:18.815000;-91;150
0:24:19.314000;-90;150
0:24:19.547000;-89;150
0:24:19.746000;-93;150
0:24:20.310000;-90;150
0:24:20.542000;-90;150
0:24:20.741000;-90;150
0:24:20.940000;-90;150
0:24:21.803000;-89;150
0:24:22.433000;-90;150
0:24:24.325000;-90;150
0:24:25.221000;-90;150
0:24:26.416000;-89;150
0:24:26.615000;-90;150
0:24:26.814000;-92;150
0:24:27.046000;-91;150
0:24:27.677000;-91;150
0:24:27.743000;-90;150
0:24:27.909000;-88;150
0:24:28.872000;-90;150
0:24:29.702000;-89;150
0:24:30.134000;-89;150
0:24:31.328000;-91;150
0:24:31.660000;-89;150
0:24:32.058000;-90;150
0:24:32.822000;-92;150
0:24:33.153000;-91;150
0:24:33.352000;-90;150
0:24:33.585000;-90;150
0:24:33.784000;-92;150
0:24:33.983000;-91;150
0:24:34.614000;-90;150
0:24:34.846000;-92;150
0:24:35.045000;-92;150
0:24:35.776000;-94;150
0:24:36.207000;-92;150
0:24:36.771000;-91;150
0:24:37.004000;-92;150
0:24:37.203000;-94;150
0:24:37.402000;-92;150
0:24:37.833000;-91;150
0:24:38.032000;-92;150
0:24:38.364000;-91;150
0:24:39.094000;-91;150
0:24:39.293000;-92;150
0:24:39.658000;-92;150
0:24:40.289000;-92;150
0:24:40.921000;-93;150
0:24:44.007000;-92;150
0:24:44.173000;-93;150
0:24:44.372000;-92;150
0:24:44.572000;-92;150
0:24:45.003000;-93;150
0:24:45.202000;-93;150
0:24:45.434000;-92;150
0:24:45.633000;-92;150
0:24:46.163000;-93;150
0:24:46.893000;-92;150
0:24:47.092000;-91;150
0:24:47.457000;-92;150
0:24:47.689000;-92;150
0:24:48.950000;-91;150
0:24:49.580000;-91;150
0:24:49.812000;-92;150
0:24:50.476000;-90;150
0:24:51.107000;-91;150
0:24:51.306000;-92;150
0:24:52.700000;-92;150
0:24:53.562000;-92;150
0:24:53.761000;-92;150
0:24:54.625000;-90;150
0:24:54.857000;-91;150
0:24:55.056000;-90;150
0:24:55.255000;-92;150
0:24:55.686000;-91;150
0:24:56.348000;-93;150
0:24:56.547000;-91;150
0:24:56.780000;-91;150
0:24:56.979000;-94;150
0:24:57.410000;-93;150
0:24:57.842000;-91;150
0:24:58.571000;-92;150
0:24:59.069000;-92;150
0:25:00.728000;-93;150
0:25:01.358000;-92;150
0:25:02.220000;-91;150
0:25:02.652000;-91;150
0:25:03.283000;-90;150
0:25:03.482000;-91;150
0:25:03.714000;-92;150
0:25:03.946000;-93;150
0:25:04.477000;-93;150
0:25:04.676000;-93;150
0:25:05.307000;-92;150
0:25:05.739000;-92;150
0:25:06.369000;-96;150
0:25:07.996000;-91;150
0:25:08.095000;-91;150
0:25:08.328000;-91;150
0:25:08.527000;-91;150
0:25:09.588000;-92;150
0:25:10.318000;-94;150
0:25:10.849000;-92;150
0:25:12.377000;-91;150
0:25:13.837000;-92;150
0:25:14.203000;-92;150
0:25:15.032000;-93;150
0:25:15.530000;-92;150
0:25:15.696000;-91;150
0:25:15.895000;-94;150
0:25:16.127000;-91;150
0:25:16.757000;-91;150
0:25:17.188000;-90;150
0:25:18.017000;-91;150
0:25:18.250000;-88;150
0:25:19.312000;-90;150
0:25:19.544000;-88;150
0:25:19.942000;-88;150
0:25:21.800000;-90;150
0:25:22.430000;-92;150
0:25:22.828000;-91;150
0:25:23.093000;-90;150
0:25:23.823000;-91;150
0:25:24.022000;-92;150
0:25:24.255000;-90;150
0:25:24.454000;-92;150
0:25:25.217000;-91;150
0:25:25.416000;-91;150
0:25:25.848000;-92;150
0:25:26.279000;-90;150
0:25:26.478000;-90;150
0:25:27.009000;-90;150
0:25:27.574000;-90;150
0:25:28.404000;-92;150
0:25:28.636000;-89;150
0:25:28.835000;-90;150
0:25:29.034000;-92;150
0:25:31.422000;-91;150
0:25:31.622000;-90;150
0:25:32.385000;-89;150
0:25:32.585000;-91;150
0:25:33.115000;-91;150
0:25:33.878000;-90;150
0:25:34.078000;-91;150
0:25:34.310000;-90;150
0:25:34.509000;-91;150
0:25:35.239000;-92;150
0:25:35.472000;-92;150
0:25:35.803000;-90;150
0:25:36.003000;-90;150
0:25:36.234000;-93;150
0:25:36.433000;-93;150
0:25:36.533000;-90;150
0:25:37.396000;-92;150
0:25:38.026000;-91;150
0:25:38.458000;-90;150
0:25:38.989000;-92;150
0:25:39.553000;-90;150
0:25:39.753000;-91;150
0:25:39.952000;-91;150
0:25:40.184000;-91;150
0:25:40.383000;-90;150
0:25:40.815000;-91;150
0:25:41.014000;-90;150
0:25:41.545000;-89;150
0:25:41.778000;-93;150
0:25:41.977000;-91;150
0:25:42.209000;-92;150
0:25:42.408000;-91;150
0:25:42.840000;-91;150
0:25:43.072000;-90;150
0:25:43.370000;-92;150
0:25:46.158000;-91;150
0:25:46.358000;-92;150
0:25:46.556000;-90;150
0:25:47.552000;-92;150
0:25:48.216000;-89;150
0:25:48.382000;-90;150
0:25:50.008000;-91;150
0:25:50.970000;-91;150
0:25:51.202000;-90;150
0:25:51.501000;-92;150
0:25:51.933000;-90;150
0:25:52.132000;-92;150
0:25:52.729000;-90;150
0:25:53.227000;-91;150
0:25:53.426000;-91;150
0:25:54.720000;-91;150
0:25:54.919000;-91;150
0:25:55.351000;-94;150
0:25:55.783000;-90;150
0:25:56.745000;-91;150
0:25:56.944000;-94;150
0:25:57.375000;-92;150
0:25:58.138000;-91;150
0:25:58.338000;-89;150
0:25:59.400000;-92;150
0:25:59.831000;-92;150
0:26:00.229000;-90;150
0:26:00.893000;-90;150
0:26:01.523000;-91;150
0:26:01.756000;-91;150
0:26:02.619000;-89;150
0:26:02.817000;-93;150
0:26:03.050000;-92;150
0:26:03.349000;-89;150
0:26:03.912000;-93;150
0:26:04.311000;-91;150
0:26:04.742000;-91;150
0:26:04.975000;-90;150
0:26:05.606000;-90;150
0:26:05.838000;-92;150
0:26:06.236000;-91;150
0:26:06.469000;-92;150
0:26:08.196000;-90;150
0:26:08.395000;-91;150
0:26:09.323000;-90;150
0:26:11.082000;-89;150
0:26:11.514000;-90;150
0:26:11.713000;-90;150
0:26:11.912000;-90;150
0:26:12.111000;-92;150
0:26:12.343000;-91;150
0:26:12.576000;-90;150
0:26:12.775000;-91;150
0:26:13.007000;-90;150
0:26:14.999000;-91;150
0:26:15.231000;-91;150
0:26:15.430000;-90;150
0:26:15.795000;-91;150
0:26:15.994000;-89;150
0:26:16.193000;-91;150
0:26:16.425000;-90;150
0:26:16.624000;-91;150
0:26:16.823000;-92;150
0:26:16.956000;-90;150
0:26:17.155000;-91;150
0:26:17.388000;-93;150
0:26:17.786000;-90;150
0:26:18.018000;-90;150
0:26:18.449000;-90;150
0:26:18.682000;-91;150
0:26:18.880000;-91;150
0:26:19.079000;-90;150
0:26:19.942000;-90;150
0:26:20.473000;-92;150
0:26:20.871000;-91;150
0:26:21.103000;-89;150
0:26:21.767000;-90;150
0:26:23.259000;-92;150
0:26:23.458000;-89;150
0:26:23.690000;-92;150
0:26:25.715000;-90;150
0:26:26.777000;-92;150
0:26:26.976000;-92;150
0:26:27.175000;-91;150
0:26:27.407000;-89;150
0:26:27.540000;-90;150
0:26:27.772000;-91;150
0:26:28.303000;-90;150
0:26:28.502000;-91;150
0:26:28.701000;-92;150
0:26:29.564000;-90;150
0:26:29.763000;-90;150
0:26:29.962000;-92;150
0:26:30.194000;-90;150
0:26:30.758000;-92;150
0:26:30.956000;-90;150
0:26:31.388000;-91;150
0:26:31.919000;-91;150
0:26:32.151000;-92;150
0:26:32.350000;-91;150
0:26:33.412000;-90;150
0:26:34.142000;-92;150
0:26:34.872000;-90;150
0:26:35.967000;-91;150
0:26:36.199000;-91;150
0:26:36.398000;-91;150
0:26:36.929000;-92;150
0:26:37.161000;-92;150
0:26:39.516000;-91;150
0:26:39.715000;-91;150
0:26:39.948000;-90;150
0:26:41.010000;-91;150
0:26:41.209000;-91;150
0:26:41.840000;-90;150
0:26:42.073000;-91;150
0:26:42.737000;-92;150
0:26:43.135000;-92;150
0:26:44.031000;-91;150
0:26:44.727000;-91;150
0:26:44.959000;-91;150
0:26:45.158000;-90;150
0:26:45.391000;-89;150
0:26:46.885000;-91;150
0:26:47.117000;-90;150
0:26:47.316000;-90;150
0:26:47.515000;-90;150
0:26:47.747000;-90;150
0:26:47.946000;-90;150
0:26:48.709000;-90;150
0:26:48.908000;-89;150
0:26:49.107000;-91;150
0:26:49.339000;-90;150
0:26:50.102000;-90;150
0:26:51.364000;-89;150
0:26:51.497000;-91;150
0:26:51.895000;-89;150
0:26:52.990000;-90;150
0:26:53.189000;-91;150
0:26:53.422000;-92;150
0:26:54.019000;-93;150
0:26:55.546000;-95;150
0:26:55.746000;-91;150
0:26:56.510000;-95;150
0:26:56.709000;-93;150
0:26:57.373000;-92;150
0:26:57.705000;-93;150
0:26:57.905000;-91;150
0:26:58.104000;-92;150
0:26:58.337000;-93;150
0:26:58.735000;-93;150
0:26:59.068000;-91;150
0:26:59.997000;-92;150
0:27:00.362000;-91;150
0:27:01.191000;-91;150
0:27:01.821000;-93;150
0:27:02.285000;-93;150
0:27:02.484000;-94;150
0:27:02.915000;-91;150
0:27:03.148000;-90;150
0:27:03.446000;-91;150
0:27:03.678000;-92;150
0:27:03.877000;-91;150
0:27:04.076000;-93;150
0:27:04.939000;-91;150
0:27:05.172000;-91;150
0:27:07.195000;-93;150
0:27:07.958000;-90;150
0:27:08.156000;-92;150
0:27:08.388000;-92;150
0:27:09.019000;-93;150
0:27:09.218000;-89;150
0:27:09.451000;-93;150
0:27:09.882000;-92;150
0:27:10.082000;-91;150
0:27:10.281000;-95;150
0:27:12.006000;-90;150
0:27:12.304000;-90;150
0:27:12.404000;-90;150
0:27:12.537000;-91;150
0:27:13.633000;-91;150
0:27:14.031000;-93;150
0:27:14.263000;-92;150
0:27:14.694000;-91;150
0:27:15.956000;-93;150
0:27:16.189000;-92;150
0:27:16.388000;-92;150
0:27:16.620000;-92;150
0:27:17.549000;-94;150
0:27:17.782000;-92;150
0:27:18.180000;-90;150
0:27:19.043000;-92;150
0:27:19.276000;-91;150
0:27:19.475000;-92;150
0:27:19.674000;-91;150
0:27:20.238000;-90;150
0:27:20.869000;-92;150
0:27:21.266000;-92;150
0:27:22.692000;-93;150
0:27:23.654000;-91;150
0:27:23.853000;-90;150
0:27:24.318000;-90;150
0:27:24.517000;-92;150
0:27:24.716000;-91;150
0:27:24.948000;-91;150
0:27:25.612000;-93;150
0:27:25.777000;-91;150
0:27:25.844000;-91;150
0:27:26.872000;-91;150
0:27:27.105000;-91;150
0:27:28.365000;-92;150
0:27:29.526000;-93;150
0:27:31.019000;-92;150
0:27:31.218000;-93;150
0:27:31.450000;-93;150
0:27:31.649000;-92;150
0:27:32.114000;-92;150
0:27:32.313000;-94;150
0:27:32.745000;-95;150
0:27:32.944000;-91;150
0:27:33.607000;-91;150
0:27:34.105000;-93;150
0:27:34.669000;-91;150
0:27:36.162000;-92;150
0:27:36.494000;-91;150
0:27:36.693000;-91;150
0:27:37.024000;-92;150
0:27:37.787000;-92;150
0:27:38.119000;-93;150
0:27:39.047000;-93;150
0:27:39.478000;-91;150
0:27:40.641000;-92;150
0:27:41.072000;-91;150
0:27:42.135000;-91;150
0:27:43.763000;-91;150
0:27:44.494000;-89;150
0:27:44.693000;-92;150
0:27:45.357000;-91;150
0:27:46.418000;-91;150
0:27:46.617000;-92;150
0:27:46.883000;-91;150
0:27:47.580000;-91;150
0:27:47.813000;-91;150
0:27:48.211000;-91;150
0:27:48.310000;-97;150
0:27:48.377000;-91;150
0:27:48.576000;-94;150
0:27:48.775000;-92;150
0:27:49.007000;-91;150
0:27:49.206000;-90;150
0:27:49.969000;-92;150
0:27:50.368000;-90;150
0:27:50.799000;-92;150
0:27:50.998000;-91;150
0:27:52.094000;-92;150
0:27:52.293000;-91;150
0:27:52.492000;-93;150
0:27:52.724000;-92;150
0:27:52.790000;-92;150
0:27:53.255000;-91;150
0:27:53.885000;-91;150
0:27:54.085000;-91;150
0:27:55.080000;-92;150
0:27:55.412000;-90;150
0:27:56.805000;-92;150
0:27:57.005000;-90;150
0:27:57.204000;-91;150
0:27:57.868000;-89;150
0:27:58.100000;-93;150
0:27:58.299000;-90;150
0:27:58.730000;-90;150
0:27:59.693000;-90;150
0:27:59.893000;-91;150
0:28:00.325000;-89;150
0:28:00.756000;-93;150
0:28:01.254000;-91;150
0:28:01.851000;-89;150
0:28:02.051000;-91;150
0:28:02.250000;-91;150
0:28:02.881000;-90;150
0:28:03.545000;-90;150
0:28:04.939000;-96;150
0:28:05.138000;-92;150
0:28:05.570000;-90;150
0:28:05.769000;-90;150
0:28:05.968000;-89;150
0:28:06.233000;-91;150
0:28:07.727000;-88;150
0:28:08.425000;-92;150
0:28:08.956000;-94;150
0:28:09.653000;-92;150
0:28:10.283000;-91;150
0:28:10.681000;-90;150
0:28:11.545000;-91;150
0:28:11.977000;-91;150
0:28:12.176000;-92;150
0:28:12.309000;-92;150
0:28:13.570000;-93;150
0:28:13.802000;-92;150
0:28:14.034000;-90;150
0:28:14.234000;-91;150
0:28:15.296000;-91;150
0:28:15.628000;-98;150
0:28:15.827000;-92;150
0:28:17.022000;-91;150
0:28:17.420000;-92;150
0:28:17.852000;-91;150
0:28:18.084000;-92;150
0:28:18.515000;-89;150
0:28:18.714000;-89;150
0:28:18.814000;-96;150
0:28:18.947000;-89;150
0:28:19.146000;-89;150
0:28:19.345000;-90;150
0:28:19.577000;-89;150
0:28:19.677000;-93;150
0:28:20.440000;-91;150
0:28:20.639000;-89;150
0:28:20.872000;-91;150
0:28:21.170000;-92;150
0:28:21.403000;-90;150
0:28:22.232000;-91;150
0:28:22.996000;-90;150
0:28:23.195000;-91;150
0:28:23.394000;-92;150
0:28:23.626000;-96;150
0:28:24.389000;-91;150
0:28:25.119000;-91;150
0:28:25.319000;-91;150
0:28:25.551000;-90;150
0:28:25.784000;-91;150
0:28:26.613000;-92;150
0:28:26.812000;-91;150
0:28:27.476000;-93;150
0:28:27.708000;-90;150
0:28:27.908000;-90;150
0:28:28.106000;-92;150
0:28:28.339000;-90;150
0:28:28.538000;-91;150
0:28:29.633000;-91;150
0:28:29.832000;-90;150
0:28:31.624000;-91;150
0:28:32.421000;-90;150
0:28:33.018000;-91;150
0:28:33.151000;-90;150
0:28:33.582000;-89;150
0:28:34.412000;-91;150
0:28:34.877000;-90;150
0:28:35.076000;-91;150
0:28:36.670000;-90;150
0:28:38.296000;-91;150
0:28:38.494000;-92;150
0:28:38.693000;-89;150
0:28:38.926000;-90;150
0:28:39.125000;-92;150
0:28:39.888000;-90;150
0:28:41.083000;-91;150
0:28:41.514000;-91;150
0:28:41.913000;-90;150
0:28:42.112000;-92;150
0:28:42.244000;-90;150
0:28:42.444000;-91;150
0:28:42.676000;-90;150
0:28:43.739000;-93;150
0:28:44.668000;-91;150
0:28:44.901000;-90;150
0:28:45.465000;-89;150
0:28:45.864000;-90;150
0:28:46.097000;-92;150
0:28:46.528000;-95;150
0:28:47.457000;-90;150
0:28:48.651000;-90;150
0:28:49.082000;-90;150
0:28:49.646000;-90;150
0:28:49.845000;-91;150
0:28:50.675000;-89;150
0:28:51.338000;-91;150
0:28:51.969000;-92;150
0:28:52.599000;-90;150
0:28:52.832000;-91;150
0:28:53.031000;-89;150
0:28:53.661000;-90;150
0:28:53.894000;-89;150
0:28:54.093000;-89;150
0:28:56.349000;-90;150
0:28:56.582000;-92;150
0:28:57.212000;-94;150
0:28:57.643000;-92;150
0:28:57.842000;-92;150
0:28:58.373000;-91;150
0:28:58.572000;-90;150
0:28:59.235000;-92;150
0:29:00.431000;-91;150
0:29:00.630000;-90;150
0:29:01.061000;-91;150
0:29:01.359000;-91;150
0:29:01.559000;-90;150
0:29:01.824000;-91;150
0:29:02.223000;-90;150
0:29:02.455000;-90;150
0:29:02.654000;-91;150
0:29:02.853000;-94;150
0:29:03.085000;-90;150
0:29:04.611000;-91;150
0:29:05.108000;-92;150
0:29:05.739000;-93;150
0:29:05.971000;-91;150
0:29:06.534000;-92;150
0:29:06.733000;-91;150
0:29:07.132000;-90;150
0:29:07.364000;-92;150
0:29:07.563000;-90;150
0:29:09.621000;-90;150
0:29:10.683000;-90;150
0:29:11.114000;-90;150
0:29:11.313000;-91;150
0:29:11.512000;-91;150
0:29:11.744000;-90;150
0:29:12.176000;-92;150
0:29:12.607000;-91;150
0:29:13.768000;-91;150
0:29:15.029000;-90;150
0:29:15.295000;-93;150
0:29:15.494000;-91;150
0:29:15.693000;-92;150
0:29:16.456000;-92;150
0:29:16.555000;-91;150
0:29:16.986000;-92;150
0:29:18.081000;-93;150
0:29:18.280000;-92;150
0:29:18.479000;-92;150
0:29:18.711000;-91;150
0:29:18.909000;-92;150
0:29:19.109000;-90;150
0:29:19.341000;-91;150
0:29:19.540000;-91;150
0:29:21.697000;-90;150
0:29:21.896000;-92;150
0:29:22.128000;-92;150
0:29:22.327000;-91;150
0:29:22.525000;-91;150
0:29:22.658000;-91;150
0:29:23.090000;-92;150
0:29:23.289000;-93;150
0:29:24.151000;-92;150
0:29:24.350000;-92;150
0:29:25.944000;-91;150
0:29:26.176000;-91;150
0:29:26.806000;-90;150
0:29:27.801000;-90;150
0:29:28.200000;-90;150
0:29:28.498000;-90;150
0:29:28.764000;-90;150
0:29:29.991000;-91;150
0:29:30.091000;-91;150
0:29:30.257000;-91;150
0:29:30.456000;-90;150
0:29:30.655000;-91;150
0:29:30.887000;-90;150
0:29:31.285000;-92;150
0:29:31.551000;-90;150
0:29:32.381000;-92;150
0:29:32.779000;-90;150
0:29:34.074000;-93;150
0:29:34.737000;-90;150
0:29:34.970000;-93;150
0:29:35.998000;-91;150
0:29:37.425000;-91;150
0:29:38.985000;-91;150
0:29:39.118000;-92;150
0:29:39.351000;-91;150
0:29:39.550000;-90;150
0:29:39.749000;-92;150
0:29:40.181000;-92;150
0:29:40.447000;-91;150
0:29:40.712000;-91;150
0:29:40.911000;-90;150
0:29:41.143000;-91;150
0:29:41.641000;-92;150
0:29:41.873000;-92;150
0:29:42.836000;-92;150
0:29:43.068000;-91;150
0:29:43.467000;-90;150
0:29:43.566000;-94;150
0:29:43.732000;-91;150
0:29:43.931000;-91;150
0:29:44.330000;-91;150
0:29:44.562000;-92;150
0:29:45.426000;-92;150
0:29:45.857000;-91;150
0:29:46.919000;-91;150
0:29:47.549000;-91;150
0:29:48.412000;-92;150
0:29:48.644000;-91;150
0:29:50.435000;-91;150
0:29:51.099000;-90;150
0:29:51.298000;-90;150
0:29:51.531000;-91;150
0:29:51.730000;-90;150
0:29:51.929000;-91;150
0:29:52.227000;-91;150
0:29:52.459000;-91;150
0:29:52.592000;-90;150
0:29:53.853000;-91;150
0:29:54.318000;-91;150
0:29:54.517000;-93;150
0:29:55.280000;-91;150
0:29:56.010000;-91;150
0:29:56.242000;-91;150
0:29:57.936000;-89;150
0:29:58.268000;-91;150
0:29:58.699000;-92;150
0:29:58.898000;-93;150
0:29:59.330000;-90;150
0:29:59.529000;-92;150
0:29:59.728000;-92;150
0:29:59.960000;-92;150
0:30:00.193000;-91;150
0:30:00.492000;-92;150
0:30:01.455000;-90;150
0:30:01.787000;-90;150
0:30:02.418000;-91;150
0:30:02.617000;-91;150
0:30:02.817000;-90;150
0:30:03.613000;-91;150
0:30:04.011000;-91;150
0:30:04.243000;-90;150
0:30:04.575000;-91;150
0:30:06.068000;-90;150
0:30:06.267000;-91;150
0:30:06.499000;-91;150
0:30:09.487000;-91;150
0:30:11.711000;-92;150
0:30:11.910000;-91;150
0:30:12.010000;-91;150
0:30:12.872000;-91;150
0:30:13.404000;-90;150
0:30:13.735000;-90;150
0:30:14.365000;-92;150
0:30:14.897000;-91;150
0:30:15.261000;-87;150
0:30:15.460000;-92;150
0:30:15.658000;-91;150
0:30:16.090000;-92;150
0:30:17.086000;-90;150
0:30:17.485000;-90;150
0:30:17.717000;-90;150
0:30:17.916000;-93;150
0:30:18.049000;-92;150
0:30:18.248000;-90;150
0:30:18.447000;-92;150
0:30:18.679000;-90;150
0:30:19.078000;-90;150
0:30:19.310000;-92;150
0:30:19.541000;-90;150
0:30:20.271000;-91;150
0:30:20.669000;-90;150
0:30:22.097000;-93;150
0:30:22.760000;-92;150
0:30:22.959000;-90;150
0:30:23.921000;-91;150
0:30:24.418000;-92;150
0:30:24.650000;-93;150
0:30:25.413000;-91;150
0:30:25.845000;-92;150
0:30:26.044000;-92;150
0:30:26.675000;-92;150
0:30:26.907000;-91;150
0:30:27.139000;-90;150
0:30:27.338000;-91;150
0:30:27.537000;-92;150
0:30:27.968000;-93;150
0:30:29.760000;-91;150
0:30:31.054000;-93;150
0:30:31.850000;-91;150
0:30:32.382000;-90;150
0:30:32.681000;-90;150
0:30:33.545000;-91;150
0:30:33.744000;-90;150
0:30:35.436000;-93;150
0:30:35.768000;-92;150
0:30:36.299000;-90;150
0:30:36.531000;-90;150
0:30:36.731000;-93;150
0:30:37.162000;-91;150
0:30:37.361000;-93;150
0:30:38.456000;-92;150
0:30:39.086000;-92;150
0:30:40.015000;-91;150
0:30:40.380000;-91;150
0:30:41.110000;-91;150
0:30:41.741000;-92;150
0:30:42.304000;-93;150
0:30:42.503000;-92;150
0:30:42.735000;-91;150
0:30:42.934000;-92;150
0:30:43.797000;-90;150
0:30:44.029000;-91;150
0:30:45.091000;-91;150
0:30:45.323000;-92;150
0:30:47.979000;-91;150
0:30:48.178000;-89;150
0:30:48.410000;-91;150
0:30:49.472000;-90;150
0:30:49.671000;-92;150
0:30:49.903000;-91;150
0:30:51.395000;-92;150
0:30:51.826000;-91;150
0:30:52.025000;-90;150
0:30:52.988000;-91;150
0:30:53.851000;-92;150
0:30:54.083000;-93;150
0:30:54.282000;-92;150
0:30:54.713000;-92;150
0:30:55.111000;-90;150
0:30:55.343000;-91;150
0:30:55.874000;-91;150
0:30:56.074000;-91;150
0:30:56.306000;-91;150
0:30:56.505000;-92;150
0:30:56.705000;-89;150
0:30:57.169000;-93;150
0:30:57.369000;-92;150
0:30:58;-92;150
0:30:58.664000;-91;150
0:31:00.923000;-93;150
0:31:02.185000;-92;150
