0:00:00;-85;150
0:00:00.199000;-85;150
0:00:00.631000;-85;150
0:00:01.029000;-84;150
0:00:01.129000;-86;150
0:00:01.228000;-83;150
0:00:01.328000;-85;150
0:00:01.560000;-86;150
0:00:01.660000;-83;150
0:00:01.991000;-85;150
0:00:02.190000;-83;150
0:00:02.290000;-85;150
0:00:02.489000;-84;150
0:00:02.821000;-85;150
0:00:03.152000;-83;150
0:00:03.252000;-85;150
0:00:03.451000;-83;150
0:00:03.650000;-83;150
0:00:03.982000;-84;150
0:00:04.314000;-83;150
0:00:04.413000;-84;150
0:00:04.546000;-85;150
0:00:04.712000;-84;150
0:00:04.812000;-84;150
0:00:05.044000;-84;150
0:00:05.243000;-85;150
0:00:05.641000;-82;150
0:00:05.873000;-86;150
0:00:06.172000;-83;150
0:00:06.371000;-82;150
0:00:06.703000;-82;150
0:00:07.234000;-84;150
0:00:07.334000;-82;150
0:00:07.566000;-85;150
0:00:07.865000;-84;150
0:00:08.097000;-85;150
0:00:08.396000;-85;150
0:00:08.628000;-86;150
0:00:08.828000;-87;150
0:00:09.027000;-82;150
0:00:09.126000;-80;150
0:00:09.226000;-86;150
0:00:09.425000;-90;150
0:00:09.856000;-81;150
0:00:10.055000;-85;150
0:00:10.520000;-85;150
0:00:10.785000;-83;150
0:00:11.018000;-82;150
0:00:11.217000;-82;150
0:00:11.417000;-82;150
0:00:11.516000;-83;150
0:00:11.649000;-87;150
0:00:11.748000;-87;150
0:00:11.848000;-83;150
0:00:11.947000;-86;150
0:00:12.246000;-83;150
0:00:12.445000;-82;150
0:00:12.777000;-83;150
0:00:13.010000;-82;150
0:00:13.209000;-86;150
0:00:13.508000;-83;150
0:00:13.740000;-84;150
0:00:13.840000;-83;150
0:00:14.039000;-82;150
0:00:14.238000;-82;150
0:00:14.471000;-82;150
0:00:14.770000;-82;150
0:00:15.002000;-84;150
0:00:15.301000;-84;150
0:00:15.400000;-83;150
0:00:15.633000;-85;150
0:00:15.732000;-83;150
0:00:15.832000;-82;150
0:00:15.931000;-85;150
0:00:16.263000;-85;150
0:00:16.495000;-85;150
0:00:16.595000;-83;150
0:00:16.761000;-83;150
0:00:16.993000;-84;150
0:00:17.524000;-85;150
0:00:17.823000;-82;150
0:00:18.055000;-82;150
0:00:18.254000;-85;150
0:00:18.354000;-84;150
0:00:18.652000;-83;150
0:00:18.984000;-86;150
0:00:19.084000;-84;150
0:00:19.183000;-86;150
0:00:19.615000;-83;150
0:00:19.814000;-84;150
0:00:20.046000;-84;150
0:00:20.245000;-84;150
0:00:20.544000;-84;150
0:00:20.776000;-84;150
0:00:21.075000;-83;150
0:00:21.407000;-81;150
0:00:21.507000;-86;150
0:00:21.905000;-83;150
0:00:22.137000;-81;150
0:00:22.337000;-85;150
0:00:22.635000;-85;150
0:00:23.067000;-83;150
0:00:23.266000;-82;150
0:00:24.129000;-83;150
0:00:24.328000;-85;150
0:00:24.660000;-82;150
0:00:24.760000;-84;150
0:00:25.059000;-85;150
0:00:25.158000;-81;150
0:00:25.391000;-82;150
0:00:25.689000;-85;150
0:00:25.921000;-85;150
0:00:26.220000;-86;150
0:00:26.552000;-83;150
0:00:26.652000;-87;150
0:00:27.382000;-83;150
0:00:27.614000;-84;150
0:00:28.112000;-82;150
0:00:28.344000;-85;150
0:00:28.975000;-85;150
0:00:29.074000;-84;150
0:00:29.273000;-86;150
0:00:29.373000;-82;150
0:00:29.705000;-85;150
0:00:29.904000;-86;150
0:00:30.236000;-86;150
0:00:30.767000;-83;150
0:00:30.967000;-83;150
0:00:31.398000;-82;150
0:00:31.531000;-86;150
0:00:31.631000;-87;150
0:00:31.730000;-82;150
0:00:31.830000;-86;150
0:00:32.029000;-83;150
0:00:32.328000;-87;150
0:00:32.427000;-83;150
0:00:32.659000;-84;150
0:00:33.389000;-86;150
0:00:33.821000;-85;150
0:00:34.020000;-86;150
0:00:34.485000;-85;150
0:00:34.651000;-85;150
0:00:34.750000;-84;150
0:00:34.949000;-83;150
0:00:35.281000;-85;150
0:00:35.613000;-86;150
0:00:35.713000;-83;150
0:00:35.813000;-86;150
0:00:36.012000;-87;150
0:00:36.343000;-86;150
0:00:36.642000;-83;150
0:00:36.874000;-87;150
0:00:36.974000;-83;150
0:00:37.273000;-83;150
0:00:37.604000;-86;150
0:00:37.804000;-83;150
0:00:38.102000;-85;150
0:00:38.202000;-83;150
0:00:38.434000;-83;150
0:00:39.596000;-84;150
0:00:39.895000;-83;150
0:00:40.525000;-82;150
0:00:40.724000;-82;150
0:00:40.857000;-83;150
0:00:40.957000;-86;150
0:00:41.156000;-85;150
0:00:41.355000;-83;150
0:00:41.454000;-83;150
0:00:42.085000;-85;150
0:00:42.517000;-84;150
0:00:42.916000;-82;150
0:00:43.148000;-85;150
0:00:43.248000;-84;150
0:00:43.480000;-83;150
0:00:43.646000;-83;150
0:00:43.746000;-85;150
0:00:43.945000;-82;150
0:00:44.277000;-83;150
0:00:44.476000;-83;150
0:00:44.908000;-85;150
0:00:45.040000;-86;150
0:00:45.438000;-86;150
0:00:46.169000;-85;150
0:00:46.268000;-83;150
0:00:46.467000;-84;150
0:00:46.800000;-83;150
0:00:46.999000;-84;150
0:00:47.231000;-85;150
0:00:47.431000;-87;150
0:00:47.630000;-87;150
0:00:47.763000;-83;150
0:00:48.061000;-83;150
0:00:48.293000;-83;150
0:00:48.492000;-83;150
0:00:48.924000;-82;150
0:00:49.322000;-83;150
0:00:49.554000;-82;150
0:00:49.654000;-86;150
0:00:49.853000;-86;150
0:00:50.052000;-86;150
0:00:50.384000;-84;150
0:00:50.583000;-83;150
0:00:50.816000;-86;150
0:00:50.915000;-83;150
0:00:51.114000;-83;150
0:00:51.214000;-86;150
0:00:51.413000;-83;150
0:00:52.774000;-83;150
0:00:53.006000;-83;150
0:00:53.404000;-83;150
0:00:53.637000;-85;150
0:00:53.836000;-83;150
0:00:54.168000;-83;150
0:00:54.566000;-86;150
0:00:54.666000;-86;150
0:00:54.765000;-83;150
0:00:55.097000;-85;150
0:00:55.396000;-83;150
0:00:55.927000;-83;150
0:00:56.160000;-85;150
0:00:56.359000;-83;150
0:00:56.691000;-85;150
0:00:56.790000;-82;150
0:00:57.221000;-83;150
0:00:57.421000;-86;150
0:00:57.620000;-83;150
0:00:58.051000;-82;150
0:00:58.151000;-82;150
0:00:58.250000;-86;150
0:00:58.483000;-83;150
0:00:58.682000;-86;150
0:00:59.014000;-82;150
0:00:59.213000;-83;150
0:00:59.412000;-83;150
0:00:59.611000;-85;150
0:00:59.843000;-85;150
0:01:00.142000;-84;150
0:01:00.872000;-86;150
0:01:00.972000;-85;150
0:01:01.171000;-84;150
0:01:01.503000;-82;150
0:01:01.934000;-86;150
0:01:02.465000;-83;150
0:01:02.565000;-86;150
0:01:02.897000;-83;150
0:01:03.096000;-85;150
0:01:03.295000;-86;150
0:01:03.495000;-85;150
0:01:03.727000;-87;150
0:01:04.125000;-85;150
0:01:04.224000;-83;150
0:01:04.656000;-82;150
0:01:04.888000;-83;150
0:01:05.186000;-84;150
0:01:05.419000;-86;150
0:01:05.618000;-85;150
0:01:06.016000;-85;150
0:01:06.747000;-84;150
0:01:07.080000;-84;150
0:01:07.511000;-83;150
0:01:07.710000;-83;150
0:01:07.909000;-83;150
0:01:08.009000;-88;150
0:01:08.540000;-86;150
0:01:08.773000;-85;150
0:01:08.971000;-83;150
0:01:09.702000;-85;150
0:01:09.835000;-85;150
0:01:10.034000;-86;150
0:01:10.233000;-86;150
0:01:10.665000;-86;150
0:01:10.864000;-86;150
0:01:11.096000;-85;150
0:01:11.627000;-85;150
0:01:11.826000;-83;150
0:01:12.025000;-87;150
0:01:12.888000;-83;150
0:01:13.087000;-86;150
0:01:13.220000;-84;150
0:01:13.618000;-87;150
0:01:13.817000;-88;150
0:01:14.050000;-84;150
0:01:15.478000;-89;150
0:01:15.710000;-90;150
0:01:15.909000;-86;150
0:01:16.009000;-83;150
0:01:16.739000;-88;150
0:01:17.237000;-86;150
0:01:17.569000;-85;150
0:01:17.768000;-82;150
0:01:18.200000;-87;150
0:01:18.399000;-84;150
0:01:18.631000;-85;150
0:01:18.731000;-87;150
0:01:18.831000;-83;150
0:01:18.930000;-86;150
0:01:19.030000;-84;150
0:01:19.262000;-83;150
0:01:20.291000;-86;150
0:01:20.424000;-82;150
0:01:21.653000;-84;150
0:01:21.885000;-84;150
0:01:21.985000;-86;150
0:01:22.482000;-83;150
0:01:22.715000;-85;150
0:01:23.014000;-86;150
0:01:23.146000;-84;150
0:01:23.246000;-84;150
0:01:23.445000;-84;150
0:01:23.677000;-83;150
0:01:23.877000;-85;150
0:01:24.308000;-86;150
0:01:24.507000;-85;150
0:01:24.706000;-86;150
0:01:25.337000;-84;150
0:01:25.768000;-83;150
0:01:26.100000;-86;150
0:01:26.300000;-84;150
0:01:26.598000;-84;150
0:01:26.831000;-84;150
0:01:27.030000;-86;150
0:01:27.229000;-85;150
0:01:27.560000;-87;150
0:01:28.191000;-86;150
0:01:28.323000;-86;150
0:01:28.522000;-83;150
0:01:28.721000;-85;150
0:01:28.920000;-86;150
0:01:29.119000;-85;150
0:01:29.351000;-87;150
0:01:29.550000;-86;150
0:01:29.783000;-86;150
0:01:30.413000;-84;150
0:01:30.612000;-84;150
0:01:31.043000;-85;150
0:01:31.242000;-85;150
0:01:31.672000;-86;150
0:01:31.871000;-84;150
0:01:32.932000;-87;150
0:01:33.364000;-87;150
0:01:33.761000;-86;150
0:01:34.093000;-84;150
0:01:34.292000;-83;150
0:01:34.921000;-84;150
0:01:35.154000;-84;150
0:01:35.253000;-86;150
0:01:35.353000;-82;150
0:01:35.651000;-82;150
0:01:35.917000;-86;150
0:01:36.083000;-87;150
0:01:36.315000;-85;150
0:01:36.514000;-86;150
0:01:36.713000;-86;150
0:01:36.945000;-87;150
0:01:37.443000;-86;150
0:01:37.675000;-86;150
0:01:37.774000;-83;150
0:01:37.974000;-86;150
0:01:38.305000;-84;150
0:01:39.135000;-84;150
0:01:39.665000;-84;150
0:01:40.096000;-85;150
0:01:40.196000;-86;150
0:01:40.527000;-83;150
0:01:40.959000;-85;150
0:01:41.158000;-84;150
0:01:41.357000;-84;150
0:01:42.286000;-83;150
0:01:42.419000;-86;150
0:01:42.518000;-83;150
0:01:42.717000;-84;150
0:01:42.949000;-83;150
0:01:43.148000;-83;150
0:01:43.348000;-86;150
0:01:43.680000;-83;150
0:01:43.978000;-83;150
0:01:44.509000;-84;150
0:01:45.239000;-86;150
0:01:45.338000;-83;150
0:01:45.538000;-84;150
0:01:45.770000;-86;150
0:01:45.869000;-83;150
0:01:46.068000;-86;150
0:01:46.168000;-84;150
0:01:46.500000;-86;150
0:01:46.798000;-84;150
0:01:46.898000;-83;150
0:01:47.428000;-84;150
0:01:47.528000;-86;150
0:01:47.727000;-85;150
0:01:47.860000;-83;150
0:01:48.059000;-84;150
0:01:48.258000;-84;150
0:01:48.357000;-86;150
0:01:48.689000;-83;150
0:01:48.788000;-83;150
0:01:48.987000;-83;150
0:01:49.219000;-84;150
0:01:49.419000;-84;150
0:01:51.311000;-86;150
0:01:51.510000;-86;150
0:01:51.808000;-83;150
0:01:52.040000;-85;150
0:01:52.339000;-84;150
0:01:52.969000;-86;150
0:01:53.500000;-84;150
0:01:53.799000;-85;150
0:01:53.931000;-84;150
0:01:54.329000;-85;150
0:01:54.529000;-87;150
0:01:54.827000;-83;150
0:01:55.059000;-86;150
0:01:55.258000;-87;150
0:01:55.590000;-83;150
0:01:55.921000;-84;150
0:01:56.120000;-83;150
0:01:56.320000;-84;150
0:01:56.651000;-85;150
0:01:57.713000;-83;150
0:01:57.812000;-86;150
0:01:58.144000;-83;150
0:01:58.674000;-83;150
0:01:58.873000;-85;150
0:01:59.006000;-83;150
0:01:59.105000;-85;150
0:01:59.304000;-86;150
0:01:59.503000;-87;150
0:01:59.735000;-85;150
0:01:59.834000;-82;150
0:02:03.617000;-86;150
0:02:03.915000;-86;150
0:02:04.147000;-86;150
0:02:04.380000;-86;150
0:02:04.479000;-83;150
0:02:04.778000;-84;150
0:02:04.878000;-86;150
0:02:06.138000;-86;150
0:02:06.338000;-86;150
0:02:06.537000;-83;150
0:02:06.968000;-87;150
0:02:07.067000;-83;150
0:02:07.300000;-83;150
0:02:07.499000;-87;150
0:02:07.698000;-86;150
0:02:08.029000;-83;150
0:02:08.228000;-85;150
0:02:08.460000;-85;150
0:02:09.918000;-85;150
0:02:14.526000;-85;150
0:02:14.626000;-83;150
0:02:14.725000;-85;150
0:02:15.057000;-83;150
0:02:15.255000;-83;150
0:02:15.355000;-83;150
0:02:15.587000;-86;150
0:02:16.316000;-83;150
0:02:16.648000;-83;150
0:02:16.946000;-83;150
0:02:17.343000;-85;150
0:02:17.873000;-84;150
0:02:18.072000;-84;150
0:02:18.304000;-85;150
0:02:19.033000;-83;150
0:02:19.960000;-85;150
0:02:20.624000;-86;150
0:02:20.822000;-85;150
0:02:20.955000;-85;150
0:02:21.021000;-84;150
0:02:21.253000;-84;150
0:02:21.452000;-83;150
0:02:21.850000;-84;150
0:02:22.280000;-88;150
0:02:22.413000;-84;150
0:02:22.611000;-86;150
0:02:22.810000;-86;150
0:02:23.009000;-86;150
0:02:23.340000;-82;150
0:02:23.638000;-83;150
0:02:24.069000;-85;150
0:02:24.500000;-86;150
0:02:25.427000;-86;150
0:02:25.626000;-86;150
0:02:26.057000;-86;150
0:02:26.156000;-83;150
0:02:26.355000;-86;150
0:02:26.785000;-86;150
0:02:26.985000;-86;150
0:02:27.183000;-83;150
0:02:27.382000;-83;150
0:02:27.813000;-83;150
0:02:30;-85;150
0:02:31.160000;-83;150
0:02:32.321000;-86;150
0:02:32.420000;-83;150
0:02:32.520000;-84;150
0:02:32.851000;-83;150
0:02:33.481000;-83;150
0:02:33.679000;-84;150
0:02:33.911000;-84;150
0:02:34.011000;-86;150
0:02:34.441000;-86;150
0:02:35.038000;-86;150
0:02:36.729000;-84;150
0:02:36.928000;-84;150
0:02:37.060000;-83;150
0:02:37.160000;-85;150
0:02:37.259000;-85;150
0:02:37.392000;-83;150
0:02:37.590000;-83;150
0:02:40.208000;-85;150
0:02:40.506000;-85;150
0:02:41.136000;-86;150
0:02:41.467000;-84;150
0:02:41.666000;-86;150
0:02:42.396000;-87;150
0:02:42.495000;-86;150
0:02:42.728000;-83;150
0:02:42.927000;-86;150
0:02:43.026000;-83;150
0:02:43.159000;-84;150
0:02:43.557000;-85;150
0:02:43.988000;-83;150
0:02:44.187000;-85;150
0:02:44.617000;-86;150
0:02:44.717000;-84;150
0:02:45.015000;-87;150
0:02:45.214000;-84;150
0:02:45.347000;-85;150
0:02:45.546000;-85;150
0:02:46.711000;-83;150
0:02:47.208000;-83;150
0:02:47.540000;-84;150
0:02:47.640000;-87;150
0:02:47.971000;-86;150
0:02:48.170000;-85;150
0:02:48.369000;-86;150
0:02:49.530000;-85;150
0:02:49.729000;-83;150
0:02:50.259000;-83;150
0:02:50.557000;-86;150
0:02:50.856000;-82;150
0:02:51.419000;-86;150
0:02:52.049000;-86;150
0:02:52.148000;-82;150
0:02:52.347000;-85;150
0:02:52.480000;-83;150
0:02:53.077000;-84;150
0:02:53.840000;-87;150
0:02:54.237000;-86;150
0:02:54.668000;-86;150
0:02:55.099000;-86;150
0:02:55.331000;-86;150
0:02:55.629000;-83;150
0:02:55.861000;-83;150
0:02:56.491000;-83;150
0:02:56.988000;-87;150
0:02:57.319000;-83;150
0:02:57.618000;-83;150
0:02:57.817000;-83;150
0:02:58.347000;-84;150
0:02:58.579000;-83;150
0:02:58.778000;-83;150
0:02:58.977000;-83;150
0:02:59.640000;-85;150
0:03:00.137000;-84;150
0:03:00.668000;-83;150
0:03:00.767000;-84;150
0:03:01.099000;-86;150
0:03:01.397000;-86;150
0:03:01.630000;-86;150
0:03:01.829000;-85;150
0:03:02.028000;-84;150
0:03:02.227000;-83;150
0:03:02.459000;-86;150
0:03:02.559000;-85;150
0:03:02.991000;-86;150
0:03:03.190000;-84;150
0:03:03.422000;-87;150
0:03:03.521000;-83;150
0:03:04.018000;-86;150
0:03:04.350000;-86;150
0:03:04.549000;-86;150
0:03:04.748000;-85;150
0:03:04.980000;-87;150
0:03:05.179000;-86;150
0:03:05.278000;-84;150
0:03:05.378000;-82;150
0:03:05.610000;-84;150
0:03:06.041000;-85;150
0:03:06.140000;-86;150
0:03:06.339000;-85;150
0:03:06.571000;-86;150
0:03:06.671000;-83;150
0:03:07.500000;-86;150
0:03:07.600000;-87;150
0:03:07.898000;-84;150
0:03:09.790000;-86;150
0:03:10.021000;-86;150
0:03:10.618000;-84;150
0:03:10.817000;-84;150
0:03:11.447000;-86;150
0:03:11.645000;-86;150
0:03:11.877000;-86;150
0:03:12.076000;-83;150
0:03:12.176000;-87;150
0:03:12.275000;-82;150
0:03:12.507000;-83;150
0:03:12.607000;-86;150
0:03:12.905000;-87;150
0:03:13.037000;-83;150
0:03:13.767000;-83;150
0:03:13.966000;-88;150
0:03:14.696000;-87;150
0:03:15.093000;-84;150
0:03:15.425000;-86;150
0:03:16.154000;-86;150
0:03:16.352000;-85;150
0:03:16.883000;-86;150
0:03:17.214000;-86;150
0:03:17.413000;-84;150
0:03:17.612000;-85;150
0:03:17.844000;-86;150
0:03:18.043000;-87;150
0:03:18.242000;-88;150
0:03:18.773000;-83;150
0:03:19.304000;-83;150
0:03:19.403000;-86;150
0:03:20.332000;-87;150
0:03:20.664000;-82;150
0:03:20.796000;-87;150
0:03:21.095000;-87;150
0:03:21.957000;-86;150
0:03:22.155000;-87;150
0:03:23.748000;-83;150
0:03:23.947000;-86;150
0:03:24.146000;-87;150
0:03:24.577000;-87;150
0:03:24.776000;-84;150
0:03:25.206000;-83;150
0:03:25.405000;-87;150
0:03:25.604000;-84;150
0:03:25.836000;-84;150
0:03:26.366000;-84;150
0:03:26.565000;-86;150
0:03:26.797000;-87;150
0:03:26.997000;-86;150
0:03:27.295000;-84;150
0:03:27.527000;-83;150
0:03:27.726000;-86;150
0:03:28.489000;-87;150
0:03:28.589000;-84;150
0:03:28.688000;-87;150
0:03:28.788000;-83;150
0:03:29.518000;-83;150
0:03:29.750000;-84;150
0:03:29.948000;-86;150
0:03:30.147000;-86;150
0:03:30.379000;-86;150
0:03:30.578000;-87;150
0:03:31.108000;-83;150
0:03:31.340000;-83;150
0:03:31.439000;-86;150
0:03:31.539000;-83;150
0:03:31.738000;-84;150
0:03:32.070000;-87;150
0:03:32.568000;-86;150
0:03:32.800000;-87;150
0:03:32.999000;-87;150
0:03:33.630000;-86;150
0:03:33.729000;-83;150
0:03:33.829000;-86;150
0:03:34.359000;-83;150
0:03:34.558000;-87;150
0:03:34.790000;-88;150
0:03:35.187000;-83;150
0:03:35.817000;-86;150
0:03:36.348000;-86;150
0:03:36.547000;-86;150
0:03:36.845000;-84;150
0:03:36.978000;-88;150
0:03:37.177000;-83;150
0:03:37.576000;-84;150
0:03:38.339000;-84;150
0:03:38.936000;-83;150
0:03:39.168000;-87;150
0:03:39.566000;-87;150
0:03:39.666000;-84;150
0:03:40.097000;-86;150
0:03:40.196000;-82;150
0:03:40.627000;-87;150
0:03:40.826000;-84;150
0:03:40.959000;-84;150
0:03:41.457000;-83;150
0:03:41.689000;-85;150
0:03:41.888000;-87;150
0:03:42.087000;-83;150
0:03:42.319000;-82;150
0:03:42.750000;-87;150
0:03:43.148000;-88;150
0:03:43.381000;-86;150
0:03:43.580000;-87;150
0:03:44.011000;-84;150
0:03:45.370000;-86;150
0:03:45.668000;-86;150
0:03:46.099000;-84;150
0:03:46.431000;-86;150
0:03:46.928000;-84;150
0:03:47.061000;-83;150
0:03:47.260000;-87;150
0:03:47.890000;-83;150
0:03:48.620000;-82;150
0:03:48.720000;-86;150
0:03:49.052000;-87;150
0:03:49.450000;-84;150
0:03:49.749000;-84;150
0:03:49.981000;-86;150
0:03:50.279000;-83;150
0:03:50.710000;-86;150
0:03:50.843000;-87;150
0:03:51.439000;-87;150
0:03:51.539000;-84;150
0:03:51.638000;-87;150
0:03:51.937000;-85;150
0:03:52.169000;-85;150
0:03:52.302000;-87;150
0:03:52.700000;-88;150
0:03:53.530000;-86;150
0:03:53.762000;-86;150
0:03:54.061000;-84;150
0:03:54.160000;-86;150
0:03:54.558000;-85;150
0:03:54.691000;-83;150
0:03:55.321000;-88;150
0:03:55.520000;-86;150
0:03:55.752000;-87;150
0:03:55.950000;-84;150
0:03:56.381000;-84;150
0:03:56.580000;-84;150
0:03:56.679000;-88;150
0:03:57.110000;-84;150
0:03:57.840000;-87;150
0:03:58.570000;-84;150
0:03:58.769000;-86;150
0:03:59.300000;-83;150
0:03:59.765000;-83;150
0:03:59.931000;-86;150
0:04:00.362000;-87;150
0:04:00.560000;-87;150
0:04:00.958000;-83;150
0:04:01.090000;-87;150
0:04:01.587000;-83;150
0:04:02.251000;-86;150
0:04:02.450000;-86;150
0:04:02.881000;-87;150
0:04:03.080000;-85;150
0:04:03.810000;-86;150
0:04:04.275000;-87;150
0:04:04.474000;-87;150
0:04:04.673000;-86;150
0:04:04.872000;-87;150
0:04:05.104000;-86;150
0:04:05.303000;-84;150
0:04:05.601000;-84;150
0:04:05.833000;-84;150
0:04:06.032000;-86;150
0:04:06.663000;-84;150
0:04:07.094000;-86;150
0:04:07.293000;-86;150
0:04:07.393000;-84;150
0:04:07.625000;-83;150
0:04:07.924000;-83;150
0:04:08.156000;-86;150
0:04:08.256000;-84;150
0:04:08.554000;-83;150
0:04:08.786000;-83;150
0:04:09.318000;-84;150
0:04:10.146000;-84;150
0:04:10.345000;-83;150
0:04:10.875000;-85;150
0:04:11.107000;-88;150
0:04:11.406000;-83;150
0:04:11.605000;-84;150
0:04:11.936000;-84;150
0:04:12.135000;-84;150
0:04:12.666000;-83;150
0:04:12.766000;-86;150
0:04:12.865000;-87;150
0:04:12.965000;-83;150
0:04:13.197000;-87;150
0:04:13.396000;-86;150
0:04:13.728000;-83;150
0:04:13.927000;-83;150
0:04:14.458000;-86;150
0:04:14.557000;-86;150
0:04:14.657000;-82;150
0:04:14.889000;-86;150
0:04:14.988000;-86;150
0:04:15.187000;-86;150
0:04:15.386000;-85;150
0:04:15.949000;-86;150
0:04:16.579000;-87;150
0:04:18.471000;-89;150
0:04:18.770000;-87;150
0:04:19.102000;-83;150
0:04:19.301000;-85;150
0:04:19.599000;-84;150
0:04:19.931000;-85;150
0:04:20.030000;-87;150
0:04:20.130000;-83;150
0:04:20.362000;-86;150
0:04:20.560000;-87;150
0:04:20.760000;-86;150
0:04:20.992000;-87;150
0:04:21.390000;-87;150
0:04:21.490000;-83;150
0:04:21.921000;-83;150
0:04:22.253000;-83;150
0:04:22.452000;-86;150
0:04:22.651000;-83;150
0:04:22.883000;-87;150
0:04:22.983000;-87;150
0:04:23.747000;-86;150
0:04:23.846000;-86;150
0:04:24.576000;-85;150
0:04:25.007000;-84;150
0:04:25.239000;-85;150
0:04:25.537000;-86;150
0:04:25.736000;-86;150
0:04:25.935000;-86;150
0:04:26.698000;-84;150
0:04:26.831000;-87;150
0:04:26.997000;-83;150
0:04:27.229000;-84;150
0:04:27.428000;-87;150
0:04:28.258000;-84;150
0:04:28.689000;-82;150
0:04:28.922000;-86;150
0:04:29.121000;-86;150
0:04:29.453000;-86;150
0:04:29.652000;-83;150
0:04:29.784000;-87;150
0:04:30.050000;-82;150
0:04:30.282000;-83;150
0:04:30.382000;-84;150
0:04:30.580000;-83;150
0:04:30.713000;-86;150
0:04:30.812000;-83;150
0:04:30.912000;-87;150
0:04:31.111000;-86;150
0:04:31.310000;-87;150
0:04:31.642000;-84;150
0:04:32.571000;-83;150
0:04:32.802000;-87;150
0:04:32.902000;-83;150
0:04:33.002000;-87;150
0:04:33.533000;-83;150
0:04:33.831000;-83;150
0:04:34.064000;-87;150
0:04:34.263000;-86;150
0:04:34.462000;-86;150
0:04:34.660000;-87;150
0:04:34.892000;-87;150
0:04:35.190000;-88;150
0:04:35.290000;-83;150
0:04:35.622000;-85;150
0:04:36.052000;-88;150
0:04:36.251000;-87;150
0:04:37.479000;-84;150
0:04:37.678000;-86;150
0:04:37.811000;-86;150
0:04:37.911000;-83;150
0:04:38.010000;-84;150
0:04:38.309000;-86;150
0:04:38.442000;-83;150
0:04:38.542000;-83;150
0:04:38.741000;-86;150
0:04:38.940000;-87;150
0:04:39.072000;-83;150
0:04:39.271000;-83;150
0:04:39.470000;-83;150
0:04:39.802000;-84;150
0:04:40.101000;-87;150
0:04:40.333000;-87;150
0:04:40.730000;-87;150
0:04:40.830000;-84;150
0:04:41.161000;-87;150
0:04:41.360000;-84;150
0:04:41.460000;-86;150
0:04:41.658000;-87;150
0:04:41.791000;-83;150
0:04:41.890000;-87;150
0:04:41.990000;-83;150
0:04:42.089000;-87;150
0:04:42.189000;-83;150
0:04:42.487000;-83;150
0:04:42.918000;-84;150
0:04:43.018000;-87;150
0:04:43.980000;-88;150
0:04:44.080000;-86;150
0:04:44.179000;-86;150
0:04:44.809000;-86;150
0:04:46.069000;-86;150
0:04:46.301000;-86;150
0:04:46.599000;-84;150
0:04:47.030000;-83;150
0:04:47.130000;-87;150
0:04:47.329000;-87;150
0:04:47.429000;-84;150
0:04:47.528000;-84;150
0:04:47.628000;-86;150
0:04:47.827000;-87;150
0:04:48.026000;-83;150
0:04:48.457000;-82;150
0:04:48.656000;-82;150
0:04:48.855000;-87;150
0:04:49.054000;-83;150
0:04:49.287000;-84;150
0:04:49.486000;-84;150
0:04:50.447000;-86;150
0:04:50.877000;-86;150
0:04:51.275000;-87;150
0:04:51.374000;-84;150
0:04:51.606000;-84;150
0:04:51.805000;-83;150
0:04:52.136000;-86;150
0:04:52.269000;-83;150
0:04:52.368000;-86;150
0:04:52.435000;-87;150
0:04:52.766000;-86;150
0:04:53.198000;-87;150
0:04:53.496000;-86;150
0:04:53.596000;-84;150
0:04:53.729000;-83;150
0:04:53.828000;-86;150
0:04:54.127000;-83;150
0:04:54.326000;-83;150
0:04:54.525000;-82;150
0:04:55.056000;-87;150
0:04:55.586000;-86;150
0:04:55.784000;-87;150
0:04:56.083000;-86;150
0:04:56.613000;-86;150
0:04:56.945000;-87;150
0:04:57.144000;-84;150
0:04:57.343000;-87;150
0:04:57.575000;-86;150
0:04:57.674000;-86;150
0:04:57.774000;-84;150
0:04:58.006000;-86;150
0:04:58.238000;-87;150
0:04:58.437000;-87;150
0:04:58.537000;-84;150
0:04:58.636000;-87;150
0:04:58.968000;-86;150
0:04:59.168000;-87;150
0:04:59.267000;-84;150
0:04:59.367000;-87;150
0:04:59.466000;-85;150
0:04:59.599000;-86;150
0:04:59.798000;-87;150
0:05:00.427000;-87;150
0:05:00.626000;-87;150
0:05:01.057000;-84;150
0:05:01.388000;-82;150
0:05:01.785000;-84;150
0:05:01.984000;-85;150
0:05:02.116000;-87;150
0:05:02.414000;-86;150
0:05:02.845000;-85;150
0:05:03.044000;-85;150
0:05:03.443000;-87;150
0:05:03.575000;-83;150
0:05:03.774000;-87;150
0:05:04.106000;-84;150
0:05:04.504000;-82;150
0:05:04.836000;-86;150
0:05:05.035000;-83;150
0:05:05.863000;-86;150
0:05:05.995000;-86;150
0:05:06.625000;-84;150
0:05:06.824000;-87;150
0:05:06.924000;-87;150
0:05:07.255000;-87;150
0:05:07.355000;-83;150
0:05:07.554000;-86;150
0:05:07.786000;-87;150
0:05:07.886000;-83;150
0:05:08.085000;-84;150
0:05:08.284000;-87;150
0:05:08.384000;-85;150
0:05:08.483000;-86;150
0:05:08.815000;-86;150
0:05:09.014000;-83;150
0:05:09.113000;-87;150
0:05:09.312000;-87;150
0:05:09.445000;-86;150
0:05:10.274000;-83;150
0:05:10.473000;-84;150
0:05:10.672000;-87;150
0:05:10.904000;-86;150
0:05:11.103000;-83;150
0:05:11.301000;-84;150
0:05:11.533000;-86;150
0:05:11.732000;-83;150
0:05:11.932000;-83;150
0:05:12.130000;-84;150
0:05:12.362000;-87;150
0:05:12.661000;-83;150
0:05:13.191000;-86;150
0:05:13.390000;-83;150
0:05:13.623000;-84;150
0:05:13.822000;-84;150
0:05:14.021000;-87;150
0:05:14.452000;-83;150
0:05:14.750000;-86;150
0:05:14.850000;-83;150
0:05:15.082000;-83;150
0:05:15.280000;-86;150
0:05:15.611000;-83;150
0:05:15.910000;-84;150
0:05:16.340000;-83;150
0:05:16.539000;-86;150
0:05:16.771000;-87;150
0:05:17.069000;-86;150
0:05:17.202000;-83;150
0:05:17.400000;-82;150
0:05:17.500000;-86;150
0:05:17.599000;-86;150
0:05:17.931000;-87;150
0:05:18.229000;-86;150
0:05:18.329000;-87;150
0:05:18.661000;-83;150
0:05:19.059000;-83;150
0:05:19.224000;-88;150
0:05:19.490000;-86;150
0:05:20.020000;-83;150
0:05:20.119000;-86;150
0:05:20.318000;-85;150
0:05:20.517000;-83;150
0:05:20.649000;-83;150
0:05:20.848000;-84;150
0:05:21.047000;-85;150
0:05:21.278000;-86;150
0:05:21.477000;-86;150
0:05:22.107000;-86;150
0:05:22.239000;-84;150
0:05:22.338000;-84;150
0:05:22.537000;-86;150
0:05:22.736000;-83;150
0:05:22.969000;-83;150
0:05:23.267000;-83;150
0:05:23.500000;-86;150
0:05:23.798000;-86;150
0:05:24.030000;-87;150
0:05:24.329000;-84;150
0:05:24.428000;-84;150
0:05:24.661000;-84;150
0:05:24.959000;-83;150
0:05:25.291000;-86;150
0:05:25.390000;-83;150
0:05:25.489000;-86;150
0:05:26.019000;-86;150
0:05:26.351000;-84;150
0:05:26.549000;-84;150
0:05:26.748000;-82;150
0:05:26.848000;-88;150
0:05:27.080000;-86;150
0:05:27.179000;-84;150
0:05:27.378000;-84;150
0:05:27.710000;-86;150
0:05:27.809000;-82;150
0:05:28.009000;-86;150
0:05:28.738000;-86;150
0:05:29.071000;-88;150
0:05:29.270000;-83;150
0:05:29.569000;-86;150
0:05:30.100000;-83;150
0:05:30.829000;-86;150
0:05:31.194000;-86;150
0:05:31.459000;-83;150
0:05:31.891000;-86;150
0:05:32.190000;-87;150
0:05:32.289000;-83;150
0:05:32.488000;-87;150
0:05:32.687000;-83;150
0:05:32.886000;-86;150
0:05:33.118000;-85;150
0:05:33.417000;-84;150
0:05:33.649000;-86;150
0:05:33.748000;-88;150
0:05:33.948000;-83;150
0:05:34.678000;-84;150
0:05:35.010000;-84;150
0:05:35.209000;-85;150
0:05:35.639000;-86;150
0:05:35.772000;-84;150
0:05:36.269000;-86;150
0:05:36.468000;-84;150
0:05:36.898000;-83;150
0:05:37.197000;-87;150
0:05:37.628000;-86;150
0:05:37.927000;-85;150
0:05:38.258000;-85;150
0:05:38.358000;-83;150
0:05:39.287000;-86;150
0:05:39.618000;-82;150
0:05:39.717000;-84;150
0:05:39.949000;-84;150
0:05:40.181000;-86;150
0:05:40.280000;-84;150
0:05:40.380000;-86;150
0:05:40.578000;-87;150
0:05:40.678000;-84;150
0:05:41.208000;-84;150
0:05:41.539000;-84;150
0:05:41.937000;-83;150
0:05:42.136000;-84;150
0:05:42.369000;-85;150
0:05:42.468000;-85;150
0:05:42.867000;-85;150
0:05:43.199000;-83;150
0:05:43.398000;-83;150
0:05:43.730000;-88;150
0:05:43.929000;-86;150
0:05:44.228000;-83;150
0:05:44.692000;-84;150
0:05:45.091000;-86;150
0:05:45.290000;-87;150
0:05:45.423000;-83;150
0:05:45.622000;-86;150
0:05:45.821000;-85;150
0:05:46.352000;-87;150
0:05:46.784000;-85;150
0:05:46.983000;-83;150
0:05:47.614000;-83;150
0:05:47.813000;-86;150
0:05:48.012000;-84;150
0:05:48.245000;-87;150
0:05:48.344000;-84;150
0:05:48.444000;-85;150
0:05:48.975000;-85;150
0:05:49.174000;-85;150
0:05:49.307000;-84;150
0:05:49.406000;-87;150
0:05:49.605000;-86;150
0:05:49.804000;-86;150
0:05:50.136000;-84;150
0:05:50.236000;-84;150
0:05:51.165000;-83;150
0:05:51.364000;-84;150
0:05:51.464000;-86;150
0:05:51.597000;-84;150
0:05:51.796000;-86;150
0:05:51.896000;-85;150
0:05:52.095000;-86;150
0:05:52.261000;-83;150
0:05:52.427000;-83;150
0:05:52.858000;-84;150
0:05:53.057000;-86;150
0:05:53.389000;-85;150
0:05:53.488000;-84;150
0:05:54.219000;-86;150
0:05:54.418000;-84;150
0:05:54.651000;-85;150
0:05:54.750000;-85;150
0:05:54.949000;-85;150
0:05:55.381000;-85;150
0:05:55.613000;-86;150
0:05:55.812000;-86;150
0:05:56.010000;-85;150
0:05:56.242000;-86;150
0:05:56.673000;-86;150
0:05:56.773000;-85;150
0:05:56.972000;-85;150
0:05:57.171000;-83;150
0:05:57.403000;-83;150
0:05:57.503000;-83;150
0:05:57.702000;-86;150
0:05:58.034000;-84;150
0:05:58.565000;-86;150
0:05:58.764000;-86;150
0:05:59.395000;-84;150
0:05:59.826000;-84;150
0:06:00.025000;-87;150
0:06:00.257000;-85;150
0:06:00.456000;-86;150
0:06:00.655000;-85;150
0:06:00.854000;-84;150
0:06:01.285000;-86;150
0:06:01.384000;-84;150
0:06:02.014000;-86;150
0:06:02.213000;-84;150
0:06:02.312000;-86;150
0:06:02.511000;-85;150
0:06:02.710000;-87;150
0:06:02.843000;-86;150
0:06:03.142000;-86;150
0:06:03.474000;-84;150
0:06:03.573000;-85;150
0:06:03.805000;-86;150
0:06:04.203000;-85;150
0:06:04.634000;-86;150
0:06:04.834000;-86;150
0:06:05.032000;-84;150
0:06:05.165000;-86;150
0:06:05.762000;-83;150
0:06:05.993000;-86;150
0:06:06.391000;-83;150
0:06:06.623000;-85;150
0:06:06.821000;-86;150
0:06:07.020000;-85;150
0:06:07.352000;-86;150
0:06:07.551000;-84;150
0:06:07.982000;-84;150
0:06:08.313000;-84;150
0:06:08.512000;-84;150
0:06:08.712000;-86;150
0:06:08.944000;-86;150
0:06:09.143000;-85;150
0:06:09.342000;-86;150
0:06:09.574000;-86;150
0:06:09.873000;-86;150
0:06:10.204000;-84;150
0:06:10.303000;-87;150
0:06:10.403000;-86;150
0:06:10.502000;-85;150
0:06:10.701000;-84;150
0:06:11.762000;-87;150
0:06:11.961000;-86;150
0:06:12.392000;-84;150
0:06:12.723000;-84;150
0:06:13.021000;-86;150
0:06:13.552000;-87;150
0:06:13.751000;-84;150
0:06:14.381000;-84;150
0:06:14.480000;-86;150
0:06:14.712000;-84;150
0:06:15.409000;-82;150
0:06:15.608000;-83;150
0:06:15.840000;-86;150
0:06:15.939000;-84;150
0:06:16.171000;-83;150
0:06:16.668000;-83;150
0:06:17.099000;-83;150
0:06:17.198000;-84;150
0:06:17.530000;-86;150
0:06:17.828000;-83;150
0:06:18.027000;-86;150
0:06:18.359000;-83;150
0:06:18.459000;-86;150
0:06:18.558000;-84;150
0:06:18.691000;-83;150
0:06:18.890000;-83;150
0:06:19.155000;-86;150
0:06:19.719000;-83;150
0:06:20.050000;-86;150
0:06:20.582000;-88;150
0:06:21.213000;-88;150
0:06:21.511000;-84;150
0:06:21.843000;-87;150
0:06:22.142000;-87;150
0:06:22.374000;-86;150
0:06:22.672000;-85;150
0:06:22.772000;-84;150
0:06:22.904000;-87;150
0:06:23.435000;-87;150
0:06:23.667000;-84;150
0:06:23.833000;-87;150
0:06:24.893000;-85;150
0:06:24.993000;-83;150
0:06:25.225000;-83;150
0:06:25.424000;-84;150
0:06:25.622000;-86;150
0:06:25.854000;-85;150
0:06:26.053000;-85;150
0:06:26.583000;-86;150
0:06:26.715000;-83;150
0:06:27.014000;-87;150
0:06:27.212000;-87;150
0:06:27.511000;-83;150
0:06:27.842000;-84;150
0:06:27.942000;-86;150
0:06:28.042000;-84;150
0:06:28.606000;-87;150
0:06:28.904000;-83;150
0:06:29.103000;-83;150
0:06:29.336000;-83;150
0:06:29.535000;-86;150
0:06:29.767000;-86;150
0:06:29.966000;-87;150
0:06:30.165000;-86;150
0:06:30.496000;-84;150
0:06:30.695000;-86;150
0:06:30.927000;-85;150
0:06:31.026000;-86;150
0:06:31.225000;-88;150
0:06:31.424000;-83;150
0:06:31.755000;-83;150
0:06:31.855000;-86;150
0:06:31.954000;-83;150
0:06:32.286000;-87;150
0:06:32.816000;-84;150
0:06:32.915000;-84;150
0:06:33.014000;-86;150
0:06:33.645000;-85;150
0:06:33.844000;-84;150
0:06:34.043000;-84;150
0:06:34.275000;-85;150
0:06:34.374000;-84;150
0:06:34.573000;-83;150
0:06:35.104000;-83;150
0:06:35.303000;-86;150
0:06:35.502000;-86;150
0:06:35.932000;-84;150
0:06:36.131000;-84;150
0:06:36.363000;-84;150
0:06:36.760000;-83;150
0:06:36.993000;-83;150
0:06:37.191000;-86;150
0:06:37.390000;-86;150
0:06:37.622000;-86;150
0:06:37.722000;-84;150
0:06:38.120000;-87;150
0:06:38.983000;-84;150
0:06:39.182000;-86;150
0:06:39.380000;-84;150
0:06:39.579000;-83;150
0:06:39.712000;-87;150
0:06:39.812000;-85;150
0:06:39.911000;-83;150
0:06:40.143000;-83;150
0:06:40.441000;-83;150
0:06:40.674000;-87;150
0:06:40.972000;-86;150
0:06:41.071000;-85;150
0:06:41.303000;-83;150
0:06:41.700000;-84;150
0:06:41.799000;-86;150
0:06:42.031000;-86;150
0:06:42.528000;-85;150
0:06:42.959000;-84;150
0:06:43.058000;-86;150
0:06:43.191000;-84;150
0:06:43.390000;-84;150
0:06:43.489000;-86;150
0:06:43.589000;-83;150
0:06:44.219000;-87;150
0:06:44.849000;-86;150
0:06:44.949000;-86;150
0:06:45.280000;-83;150
0:06:45.579000;-86;150
0:06:45.811000;-86;150
0:06:45.910000;-86;150
0:06:46.307000;-84;150
0:06:46.639000;-85;150
0:06:46.837000;-84;150
0:06:47.037000;-84;150
0:06:47.269000;-84;150
0:06:47.568000;-83;150
0:06:47.767000;-84;150
0:06:47.999000;-84;150
0:06:48.198000;-86;150
0:06:48.430000;-86;150
0:06:48.629000;-85;150
0:06:48.828000;-86;150
0:06:49.160000;-87;150
0:06:49.458000;-87;150
0:06:49.690000;-87;150
0:06:49.889000;-86;150
0:06:50.188000;-83;150
0:06:50.320000;-86;150
0:06:50.420000;-86;150
0:06:50.652000;-88;150
0:06:50.850000;-86;150
0:06:51.381000;-86;150
0:06:51.778000;-85;150
0:06:52.010000;-87;150
0:06:52.209000;-86;150
0:06:52.507000;-84;150
0:06:52.739000;-84;150
0:06:52.938000;-83;150
0:06:53.137000;-84;150
0:06:53.369000;-84;150
0:06:53.667000;-86;150
0:06:54.198000;-84;150
0:06:54.497000;-87;150
0:06:54.729000;-86;150
0:06:55.027000;-87;150
0:06:55.358000;-85;150
0:06:55.457000;-83;150
0:06:55.788000;-86;150
0:06:55.888000;-83;150
0:06:56.186000;-86;150
0:06:56.418000;-86;150
0:06:56.649000;-87;150
0:06:56.716000;-84;150
0:06:56.947000;-84;150
0:06:57.047000;-83;150
0:06:57.245000;-84;150
0:06:57.477000;-84;150
0:06:57.776000;-85;150
0:06:58.140000;-83;150
0:06:58.207000;-86;150
0:06:58.406000;-86;150
0:06:59.035000;-85;150
0:06:59.267000;-84;150
0:06:59.664000;-83;150
0:06:59.764000;-86;150
0:06:59.897000;-85;150
0:06:59.996000;-85;150
0:07:00.194000;-85;150
0:07:00.625000;-87;150
0:07:00.824000;-83;150
0:07:01.022000;-85;150
0:07:01.354000;-86;150
0:07:01.552000;-84;150
0:07:01.751000;-85;150
0:07:02.181000;-84;150
0:07:02.281000;-87;150
0:07:02.380000;-83;150
0:07:02.810000;-87;150
0:07:02.910000;-84;150
0:07:03.440000;-86;150
0:07:03.971000;-83;150
0:07:04.269000;-84;150
0:07:04.502000;-84;150
0:07:04.601000;-83;150
0:07:04.800000;-85;150
0:07:05.032000;-85;150
0:07:05.132000;-84;150
0:07:05.231000;-86;150
0:07:05.430000;-87;150
0:07:05.761000;-85;150
0:07:05.993000;-86;150
0:07:06.192000;-84;150
0:07:06.490000;-85;150
0:07:07.021000;-86;150
0:07:07.220000;-86;150
0:07:07.651000;-84;150
0:07:07.883000;-86;150
0:07:07.982000;-85;150
0:07:08.082000;-86;150
0:07:08.181000;-85;150
0:07:08.513000;-85;150
0:07:08.646000;-84;150
0:07:08.845000;-88;150
0:07:08.944000;-84;150
0:07:09.276000;-87;150
0:07:09.575000;-86;150
0:07:09.774000;-84;150
0:07:09.906000;-84;150
0:07:10.138000;-83;150
0:07:10.404000;-85;150
0:07:10.735000;-84;150
0:07:10.934000;-86;150
0:07:11.067000;-83;150
0:07:11.166000;-86;150
0:07:11.465000;-83;150
0:07:11.797000;-85;150
0:07:12.395000;-85;150
0:07:12.627000;-86;150
0:07:13.357000;-87;150
0:07:13.457000;-83;150
0:07:13.656000;-83;150
0:07:13.788000;-85;150
0:07:14.087000;-84;150
0:07:14.286000;-85;150
0:07:14.386000;-82;150
0:07:14.618000;-87;150
0:07:14.916000;-84;150
0:07:15.115000;-86;150
0:07:15.248000;-83;150
0:07:15.447000;-83;150
0:07:15.679000;-85;150
0:07:15.779000;-84;150
0:07:15.978000;-86;150
0:07:17.140000;-85;150
0:07:17.339000;-85;150
0:07:17.538000;-83;150
0:07:17.770000;-84;150
0:07:17.870000;-86;150
0:07:18.069000;-84;150
0:07:18.500000;-86;150
0:07:18.899000;-87;150
0:07:19.131000;-87;150
0:07:19.197000;-84;150
0:07:19.330000;-86;150
0:07:19.430000;-87;150
0:07:19.628000;-86;150
0:07:19.861000;-85;150
0:07:19.960000;-84;150
0:07:20.160000;-83;150
0:07:20.359000;-83;150
0:07:20.624000;-86;150
0:07:20.790000;-86;150
0:07:20.989000;-86;150
0:07:21.221000;-89;150
0:07:21.420000;-87;150
0:07:21.619000;-86;150
0:07:21.851000;-86;150
0:07:22.051000;-84;150
0:07:22.581000;-87;150
0:07:22.980000;-86;150
0:07:23.179000;-86;150
0:07:23.710000;-87;150
0:07:23.810000;-84;150
0:07:24.009000;-84;150
0:07:24.208000;-84;150
0:07:24.440000;-86;150
0:07:24.639000;-86;150
0:07:24.738000;-86;150
0:07:24.970000;-85;150
0:07:25.501000;-83;150
0:07:25.999000;-84;150
0:07:26.132000;-86;150
0:07:26.231000;-85;150
0:07:26.430000;-86;150
0:07:26.529000;-84;150
0:07:26.662000;-83;150
0:07:26.861000;-86;150
0:07:27.060000;-84;150
0:07:27.259000;-86;150
0:07:27.591000;-84;150
0:07:28.221000;-86;150
0:07:28.320000;-83;150
0:07:29.183000;-84;150
0:07:29.482000;-83;150
0:07:29.913000;-85;150
0:07:30.112000;-85;150
0:07:30.311000;-83;150
0:07:30.742000;-84;150
0:07:31.040000;-83;150
0:07:31.206000;-86;150
0:07:31.471000;-86;150
0:07:31.670000;-86;150
0:07:31.770000;-83;150
0:07:32.002000;-87;150
0:07:32.533000;-83;150
0:07:32.666000;-86;150
0:07:32.765000;-83;150
0:07:32.964000;-85;150
0:07:33.163000;-87;150
0:07:33.362000;-85;150
0:07:33.495000;-86;150
0:07:33.794000;-86;150
0:07:33.993000;-84;150
0:07:34.225000;-83;150
0:07:34.424000;-83;150
0:07:34.524000;-83;150
0:07:34.756000;-86;150
0:07:34.955000;-83;150
0:07:35.055000;-84;150
0:07:35.254000;-83;150
0:07:35.984000;-83;150
0:07:36.416000;-83;150
0:07:36.515000;-84;150
0:07:36.747000;-84;150
0:07:37.047000;-86;150
0:07:37.180000;-86;150
0:07:37.478000;-83;150
0:07:37.910000;-86;150
0:07:38.109000;-84;150
0:07:38.208000;-86;150
0:07:38.640000;-87;150
0:07:38.739000;-84;150
0:07:38.938000;-84;150
0:07:39.038000;-86;150
0:07:39.469000;-84;150
0:07:39.569000;-83;150
0:07:39.768000;-84;150
0:07:40.001000;-83;150
0:07:40.134000;-87;150
0:07:40.200000;-83;150
0:07:40.498000;-84;150
0:07:40.830000;-83;150
0:07:41.029000;-84;150
0:07:41.228000;-86;150
0:07:41.560000;-84;150
0:07:42.191000;-83;150
0:07:42.290000;-83;150
0:07:42.523000;-84;150
0:07:42.722000;-86;150
0:07:42.921000;-86;150
0:07:43.153000;-87;150
0:07:43.253000;-86;150
0:07:43.352000;-83;150
0:07:43.452000;-85;150
0:07:43.551000;-83;150
0:07:43.750000;-83;150
0:07:43.983000;-83;150
0:07:44.182000;-83;150
0:07:44.514000;-86;150
0:07:44.846000;-85;150
0:07:45.145000;-83;150
0:07:45.675000;-86;150
0:07:45.775000;-84;150
0:07:46.403000;-86;150
0:07:46.536000;-84;150
0:07:46.635000;-84;150
0:07:46.934000;-84;150
0:07:47.133000;-87;150
0:07:47.629000;-86;150
0:07:47.696000;-83;150
0:07:47.862000;-85;150
0:07:48.193000;-82;150
0:07:48.525000;-86;150
0:07:48.624000;-85;150
0:07:49.022000;-82;150
0:07:49.453000;-86;150
0:07:49.785000;-86;150
0:07:49.984000;-86;150
0:07:50.217000;-86;150
0:07:50.416000;-87;150
0:07:50.615000;-86;150
0:07:50.813000;-84;150
0:07:51.045000;-87;150
0:07:51.244000;-86;150
0:07:51.476000;-85;150
0:07:51.576000;-84;150
0:07:51.675000;-86;150
0:07:51.874000;-86;150
0:07:52.106000;-86;150
0:07:52.305000;-85;150
0:07:52.636000;-83;150
0:07:52.736000;-86;150
0:07:53.034000;-85;150
0:07:53.266000;-83;150
0:07:53.664000;-83;150
0:07:54.626000;-83;150
0:07:54.958000;-85;150
0:07:55.256000;-85;150
0:07:55.687000;-84;150
0:07:55.986000;-84;150
0:07:56.417000;-84;150
0:07:56.947000;-87;150
0:07:57.046000;-84;150
0:07:57.278000;-86;150
0:07:57.476000;-83;150
0:07:57.675000;-84;150
0:07:57.808000;-83;150
0:07:58.107000;-85;150
0:07:58.737000;-87;150
0:07:59.068000;-83;150
0:07:59.267000;-84;150
0:07:59.499000;-86;150
0:07:59.798000;-87;150
0:07:59.898000;-84;150
0:08:01.091000;-86;150
0:08:01.389000;-88;150
0:08:01.588000;-86;150
0:08:01.787000;-84;150
0:08:01.887000;-86;150
0:08:02.086000;-87;150
0:08:02.318000;-87;150
0:08:02.417000;-84;150
0:08:02.616000;-87;150
0:08:02.815000;-87;150
0:08:03.147000;-83;150
0:08:03.678000;-84;150
0:08:03.977000;-83;150
0:08:04.143000;-84;150
0:08:04.309000;-84;150
0:08:04.508000;-84;150
0:08:04.741000;-86;150
0:08:04.940000;-86;150
0:08:05.139000;-83;150
0:08:05.371000;-88;150
0:08:05.670000;-83;150
0:08:06.732000;-86;150
0:08:06.931000;-87;150
0:08:07.229000;-84;150
0:08:07.561000;-86;150
0:08:07.860000;-86;150
0:08:08.192000;-87;150
0:08:08.391000;-84;150
0:08:08.590000;-85;150
0:08:09.021000;-84;150
0:08:09.253000;-87;150
0:08:09.353000;-83;150
0:08:09.884000;-83;150
0:08:09.983000;-86;150
0:08:10.116000;-83;150
0:08:10.514000;-87;150
0:08:10.713000;-88;150
0:08:10.911000;-86;150
0:08:11.442000;-83;150
0:08:11.607000;-88;150
0:08:11.773000;-83;150
0:08:12.171000;-86;150
0:08:12.502000;-86;150
0:08:12.601000;-84;150
0:08:13.032000;-85;150
0:08:13.165000;-84;150
0:08:13.364000;-84;150
0:08:13.563000;-85;150
0:08:13.762000;-84;150
0:08:13.994000;-84;150
0:08:14.293000;-83;150
0:08:14.492000;-83;150
0:08:14.923000;-87;150
0:08:15.255000;-84;150
0:08:15.454000;-86;150
0:08:15.984000;-83;150
0:08:16.382000;-87;150
0:08:16.514000;-84;150
0:08:16.713000;-87;150
0:08:16.912000;-86;150
0:08:17.011000;-87;150
0:08:17.144000;-86;150
0:08:18.901000;-84;150
0:08:19.333000;-86;150
0:08:19.432000;-84;150
0:08:19.532000;-85;150
0:08:19.764000;-84;150
0:08:19.863000;-87;150
0:08:20.261000;-84;150
0:08:20.792000;-86;150
0:08:20.892000;-86;150
0:08:21.124000;-86;150
0:08:21.223000;-83;150
0:08:21.455000;-86;150
0:08:21.654000;-87;150
0:08:21.952000;-83;150
0:08:22.118000;-85;150
0:08:22.483000;-86;150
0:08:22.682000;-84;150
0:08:23.843000;-84;150
0:08:24.042000;-86;150
0:08:24.141000;-85;150
0:08:24.373000;-85;150
0:08:24.672000;-86;150
0:08:24.805000;-83;150
0:08:24.904000;-87;150
0:08:25.004000;-84;150
0:08:25.137000;-87;150
0:08:25.534000;-85;150
0:08:25.733000;-85;150
0:08:26.064000;-83;150
0:08:26.263000;-86;150
0:08:26.363000;-84;150
0:08:26.594000;-87;150
0:08:27.092000;-85;150
0:08:27.191000;-83;150
0:08:27.622000;-87;150
0:08:27.821000;-84;150
0:08:28.086000;-83;150
0:08:28.252000;-82;150
0:08:28.351000;-86;150
0:08:28.450000;-86;150
0:08:28.782000;-85;150
0:08:28.980000;-84;150
0:08:29.080000;-85;150
0:08:29.179000;-85;150
0:08:29.279000;-83;150
0:08:29.511000;-86;150
0:08:29.643000;-84;150
0:08:29.710000;-87;150
0:08:30.837000;-87;150
0:08:30.969000;-83;150
0:08:31.566000;-86;150
0:08:31.764000;-84;150
0:08:32.527000;-87;150
0:08:32.726000;-86;150
0:08:33.257000;-86;150
0:08:33.356000;-83;150
0:08:33.555000;-86;150
0:08:34.086000;-87;150
0:08:34.185000;-84;150
0:08:34.517000;-84;150
0:08:34.716000;-87;150
0:08:34.816000;-83;150
0:08:35.148000;-86;150
0:08:35.247000;-84;150
0:08:35.347000;-83;150
0:08:35.778000;-84;150
0:08:35.977000;-86;150
0:08:36.109000;-83;150
0:08:36.208000;-86;150
0:08:36.308000;-83;150
0:08:36.407000;-86;150
0:08:36.507000;-84;150
0:08:36.705000;-84;150
0:08:37.236000;-87;150
0:08:37.534000;-84;150
0:08:37.766000;-85;150
0:08:37.966000;-84;150
0:08:38.595000;-83;150
0:08:38.695000;-84;150
0:08:38.794000;-87;150
0:08:38.993000;-86;150
0:08:39.425000;-84;150
0:08:39.524000;-86;150
0:08:39.624000;-87;150
0:08:39.756000;-83;150
0:08:39.955000;-84;150
0:08:40.188000;-87;150
0:08:40.387000;-86;150
0:08:40.487000;-86;150
0:08:40.818000;-85;150
0:08:41.017000;-86;150
0:08:41.745000;-84;150
0:08:42.076000;-83;150
0:08:42.176000;-87;150
0:08:42.474000;-84;150
0:08:42.905000;-84;150
0:08:43.104000;-83;150
0:08:43.535000;-87;150
0:08:43.635000;-86;150
0:08:43.834000;-84;150
0:08:43.933000;-87;150
0:08:44.265000;-85;150
0:08:44.365000;-83;150
0:08:44.597000;-86;150
0:08:44.796000;-87;150
0:08:45.326000;-84;150
0:08:45.956000;-87;150
0:08:46.387000;-86;150
0:08:46.486000;-86;150
0:08:46.685000;-87;150
0:08:46.918000;-86;150
0:08:47.117000;-83;150
0:08:47.315000;-84;150
0:08:47.581000;-87;150
0:08:47.647000;-84;150
0:08:47.846000;-84;150
0:08:47.945000;-86;150
0:08:48.045000;-83;150
0:08:48.277000;-84;150
0:08:48.376000;-87;150
0:08:48.575000;-86;150
0:08:48.774000;-86;150
0:08:49.006000;-87;150
0:08:49.404000;-84;150
0:08:49.604000;-84;150
0:08:49.836000;-85;150
0:08:50.035000;-85;150
0:08:50.234000;-84;150
0:08:50.466000;-86;150
0:08:50.764000;-87;150
0:08:50.864000;-86;150
0:08:51.295000;-83;150
0:08:51.493000;-83;150
0:08:51.825000;-84;150
0:08:52.885000;-83;150
0:08:53.183000;-86;150
0:08:53.382000;-86;150
0:08:53.614000;-87;150
0:08:53.813000;-83;150
0:08:54.012000;-85;150
0:08:54.111000;-86;150
0:08:54.543000;-84;150
0:08:55.273000;-83;150
0:08:55.703000;-85;150
0:08:55.902000;-85;150
0:08:56.233000;-85;150
0:08:56.565000;-84;150
0:08:57.691000;-87;150
0:08:57.791000;-82;150
0:08:57.990000;-86;150
0:08:58.156000;-83;150
0:08:58.753000;-83;150
0:08:58.952000;-84;150
0:08:59.052000;-86;150
0:08:59.251000;-87;150
0:08:59.782000;-86;150
0:08:59.981000;-85;150
0:09:00.213000;-83;150
0:09:00.511000;-85;150
0:09:00.744000;-87;150
0:09:01.075000;-83;150
0:09:01.142000;-86;150
0:09:01.572000;-87;150
0:09:01.804000;-86;150
0:09:02.003000;-87;150
0:09:02.202000;-86;150
0:09:02.434000;-86;150
0:09:02.732000;-84;150
0:09:02.964000;-83;150
0:09:03.163000;-83;150
0:09:03.693000;-86;150
0:09:03.793000;-83;150
0:09:03.892000;-87;150
0:09:04.124000;-86;150
0:09:04.224000;-83;150
0:09:04.423000;-83;150
0:09:04.952000;-84;150
0:09:05.052000;-87;150
0:09:05.250000;-84;150
0:09:05.483000;-87;150
0:09:05.615000;-86;150
0:09:05.913000;-86;150
0:09:06.112000;-87;150
0:09:06.840000;-83;150
0:09:07.171000;-83;150
0:09:07.602000;-84;150
0:09:07.801000;-86;150
0:09:07.901000;-86;150
0:09:08.100000;-86;150
0:09:08.200000;-84;150
0:09:08.332000;-86;150
0:09:08.432000;-82;150
0:09:08.631000;-87;150
0:09:09.162000;-83;150
0:09:09.361000;-84;150
0:09:09.494000;-86;150
0:09:09.693000;-86;150
0:09:09.892000;-86;150
0:09:09.991000;-85;150
0:09:10.157000;-86;150
0:09:10.622000;-86;150
0:09:10.722000;-83;150
0:09:11.054000;-83;150
0:09:11.253000;-84;150
0:09:11.884000;-83;150
0:09:12.116000;-85;150
0:09:12.315000;-83;150
0:09:12.514000;-87;150
0:09:12.614000;-84;150
0:09:12.846000;-85;150
0:09:13.078000;-86;150
0:09:13.145000;-87;150
0:09:13.775000;-83;150
0:09:14.306000;-85;150
0:09:14.605000;-83;150
0:09:15.003000;-83;150
0:09:15.235000;-86;150
0:09:15.434000;-86;150
0:09:15.666000;-86;150
0:09:15.766000;-87;150
0:09:15.965000;-86;150
0:09:16.164000;-84;150
0:09:16.496000;-87;150
0:09:16.595000;-84;150
0:09:17.225000;-86;150
0:09:17.424000;-87;150
0:09:17.756000;-85;150
0:09:18.055000;-84;150
0:09:18.287000;-87;150
0:09:18.386000;-83;150
0:09:18.486000;-86;150
0:09:19.316000;-84;150
0:09:19.548000;-83;150
0:09:19.946000;-85;150
0:09:20.046000;-83;150
0:09:20.278000;-82;150
0:09:20.377000;-84;150
0:09:20.576000;-84;150
0:09:20.908000;-83;150
0:09:21.008000;-84;150
0:09:21.141000;-82;150
0:09:21.439000;-84;150
0:09:21.971000;-86;150
0:09:22.170000;-85;150
0:09:22.402000;-87;150
0:09:22.601000;-86;150
0:09:22.833000;-85;150
0:09:23.231000;-86;150
0:09:23.663000;-83;150
0:09:23.862000;-87;150
0:09:24.393000;-86;150
0:09:24.824000;-88;150
0:09:25.056000;-85;150
0:09:25.156000;-83;150
0:09:25.321000;-84;150
0:09:25.454000;-86;150
0:09:25.654000;-86;150
0:09:25.853000;-86;150
0:09:25.952000;-85;150
0:09:26.284000;-86;150
0:09:26.483000;-85;150
0:09:26.616000;-86;150
0:09:26.715000;-85;150
0:09:27.213000;-83;150
0:09:27.312000;-84;150
0:09:27.545000;-86;150
0:09:27.744000;-83;150
0:09:28.043000;-84;150
0:09:28.176000;-84;150
0:09:28.275000;-85;150
0:09:28.375000;-85;150
0:09:28.673000;-83;150
0:09:29.105000;-86;150
0:09:29.835000;-86;150
0:09:30.565000;-84;150
0:09:31.095000;-87;150
0:09:31.195000;-83;150
0:09:31.527000;-84;150
0:09:31.626000;-86;150
0:09:31.726000;-84;150
0:09:31.958000;-86;150
0:09:32.057000;-85;150
0:09:32.256000;-85;150
0:09:32.688000;-84;150
0:09:33.020000;-87;150
0:09:33.319000;-85;150
0:09:33.651000;-83;150
0:09:33.982000;-85;150
0:09:34.115000;-83;150
0:09:34.182000;-83;150
0:09:34.381000;-87;150
0:09:34.613000;-86;150
0:09:35.110000;-86;150
0:09:35.210000;-84;150
0:09:35.641000;-87;150
0:09:35.873000;-84;150
0:09:36.072000;-84;150
0:09:36.271000;-86;150
0:09:36.603000;-86;150
0:09:36.935000;-84;150
0:09:37.134000;-85;150
0:09:37.267000;-86;150
0:09:37.466000;-86;150
0:09:37.665000;-86;150
0:09:37.798000;-83;150
0:09:38.196000;-86;150
0:09:38.428000;-85;150
0:09:38.561000;-85;150
0:09:38.727000;-88;150
0:09:39.058000;-84;150
0:09:39.257000;-85;150
0:09:39.357000;-84;150
0:09:39.788000;-86;150
0:09:40.120000;-86;150
0:09:40.220000;-83;150
0:09:40.618000;-85;150
0:09:40.751000;-87;150
0:09:40.950000;-86;150
0:09:41.050000;-84;150
0:09:41.282000;-84;150
0:09:41.481000;-84;150
0:09:41.680000;-84;150
0:09:41.780000;-85;150
0:09:41.879000;-84;150
0:09:42.211000;-84;150
0:09:42.543000;-83;150
0:09:42.841000;-87;150
0:09:43.040000;-83;150
0:09:43.140000;-87;150
0:09:43.671000;-86;150
0:09:44.168000;-86;150
0:09:44.301000;-83;150
0:09:44.533000;-85;150
0:09:44.633000;-86;150
0:09:44.932000;-85;150
0:09:45.463000;-84;150
0:09:45.662000;-87;150
0:09:46.259000;-85;150
0:09:46.392000;-86;150
0:09:46.491000;-84;150
0:09:46.690000;-84;150
0:09:46.889000;-84;150
0:09:47.122000;-83;150
0:09:47.553000;-88;150
0:09:47.653000;-84;150
0:09:47.852000;-87;150
0:09:47.951000;-83;150
0:09:48.184000;-83;150
0:09:48.383000;-86;150
0:09:48.582000;-85;150
0:09:48.714000;-85;150
0:09:48.814000;-83;150
0:09:48.913000;-88;150
0:09:49.112000;-84;150
0:09:49.411000;-87;150
0:09:49.544000;-84;150
0:09:49.743000;-83;150
0:09:49.843000;-86;150
0:09:50.174000;-86;150
0:09:50.373000;-85;150
0:09:50.539000;-85;150
0:09:50.705000;-87;150
0:09:50.805000;-85;150
0:09:50.904000;-85;150
0:09:51.004000;-85;150
0:09:51.203000;-87;150
0:09:51.535000;-85;150
0:09:51.735000;-86;150
0:09:51.967000;-86;150
0:09:52.266000;-84;150
0:09:52.698000;-84;150
0:09:52.797000;-85;150
0:09:53.726000;-86;150
0:09:53.958000;-86;150
0:09:54.157000;-84;150
0:09:54.555000;-86;150
0:09:54.787000;-86;150
0:09:55.019000;-87;150
0:09:55.119000;-84;150
0:09:55.285000;-84;150
0:09:55.517000;-85;150
0:09:56.247000;-84;150
0:09:56.545000;-84;150
0:09:56.777000;-83;150
0:09:57.076000;-84;150
0:09:57.209000;-83;150
0:09:57.507000;-85;150
0:09:57.839000;-83;150
0:09:58.038000;-84;150
0:09:58.336000;-85;150
0:09:58.569000;-86;150
0:09:58.668000;-84;150
0:09:58.867000;-85;150
0:09:59.066000;-84;150
0:09:59.199000;-84;150
0:09:59.829000;-85;150
0:09:59.929000;-87;150
0:10:00.028000;-85;150
0:10:00.791000;-83;150
0:10:01.222000;-84;150
0:10:01.421000;-84;150
0:10:01.820000;-83;150
0:10:02.052000;-86;150
0:10:02.251000;-86;150
0:10:02.351000;-84;150
0:10:02.683000;-85;150
0:10:02.882000;-85;150
0:10:03.281000;-86;150
0:10:03.612000;-84;150
0:10:04.343000;-86;150
0:10:04.542000;-84;150
0:10:04.741000;-86;150
0:10:04.941000;-86;150
0:10:05.272000;-83;150
0:10:05.604000;-87;150
0:10:06.003000;-87;150
0:10:06.202000;-85;150
0:10:06.434000;-86;150
0:10:06.634000;-86;150
0:10:06.933000;-88;150
0:10:07.065000;-86;150
0:10:07.663000;-86;150
0:10:07.895000;-86;150
0:10:07.994000;-84;150
0:10:08.426000;-83;150
0:10:08.625000;-85;150
0:10:08.725000;-84;150
0:10:08.957000;-83;150
0:10:09.156000;-84;150
0:10:09.355000;-86;150
0:10:09.587000;-87;150
0:10:09.687000;-83;150
0:10:09.919000;-86;150
0:10:10.218000;-84;150
0:10:10.317000;-84;150
0:10:10.417000;-85;150
0:10:10.649000;-85;150
0:10:11.180000;-84;150
0:10:11.380000;-86;150
0:10:11.778000;-87;150
0:10:12.111000;-83;150
0:10:12.210000;-85;150
0:10:12.310000;-84;150
0:10:12.642000;-83;150
0:10:12.841000;-83;150
0:10:13.073000;-86;150
0:10:13.372000;-84;150
0:10:13.804000;-83;150
0:10:14.003000;-83;150
0:10:14.534000;-85;150
0:10:14.932000;-86;150
0:10:15.364000;-84;150
0:10:15.795000;-85;150
0:10:16.094000;-86;150
0:10:16.625000;-84;150
0:10:16.924000;-87;150
0:10:17.156000;-85;150
0:10:17.355000;-86;150
0:10:17.687000;-83;150
0:10:17.787000;-85;150
0:10:17.886000;-86;150
0:10:18.085000;-86;150
0:10:18.318000;-86;150
0:10:18.417000;-84;150
0:10:18.517000;-83;150
0:10:18.616000;-85;150
0:10:18.915000;-85;150
0:10:19.147000;-87;150
0:10:19.246000;-83;150
0:10:19.445000;-83;150
0:10:19.545000;-86;150
0:10:19.677000;-84;150
0:10:19.777000;-86;150
0:10:20.706000;-84;150
0:10:21.237000;-84;150
0:10:21.469000;-84;150
0:10:21.768000;-84;150
0:10:22.100000;-83;150
0:10:22.332000;-86;150
0:10:22.631000;-83;150
0:10:22.830000;-84;150
0:10:23.162000;-86;150
0:10:23.361000;-85;150
0:10:23.560000;-86;150
0:10:23.892000;-83;150
0:10:24.091000;-83;150
0:10:24.423000;-83;150
0:10:24.622000;-85;150
0:10:25.120000;-83;150
0:10:25.452000;-83;150
0:10:25.883000;-86;150
0:10:26.082000;-83;150
0:10:26.282000;-84;150
0:10:26.381000;-83;150
0:10:26.713000;-84;150
0:10:27.343000;-86;150
0:10:27.542000;-86;150
0:10:27.874000;-84;150
0:10:28.405000;-83;150
0:10:28.505000;-86;150
0:10:28.704000;-86;150
0:10:29.234000;-83;150
0:10:29.367000;-86;150
0:10:29.566000;-87;150
0:10:29.765000;-86;150
0:10:29.865000;-84;150
0:10:30.097000;-83;150
0:10:30.296000;-83;150
0:10:30.727000;-87;150
0:10:30.926000;-84;150
0:10:31.258000;-86;150
0:10:31.358000;-83;150
0:10:31.557000;-84;150
0:10:31.690000;-83;150
0:10:31.789000;-87;150
0:10:31.889000;-83;150
0:10:31.988000;-87;150
0:10:32.088000;-83;150
0:10:32.287000;-83;150
0:10:32.718000;-84;150
0:10:32.917000;-84;150
0:10:33.150000;-84;150
0:10:33.249000;-84;150
0:10:33.348000;-84;150
0:10:33.680000;-83;150
0:10:34.078000;-86;150
0:10:34.310000;-85;150
0:10:34.410000;-83;150
0:10:34.609000;-83;150
0:10:34.709000;-83;150
0:10:35.240000;-83;150
0:10:35.870000;-84;150
0:10:36.268000;-86;150
0:10:36.401000;-84;150
0:10:36.600000;-84;150
0:10:36.799000;-84;150
0:10:37.231000;-86;150
0:10:37.463000;-85;150
0:10:37.562000;-84;150
0:10:37.761000;-85;150
0:10:38.060000;-86;150
0:10:38.159000;-84;150
0:10:38.591000;-86;150
0:10:38.823000;-86;150
0:10:39.354000;-87;150
0:10:39.454000;-83;150
0:10:39.653000;-83;150
0:10:40.715000;-83;150
0:10:41.445000;-87;150
0:10:41.578000;-84;150
0:10:42.473000;-86;150
0:10:42.705000;-86;150
0:10:42.805000;-84;150
0:10:43.004000;-83;150
0:10:43.236000;-86;150
0:10:43.335000;-85;150
0:10:43.534000;-86;150
0:10:43.634000;-84;150
0:10:44.065000;-83;150
0:10:44.165000;-85;150
0:10:44.397000;-83;150
0:10:44.596000;-83;150
0:10:45.991000;-85;150
0:10:46.289000;-84;150
0:10:46.488000;-83;150
0:10:46.687000;-85;150
0:10:47.119000;-87;150
0:10:47.218000;-84;150
0:10:47.418000;-86;150
0:10:47.550000;-87;150
0:10:48.579000;-84;150
0:10:49.011000;-84;150
0:10:49.177000;-83;150
0:10:49.608000;-86;150
0:10:50.371000;-84;150
0:10:50.570000;-86;150
0:10:50.769000;-84;150
0:10:51.002000;-83;150
0:10:51.301000;-85;150
0:10:51.500000;-87;150
0:10:51.699000;-83;150
0:10:52.031000;-84;150
0:10:52.130000;-85;150
0:10:52.462000;-85;150
0:10:52.960000;-84;150
0:10:53.291000;-84;150
0:10:53.391000;-85;150
0:10:53.690000;-83;150
0:10:54.353000;-85;150
0:10:54.552000;-86;150
0:10:54.851000;-85;150
0:10:55.416000;-86;150
0:10:56.013000;-86;150
0:10:56.113000;-86;150
0:10:56.544000;-86;150
0:10:56.743000;-85;150
0:10:56.975000;-86;150
0:10:57.175000;-87;150
0:10:57.606000;-85;150
0:10:57.805000;-84;150
0:10:58.103000;-84;150
0:10:58.534000;-83;150
0:10:58.734000;-83;150
0:10:58.966000;-86;150
0:10:59.364000;-84;150
0:10:59.596000;-86;150
0:10:59.796000;-86;150
0:11:00.094000;-84;150
0:11:00.626000;-86;150
0:11:00.725000;-84;150
0:11:01.787000;-88;150
0:11:02.218000;-86;150
0:11:02.318000;-83;150
0:11:02.517000;-87;150
0:11:02.749000;-87;150
0:11:03.147000;-85;150
0:11:03.545000;-83;150
0:11:03.877000;-83;150
0:11:04.076000;-86;150
0:11:04.308000;-86;150
0:11:04.607000;-83;150
0:11:04.839000;-87;150
0:11:05.868000;-86;150
0:11:06.167000;-86;150
0:11:06.399000;-87;150
0:11:06.930000;-87;150
0:11:07.329000;-86;150
0:11:07.959000;-84;150
0:11:08.158000;-83;150
0:11:08.291000;-84;150
0:11:08.490000;-84;150
0:11:08.689000;-87;150
0:11:08.921000;-88;150
0:11:10.084000;-84;150
0:11:10.814000;-87;150
0:11:11.014000;-83;150
0:11:11.213000;-86;150
0:11:11.478000;-87;150
0:11:11.578000;-84;150
0:11:11.744000;-86;150
0:11:12.042000;-83;150
0:11:12.274000;-84;150
0:11:12.574000;-83;150
0:11:12.673000;-86;150
0:11:12.773000;-84;150
0:11:13.204000;-87;150
0:11:13.403000;-86;150
0:11:13.536000;-83;150
0:11:13.735000;-84;150
0:11:13.835000;-86;150
0:11:13.934000;-85;150
0:11:14.067000;-84;150
0:11:14.167000;-83;150
0:11:14.366000;-83;150
0:11:14.598000;-86;150
0:11:14.798000;-85;150
0:11:14.997000;-84;150
0:11:15.196000;-85;150
0:11:15.329000;-85;150
0:11:15.627000;-87;150
0:11:15.827000;-85;150
0:11:16.457000;-84;150
0:11:17.287000;-84;150
0:11:17.619000;-85;150
0:11:17.818000;-85;150
0:11:18.017000;-86;150
0:11:18.150000;-84;150
0:11:18.349000;-84;150
0:11:18.581000;-86;150
0:11:18.881000;-83;150
0:11:19.080000;-86;150
0:11:19.279000;-83;150
0:11:19.511000;-86;150
0:11:19.710000;-84;150
0:11:20.142000;-83;150
0:11:20.474000;-84;150
0:11:20.673000;-85;150
0:11:21.404000;-86;150
0:11:21.603000;-87;150
0:11:21.802000;-84;150
0:11:22.200000;-83;150
0:11:22.632000;-83;150
0:11:22.864000;-84;150
0:11:23.262000;-85;150
0:11:23.461000;-86;150
0:11:23.660000;-85;150
0:11:23.793000;-84;150
0:11:24.623000;-84;150
0:11:25.021000;-84;150
0:11:25.253000;-84;150
0:11:25.452000;-86;150
0:11:25.651000;-84;150
0:11:26.082000;-88;150
0:11:26.182000;-84;150
0:11:26.381000;-83;150
0:11:26.912000;-85;150
0:11:27.211000;-86;150
0:11:27.310000;-84;150
0:11:27.642000;-84;150
0:11:27.841000;-86;150
0:11:28.074000;-86;150
0:11:28.273000;-83;150
0:11:28.472000;-84;150
0:11:28.671000;-86;150
0:11:29.002000;-84;150
0:11:29.201000;-87;150
0:11:29.467000;-87;150
0:11:29.832000;-83;150
0:11:30.264000;-84;150
0:11:30.363000;-87;150
0:11:30.595000;-85;150
0:11:30.794000;-83;150
0:11:30.894000;-86;150
0:11:31.425000;-87;150
0:11:31.823000;-86;150
0:11:32.155000;-83;150
0:11:32.354000;-84;150
0:11:32.586000;-83;150
0:11:32.785000;-86;150
0:11:33.184000;-86;150
0:11:33.715000;-85;150
0:11:34.677000;-85;150
0:11:35.208000;-86;150
0:11:35.407000;-86;150
0:11:35.805000;-86;150
0:11:36.038000;-86;150
0:11:36.436000;-86;150
0:11:36.635000;-86;150
0:11:37.066000;-83;150
0:11:37.364000;-87;150
0:11:37.497000;-83;150
0:11:37.596000;-83;150
0:11:37.795000;-84;150
0:11:37.994000;-84;150
0:11:38.459000;-84;150
0:11:38.625000;-85;150
0:11:39.155000;-86;150
0:11:39.388000;-87;150
0:11:39.686000;-84;150
0:11:39.786000;-86;150
0:11:39.919000;-84;150
0:11:40.118000;-85;150
0:11:40.317000;-83;150
0:11:40.748000;-86;150
0:11:40.947000;-86;150
0:11:41.080000;-83;150
0:11:41.180000;-86;150
0:11:41.379000;-83;150
0:11:41.578000;-84;150
0:11:41.777000;-84;150
0:11:42.108000;-86;150
0:11:42.208000;-84;150
0:11:42.307000;-87;150
0:11:42.539000;-86;150
0:11:42.838000;-86;150
0:11:43.037000;-83;150
0:11:43.269000;-86;150
0:11:43.369000;-84;150
0:11:44.099000;-83;150
0:11:44.530000;-87;150
0:11:44.630000;-86;150
0:11:44.829000;-87;150
0:11:45.061000;-86;150
0:11:45.161000;-85;150
0:11:45.260000;-86;150
0:11:45.459000;-86;150
0:11:45.658000;-84;150
0:11:45.891000;-87;150
0:11:46.090000;-86;150
0:11:46.388000;-86;150
0:11:46.521000;-85;150
0:11:46.720000;-84;150
0:11:47.151000;-84;150
0:11:47.351000;-83;150
0:11:47.550000;-83;150
0:11:47.782000;-85;150
0:11:47.882000;-84;150
0:11:48.081000;-84;150
0:11:48.512000;-87;150
0:11:48.711000;-86;150
0:11:49.275000;-83;150
0:11:49.773000;-87;150
0:11:50.735000;-86;150
0:11:51.166000;-83;150
0:11:51.364000;-83;150
0:11:51.596000;-86;150
0:11:51.795000;-86;150
0:11:51.993000;-87;150
0:11:52.092000;-84;150
0:11:52.523000;-83;150
0:11:52.954000;-84;150
0:11:53.153000;-86;150
0:11:53.882000;-84;150
0:11:54.114000;-86;150
0:11:54.512000;-83;150
0:11:55.574000;-87;150
0:11:56.004000;-83;150
0:11:56.635000;-84;150
0:11:56.734000;-86;150
0:11:57.066000;-83;150
0:11:57.265000;-86;150
0:11:57.896000;-87;150
0:11:58.095000;-85;150
0:11:58.394000;-85;150
0:11:58.825000;-83;150
0:11:59.024000;-83;150
0:11:59.124000;-87;150
0:12:00.484000;-83;150
0:12:00.816000;-85;150
0:12:01.015000;-86;150
0:12:01.214000;-88;150
0:12:01.646000;-84;150
0:12:01.845000;-83;150
0:12:01.944000;-84;150
0:12:02.276000;-84;150
0:12:02.475000;-86;150
0:12:02.707000;-87;150
0:12:03.105000;-87;150
0:12:03.436000;-84;150
0:12:03.635000;-87;150
0:12:04.166000;-85;150
0:12:04.896000;-84;150
0:12:05.228000;-85;150
0:12:05.460000;-83;150
0:12:05.560000;-84;150
0:12:05.659000;-87;150
0:12:05.759000;-86;150
0:12:06.091000;-85;150
0:12:06.522000;-87;150
0:12:07.152000;-83;150
0:12:07.351000;-86;150
0:12:07.882000;-86;150
0:12:08.080000;-85;150
0:12:08.411000;-84;150
0:12:08.709000;-84;150
0:12:09.671000;-84;150
0:12:09.870000;-84;150
0:12:10.201000;-86;150
0:12:10.301000;-87;150
0:12:10.500000;-87;150
0:12:10.831000;-84;150
0:12:10.931000;-86;150
0:12:11.262000;-84;150
0:12:11.461000;-84;150
0:12:11.660000;-84;150
0:12:11.991000;-85;150
0:12:12.190000;-84;150
0:12:12.389000;-85;150
0:12:12.621000;-83;150
0:12:13.019000;-83;150
0:12:13.451000;-82;150
0:12:13.948000;-88;150
0:12:14.180000;-86;150
0:12:14.280000;-82;150
0:12:14.811000;-85;150
0:12:15.043000;-87;150
0:12:15.241000;-86;150
0:12:15.440000;-86;150
0:12:15.540000;-84;150
0:12:15.639000;-87;150
0:12:15.771000;-83;150
0:12:15.871000;-87;150
0:12:16.004000;-84;150
0:12:16.468000;-83;150
0:12:16.998000;-86;150
0:12:17.197000;-83;150
0:12:17.462000;-84;150
0:12:17.826000;-83;150
0:12:18.059000;-86;150
0:12:18.258000;-86;150
0:12:18.457000;-83;150
0:12:18.656000;-83;150
0:12:19.086000;-85;150
0:12:19.816000;-84;150
0:12:19.915000;-83;150
0:12:20.048000;-86;150
0:12:20.247000;-86;150
0:12:20.545000;-83;150
0:12:20.876000;-86;150
0:12:20.976000;-83;150
0:12:21.806000;-87;150
0:12:21.971000;-85;150
0:12:22.104000;-84;150
0:12:22.336000;-85;150
0:12:22.436000;-84;150
0:12:22.867000;-84;150
0:12:22.967000;-86;150
0:12:23.066000;-84;150
0:12:23.298000;-87;150
0:12:23.497000;-86;150
0:12:23.597000;-83;150
0:12:23.829000;-84;150
0:12:24.028000;-87;150
0:12:24.128000;-84;150
0:12:24.460000;-87;150
0:12:24.559000;-83;150
0:12:24.659000;-85;150
0:12:24.758000;-86;150
0:12:24.990000;-85;150
0:12:25.189000;-86;150
0:12:25.388000;-86;150
0:12:25.621000;-87;150
0:12:25.720000;-84;150
0:12:25.820000;-85;150
0:12:26.052000;-83;150
0:12:26.351000;-87;150
0:12:26.683000;-86;150
0:12:26.783000;-83;150
0:12:27.214000;-86;150
0:12:27.314000;-83;150
0:12:27.646000;-86;150
0:12:27.844000;-83;150
0:12:27.977000;-87;150
0:12:28.143000;-86;150
0:12:28.541000;-86;150
0:12:29.503000;-84;150
0:12:29.802000;-83;150
0:12:30.034000;-87;150
0:12:30.333000;-84;150
0:12:30.532000;-84;150
0:12:30.764000;-83;150
0:12:33.816000;-86;150
0:12:34.114000;-83;150
0:12:34.314000;-86;150
0:12:34.546000;-87;150
0:12:34.646000;-83;150
0:12:34.845000;-84;150
0:12:35.475000;-84;150
0:12:36.006000;-83;150
0:12:36.106000;-86;150
0:12:36.305000;-87;150
0:12:37.366000;-87;150
0:12:37.698000;-85;150
0:12:37.898000;-85;150
0:12:38.428000;-83;150
0:12:38.528000;-83;150
0:12:38.760000;-83;150
0:12:38.859000;-87;150
0:12:39.058000;-86;150
0:12:40.021000;-87;150
0:12:40.220000;-84;150
0:12:40.552000;-87;150
0:12:41.282000;-83;150
0:12:41.481000;-84;150
0:12:41.713000;-85;150
0:12:42.011000;-87;150
0:12:42.343000;-83;150
0:12:42.542000;-83;150
0:12:42.741000;-86;150
0:12:43.072000;-83;150
0:12:43.271000;-84;150
0:12:43.503000;-86;150
0:12:43.603000;-84;150
0:12:43.801000;-86;150
0:12:46.755000;-83;150
0:12:46.854000;-85;150
0:12:47.386000;-87;150
0:12:48.514000;-87;150
0:12:48.613000;-86;150
0:12:49.542000;-83;150
0:12:49.774000;-87;150
0:12:49.874000;-87;150
0:12:50.073000;-86;150
0:12:50.471000;-86;150
0:12:50.902000;-86;150
0:12:51.333000;-84;150
0:12:51.532000;-84;150
0:12:51.631000;-86;150
0:12:51.830000;-87;150
0:12:51.962000;-85;150
0:12:52.692000;-86;150
0:12:52.891000;-83;150
0:12:53.090000;-84;150
0:12:53.521000;-83;150
0:12:53.720000;-83;150
0:12:54.151000;-86;150
0:12:54.350000;-86;150
0:12:54.549000;-87;150
0:12:54.781000;-86;150
0:12:55.080000;-83;150
0:12:55.179000;-87;150
0:12:55.809000;-84;150
0:12:55.908000;-86;150
0:12:56.141000;-86;150
0:12:56.340000;-87;150
0:12:56.771000;-86;150
0:12:57.270000;-84;150
0:12:57.369000;-86;150
0:12:57.469000;-86;150
0:12:57.701000;-86;150
0:12:57.933000;-88;150
0:12:58.199000;-84;150
0:12:58.729000;-81;150
0:12:58.829000;-86;150
0:12:58.962000;-83;150
0:12:59.161000;-86;150
0:12:59.426000;-87;150
0:12:59.592000;-87;150
0:13:00.421000;-86;150
0:13:00.753000;-83;150
0:13:01.052000;-83;150
0:13:01.284000;-84;150
0:13:01.582000;-83;150
0:13:01.682000;-87;150
0:13:02.014000;-87;150
0:13:02.212000;-83;150
0:13:02.611000;-86;150
0:13:02.810000;-86;150
0:13:03.042000;-86;150
0:13:03.240000;-87;150
0:13:03.340000;-83;150
0:13:03.439000;-86;150
0:13:03.671000;-86;150
0:13:05.564000;-84;150
0:13:05.762000;-83;150
0:13:05.862000;-87;150
0:13:06.061000;-86;150
0:13:06.293000;-87;150
0:13:06.393000;-83;150
0:13:06.492000;-86;150
0:13:06.691000;-86;150
0:13:07.221000;-86;150
0:13:07.420000;-87;150
0:13:07.520000;-84;150
0:13:08.416000;-84;150
0:13:08.582000;-88;150
0:13:08.881000;-83;150
0:13:09.213000;-84;150
0:13:09.744000;-85;150
0:13:09.843000;-84;150
0:13:13.394000;-84;150
0:13:14.455000;-84;150
0:13:14.985000;-88;150
0:13:15.483000;-83;150
0:13:15.715000;-82;150
0:13:15.914000;-86;150
0:13:16.013000;-86;150
0:13:16.345000;-84;150
0:13:16.544000;-86;150
0:13:16.743000;-82;150
0:13:17.075000;-87;150
0:13:17.473000;-87;150
0:13:17.672000;-83;150
0:13:17.904000;-87;150
0:13:18.104000;-87;150
0:13:18.402000;-83;150
0:13:19.895000;-86;150
0:13:20.094000;-87;150
0:13:20.194000;-83;150
0:13:20.726000;-83;150
0:13:20.925000;-85;150
0:13:21.157000;-83;150
0:13:21.654000;-84;150
0:13:22.517000;-83;150
0:13:22.716000;-85;150
0:13:22.816000;-83;150
0:13:23.546000;-84;150
0:13:23.977000;-87;150
0:13:24.176000;-84;150
0:13:24.375000;-84;150
0:13:24.607000;-86;150
0:13:24.807000;-86;150
0:13:25.006000;-86;150
0:13:25.537000;-84;150
0:13:25.636000;-85;150
0:13:26.266000;-84;150
0:13:26.399000;-86;150
0:13:26.996000;-86;150
0:13:27.096000;-83;150
0:13:27.327000;-86;150
0:13:28.156000;-84;150
0:13:28.587000;-84;150
0:13:28.687000;-83;150
0:13:29.417000;-83;150
0:13:29.649000;-88;150
0:13:29.848000;-86;150
0:13:30.047000;-86;150
0:13:30.279000;-86;150
0:13:30.379000;-84;150
0:13:30.578000;-84;150
0:13:30.677000;-86;150
0:13:30.810000;-83;150
0:13:33.298000;-84;150
0:13:33.496000;-86;150
0:13:33.927000;-86;150
0:13:34.126000;-87;150
0:13:34.226000;-84;150
0:13:34.458000;-86;150
0:13:35.088000;-85;150
0:13:35.188000;-84;150
0:13:35.287000;-86;150
0:13:35.486000;-85;150
0:13:36.017000;-88;150
0:13:36.216000;-86;150
0:13:36.747000;-84;150
0:13:36.946000;-86;150
0:13:37.046000;-84;150
0:13:37.278000;-87;150
0:13:37.577000;-88;150
0:13:40.098000;-83;150
0:13:40.531000;-87;150
0:13:40.830000;-86;150
0:13:41.161000;-86;150
0:13:50.319000;-86;150
0:13:50.751000;-86;150
0:13:51.382000;-86;150
0:13:51.580000;-86;150
0:13:51.680000;-84;150
0:13:51.779000;-87;150
0:13:52.011000;-86;150
0:13:52.211000;-84;150
0:13:52.410000;-84;150
0:13:52.941000;-85;150
0:13:53.272000;-84;150
0:13:53.472000;-84;150
0:13:53.804000;-83;150
0:13:53.903000;-87;150
0:13:54.003000;-86;150
0:13:54.235000;-85;150
0:13:54.335000;-83;150
0:13:54.900000;-84;150
0:13:55.165000;-84;150
0:13:55.696000;-84;150
0:13:55.796000;-84;150
0:13:55.995000;-83;150
0:13:56.227000;-84;150
0:13:56.426000;-84;150
0:13:57.156000;-86;150
0:13:57.256000;-84;150
0:13:57.488000;-83;150
0:13:57.687000;-86;150
0:13:57.820000;-84;150
0:13:58.019000;-86;150
0:13:58.119000;-83;150
0:13:58.318000;-84;150
0:13:58.550000;-85;150
0:13:59.048000;-86;150
0:13:59.181000;-83;150
0:13:59.380000;-83;150
0:13:59.579000;-84;150
0:13:59.811000;-87;150
0:13:59.910000;-83;150
0:14:00.209000;-87;150
0:14:00.640000;-86;150
0:14:01.602000;-86;150
0:14:02.001000;-86;150
0:14:02.200000;-85;150
0:14:03.130000;-82;150
0:14:05.255000;-86;150
0:14:05.454000;-85;150
0:14:06.484000;-83;150
0:14:06.716000;-88;150
0:14:07.214000;-85;150
0:14:07.413000;-86;150
0:14:07.612000;-84;150
0:14:07.845000;-84;150
0:14:08.044000;-85;150
0:14:08.277000;-85;150
0:14:09.538000;-87;150
0:14:09.737000;-87;150
0:14:09.936000;-83;150
0:14:10.268000;-83;150
0:14:10.467000;-86;150
0:14:10.667000;-84;150
0:14:10.866000;-87;150
0:14:11.097000;-87;150
0:14:11.197000;-84;150
0:14:11.395000;-86;150
0:14:11.627000;-84;150
0:14:11.827000;-87;150
0:14:11.926000;-84;150
0:14:12.556000;-83;150
0:14:12.888000;-87;150
0:14:13.518000;-84;150
0:14:13.917000;-85;150
0:14:14.381000;-86;150
0:14:14.547000;-87;150
0:14:15.078000;-83;150
0:14:15.177000;-85;150
0:14:15.509000;-84;150
0:14:15.940000;-84;150
0:14:16.139000;-86;150
0:14:16.272000;-84;150
0:14:16.570000;-85;150
0:14:16.670000;-84;150
0:14:16.769000;-85;150
0:14:18.362000;-87;150
0:14:18.595000;-87;150
0:14:18.794000;-85;150
0:14:18.993000;-84;150
0:14:19.225000;-85;150
0:14:19.428000;-84;150
0:14:19.622000;-86;150
0:14:19.821000;-86;150
0:14:20.054000;-86;150
0:14:20.253000;-83;150
0:14:20.452000;-83;150
0:14:20.684000;-87;150
0:14:20.883000;-83;150
0:14:21.082000;-84;150
0:14:21.381000;-84;150
0:14:21.879000;-85;150
0:14:22.642000;-86;150
0:14:22.974000;-84;150
0:14:23.173000;-85;150
0:14:23.604000;-84;150
0:14:24.036000;-85;150
0:14:24.335000;-86;150
0:14:24.434000;-84;150
0:14:24.567000;-87;150
0:14:24.767000;-86;150
0:14:24.966000;-87;150
0:14:25.225000;-85;150
0:14:25.288000;-84;150
0:14:25.444000;-86;150
0:14:25.596000;-87;150
0:14:25.795000;-86;150
0:14:26.226000;-86;150
0:14:26.359000;-84;150
0:14:26.658000;-87;150
0:14:26.857000;-85;150
0:14:27.056000;-86;150
0:14:27.189000;-85;150
0:14:27.388000;-83;150
0:14:27.587000;-84;150
0:14:27.852000;-87;150
0:14:28.018000;-87;150
0:14:28.251000;-87;150
0:14:28.450000;-84;150
0:14:28.649000;-83;150
0:14:28.748000;-86;150
0:14:28.848000;-83;150
0:14:28.947000;-87;150
0:14:29.533000;-83;150
0:14:29.728000;-84;150
0:14:29.810000;-86;150
0:14:29.953000;-83;150
0:14:30.739000;-84;150
0:14:31.602000;-84;150
0:14:32.100000;-86;150
0:14:32.432000;-83;150
0:14:32.631000;-83;150
0:14:32.863000;-82;150
0:14:33.062000;-88;150
0:14:33.493000;-84;150
0:14:33.924000;-86;150
0:14:34.123000;-87;150
0:14:34.223000;-84;150
0:14:34.322000;-85;150
0:14:34.754000;-87;150
0:14:34.953000;-87;150
0:14:35.384000;-86;150
0:14:35.583000;-86;150
0:14:35.783000;-86;150
0:14:36.015000;-86;150
0:14:36.214000;-87;150
0:14:36.413000;-87;150
0:14:36.645000;-84;150
0:14:40.099000;-86;150
0:14:40.298000;-87;150
0:14:40.729000;-87;150
0:14:41.991000;-87;150
0:14:42.289000;-84;150
0:14:42.521000;-85;150
0:14:42.720000;-86;150
0:14:43.152000;-87;150
0:14:43.351000;-88;150
0:14:43.584000;-87;150
0:14:43.883000;-83;150
0:14:44.348000;-86;150
0:14:44.647000;-83;150
0:14:44.747000;-87;150
0:14:44.846000;-85;150
0:14:44.946000;-85;150
0:14:45.145000;-85;150
0:14:45.577000;-86;150
0:14:46.008000;-88;150
0:14:46.108000;-84;150
0:14:46.208000;-88;150
0:14:46.407000;-86;150
0:14:46.639000;-88;150
0:14:46.838000;-84;150
0:14:47.038000;-85;150
0:14:47.237000;-86;150
0:14:47.469000;-92;150
0:14:48.631000;-89;150
0:14:48.863000;-82;150
0:14:49.062000;-82;150
0:14:49.262000;-87;150
0:14:49.460000;-84;150
0:14:49.693000;-84;150
0:14:51.154000;-80;150
0:14:51.353000;-86;150
0:14:51.884000;-90;150
0:14:52.084000;-88;150
0:14:52.283000;-87;150
0:14:52.515000;-86;150
0:14:52.715000;-86;150
0:14:52.947000;-86;150
0:14:53.146000;-84;150
0:14:53.345000;-84;150
0:14:53.544000;-84;150
0:14:53.976000;-83;150
0:14:54.374000;-84;150
0:14:54.606000;-84;150
0:14:54.838000;-84;150
0:14:55.237000;-86;150
0:14:55.768000;-86;150
0:14:56;-86;150
0:14:56.332000;-84;150
0:14:56.531000;-88;150
0:14:56.631000;-84;150
0:14:56.730000;-86;150
0:14:57.062000;-83;150
0:14:57.261000;-83;150
0:14:57.494000;-86;150
0:14:57.693000;-84;150
0:14:58.423000;-87;150
0:14:59.053000;-84;150
0:14:59.352000;-86;150
0:14:59.551000;-88;150
0:14:59.751000;-83;150
0:14:59.983000;-85;150
0:15:03.036000;-85;150
0:15:03.235000;-88;150
0:15:20.102000;-84;150
0:15:20.334000;-87;150
0:15:20.534000;-84;150
0:15:20.833000;-86;150
0:15:21.165000;-84;150
0:15:21.364000;-84;150
0:15:21.463000;-87;150
0:15:21.861000;-84;150
0:15:21.961000;-86;150
0:15:22.193000;-85;150
0:15:22.392000;-87;150
0:15:22.492000;-84;150
0:15:22.591000;-86;150
0:15:22.724000;-83;150
0:15:23.122000;-83;150
0:15:23.222000;-86;150
0:15:23.388000;-83;150
0:15:25.779000;-87;150
0:15:25.979000;-86;150
0:15:26.311000;-87;150
0:15:26.543000;-86;150
0:15:26.642000;-84;150
0:15:30.097000;-83;150
0:15:30.395000;-87;150
0:15:31.359000;-85;150
0:15:31.658000;-87;150
0:15:31.857000;-85;150
0:15:32.288000;-83;150
0:15:32.687000;-84;150
0:15:32.787000;-87;150
0:15:33.218000;-86;150
0:15:33.418000;-84;150
0:15:33.617000;-83;150
0:15:33.949000;-86;150
0:15:34.148000;-87;150
0:15:34.348000;-83;150
0:15:34.547000;-84;150
0:15:34.779000;-86;150
0:15:35.178000;-84;150
0:15:35.610000;-86;150
0:15:35.742000;-84;150
0:15:35.941000;-84;150
0:15:36.141000;-86;150
0:15:36.904000;-86;150
0:15:37.103000;-87;150
0:15:37.402000;-82;150
0:15:37.502000;-87;150
0:15:37.634000;-84;150
0:15:37.834000;-87;150
0:15:39.726000;-85;150
0:15:39.925000;-87;150
0:15:40.158000;-86;150
0:15:40.357000;-84;150
0:15:41.188000;-89;150
0:15:41.719000;-86;150
0:15:41.918000;-87;150
0:15:42.250000;-84;150
0:15:42.350000;-86;150
0:15:42.648000;-83;150
0:15:42.881000;-83;150
0:15:42.981000;-86;150
0:15:43.279000;-83;150
0:15:43.379000;-87;150
0:15:43.611000;-88;150
0:15:43.711000;-85;150
0:15:43.943000;-88;150
0:15:44.143000;-86;150
0:15:44.342000;-86;150
0:15:45.105000;-87;150
0:15:45.304000;-85;150
0:15:45.504000;-83;150
0:15:45.935000;-87;150
0:15:46.466000;-87;150
0:15:46.699000;-87;150
0:15:46.898000;-84;150
0:15:47.197000;-88;150
0:15:47.429000;-87;150
0:15:47.628000;-87;150
0:15:47.727000;-83;150
0:15:48.159000;-87;150
0:15:48.690000;-83;150
0:15:48.889000;-83;150
0:15:49.221000;-87;150
0:15:49.421000;-86;150
0:15:49.521000;-84;150
0:15:49.953000;-83;150
0:15:50.285000;-88;150
0:15:50.484000;-86;150
0:15:50.783000;-84;150
0:15:51.215000;-86;150
0:15:51.314000;-83;150
0:15:51.780000;-84;150
0:15:51.979000;-84;150
0:15:52.178000;-84;150
0:15:52.477000;-87;150
0:15:52.809000;-84;150
0:15:53.007000;-84;150
0:15:53.107000;-86;150
0:15:53.306000;-86;150
0:15:53.538000;-86;150
0:15:53.738000;-86;150
0:15:53.937000;-87;150
0:15:54.170000;-87;150
0:15:54.368000;-87;150
0:15:54.568000;-87;150
0:15:54.999000;-87;150
0:15:55.198000;-86;150
0:15:55.431000;-87;150
0:15:55.531000;-84;150
0:15:56.062000;-86;150
0:15:56.294000;-88;150
0:15:56.361000;-83;150
0:15:56.460000;-87;150
0:15:56.892000;-87;150
0:15:57.224000;-85;150
0:15:57.522000;-86;150
0:15:57.622000;-83;150
0:15:58.054000;-83;150
0:15:58.253000;-84;150
0:15:58.485000;-84;150
0:15:58.585000;-87;150
0:15:58.784000;-84;150
0:15:59.183000;-86;150
0:15:59.415000;-85;150
0:15:59.714000;-84;150
0:15:59.947000;-83;150
0:16:00.146000;-86;150
0:16:00.577000;-84;150
0:16:00.677000;-85;150
0:16:00.809000;-84;150
0:16:00.975000;-84;150
0:16:01.075000;-86;150
0:16:01.307000;-92;150
0:16:01.407000;-84;150
0:16:01.938000;-87;150
0:16:02.137000;-83;150
0:16:02.435000;-87;150
0:16:02.668000;-88;150
0:16:02.767000;-84;150
0:16:02.966000;-83;150
0:16:03.066000;-87;150
0:16:03.265000;-86;150
0:16:03.696000;-87;150
0:16:03.928000;-86;150
0:16:04.127000;-87;150
0:16:04.327000;-83;150
0:16:04.526000;-84;150
0:16:04.824000;-87;150
0:16:05.056000;-86;150
0:16:05.156000;-83;150
0:16:05.388000;-87;150
0:16:05.587000;-88;150
0:16:06.019000;-85;150
0:16:06.218000;-86;150
0:16:06.550000;-83;150
0:16:06.783000;-86;150
0:16:06.982000;-86;150
0:16:07.181000;-84;150
0:16:07.381000;-87;150
0:16:07.812000;-84;150
0:16:08.011000;-86;150
0:16:08.277000;-87;150
0:16:08.443000;-86;150
0:16:08.841000;-84;150
0:16:09.073000;-83;150
0:16:09.273000;-83;150
0:16:09.472000;-89;150
0:16:09.704000;-83;150
0:16:11.066000;-85;150
0:16:11.498000;-84;150
0:16:11.930000;-86;150
0:16:12.129000;-87;150
0:16:12.328000;-84;150
0:16:12.427000;-86;150
0:16:12.527000;-84;150
0:16:13.158000;-84;150
0:16:13.390000;-87;150
0:16:14.021000;-83;150
0:16:14.120000;-86;150
0:16:14.319000;-88;150
0:16:14.951000;-84;150
0:16:15.150000;-84;150
0:16:15.349000;-85;150
0:16:15.449000;-87;150
0:16:15.681000;-88;150
0:16:16.079000;-86;150
0:16:16.312000;-87;150
0:16:16.511000;-87;150
0:16:16.943000;-86;150
0:16:17.573000;-87;150
0:16:17.772000;-84;150
0:16:17.972000;-83;150
0:16:18.204000;-86;150
0:16:18.403000;-88;150
0:16:18.935000;-84;150
0:16:19.367000;-86;150
0:16:19.467000;-83;150
0:16:19.699000;-87;150
0:16:19.898000;-87;150
0:16:20.097000;-86;150
0:16:20.297000;-83;150
0:16:21.027000;-88;150
0:16:23.450000;-82;150
0:16:23.550000;-87;150
0:16:23.683000;-84;150
0:16:23.882000;-84;150
0:16:30.160000;-87;150
0:16:31.953000;-83;150
0:16:32.152000;-83;150
0:16:32.385000;-84;150
0:16:32.883000;-87;150
0:16:33.215000;-84;150
0:16:33.315000;-87;150
0:16:33.514000;-86;150
0:16:33.647000;-84;150
0:16:34.045000;-84;150
0:16:34.145000;-88;150
0:16:34.477000;-84;150
0:16:34.577000;-88;150
0:16:34.776000;-87;150
0:16:35.008000;-87;150
0:16:35.208000;-84;150
0:16:35.407000;-84;150
0:16:35.606000;-83;150
0:16:36.037000;-84;150
0:16:36.137000;-86;150
0:16:36.469000;-84;150
0:16:36.568000;-87;150
0:16:36.668000;-84;150
0:16:36.867000;-83;150
0:16:37.299000;-87;150
0:16:37.498000;-84;150
0:16:37.731000;-87;150
0:16:38.129000;-87;150
0:16:38.362000;-85;150
0:16:38.561000;-87;150
0:16:38.760000;-87;150
0:16:38.992000;-87;150
0:16:39.191000;-87;150
0:16:39.391000;-83;150
0:16:39.689000;-86;150
0:16:39.921000;-86;150
0:16:40.121000;-86;150
0:16:40.519000;-84;150
0:16:40.751000;-84;150
0:16:44.437000;-85;150
0:16:45.167000;-88;150
0:16:45.566000;-85;150
0:16:45.798000;-85;150
0:16:46.096000;-88;150
0:16:46.296000;-87;150
0:16:46.594000;-87;150
0:16:48.919000;-84;150
0:16:49.152000;-86;150
0:16:49.584000;-86;150
0:16:49.783000;-83;150
0:16:49.883000;-86;150
0:16:50.082000;-87;150
0:16:50.281000;-87;150
0:16:50.514000;-86;150
0:16:50.713000;-84;150
0:16:50.912000;-84;150
0:16:53.536000;-88;150
0:16:53.735000;-87;150
0:16:53.968000;-87;150
0:16:54.067000;-84;150
0:16:54.266000;-84;150
0:16:54.365000;-88;150
0:16:54.464000;-84;150
0:16:54.596000;-86;150
0:16:55.325000;-85;150
0:16:55.523000;-85;150
0:16:55.623000;-86;150
0:16:55.755000;-84;150
0:16:55.954000;-85;150
0:16:56.053000;-87;150
0:16:56.485000;-88;150
0:16:56.684000;-87;150
0:16:56.784000;-83;150
0:16:57.514000;-85;150
0:16:57.747000;-84;150
0:16:57.913000;-84;150
0:16:58.046000;-86;150
0:16:58.245000;-88;150
0:16:58.344000;-84;150
0:16:58.776000;-85;150
0:16:58.876000;-87;150
0:16:58.975000;-85;150
0:16:59.174000;-84;150
0:16:59.340000;-86;150
0:17:00.536000;-85;150
0:17:00.768000;-86;150
0:17:00.968000;-87;150
0:17:01.067000;-83;150
0:17:01.499000;-84;150
0:17:01.599000;-87;150
0:17:01.698000;-84;150
0:17:01.931000;-87;150
0:17:02.130000;-87;150
0:17:02.362000;-88;150
0:17:02.561000;-85;150
0:17:02.760000;-87;150
0:17:02.993000;-88;150
0:17:03.092000;-85;150
0:17:14.249000;-82;150
0:17:14.315000;-84;150
0:17:15.146000;-86;150
0:17:15.378000;-82;150
0:17:15.577000;-81;150
0:17:16.208000;-83;150
0:17:16.407000;-84;150
0:17:16.506000;-88;150
0:17:16.606000;-86;150
0:17:16.838000;-86;150
0:17:17.037000;-84;150
0:17:17.270000;-86;150
0:17:17.469000;-87;150
0:17:20.226000;-84;150
0:17:20.425000;-90;150
0:17:20.525000;-81;150
0:17:20.624000;-85;150
0:17:21.122000;-87;150
0:17:21.255000;-80;150
0:17:21.354000;-80;150
0:17:21.454000;-78;150
0:17:21.553000;-83;150
0:17:21.753000;-84;150
0:17:21.985000;-92;150
0:17:22.284000;-88;150
0:17:22.516000;-85;150
0:17:22.715000;-84;150
0:17:22.915000;-84;150
0:17:23.114000;-84;150
0:17:23.347000;-84;150
0:17:24.177000;-87;150
0:17:24.409000;-88;150
0:17:24.608000;-86;150
0:17:24.808000;-84;150
0:17:25.007000;-84;150
0:17:25.239000;-85;150
0:17:25.737000;-84;150
0:17:25.969000;-87;150
0:17:26.168000;-87;150
0:17:26.368000;-85;150
0:17:26.501000;-85;150
0:17:26.600000;-86;150
0:17:26.700000;-84;150
0:17:27.131000;-85;150
0:17:27.331000;-83;150
0:17:27.430000;-86;150
0:17:27.629000;-87;150
0:17:27.861000;-88;150
0:17:28.061000;-86;150
0:17:28.160000;-83;150
0:17:28.392000;-83;150
0:17:29.754000;-86;150
0:17:29.953000;-83;150
0:17:30.385000;-86;150
0:17:30.584000;-87;150
0:17:38.124000;-83;150
0:17:38.357000;-86;150
0:17:38.556000;-86;150
0:17:38.755000;-84;150
0:17:38.987000;-86;150
0:17:39.386000;-87;150
0:17:39.618000;-86;150
0:17:39.817000;-84;150
0:17:42.209000;-84;150
0:17:43.038000;-84;150
0:17:43.271000;-87;150
0:17:43.470000;-87;150
0:17:43.703000;-85;150
0:17:43.902000;-86;150
0:17:44.101000;-86;150
0:17:44.433000;-83;150
0:17:44.632000;-87;150
0:17:44.865000;-86;150
0:17:45.064000;-89;150
0:17:45.163000;-87;150
0:17:45.296000;-89;150
0:17:45.728000;-85;150
0:17:46.226000;-84;150
0:17:46.458000;-84;150
0:17:46.657000;-83;150
0:17:56.852000;-84;150
0:17:57.052000;-84;150
0:17:57.484000;-85;150
0:17:57.583000;-86;150
0:17:57.716000;-83;150
0:17:57.915000;-85;150
0:17:58.214000;-89;150
0:17:58.413000;-86;150
0:17:59.475000;-83;150
0:17:59.707000;-86;150
0:17:59.906000;-97;150
0:18:00.105000;-82;150
0:18:00.304000;-85;150
0:18:00.404000;-86;150
0:18:00.637000;-84;150
0:18:01.898000;-87;150
0:18:02.529000;-89;150
0:18:02.728000;-86;150
0:18:03.160000;-82;150
0:18:03.260000;-84;150
0:18:03.359000;-82;150
0:18:03.559000;-85;150
0:18:03.990000;-85;150
0:18:04.521000;-83;150
0:18:04.754000;-84;150
0:18:07.145000;-84;150
0:18:07.244000;-85;150
0:18:07.444000;-86;150
0:18:07.974000;-83;150
0:18:08.074000;-85;150
0:18:08.240000;-84;150
0:18:08.837000;-85;150
0:18:09.037000;-85;150
0:18:09.468000;-83;150
0:18:10.730000;-83;150
0:18:10.930000;-83;150
0:18:11.361000;-86;150
0:18:12.689000;-86;150
0:18:13.220000;-84;150
0:18:13.452000;-83;150
0:18:13.851000;-84;150
0:18:14.282000;-88;150
0:18:14.514000;-87;150
0:18:14.613000;-84;150
0:18:14.813000;-84;150
0:18:15.045000;-83;150
0:18:15.576000;-84;150
0:18:15.775000;-84;150
0:18:15.875000;-85;150
0:18:16.074000;-87;150
0:18:17.368000;-87;150
0:18:21.450000;-86;150
0:18:21.782000;-84;150
0:18:25.033000;-83;150
0:18:25.232000;-87;150
0:18:25.664000;-83;150
0:18:25.763000;-86;150
0:18:25.963000;-86;150
0:18:26.294000;-84;150
0:18:30.811000;-86;150
0:18:30.943000;-83;150
0:18:31.043000;-87;150
0:18:33.466000;-86;150
0:18:33.864000;-83;150
0:18:33.964000;-86;150
0:18:34.196000;-85;150
0:18:34.594000;-86;150
0:18:34.794000;-83;150
0:18:35.026000;-83;150
0:18:35.457000;-87;150
0:18:39.110000;-84;150
0:18:39.342000;-83;150
0:18:39.442000;-87;150
0:18:39.541000;-83;150
0:18:40.271000;-87;150
0:18:40.471000;-86;150
0:18:40.902000;-86;150
0:18:41.101000;-86;150
0:18:41.267000;-84;150
0:18:41.333000;-86;150
0:18:41.865000;-83;150
0:18:42.064000;-84;150
0:18:42.163000;-85;150
0:18:42.362000;-84;150
0:18:42.595000;-85;150
0:18:42.794000;-84;150
0:18:42.893000;-86;150
0:18:50.394000;-86;150
0:18:50.594000;-86;150
0:18:50.793000;-87;150
0:18:51.025000;-85;150
0:18:51.224000;-87;150
0:18:51.423000;-86;150
0:18:51.755000;-83;150
0:18:51.954000;-84;150
0:18:52.187000;-84;150
0:18:52.386000;-84;150
0:18:52.618000;-86;150
0:18:52.717000;-83;150
0:18:52.917000;-83;150
0:18:53.016000;-87;150
0:18:53.182000;-85;150
0:18:53.747000;-83;150
0:18:53.979000;-87;150
0:18:54.178000;-84;150
0:18:54.410000;-86;150
0:18:55.040000;-86;150
0:19:03.006000;-83;150
0:19:03.105000;-83;150
0:19:03.205000;-83;150
0:19:03.304000;-85;150
0:19:03.437000;-84;150
0:19:03.537000;-87;150
0:19:03.670000;-82;150
0:19:03.836000;-83;150
0:19:04.068000;-86;150
0:19:04.466000;-84;150
0:19:04.698000;-84;150
0:19:04.897000;-84;150
0:19:09.411000;-83;150
0:19:09.643000;-85;150
0:19:09.842000;-83;150
0:19:10.373000;-86;150
0:19:10.473000;-82;150
0:19:10.572000;-86;150
0:19:10.804000;-86;150
0:19:10.903000;-83;150
0:19:11.169000;-84;150
0:19:11.235000;-86;150
0:19:11.401000;-83;150
0:19:11.600000;-84;150
0:19:11.833000;-84;150
0:19:12.032000;-84;150
0:19:12.264000;-86;150
0:19:12.662000;-84;150
0:19:12.861000;-83;150
0:19:12.961000;-86;150
0:19:13.194000;-85;150
0:19:13.393000;-87;150
0:19:13.924000;-87;150
0:19:14.156000;-86;150
0:19:14.256000;-83;150
0:19:14.455000;-85;150
0:19:14.886000;-86;150
0:19:15.118000;-86;150
0:19:15.517000;-84;150
0:19:15.650000;-88;150
0:19:16.380000;-86;150
0:19:16.580000;-86;150
0:19:16.779000;-86;150
0:19:16.978000;-86;150
0:19:17.210000;-85;150
0:19:17.409000;-84;150
0:19:18.471000;-87;150
0:19:18.671000;-84;150
0:19:18.770000;-85;150
0:19:18.870000;-84;150
0:19:18.970000;-86;150
0:19:19.401000;-87;150
0:19:19.600000;-85;150
0:19:19.832000;-86;150
0:19:19.932000;-84;150
0:19:20.363000;-88;150
0:19:20.562000;-87;150
0:19:21.658000;-86;150
0:19:21.824000;-85;150
0:19:22.023000;-86;150
0:19:22.355000;-83;150
0:19:22.654000;-85;150
0:19:29.988000;-84;150
0:19:30.088000;-84;150
0:19:30.951000;-86;150
0:19:31.150000;-87;150
0:19:31.349000;-86;150
0:19:31.547000;-83;150
0:19:31.779000;-83;150
0:19:33.637000;-86;150
0:19:33.769000;-84;150
0:19:35.163000;-84;150
0:19:36.224000;-87;150
0:19:37.683000;-83;150
0:19:39.241000;-87;150
0:19:39.473000;-86;150
0:19:39.672000;-84;150
0:19:42.824000;-86;150
0:19:43.024000;-86;150
0:19:46.708000;-85;150
0:19:51.322000;-86;150
0:19:51.521000;-84;150
0:19:52.683000;-84;150
0:19:53.313000;-84;150
0:19:54.873000;-88;150
0:19:55.304000;-84;150
0:19:55.735000;-85;150
0:19:55.934000;-84;150
0:19:56.134000;-83;150
0:19:56.432000;-86;150
0:19:56.565000;-84;150
0:19:56.664000;-86;150
0:19:56.864000;-85;150
0:19:56.963000;-83;150
0:19:57.195000;-84;150
0:19:57.295000;-86;150
0:19:57.394000;-84;150
0:19:57.494000;-85;150
0:19:57.626000;-84;150
0:19:57.925000;-88;150
0:19:58.323000;-86;150
0:19:58.556000;-85;150
0:19:58.655000;-84;150
0:19:59.120000;-84;150
0:19:59.186000;-86;150
0:19:59.385000;-86;150
0:19:59.783000;-84;150
0:20:07.253000;-84;150
0:20:07.485000;-84;150
0:20:08.746000;-86;150
0:20:08.945000;-87;150
0:20:09.078000;-84;150
0:20:10.007000;-85;150
0:20:10.405000;-83;150
0:20:10.637000;-84;150
0:20:10.836000;-85;150
0:20:11.102000;-84;150
0:20:11.267000;-84;150
0:20:11.765000;-85;150
0:20:11.864000;-83;150
0:20:12.097000;-84;150
0:20:12.296000;-85;150
0:20:12.628000;-85;150
0:20:13.026000;-85;150
0:20:13.258000;-84;150
0:20:13.457000;-86;150
0:20:13.656000;-86;150
0:20:14.187000;-86;150
0:20:14.618000;-85;150
0:20:14.818000;-85;150
0:20:15.681000;-84;150
0:20:15.980000;-85;150
0:20:16.080000;-84;150
0:20:16.179000;-85;150
0:20:16.379000;-86;150
0:20:16.512000;-85;150
0:20:16.611000;-87;150
0:20:16.711000;-83;150
0:20:16.910000;-84;150
0:20:17.142000;-84;150
0:20:17.341000;-84;150
0:20:17.574000;-87;150
0:20:17.772000;-84;150
0:20:17.972000;-84;150
0:20:18.204000;-86;150
0:20:18.403000;-86;150
0:20:18.801000;-84;150
0:20:19.034000;-85;150
0:20:19.233000;-84;150
0:20:19.432000;-84;150
0:20:19.664000;-85;150
0:20:19.863000;-84;150
0:20:20.494000;-84;150
0:20:20.593000;-85;150
0:20:20.793000;-85;150
0:20:27.001000;-86;150
0:20:27.233000;-85;150
0:20:27.433000;-88;150
0:20:27.565000;-84;150
0:20:27.765000;-84;150
0:20:27.964000;-84;150
0:20:28.163000;-83;150
0:20:28.263000;-86;150
0:20:28.695000;-84;150
0:20:29.126000;-86;150
0:20:29.325000;-86;150
0:20:29.856000;-85;150
0:20:29.956000;-85;150
0:20:30.288000;-85;150
0:20:30.687000;-82;150
0:20:30.919000;-83;150
0:20:31.118000;-83;150
0:20:31.317000;-83;150
0:20:31.616000;-87;150
0:20:31.849000;-86;150
0:20:32.148000;-85;150
0:20:32.380000;-84;150
0:20:32.579000;-84;150
0:20:32.778000;-84;150
0:20:33.011000;-86;150
0:20:33.210000;-85;150
0:20:33.410000;-86;150
0:20:33.642000;-86;150
0:20:33.974000;-86;150
0:20:34.173000;-83;150
0:20:34.406000;-85;150
0:20:34.605000;-88;150
0:20:34.704000;-84;150
0:20:34.937000;-83;150
0:20:35.136000;-85;150
0:20:35.335000;-84;150
0:20:35.568000;-86;150
0:20:35.767000;-84;150
0:20:35.966000;-84;150
0:20:36.398000;-85;150
0:20:36.497000;-84;150
0:20:36.729000;-86;150
0:20:36.929000;-86;150
0:20:37.360000;-84;150
0:20:37.460000;-85;150
0:20:37.560000;-85;150
0:20:37.991000;-85;150
0:20:38.190000;-85;150
0:20:38.389000;-85;150
0:20:38.621000;-87;150
0:20:38.821000;-85;150
0:20:39.020000;-85;150
0:20:39.252000;-84;150
0:20:39.883000;-84;150
0:20:40.082000;-85;150
0:20:40.181000;-86;150
0:20:40.613000;-87;150
0:20:50.072000;-85;150
0:20:50.470000;-86;150
0:20:50.670000;-86;150
0:21:20.411000;-84;150
0:21:20.611000;-84;150
0:21:30.173000;-84;150
0:21:30.405000;-84;150
0:21:30.804000;-84;150
0:21:31.235000;-86;150
0:21:31.468000;-85;150
0:21:31.667000;-85;150
0:21:31.866000;-86;150
0:21:32.098000;-86;150
0:21:32.298000;-86;150
0:21:32.497000;-84;150
0:21:33.028000;-84;150
0:21:33.227000;-86;150
0:21:33.327000;-85;150
0:21:33.426000;-85;150
0:21:33.592000;-84;150
0:21:33.857000;-86;150
0:21:34.189000;-84;150
0:21:34.388000;-85;150
0:21:34.488000;-86;150
0:21:34.687000;-84;150
0:21:34.787000;-84;150
0:21:35.019000;-84;150
0:21:35.218000;-85;150
0:21:36.181000;-83;150
0:21:36.380000;-83;150
0:21:36.712000;-86;150
0:21:36.811000;-85;150
0:21:37.011000;-85;150
0:21:37.143000;-86;150
0:21:37.243000;-84;150
0:21:37.873000;-85;150
0:21:38.072000;-87;150
0:21:38.304000;-86;150
0:21:39.035000;-84;150
0:21:39.334000;-86;150
0:21:39.467000;-85;150
0:21:39.666000;-84;150
0:21:40.197000;-87;150
0:21:45.440000;-83;150
0:21:45.739000;-88;150
0:21:45.938000;-84;150
0:21:46.137000;-83;150
0:21:46.369000;-83;150
0:21:46.568000;-87;150
0:21:46.801000;-88;150
0:21:47.033000;-87;150
0:21:47.199000;-86;150
0:21:47.398000;-85;150
0:21:47.630000;-87;150
0:21:47.829000;-84;150
0:21:48.326000;-84;150
0:21:48.558000;-84;150
0:21:48.757000;-84;150
0:21:48.956000;-84;150
0:21:49.188000;-84;150
0:21:49.386000;-87;150
0:21:49.619000;-87;150
0:21:50.845000;-84;150
0:21:51.077000;-84;150
0:21:51.177000;-85;150
0:21:51.376000;-86;150
0:21:51.575000;-86;150
0:21:51.807000;-88;150
0:21:52.005000;-85;150
0:21:52.105000;-84;150
0:21:52.337000;-84;150
0:21:52.535000;-83;150
0:21:52.767000;-85;150
0:21:52.966000;-85;150
0:21:53.165000;-85;150
0:21:53.265000;-87;150
0:21:53.464000;-87;150
0:21:53.596000;-83;150
0:21:53.696000;-87;150
0:21:53.895000;-85;150
0:21:53.995000;-83;150
0:21:54.227000;-83;150
0:21:54.326000;-86;150
0:21:54.525000;-86;150
0:21:54.725000;-86;150
0:21:54.957000;-88;150
0:21:55.354000;-87;150
0:21:56.117000;-83;150
0:21:56.217000;-87;150
0:21:56.317000;-84;150
0:21:56.516000;-84;150
0:21:56.748000;-84;150
0:21:56.947000;-83;150
0:21:57.179000;-86;150
0:21:57.577000;-86;150
0:21:58.009000;-86;150
0:21:58.307000;-84;150
0:21:58.539000;-84;150
0:21:58.639000;-87;150
0:21:58.838000;-84;150
0:21:59.037000;-84;150
0:21:59.269000;-83;150
0:21:59.467000;-83;150
0:21:59.666000;-84;150
0:21:59.765000;-86;150
0:21:59.998000;-87;150
0:22:00.196000;-86;150
0:22:00.395000;-86;150
0:22:00.628000;-85;150
0:22:00.727000;-84;150
0:22:00.826000;-86;150
0:22:01.025000;-87;150
0:22:01.224000;-85;150
0:22:01.455000;-85;150
0:22:01.555000;-83;150
0:22:01.786000;-84;150
0:22:01.886000;-86;150
0:22:02.084000;-85;150
0:22:02.283000;-86;150
0:22:02.514000;-85;150
0:22:03.110000;-85;150
0:22:03.209000;-86;150
0:22:03.442000;-86;150
0:22:03.640000;-85;150
0:22:03.872000;-86;150
0:22:04.071000;-87;150
0:22:04.269000;-86;150
0:22:04.468000;-83;150
0:22:04.700000;-84;150
0:22:04.898000;-85;150
0:22:05.328000;-85;150
0:22:06.785000;-84;150
0:22:06.984000;-85;150
0:22:07.315000;-87;150
0:22:07.514000;-86;150
0:22:07.712000;-85;150
0:22:08.673000;-85;150
0:22:08.904000;-85;150
0:22:09.202000;-84;150
0:22:09.301000;-86;150
0:22:09.434000;-84;150
0:22:09.566000;-85;150
0:22:09.632000;-84;150
0:22:10.062000;-86;150
0:22:10.261000;-85;150
0:22:10.493000;-85;150
0:22:10.691000;-84;150
0:22:10.890000;-84;150
0:22:11.122000;-86;150
0:22:11.320000;-84;150
0:22:11.949000;-85;150
0:22:12.148000;-84;150
0:22:12.380000;-85;150
0:22:12.578000;-84;150
0:22:13.075000;-85;150
0:22:13.307000;-84;150
0:22:13.506000;-85;150
0:22:13.704000;-84;150
0:22:13.936000;-86;150
0:22:14.234000;-87;150
0:22:14.333000;-85;150
0:22:14.433000;-85;150
0:22:14.565000;-85;150
0:22:14.665000;-88;150
0:22:16.258000;-89;150
0:22:16.457000;-85;150
0:22:16.656000;-84;150
0:22:17.087000;-83;150
0:22:17.486000;-86;150
0:22:17.718000;-85;150
0:22:17.917000;-86;150
0:22:18.049000;-85;150
0:22:18.249000;-83;150
0:22:19.078000;-84;150
0:22:19.310000;-84;150
0:22:19.509000;-85;150
0:22:19.709000;-86;150
0:22:20.140000;-84;150
0:22:30.489000;-86;150
0:22:30.688000;-86;150
0:22:40.709000;-83;150
0:22:41.140000;-86;150
0:22:41.240000;-85;150
0:22:42.600000;-84;150
0:22:42.700000;-86;150
0:22:42.800000;-84;150
0:22:43.032000;-84;150
0:22:43.231000;-85;150
0:22:43.430000;-85;150
0:22:43.662000;-83;150
0:22:43.861000;-82;150
0:22:44.160000;-85;150
0:22:44.359000;-85;150
0:22:44.591000;-84;150
0:22:45.023000;-85;150
0:22:45.222000;-85;150
0:22:45.487000;-87;150
0:22:45.653000;-84;150
0:22:45.852000;-86;150
0:22:46.383000;-84;150
0:22:46.482000;-86;150
0:22:46.814000;-84;150
0:22:46.914000;-85;150
0:22:47.113000;-87;150
0:22:47.213000;-84;150
0:22:47.312000;-86;150
0:22:47.545000;-85;150
0:22:47.744000;-87;150
0:22:47.943000;-85;150
0:22:48.175000;-86;150
0:22:48.474000;-84;150
0:22:54.680000;-84;150
0:22:55.112000;-87;150
0:22:55.709000;-84;150
0:22:56.140000;-85;150
0:22:56.970000;-87;150
0:22:57.400000;-85;150
0:22:57.599000;-84;150
0:22:58.263000;-87;150
0:22:58.462000;-86;150
0:22:58.561000;-85;150
0:22:58.761000;-84;150
0:22:58.860000;-86;150
0:22:59.092000;-84;150
0:22:59.291000;-85;150
0:23:00.984000;-85;150
0:23:01.183000;-85;150
0:23:01.615000;-84;150
0:23:01.814000;-83;150
0:23:02.013000;-84;150
0:23:02.246000;-85;150
0:23:02.544000;-83;150
0:23:02.776000;-86;150
0:23:02.976000;-84;150
0:23:03.175000;-83;150
0:23:03.274000;-85;150
0:23:03.705000;-80;150
0:23:03.904000;-83;150
0:23:04.004000;-86;150
0:23:04.336000;-83;150
0:23:05.497000;-84;150
0:23:05.696000;-82;150
0:23:05.796000;-87;150
0:23:06.227000;-85;150
0:23:06.460000;-84;150
0:23:06.626000;-83;150
0:23:06.858000;-83;150
0:23:07.057000;-83;150
0:23:07.488000;-82;150
0:23:07.588000;-84;150
0:23:07.688000;-82;150
0:23:11.141000;-88;150
0:23:11.340000;-91;150
0:23:13.332000;-86;150
0:23:13.764000;-85;150
0:23:13.963000;-84;150
0:23:14.162000;-84;150
0:23:18.877000;-86;150
0:23:19.077000;-88;150
0:23:19.309000;-86;150
0:23:19.741000;-86;150
0:23:19.940000;-85;150
0:23:20.371000;-86;150
0:23:20.570000;-85;150
0:23:20.670000;-84;150
0:23:21.002000;-86;150
0:23:23.392000;-86;150
0:23:23.591000;-86;150
0:23:23.923000;-84;150
0:23:24.222000;-86;150
0:23:24.321000;-84;150
0:23:24.853000;-87;150
0:23:25.052000;-86;150
0:23:25.284000;-85;150
0:23:26.314000;-85;150
0:23:26.546000;-86;150
0:23:32.621000;-83;150
0:23:32.720000;-85;150
0:23:32.919000;-85;150
0:23:33.351000;-85;150
0:23:33.649000;-85;150
0:23:34.081000;-83;150
0:23:34.180000;-85;150
0:23:34.612000;-86;150
0:23:36.437000;-85;150
0:23:36.836000;-84;150
0:23:38.064000;-85;150
0:23:38.794000;-85;150
0:23:38.994000;-85;150
