15.768;-83.4171677525787
16.08666666666667;-84.35160014363825
16.565;-85.25460282209112
17.226;-85.03099481490946
18.52033333333333;-86.88392095084377
19.474333333333334;-84.91643292634083
20.601333333333333;-83.13430320081319
21.530666666666665;-83.95255557048375
22.560666666666666;-84.23533163310836
23.545;-85.11738711457429
24.77333333333333;-84.03349141985937
25.526;-82.90600285071983
26.08966666666667;-82.07790626500531
26.95266666666667;-82.50214302411818
27.595;-82.39801419199783
28.403000000000002;-82.53173780291564
29.376;-82.80273263498789
30.37166666666667;-83.38342589880659
31.024333333333335;-82.42602581052645
32.076;-84.5172099643401
32.99466666666667;-83.85174515362411
34.665666666666674;-84.05964639576285
36.004333333333335;-82.5386767878365
36.559666666666665;-84.49274319575755
37.22166666666667;-83.6492765737797
38.117666666666665;-86.1790420376958
38.815333333333335;-85.5597313819637
40.054;-83.92469145685699
40.82833333333334;-84.68066519218218
41.26;-81.79312952946285
42.035000000000004;-80.16477472306389
43.10933333333333;-85.6271120861475
43.784;-86.8718184606408
44.359;-84.01963607755727
45.10033333333333;-82.87943880055231
45.89699999999999;-84.50443002063508
46.605333333333334;-82.2266354954294
47.18133333333333;-84.23272694842142
48.04366666666667;-84.39945316819309
48.906666666666666;-85.17698077220786
49.548;-85.22741353168429
50.91066666666666;-85.76188948027928
51.60933333333333;-85.42717178237746
52.216;-86.64350389901784
52.95733333333333;-85.45676846514088
53.788333333333334;-82.34855595681054
54.971000000000004;-83.37952274753863
55.967333333333336;-83.58672869232517
56.71966666666666;-83.53639987073916
57.449000000000005;-84.60908642239318
58.04633333333334;-84.10752594003817
59.053333333333335;-83.6833483083237
59.92733333333333;-83.20187101517611
60.46933333333334;-84.33358668292497
61.41;-86.3047334373889
62.01833333333334;-85.5545251101073
62.782333333333334;-86.60904016123335
63.71133333333333;-87.21438693812132
64.37533333333334;-85.95175739682145
65.44900000000001;-86.82372285425775
66.69966666666666;-86.05830088775215
67.45233333333334;-86.93767135605796
68.60366666666665;-85.08471629452718
69.55533333333334;-84.14255235265257
70.55133333333333;-82.38545379185248
71.20433333333334;-83.18564629229869
71.99;-84.5332008475065
72.63233333333334;-87.30467032391793
73.29666666666668;-87.9841382718719
73.95;-85.40729236713736
74.71333333333334;-87.17712130821081
75.3;-84.36803356602996
76.48433333333332;-84.6523647468406
77.87933333333334;-84.86732502939361
78.37733333333334;-83.7693118406155
78.897;-82.23298724099409
79.58333333333333;-85.66597805890025
80.358;-84.44004346031659
80.88900000000001;-85.278844423103
81.33166666666666;-85.18288818709686
81.88466666666666;-85.6201591343502
82.60433333333333;-86.03523501187973
83.69933333333334;-86.48756967794668
84.13099999999999;-84.30004436103529
85.00500000000001;-84.89573959467752
85.52499999999999;-83.4710274408171
85.94533333333334;-82.7851717582373
86.52066666666667;-81.3071050622019
87.31733333333334;-84.95071637729558
88.11433333333333;-83.21358436517586
88.98866666666667;-85.33416507206776
89.46433333333334;-84.64586648585194
89.907;-85.70815666952039
90.59333333333332;-85.89838194416896
91.158;-85.17435629220273
91.76666666666667;-86.49224597146684
92.47466666666666;-87.28403876820433
93.33800000000001;-84.91886659575296
94.356;-85.25245189074886
95.62833333333333;-85.27461900575084
96.35866666666668;-85.86655567198626
97.57600000000001;-84.95563747172497
98.639;-87.40379244922113
99.32533333333333;-86.94906017027533
99.91166666666668;-85.63735662979444
100.39833333333333;-85.77144953486268
101.11533333333334;-85.8732952300848
101.78899999999999;-84.9975025290143
102.209;-83.88097063078176
102.774;-83.80019341831449
103.17200000000001;-84.6547125322197
104.00233333333334;-83.63194716953397
104.77733333333333;-83.46855810914246
106.11633333333333;-82.16826273869401
106.902;-84.58786694371722
107.46633333333334;-86.23625395617987
108.25233333333334;-84.52810195563953
109.06066666666668;-84.91370001758
110.05666666666667;-83.94285584928909
111.09733333333334;-85.05258773528534
111.96066666666667;-84.53625343026704
112.74666666666667;-84.09972240475489
113.78733333333332;-84.06862423736072
114.53966666666668;-81.93178245591632
115.18066666666668;-83.97852296784909
115.746;-82.18712572822066
116.79766666666667;-83.73858623166556
118.03766666666667;-85.93756311842614
118.71266666666668;-85.94380527078533
119.59866666666666;-83.28924904522232
120.38433333333334;-84.21307207618389
121.85666666666667;-85.36000007758143
122.42133333333334;-86.27930576589173
122.97500000000001;-85.7215274728665
123.72766666666666;-87.21047152613399
124.45800000000001;-83.5281966358852
125.24400000000001;-84.1231529855501
125.88600000000001;-84.16364998411606
126.71600000000001;-83.82005569724039
127.44633333333333;-85.09678731474884
128.74166666666667;-85.839904447333
129.749;-86.84809955509382
130.71166666666667;-86.08114412800566
131.47466666666668;-83.05831263741896
132.17266666666666;-83.47790113140076
132.626;-84.63245795780487
133.4126666666667;-81.84858552322213
134.24266666666668;-83.91585751860276
134.82933333333332;-83.61539170770016
135.44833333333332;-83.91096996946588
136.41133333333335;-83.97451685674704
137.57333333333335;-83.66289910992184
138.33733333333336;-84.725451508856
139.167;-83.66147372960314
139.86366666666666;-85.3368705899904
140.39533333333335;-85.65915829895951
141.1146666666667;-84.81034982468486
141.524;-84.24802409686403
142.918;-86.05754705733128
144.19066666666666;-82.99731388340933
144.87699999999998;-82.98230007292699
145.386;-82.3776432843375
146.00566666666668;-84.8101296195024
146.88033333333337;-84.21697173427567
148.34133333333332;-84.40662790505827
149.09366666666665;-84.7798371743651
150.04600000000002;-86.0265370235474
150.93099999999998;-84.58081320745282
152.17033333333333;-83.3828515963445
153.80833333333334;-84.51468361899211
155.09166666666667;-85.05451924189506
156.20966666666666;-84.50601248697915
157.15;-84.17590115966942
157.76933333333332;-83.96960970851595
158.99766666666667;-84.00500541942338
160.37033333333335;-83.68026299788248
161.84266666666667;-84.02385541667255
162.72833333333332;-84.03808099107992
163.53599999999997;-84.09463342549556
164.05633333333333;-84.84197315987721
165.518;-85.82927432815346
166.2483333333333;-86.7180965869702
166.91233333333332;-85.69202645369944
167.98566666666667;-85.67543361105751
168.80466666666666;-86.31513012133148
170.299;-85.33370471444394
171.15066666666667;-84.94063745956255
172.29100000000003;-84.59687262403975
173.19833333333335;-85.61402971254914
174.37266666666665;-84.13430040108855
175.13599999999997;-83.88155075088649
176.74099999999999;-85.63950399706782
177.649;-85.29613676256602
178.6783333333333;-83.89604745204248
179.92966666666666;-83.46392335162746
181.32366666666667;-85.80312304434544
182.29733333333334;-85.35116047206427
183.70299999999997;-85.79704715728754
184.37866666666665;-86.34438231380837
184.8213333333333;-84.8888926442977
185.58566666666664;-84.11875787809862
186.183;-83.76221980011033
187.30033333333333;-82.61851511658834
188.46266666666665;-83.2804564151429
189.22699999999998;-83.77837744386173
190.00133333333335;-86.97956353620357
191.06366666666665;-85.61711787934253
191.905;-83.24069242272599
192.71266666666668;-82.38674654485347
193.76433333333333;-82.98311270604441
195.73433333333332;-85.03182099875141
196.908;-84.33165789295813
197.727;-83.61140234277504
198.22466666666665;-84.92247260497854
199.71933333333334;-86.47688354278246
200.38299999999995;-84.59162099399441
201.09133333333332;-85.52555916144512
203.03933333333336;-84.14055882128491
203.98033333333333;-83.82956148313494
204.87700000000004;-85.8879657476406
205.53;-84.01001925095538
206.26066666666665;-85.36105275106232
207.5666666666667;-85.59124352485786
208.75133333333335;-86.34050166253738
209.52633333333333;-85.66663505198224
210.97633333333332;-86.62402465790659
211.51833333333332;-85.00836434169088
212.0716666666667;-84.06946230690177
212.769;-84.08541283564303
213.65466666666666;-84.1664423889227
214.61800000000002;-84.28627757254401
215.3373333333333;-84.93995500008809
216.2673333333333;-85.16782492876763
217.65099999999998;-85.41569738725082
218.3373333333333;-84.39990207444706
219.08933333333334;-85.32852872112086
219.6976666666667;-83.54815977758541
220.51666666666665;-86.13914622534017
221.225;-86.09244045339277
222.08833333333334;-83.67216844922054
223.08433333333335;-82.24540070938299
224.10266666666666;-83.40939889459253
225.24300000000002;-83.3446566630181
226.84799999999998;-83.48634061603246
228.24366666666666;-83.57914676566914
229.71566666666664;-85.34671428799076
230.457;-84.89531880525716
231.1543333333333;-85.7552677627032
231.57500000000002;-85.9153860612397
231.99533333333332;-85.36062986755624
232.638;-86.38731071127756
233.85500000000002;-85.82361553642303
234.65166666666667;-87.0068389665947
235.28233333333333;-83.49205482270337
235.89066666666668;-86.06506857369976
236.521;-84.63678787821438
237.251;-86.38165408363278
237.771;-84.38809239897685
238.13566666666665;-83.91330008353705
239.18733333333333;-84.93038577015011
240.16166666666666;-86.34444767369871
241.08033333333333;-86.03914233874569
241.65599999999998;-87.137361849859
242.67499999999998;-84.71659095779553
243.33933333333334;-86.19105877811225
243.85933333333332;-85.40788280125408
244.76699999999997;-83.54083324402514
245.55300000000003;-84.08175190069662
246.15;-84.21681012131211
246.88066666666666;-85.12140913780803
247.92066666666665;-85.08673686518046
248.64066666666668;-83.11803336189794
249.57033333333334;-83.0589460177055
250.27800000000002;-83.96328279368228
251.23;-85.2748353951406
251.80566666666667;-83.23878119763444
252.72433333333333;-84.89379948240513
253.63199999999998;-86.1098955271104
254.15233333333333;-85.66198056046392
254.65;-85.50444333653822
255.414;-82.99821630438922
256.32200000000006;-83.297831213913
257.32933333333335;-86.3942158798382
258.0043333333333;-86.12277397183523
258.735;-85.92289124225208
259.68666666666667;-85.85077693212405
260.4723333333333;-86.68135020801601
261.7683333333334;-86.08920860792104
262.421;-84.28692032750038
263.02933333333334;-85.57402556878273
263.61633333333333;-86.50078486492836
265.14466666666664;-85.60240739795913
266.2953333333333;-87.43404029913401
267.0696666666667;-87.89741873884265
267.56733333333335;-85.4197459964538
268.40799999999996;-86.77193208284584
269.40433333333334;-86.88218808882348
270.28866666666664;-84.56983241065018
270.8533333333333;-84.49041312855863
271.484;-84.6060985020613
272.08166666666665;-85.25186359133431
272.95433333333335;-84.5393472289844
274.028;-85.55952845291982
274.79133333333334;-85.83735872812407
275.59933333333333;-84.62745818139423
276.23066666666665;-83.4456939380187
277.205;-84.96075406683634
278.1903333333333;-84.23438930245837
278.8546666666667;-86.5450304350943
279.41966666666667;-84.33041482542089
279.90633333333335;-86.23578168470954
281.21299999999997;-86.13094317230026
282.021;-84.21163198114682
283.02866666666665;-84.93927021579663
283.6816666666667;-84.09361483367195
284.401;-85.66198918599879
285.087;-83.99669790915397
285.74066666666664;-83.88037346130875
286.53766666666667;-82.39148098897921
287.3016666666667;-82.11228998028305
288.85133333333334;-84.80957561333841
290.04766666666666;-86.2106655749451
290.5896666666667;-84.59161640640903
291.276;-85.1048004057918
291.84;-82.77350370449179
292.55966666666666;-84.4235364354541
293.2563333333333;-85.27735803355812
293.843;-84.77333824672918
294.939;-86.62030070167552
295.8686666666667;-84.45372843978141
296.85366666666664;-83.52659526653426
297.5953333333334;-82.28495289302548
298.237;-84.97620300269742
299.0013333333333;-86.04006520068486
300.01933333333335;-85.25957649824308
301.04900000000004;-85.61674829569056
301.8576666666666;-83.87661779301057
302.40000000000003;-86.11211014367503
302.997;-85.44668401095859
303.46200000000005;-84.26488043313857
303.94866666666667;-86.71722912039729
305.0226666666667;-86.6732881920544
305.7863333333333;-86.85521786432153
306.42866666666663;-84.78929191422866
307.81266666666664;-82.84919342172876
308.73133333333334;-86.01825392846665
309.3623333333333;-85.39733823384306
310.27;-84.94366282196104
311.0896666666667;-85.50079801168957
311.5543333333333;-84.4019535971997
311.99666666666667;-85.27570312809664
312.639;-84.19149998406941
313.31466666666665;-85.46616512450882
313.9676666666666;-84.375585253226
314.7196666666667;-85.6874381562685
315.25033333333334;-86.89888543910351
315.88100000000003;-86.37089055445401
316.8883333333333;-85.81477500573094
317.8183333333333;-85.87797203524408
318.515;-86.66631812182098
319.61133333333333;-85.46059375572628
320.37466666666666;-84.93632980430951
321.37100000000004;-85.04862790237146
322.2126666666666;-84.92822971249035
323.37433333333337;-85.15492400689232
324.0493333333333;-85.8778568028846
324.6026666666666;-87.00951324792855
325.311;-85.30368245019928
325.76466666666664;-85.11069590997369
326.66133333333335;-84.8705437374136
327.60133333333334;-83.85190902742625
328.952;-84.21831284653625
329.48333333333335;-83.13880286555768
330.546;-85.7087669608608
331.2096666666667;-84.92289217216103
331.91766666666666;-85.88443365511239
332.61466666666666;-85.60558062550986
333.068;-84.02782876884902
333.953;-82.19322812716848
334.506;-84.85846475169038
335.07;-83.13412332087017
335.70099999999996;-83.47027472816114
336.4316666666667;-83.46753582290557
337.38300000000004;-82.97318356619954
337.98033333333336;-84.02346206019085
338.3676666666667;-83.64984728891565
338.965;-83.42641112450404
339.6073333333333;-86.19049288583938
340.4483333333333;-86.67290892818548
341.079;-87.27544338959837
341.69866666666667;-86.54365678190825
342.43966666666665;-86.01430569258929
343.59066666666666;-83.37416312323177
344.33199999999994;-83.92573896020582
345.029;-83.76531256402824
345.8043333333333;-86.35711303620614
346.7126666666666;-83.48993207359764
347.69766666666663;-83.94649109008043
348.5943333333333;-86.1136244124642
349.6123333333333;-87.63602176381478
350.52;-84.07811362375442
351.57166666666666;-84.73198952133276
352.58933333333334;-85.49531869831819
353.6513333333333;-85.25822470948106
354.3039999999999;-84.55080529197774
355.0783333333334;-85.38018634010452
356.1186666666667;-86.98696299918407
357.0040000000001;-86.20169837614563
357.61266666666666;-84.18716252775158
358.6193333333333;-86.65013643202411
359.6376666666667;-85.67652145612628
360.50100000000003;-85.53101024404458
361.3196666666667;-85.51077800558696
361.9506666666667;-85.59057205720309
362.68066666666664;-85.81526564013686
363.3113333333333;-85.99271987935248
363.876;-85.0409829956207
364.6393333333333;-84.66666595676767
365.3253333333334;-85.33996227147003
365.67900000000003;-85.6016177821364
366.07733333333334;-84.36166830533892
366.5976666666666;-84.2276425874418
367.516;-82.11733034984981
368.2463333333333;-85.42321201693753
369.06466666666665;-84.18373914648821
369.96133333333336;-83.89250131580275
371.10099999999994;-82.20758692636224
371.632;-85.44980905479213
372.73900000000003;-86.04759341804802
373.8233333333333;-85.5651138588527
374.3876666666667;-85.51728980171593
375.19533333333334;-84.04518433748294
376.0586666666666;-84.17220872122358
376.74466666666666;-86.04555747650824
377.55199999999996;-84.79080155981305
378.1276666666667;-84.05087524205625
378.8693333333334;-83.92379242315623
379.3006666666667;-84.7360911029548
380.2196666666667;-83.35626773182213
380.8836666666666;-84.83622052315332
381.481;-84.96556501036795
382.134;-87.15387191216966
382.8419999999999;-86.55601050770866
383.461;-83.86198313656058
384.0903333333333;-84.19420191890953
384.7203333333334;-84.31695530595516
385.49499999999995;-83.9304559737572
386.41366666666664;-85.92602551507062
387.09999999999997;-86.51636833292967
387.81933333333336;-84.54730909250443
388.439;-86.91929388401098
389.103;-86.43475342077633
389.59;-86.78876571305253
390.29833333333335;-85.01850642421606
390.92900000000003;-84.33301324825872
391.4823333333333;-83.87597120921234
392.124;-83.61597469135135
392.8096666666667;-82.78760279184573
393.81733333333335;-85.72664740720639
394.61400000000003;-85.29671141535033
395.31166666666667;-84.05839209027764
396.16366666666664;-86.34078959386028
396.839;-86.48563588974399
397.48066666666665;-85.53557172620187
398.045;-84.60424973700265
398.64300000000003;-82.56626659530588
399.838;-84.69317609840051
400.7453333333333;-86.31221903303134
401.343;-85.72308608539426
401.97333333333336;-83.32739223247029
402.72533333333337;-83.78196762603241
403.25666666666666;-83.53671102835445
403.99766666666665;-85.49314498834846
405.0926666666667;-84.73415357826006
405.845;-85.19177188309236
406.5643333333333;-87.23869183342858
407.23966666666666;-85.76839823293848
408.2246666666667;-86.39462555091804
408.91100000000006;-86.1267448651685
409.6856666666667;-87.47823002823246
410.31666666666666;-87.52391824538415
411.00333333333333;-85.8177566632182
411.6566666666667;-85.83406092289188
412.44233333333335;-85.4855472145396
413.04033333333336;-85.32444295042845
413.64899999999994;-85.20398695830838
414.202;-85.79174461718229
414.833;-85.50720824107904
415.674;-83.50884803835582
416.49333333333334;-83.58330138761227
416.9356666666667;-84.98493722288868
417.666;-86.2350258100171
418.24166666666673;-85.50496286062898
418.839;-87.13278365000306
419.3256666666667;-84.86559033344766
419.923;-84.29699466436404
420.6313333333333;-83.99915715248505
421.1626666666666;-84.71031155287082
421.6276666666667;-83.50224140517007
422.2583333333334;-84.33042637172291
422.74533333333335;-84.78931435088741
423.42;-84.12129848444948
424.15000000000003;-82.23938803067348
424.858;-84.57647507787534
425.35566666666665;-83.9074725098074
426.3296666666667;-82.39826089011649
427.11566666666664;-82.80089527525813
427.7573333333333;-83.62660297278455
428.3106666666667;-82.9529181373759
429.00866666666667;-84.31693683871897
429.88266666666664;-86.58949801928026
430.44700000000006;-85.35562448385969
431.3433333333333;-86.56845662350271
432.42800000000005;-87.33196844998693
433.0706666666667;-85.44386849206026
433.48;-86.7816251780634
434.24399999999997;-87.24085880676508
435.1403333333333;-86.70286142208123
436.059;-84.67025654417822
436.9003333333333;-85.41628912535278
437.8856666666666;-85.42053421905743
439.436;-86.64926686411202
440.19966666666664;-86.61650537692786
440.742;-86.22237298629882
441.0743333333333;-85.95286081150903
441.60566666666665;-86.03897906169705
442.52399999999994;-86.09273258489344
443.2873333333334;-86.52516848817149
444.20599999999996;-82.95339144984504
445.27933333333334;-83.41179037517529
445.9213333333333;-83.80202331356986
446.45266666666674;-84.01450844383764
447.0613333333333;-83.76583437938457
447.83666666666664;-83.30100158924489
448.41233333333327;-84.57458658806976
449.07733333333334;-85.45444534482093
449.885;-86.8323189551837
450.41633333333334;-85.83003628939893
450.837;-83.24676533079452
451.63366666666667;-83.37454651656827
452.2086666666667;-84.89622861654033
453.039;-85.63621815510275
453.6583333333333;-83.29915011906192
454.3003333333333;-84.90904918933647
454.8426666666666;-85.22638855327158
455.4736666666667;-86.10304058015586
456.04866666666663;-85.22904375646627
457.1656666666667;-86.4588517025252
457.863;-85.82267426870958
458.37166666666667;-84.60013814452388
458.936;-83.09742213679314
459.75499999999994;-85.39910845797475
460.49600000000004;-84.13915062798745
461.1376666666667;-84.62912054892334
461.66900000000004;-85.35620216533034
462.1893333333334;-87.37075246800613
462.92;-85.55849511611642
463.44000000000005;-84.27421645148898
464.137;-85.24290945827295
465.199;-82.95907085717089
465.885;-85.25576741719202
466.5159999999999;-85.39447120334705
467.0026666666666;-85.59205062846317
468.1206666666667;-85.38113596650136
468.61899999999997;-84.93595805244807
469.526;-82.78258653657375
470.2673333333333;-85.71994438822878
470.99800000000005;-84.48979720240419
472.25933333333336;-82.83127421072383
473.1003333333333;-83.16882835622394
473.9303333333333;-84.84918116511705
474.605;-84.21872333487062
475.0363333333333;-85.04507285846118
475.4346666666667;-84.52356026093389
476.32;-83.74347426989364
476.9173333333333;-85.64183009013227
477.4483333333333;-85.96150525572781
477.82500000000005;-84.33511587449581
478.8426666666667;-83.5821122132236
480.0926666666667;-84.76350793521027
480.85566666666665;-85.00923121311214
481.4973333333333;-83.48736401339453
482.39366666666666;-85.69648801349896
483.12433333333337;-84.57547404212175
483.766;-84.16727248401587
484.2753333333333;-85.15964095209037
484.906;-85.60286034335859
485.6036666666667;-85.53742733966106
486.2343333333333;-85.54922128066336
486.721;-85.4176473174529
487.4293333333333;-86.02617572299293
488.1266666666667;-85.72192848780969
489.1996666666667;-86.84302706120711
489.90799999999996;-86.84155861506254
490.5496666666667;-85.06185154598765
491.31300000000005;-84.28313662675879
491.85533333333336;-84.92942855107192
492.30899999999997;-86.97937322703024
493.19433333333336;-83.90827993254788
494.4556666666667;-85.15321814023073
495.175;-85.9836830680846
495.872;-86.74749226260789
496.52500000000003;-86.27659132706232
497.32166666666666;-86.62041524405342
498.18499999999995;-86.42796553187712
499.0263333333334;-86.12830663774996
499.59066666666666;-83.71830200682692
500.365;-83.53130019189372
501.04033333333336;-83.11561500342941
501.715;-83.39615687742044
502.401;-84.35105029770955
503.3419999999999;-84.90756594883061
504.12699999999995;-83.17446362057174
504.90166666666664;-85.12454535886748
505.51;-84.19715682119158
506.11899999999997;-85.30203656446632
506.5723333333333;-86.83203648683934
507.192;-87.55365253479033
507.7896666666666;-86.78346983272675
508.58633333333336;-87.48546230761679
509.31733333333335;-85.10614977598298
509.992;-84.58720464974198
510.5343333333333;-83.33666894125018
511.26399999999995;-85.46649734931611
511.98333333333335;-85.56299844766164
512.769;-86.38995526769584
513.4766666666667;-85.57785212949699
514.2736666666666;-84.20579305015727
515.1153333333333;-86.07476487555243
515.7346666666666;-84.41930355598842
516.2216666666667;-86.29675147657535
516.6529999999999;-84.6824126325724
517.4499999999999;-84.74770722096443
518.0806666666666;-84.32186354736132
518.855;-83.9925601736279
519.497;-84.7728762802671
520.0613333333333;-86.93276188189922
520.847;-86.8513928580488
521.4776666666667;-84.36486748897313
522.0306666666667;-83.81116430508861
522.5506666666666;-84.99497291411629
523.004;-84.53752868453952
523.5683333333333;-85.16499289164395
524.2763333333334;-86.25142239043717
525.062;-86.5549792062056
525.748;-85.08085796595915
526.6333333333333;-85.23777095352472
527.2199999999999;-84.91146738670385
527.7623333333333;-85.96226446005528
528.714;-84.0454670200472
529.2563333333334;-84.19803161078957
530.164;-85.37662606153019
530.573;-84.38612263524593
531.7576666666668;-84.91851697538138
532.5876666666667;-84.0172649785016
533.44;-86.26090964409589
534.0706666666666;-86.5869966109262
534.5243333333334;-86.305754679279
535.022;-83.6209920280767
535.963;-86.43624549873118
536.3833333333333;-84.98795999250231
536.9920000000001;-84.46497647398371
537.689;-85.64992096682741
538.1983333333333;-84.18845102743029
538.7956666666665;-83.4030307265277
539.8253333333333;-84.55491741182061
540.7216666666667;-85.5789151593184
541.773;-85.45810479895738
542.7356666666667;-85.10766935349116
543.499;-83.92274403147377
544.4953333333333;-84.57498963878021
545.0816666666666;-87.0123716179636
545.823;-85.39136271591113
546.5976666666667;-86.58625143259175
547.284;-85.23284522120957
547.826;-85.99213841819726
548.6893333333334;-84.10005169227784
549.6089999999999;-82.99365992103968
550.3056666666666;-82.18160613617755
551.2133333333334;-82.0741513374208
551.9103333333334;-85.56365438185
552.6296666666667;-86.81497622418615
553.393;-86.8840909342019
554.0009999999999;-86.38851900901926
554.3773333333334;-84.64493728306968
555.0523333333333;-83.63987200650604
556.3363333333333;-85.10608218988227
557.4876666666667;-84.50896902086114
558.041;-84.11602722731025
558.6826666666667;-83.7595856439171
559.225;-83.46068975570587
559.8666666666667;-85.49654589855345
560.5633333333334;-86.64027120343832
561.3380000000001;-86.38451408634837
562.201;-85.50638245449392
562.9983333333333;-83.04298597021528
564.393;-82.08508506437235
564.8796666666666;-83.1616622512578
565.422;-85.73171140806151
565.975;-83.98034773644386
566.5956666666666;-86.30912491568225
567.6026666666667;-86.69357963965157
568.4326666666667;-85.54057870154686
569.2293333333333;-84.50319143799189
569.827;-84.09942800718017
570.4789999999999;-83.88683597563698
571.187;-83.55597621621936
572.0836666666668;-83.50361263513345
573.0686666666667;-86.32937757386624
573.7326666666667;-86.21748582278586
574.4743333333333;-86.0337168115592
575.3816666666667;-85.72039922970927
576.1120000000001;-85.88608611082
577.4516666666667;-84.63656059829242
578.4256666666666;-83.10132798828914
579.134;-84.83782070261994
579.909;-86.89430648249062
580.861;-86.40078269537078
581.7243333333333;-87.9588597538537
582.4319999999999;-88.51271682776633
582.9966666666667;-85.45601676588909
583.6270000000001;-85.40023384036988
584.225;-86.08486837446291
584.7889999999999;-84.40751972084362
585.8406666666666;-86.29895449129674
586.6266666666667;-86.70691040732459
587.5566666666667;-87.5906362084269
588.1766666666666;-85.8628683736604
588.9513333333333;-84.85198859221654
589.9913333333333;-84.03177129017568
590.4893333333333;-85.05643732150332
591.2199999999999;-85.58119582672362
591.9833333333333;-83.31300871358198
592.9346666666667;-83.6162975783666
593.9306666666666;-83.96198825081407
594.7383333333333;-86.01470042453101
595.491;-85.66539588565409
596.343;-85.55085499717264
596.974;-82.96295604050314
597.748;-82.15710782609831
598.6666666666666;-85.57069130300286
599.6403333333333;-86.32136769828988
600.6146666666667;-84.2298354714703
601.5993333333333;-82.88058216325298
602.7726666666666;-82.59633803472445
603.4809999999999;-82.31523727600286
604.3333333333334;-84.28946700435972
605.507;-82.57172225321463
606.337;-85.32033626595751
606.9350000000001;-85.37017675151125
607.5986666666666;-86.25255139694752
608.197;-85.75676365205
608.917;-84.96426772133714
609.614;-86.18243465530024
610.1676666666666;-84.62324276606978
610.6546666666667;-86.79885758279738
611.263;-85.73675576550838
611.6176666666667;-85.19857936901522
612.027;-85.34578157888447
612.3816666666667;-85.38546461689187
613.201;-85.47853143196528
613.8983333333334;-85.86705268071964
614.4963333333334;-85.76425703287316
615.0606666666666;-85.35878600475142
616.1896666666667;-86.21602268157795
616.9203333333334;-84.88735874381383
617.651;-85.22709284573763
618.3483333333334;-85.43801870609411
619.4766666666666;-85.2524850738553
620.0966666666667;-86.07954000446738
621.0933333333334;-85.31102152274174
622.1226666666668;-87.09690606587884
623.1519999999999;-84.9734236960189
623.794;-84.33951514345067
624.3586666666666;-83.34776348134261
624.901;-83.43792179106289
625.7756666666668;-84.1152236898898
626.307;-84.68467675394079
626.96;-83.79070475013589
627.4133333333333;-83.6363593931572
627.9556666666666;-84.77431272539565
628.5086666666667;-84.80117255369962
629.0066666666667;-83.18615962334653
629.782;-83.48363493228759
630.701;-83.42565068642602
631.7416666666667;-85.03546601773812
632.35;-86.1335615128912
633.1913333333333;-83.28909435980528
633.9879999999999;-82.69877373947483
634.5966666666667;-81.78708050223504
635.1056666666667;-82.71690912577822
636.068;-83.0814065225258
637.5403333333333;-84.02561723934454
638.879;-82.81930892718336
639.764;-83.83083218543865
640.439;-85.18878907572943
641.092;-85.9662278137661
641.59;-83.22664315999236
642.4086666666666;-82.67730623582978
643.1503333333334;-85.85312238583245
643.77;-83.80316004005293
644.3233333333334;-84.4965378097362
644.755;-85.29537127493514
645.6736666666667;-86.65884349810837
646.4593333333333;-84.57330779574494
647.134;-85.39503675198509
647.765;-82.92172390545448
648.3629999999999;-83.89811096871239
649.591;-86.43867463902652
650.5313333333334;-85.08009496505484
651.295;-83.54336574579672
652.3796666666667;-81.82565500830893
653.0103333333333;-83.4897746596033
653.6410000000001;-84.05725172951051
654.349;-83.80306685940337
655.168;-82.28987108511325
655.9313333333333;-85.36138270933486
656.706;-86.25854896401793
657.5463333333333;-84.82854069112483
658.8629999999999;-82.89104003901886
659.8143333333334;-85.32272006552148
660.6439999999999;-84.58009729183094
661.3303333333333;-86.94968442699067
662.0826666666667;-85.66417327104355
662.7246666666666;-83.29286509046143
663.4656666666666;-84.24599473505388
664.4290000000001;-83.8303420019885
665.5243333333333;-83.65269559047326
666.2543333333333;-84.34582938087368
666.8850000000001;-84.6768494908615
667.4933333333333;-85.26453684522679
668.0796666666666;-86.50747008560411
669.1203333333333;-86.53548370405028
669.8506666666666;-86.07356947235691
670.5476666666667;-84.90296535966208
671.4110000000001;-83.93722792475107
672.1753333333334;-84.76927586379094
672.9063333333334;-85.03869338860969
673.9686666666666;-85.3956801456925
675.1086666666666;-84.73922787783165
675.817;-83.07752258818252
676.5146666666666;-84.57293012255859
677.289;-84.28018368667924
678.1193333333333;-81.98653082547305
678.8276666666667;-81.70572770814714
679.5690000000001;-82.89589011727841
680.0336666666667;-85.53255404717751
680.6419999999999;-84.59378406837284
681.6383333333333;-85.3155555528586
682.7123333333334;-87.05614259149569
683.52;-83.53143772251136
684.2283333333334;-83.48691690635594
684.9923333333332;-83.30461684137758
685.6676666666667;-84.24673501820641
686.5646666666667;-84.95283777936764
687.317;-84.7938140401614
688.0586666666667;-85.51562274806335
688.6790000000001;-86.18477119110877
689.3203333333332;-83.97511386587232
690.582;-84.58696505509751
691.2126666666667;-84.88690894985723
692.098;-85.11763804621584
692.651;-85.3217083147385
693.315;-84.57175460913243
694.156;-85.40402950958608
694.7199999999999;-84.1985928607395
695.495;-84.52239279028723
696.48;-83.08005948004451
697.111;-85.2295745126213
697.9196666666667;-84.53993671749816
698.473;-86.74511708496176
698.9046666666667;-84.47447758113856
699.945;-86.3634467046326
700.7193333333335;-84.82883747393589
701.4613333333333;-85.89676773905865
702.4796666666667;-83.25539144247769
702.9996666666666;-84.22349746882507
703.7959999999999;-83.87646956896124
704.7703333333333;-84.71250546209667
705.3793333333333;-84.9316997869438
706.209;-84.61726936799201
706.7736666666666;-84.58208283541514
707.3606666666666;-84.82196110501205
708.0803333333333;-84.08883529022992
708.9656666666666;-85.36685296516781
709.7956666666668;-85.40378974289005
710.2936666666666;-84.40517663844736
710.9466666666667;-84.23089889585805
711.8316666666666;-84.7254363531054
712.7946666666667;-84.55259595590108
713.9789999999999;-86.76119777266801
714.8089999999999;-84.96421848553177
715.5949999999999;-84.99272676291034
716.3253333333333;-84.50178655060321
717.2660000000001;-85.61039892702087
718.2506666666667;-84.90310967197664
718.915;-84.77157682155013
719.7673333333333;-83.26134975131298
720.6083333333332;-82.15705631848427
721.2726666666667;-84.04638659162723
721.9033333333333;-85.08301942157435
722.6233333333333;-83.9275713391739
723.3646666666667;-84.6082836188554
724.2063333333332;-82.66368703449182
724.937;-82.75635323985809
725.7346666666666;-84.48123236758445
726.4533333333334;-82.92585967075206
727.1733333333335;-84.39315987721979
727.871;-86.15888381284836
728.889;-85.59812731347238
729.6193333333334;-85.35664349732625
730.2719999999999;-86.33099723823042
730.8476666666667;-84.62110116600455
731.4783333333334;-84.34849258657096
732.187;-82.80364704323024
733.094;-86.02991259588836
734.5;-84.02509796196199
735.596;-82.18222116954607
736.503;-81.71631423553907
737.344;-81.83981681905163
737.8643333333333;-82.26860911411823
738.506;-85.28443567075668
739.2693333333333;-83.78055865968953
740.0769999999999;-82.62154284690865
740.7080000000001;-84.17327859325822
741.5596666666667;-83.83061532539944
742.4343333333333;-83.03156848743461
743.176;-83.13858507646798
743.9063333333334;-82.68884937724485
744.5036666666666;-85.05241115009245
745.1239999999999;-85.60011314953529
745.7656666666667;-85.56743078160889
746.6183333333333;-84.12534759894412
747.216;-84.93601253193206
747.5593333333333;-85.44923789392689
748.1463333333332;-87.27509303981351
748.8436666666666;-87.31373937927364
749.464;-86.60339150805713
750.0286666666667;-84.97066919969204
750.759;-84.90695743971328
751.2019999999999;-84.42892564020968
751.8326666666667;-84.12893710300133
752.431;-85.17976274979044
753.073;-84.71656888838938
754.125;-87.04616787976931
754.8670000000001;-86.65722917610653
755.3546666666667;-85.89884762476943
756.0406666666667;-85.5572859333451
756.848;-86.89482339166378
757.523;-83.96550690804493
758.431;-84.94109584170833
759.4053333333333;-85.69425107936245
760.4566666666666;-83.89085244463412
761.3196666666666;-85.66153881473642
762.3933333333333;-83.98133874481695
763.4776666666667;-84.10626784126048
764.4963333333332;-82.3431636134361
765.3706666666667;-86.14811652032452
766.212;-86.71024488302984
766.9426666666668;-85.8041958378497
767.773;-86.74033645030457
768.8246666666665;-86.91441850743816
769.4446666666668;-87.055706092406
770.2193333333333;-85.85632071741898
771.2153333333334;-84.13170899937286
771.8016666666667;-83.29963476564234
772.8983333333332;-84.86853253435291
773.8726666666666;-84.75171598314654
774.5253333333334;-84.36673499867545
775.5;-86.22886908716887
776.4733333333334;-86.7746440071637
777.0046666666667;-85.75039537283823
777.8903333333333;-84.80626848132957
779.3403333333334;-85.35582475676189
780.7690000000001;-84.32362403706763
781.8206666666666;-83.74691818970885
782.7953333333334;-83.48177674353508
783.9796666666666;-86.92926578520127
785.6516666666666;-84.83469192703754
786.9466666666667;-85.60105482771606
787.8536666666665;-84.47300566912533
788.562;-83.92660278007928
789.6473333333333;-82.95927034854965
790.5110000000001;-85.7355714429646
791.5853333333334;-84.05879269256162
792.294;-83.91687010202929
793.1796666666665;-86.18991816388004
794.0093333333334;-84.01693892926104
794.607;-83.3264864337196
795.337;-85.72465003151774
795.8686666666666;-83.63696586689733
796.8643333333333;-86.11973115781005
798.469;-86.36262375663851
799.3106666666666;-84.25237669369923
800.9046666666667;-84.1905447002172
801.9676666666666;-84.06005213137203
802.6206666666667;-83.97861616843078
803.2516666666667;-83.78256553770058
803.949;-83.91350675078431
804.7016666666667;-85.325497430266
805.9523333333333;-85.47012994728317
806.8820000000001;-83.0576262122286
808.8966666666666;-83.37815937458329
809.2950000000001;-86.90402560886442
809.915;-87.64233320396808
810.967;-84.50080429830302
811.4206666666668;-82.78476662046734
811.9513333333334;-85.63973787427689
813.2363333333333;-84.5648379256973
813.9666666666667;-85.18517065364533
814.631;-83.5031896515409
815.1730000000001;-83.16045422623205
815.9809999999999;-87.3935948131915
816.9996666666666;-84.96279311616443
817.985;-83.41994573252609
818.9256666666666;-83.75542923183558
819.5010000000001;-82.98553076625423
820.1543333333333;-85.20867794491267
821.0073333333333;-85.16383034752896
821.937;-85.34885076711764
822.4906666666666;-86.0075446910553
823.1766666666666;-83.32024013593275
823.8413333333333;-85.09131977092254
824.6716666666666;-83.2004879549483
825.569;-84.21983991202384
825.9673333333334;-81.46435121661466
826.6873333333333;-84.21434190985113
827.174;-86.25872134981498
828.4353333333332;-87.23470613658304
829.5863333333333;-86.06891391051286
830.4606666666667;-84.71595572612516
831.3353333333333;-84.41775438085224
831.8336666666668;-84.14918965251368
832.8969999999999;-85.61302728798498
833.5276666666667;-85.43349964312944
834.3913333333334;-86.86876717804802
835.3000000000001;-85.02488396388173
835.953;-84.28741085058329
836.5623333333333;-84.15495420683534
837.337;-85.62530289574656
838.0233333333332;-83.75429775680502
838.6876666666667;-83.96271513113376
839.8163333333332;-83.78687971363661
840.8456666666667;-86.65768240750407
841.5986666666668;-84.65350457616043
842.6393333333334;-83.9092289265108
843.4143333333333;-85.42773582785001
844.2663333333334;-87.22294625530449
844.9633333333333;-87.34117565554921
845.5613333333332;-85.98344642792566
846.082;-84.76865214050042
846.547;-85.77197625018624
847.4216666666667;-86.05454041460494
848.6606666666667;-85.14531749491924
849.79;-84.44846063503705
851.3846666666667;-85.21359657676544
852.1150000000001;-85.3599500659213
852.6573333333334;-85.26692057527116
853.2546666666667;-86.19131391728955
854.0626666666667;-85.27475876225107
855.3693333333334;-85.00454441681956
856.1783333333334;-86.06696869819808
857.0196666666667;-84.74420661925609
858.0496666666667;-83.93520080572569
858.8796666666667;-86.16898532286338
859.7986666666667;-84.51561444729383
860.9613333333333;-83.72085845437087
862.5116666666667;-86.32792872150331
863.043;-85.71036071575196
863.6186666666666;-86.29151161798666
864.294;-86.24229515395245
864.9139999999999;-86.02123629086735
865.5563333333333;-85.8170382601574
866.1433333333333;-84.72517788815856
866.641;-84.20429981604039
867.4276666666666;-85.903676456218
868.0363333333333;-86.88228992879264
868.5793333333332;-84.92686024745524
869.166;-85.38014447459673
869.6313333333334;-86.66021368103
870.5616666666666;-85.84517026190497
871.6026666666667;-86.61952305282603
872.4226666666667;-86.49077471553159
873.4633333333335;-86.1576882251357
874.5926666666666;-87.05911859798258
875.3566666666666;-85.95132310817014
876.2643333333334;-85.14552979339422
877.0943333333333;-83.17198839426955
878.0466666666667;-84.14494536571915
879.6293333333333;-85.49891853027125
880.7473333333334;-84.57453234107483
881.1899999999999;-83.77613050567226
881.7216666666667;-84.31054964666279
882.3083333333334;-82.48510922948306
883.1943333333334;-83.94263159035776
884.1239999999999;-84.96905286865918
885.0983333333334;-86.25105283596125
885.8290000000001;-85.50776156106019
886.6370000000001;-86.90966550410212
887.2346666666667;-84.98301075319662
888.032;-83.8379000640893
889.1503333333334;-86.20788756100869
889.8366666666667;-84.84904028938496
890.6783333333333;-82.75857172144501
891.6746666666668;-83.61356958191226
892.4720000000001;-83.85386255115279
893.0253333333334;-86.69119223465403
894.1;-84.84041116190022
894.8973333333333;-85.5972862090848
895.8823333333333;-85.77402255803662
897.0893333333333;-83.42804692340835
898.8493333333332;-83.26784616226328
900.078;-86.26506623064915
901.0966666666667;-84.35541787134645
902.2596666666667;-83.7228166339834
903.1016666666668;-83.66749070114349
904.1203333333333;-84.88070360367666
904.5189999999999;-85.56016054863584
905.0173333333333;-83.37932732143533
905.8143333333333;-84.90201298328141
906.689;-85.3825928576005
907.774;-84.31361358663041
908.8473333333333;-83.94559735886804
910.375;-84.14465433118951
911.4823333333334;-86.01620864135326
912.3573333333334;-85.27272540920511
913.1646666666667;-83.96990772967985
914.1606666666667;-83.78245690750926
915.1460000000001;-86.45692001975978
915.9433333333333;-86.23313698079508
917.3383333333333;-85.42183130496029
918.3013333333333;-85.63946231832088
919.1426666666666;-85.88503681699666
920.3383333333333;-83.5307992958636
921.0799999999999;-86.27545223867136
921.977;-84.38897078784674
922.752;-86.68357141405576
923.4713333333333;-85.018120787147
924.4676666666666;-84.06039089043058
925.2426666666667;-84.30140899661977
925.918;-86.19297101676172
926.6486666666666;-84.93668472231828
927.7003333333333;-86.11068402930599
929.2723333333333;-85.82366167280597
930.457;-86.77953065635151
931.4863333333333;-86.72948385732165
932.25;-85.17750572348606
932.9810000000001;-83.9326540362897
934.2426666666667;-86.65276316701642
934.907;-86.23801693917918
936.2130000000001;-84.57236479979989
936.7553333333334;-85.41643542258299
937.5303333333335;-82.55772372566163
938.4493333333334;-85.33081520356407
939.0913333333334;-84.12971836980446
939.9436666666667;-84.97509880961712
940.475;-86.12175957430816
941.0169999999999;-84.91750816053155
942.0023333333332;-83.25328265590814
942.667;-83.3323803633609
943.232;-83.41023089878432
943.6080000000001;-84.95182576032332
944.317;-84.62263433466927
945.1030000000001;-83.53414384389228
945.8673333333332;-85.85263416132064
946.7753333333334;-85.90945760408536
947.6056666666667;-84.11909961468338
948.5136666666667;-82.75401346777832
949.2443333333334;-83.26191260656
949.6763333333333;-86.18770124428902
950.285;-84.13054870948812
951.2926666666667;-83.67120969922314
951.7689999999999;-84.68089118635176
952.389;-86.8485862686864
953.4186666666668;-84.8905036634771
954.2049999999999;-84.26609048376001
954.9466666666667;-85.22811229314553
955.4886666666667;-85.3644905253912
956.2963333333333;-86.76989054245392
957.3253333333333;-85.37560001060122
958.0893333333333;-86.26646894050931
959.0523333333334;-85.11295322514337
959.683;-84.66846603024077
960.8006666666666;-86.47363352413737
961.6086666666666;-85.35141443233397
962.295;-85.41377784840378
962.7489999999999;-84.06716004292488
963.1803333333334;-84.59851843758275
963.6229999999999;-85.19853621161505
964.2536666666666;-84.96078278123989
965.5053333333334;-82.94470292327027
966.1696666666667;-83.37165705964699
966.8449999999999;-83.4314214947364
967.3650000000001;-85.55689983087446
967.9956666666667;-87.51079335987967
968.7593333333333;-84.41392149291389
969.5566666666667;-86.2793999341584
970.2203333333333;-84.58973303993241
971.0836666666668;-85.78645144665767
971.9136666666667;-84.82424010867506
972.7330000000001;-86.54436711133499
973.5740000000001;-87.62047632876123
974.482;-88.70112313347667
975.312;-86.86145950247914
975.976;-85.75407566902089
976.5736666666667;-85.50072356611783
977.1493333333333;-85.46348569686491
977.924;-83.92762823412475
978.909;-83.44225779557155
979.573;-84.51210692344254
980.1043333333333;-84.9415376806725
981.0116666666667;-85.62612655435493
981.6093333333333;-86.20642927739438
982.2736666666666;-84.37571472861733
983.5353333333334;-84.59719619956567
984.4540000000001;-84.80378888391147
985.096;-85.8628950252359
985.8266666666667;-85.99296071329283
986.524;-85.7590227080709
987.1883333333334;-83.29982071429825
987.8856666666667;-85.11267948666962
988.959;-82.71938915975358
989.6343333333334;-82.91895715172306
990.188;-84.17120097438917
990.8523333333334;-83.64972744112214
991.6936666666667;-86.09378310290967
992.2136666666667;-85.14091208823295
992.7896666666667;-82.97942700496088
993.3103333333333;-83.4836598965993
994.6833333333334;-85.49613921582768
995.8016666666666;-82.89491876727271
996.3553333333333;-83.97158206492821
997.1523333333334;-86.24857474138845
997.9609999999999;-85.36210922848302
998.625;-85.40392364851455
999.3556666666667;-85.37810554336815
999.9643333333333;-85.06621825912184
1001.4263333333333;-82.87265128016769
1002.6443333333333;-83.79503274980777
1004.0953333333333;-85.47615433734829
1004.7153333333332;-85.79414275065085
1005.313;-86.87554294455154
1006.0773333333333;-85.85881187013456
1006.9296666666665;-84.32341898529484
1007.7383333333333;-86.5570800637509
1008.6460000000001;-87.24971958420575
1009.1776666666666;-85.3569389142965
1010.0186666666667;-85.56399625780944
1011.0373333333333;-84.12174883058353
1011.7796666666667;-85.10117983615096
1013.0196666666667;-84.59136159803296
1014.5136666666667;-86.63011466284047
1015.245;-86.12491063936193
1016.3629999999999;-84.336705203527
1016.9273333333334;-85.29750342865736
1017.5140000000001;-84.80500379077108
1018.5326666666666;-83.13967310099164
1019.585;-81.98918503842425
1020.5586666666667;-84.37195113727853
1021.1563333333334;-84.39376695353224
1021.7873333333333;-86.48979248315192
1022.4183333333334;-86.67029024155806
1023.0056666666668;-86.04837674201296
1023.415;-84.23955892748288
1024.4113333333332;-85.00619972831961
1025.3746666666666;-85.15889092653357
1026.4156666666668;-85.41488572150453
1027.2573333333332;-85.14192206289431
1028.1756666666665;-84.96894097891726
1029.0053333333333;-85.46699469989176
1029.669;-84.31883442840626
1030.3663333333332;-83.96675764579805
1031.2406666666666;-84.94014305363804
1032.0823333333333;-86.12640839449782
1032.713;-85.37254025396564
1033.6209999999999;-85.57079334151157
1034.3516666666667;-85.10814160024688
1035.2373333333333;-85.56312801260906
1035.934;-84.5558263859728
1036.609;-84.8034326229184
1037.8163333333334;-84.20511620870437
1038.9343333333334;-85.87312675386194
1039.6976666666667;-87.16902316223967
1040.3509999999999;-86.4022800705234
1040.982;-85.74918937866123
1041.5903333333333;-85.75469775466354
1042.2873333333334;-85.65202900795505
1042.6633333333332;-84.55356639272911
1043.128;-86.05573817445821
1043.6589999999999;-85.67634743947806
1044.2793333333332;-85.30544191164657
1044.755;-83.26482293451569
1045.1756666666668;-84.82847989263811
1045.6850000000002;-83.80490453981089
1046.7476666666669;-86.72603672125898
1047.7556666666667;-85.55818632131987
1048.4973333333335;-83.56550939608542
1049.7813333333334;-83.422135631646
1050.689;-83.9174102209022
1051.3866666666665;-83.71921065428782
1052.2056666666665;-84.92261104011787
1053.0693333333334;-83.38899882380518
1053.8880000000001;-86.05003563505039
1055.006;-84.90293093052776
1055.936;-85.62471017976904
1056.8546666666668;-83.16832611214969
1057.7626666666665;-83.08792904319512
1058.5376666666668;-85.81002868351094
1059.3123333333333;-86.43406727287685
1059.9986666666666;-84.8999529164633
1060.918;-83.61175466823781
1062.0136666666667;-83.7446614862333
1062.8433333333335;-84.32856872574246
1063.485;-86.05114330429772
1064.1153333333334;-86.39507260486485
1064.9233333333334;-86.31773428698158
1065.521;-84.87561896472364
1066.2186666666669;-86.58871326474136
1066.9493333333332;-85.89801841463262
1067.414;-84.42833403357577
1068.1113333333335;-86.94855860585636
1068.8423333333333;-85.58381767147898
1069.5063333333335;-85.20037068935449
1070.1816666666666;-85.09150511967162
1071.0456666666669;-85.21023118162734
1071.6876666666667;-85.80600071956037
1072.518;-84.65658900186753
1072.994;-84.99312884273944
1073.5583333333334;-83.01588039581804
1074.112;-83.43508896206424
1075.008;-84.04543538605064
1075.7496666666668;-82.53609781278499
1076.3363333333332;-83.7952741366387
1076.8673333333334;-85.33562024650602
1077.6753333333334;-84.22955882883302
1078.24;-84.06632265778596
1078.727;-85.32416937830534
1079.5240000000001;-84.25619481010513
1080.2986666666668;-85.52163378867282
1080.9183333333333;-85.65271094591107
1081.582666666667;-86.83144753849425
1082.557;-83.74935457055194
1083.4093333333333;-86.91682878212887
1084.0076666666666;-86.2470482823716
1084.4946666666667;-85.91536452727026
1085.059;-85.82018353117165
1085.4019999999998;-85.24437775356296
1085.922;-84.01111182473657
1087.2503333333334;-84.94870312674198
1088.1026666666667;-83.87109377294951
1089.198666666667;-83.629120962076
1089.9953333333335;-83.09295823622777
1090.6043333333334;-83.48403733393144
1091.1903333333332;-82.52817774251545
1091.711;-85.70324300701495
1092.552;-85.31535255400982
1093.1716666666669;-83.03380729202524
1093.8356666666666;-83.3645160922139
1094.3336666666667;-86.33398691517937
1095.4516666666666;-84.42200110084102
1096.0383333333334;-85.19181657694156
1096.636;-86.86352679133441
1097.3113333333333;-85.6989360726123
1097.898;-87.15150498164495
1098.506;-86.44365059321865
1099.5923333333333;-85.84508693731787
1100.024;-83.16351009020376
1100.5436666666667;-84.28412949793159
1100.9089999999999;-85.27400329570436
1101.5726666666667;-85.62556822960644
1102.2920000000001;-84.4494307372051
1102.713;-83.91522696087992
1103.233;-85.10383625784202
1103.709;-83.84977212373067
1104.3176666666668;-82.39321461135224
1104.76;-83.09465047424894
1105.2136666666668;-84.51869426096586
1105.7883333333332;-85.07542726873329
1106.4966666666667;-85.58577139934796
1107.1493333333335;-84.89224295745237
1107.6139999999998;-84.01353169459011
1108.356;-85.31110932436334
1109.0533333333335;-84.23869867676595
1110.1056666666666;-84.16042514878824
1111.1676666666665;-83.01595409279963
1112.253;-85.27150656213831
1113.2936666666667;-85.5311633651548
1113.7696666666668;-83.63573190169043
1114.644;-83.48633738400463
1115.131;-83.62880047623038
1115.928;-84.59703376557437
1116.426333333333;-83.13078888410891
1117.267;-84.53612150590291
1117.8206666666667;-86.15073627762183
1118.1526666666666;-86.49137488694961
1118.739;-87.98758725114314
1119.336;-85.37367340561067
1119.8010000000002;-86.91897853109612
1120.576;-86.10139277523967
1121.7486666666666;-84.49638079436039
1122.59;-84.67447841960063
1123.0653333333332;-85.11515149779746
1123.6846666666668;-84.65626910727487
1124.249;-84.35512118631854
1124.7033333333331;-82.8467268491048
1125.2896666666666;-86.47512189249447
1126.2303333333332;-84.50480113386739
1126.7953333333335;-84.984311556883
1127.404;-84.95023204573599
1128.3886666666667;-84.6513834679714
1129.097;-87.01792210717339
1130.1823333333334;-86.77327150607161
1130.9793333333334;-87.41227083387378
1131.6766666666665;-86.05277777898525
1132.2296666666666;-85.1328538356607
1132.9493333333332;-85.03695121638489
1133.636;-84.17532539504423
1134.3776666666665;-84.93552875706858
1135.4626666666668;-84.2434005142414
1136.3483333333334;-82.3605562089394
1137.1453333333334;-82.64113566916063
1137.92;-83.2147050242196
1138.4513333333334;-86.22349259785479
1139.038;-84.4411861637482
1139.9453333333333;-82.8303360408661
1140.4876666666667;-82.9523013533718
1141.085;-83.82537756087657
1142.0249999999999;-84.65931529983678
1142.7443333333333;-84.23294886546837
1143.4303333333335;-82.90334091310513
1144.3266666666668;-83.94534481069522
1144.9793333333334;-83.81438757627315
1145.754;-86.00577938426635
1146.5953333333334;-86.52224200202035
1147.3256666666668;-86.67727706917529
1147.7676666666666;-86.55409396098324
1148.509;-87.43321995306228
1149.7923333333333;-85.8452913995911
1150.4676666666667;-85.5550025246696
1151.3086666666666;-84.16424628195183
1152.183;-82.12013120414602
1152.7033333333331;-83.54013169463596
1153.312;-84.88569762003578
1154.0313333333334;-84.02132246782807
1154.4963333333333;-85.49881015455094
1155.017;-86.50505457697325
1155.681;-84.95837394282788
1156.3893333333333;-85.80865868627173
1157.242;-85.19809250822863
1157.961;-86.85009753036897
1158.725;-84.91774826253568
1159.5106666666668;-83.81270260436757
1160.1970000000001;-85.28930083786327
1160.839;-84.17955769918449
1161.2816666666668;-84.66194002112752
1161.912;-84.62201067094871
1162.631666666667;-85.14406585338538
1163.0743333333332;-85.71803198464532
1163.8603333333333;-85.83575203817199
1164.4470000000001;-87.40259885550348
1165.255;-86.23220858861042
1165.7526666666665;-85.92176667581667
1166.3396666666667;-87.0384399371796
1167.303;-83.63198693030829
1167.9776666666664;-83.03720672218645
1168.653;-84.90770836073197
1169.2946666666667;-84.292662597624
1170.0586666666666;-83.25808054131218
1170.6563333333334;-83.40496688431742
1171.1756666666668;-85.36981194346875
1171.6846666666665;-82.99347717197612
1172.2043333333334;-86.42206171542377
1172.9793333333334;-86.29799238709073
1173.676;-87.20270821109958
1174.1633333333332;-85.23536085039945
1175.0153333333335;-83.92835755882945
1175.7013333333334;-83.34557693850425
1176.365;-83.49443836084646
1176.852;-83.02263908128354
1177.5826666666665;-84.30272559199437
1178.1136666666664;-84.10157921622634
1178.7776666666666;-85.33873724267573
1179.4963333333333;-83.62584367896697
1180.0829999999999;-81.90360499944211
1181.0016666666668;-82.97691546726834
1181.776;-86.35701722804079
1182.2740000000001;-85.09193942301451
1182.827;-87.05033822032681
1183.5346666666667;-86.35376581040835
1184.4093333333333;-83.082612475188
1185.1176666666668;-85.8752216326213
1185.8813333333335;-86.08779830544059
1186.7336666666667;-83.423733379199
1187.4089999999999;-84.98095831317326
1188.1946666666665;-83.0558380236696
1188.8806666666667;-82.09699479699799
1189.5886666666668;-84.10113323159109
1190.1753333333334;-86.02900659662166
1191.094;-87.12918508905477
1191.7466666666667;-85.67793334868557
1192.1786666666667;-82.77249759937995
1192.8766666666668;-84.61323454646144
1193.441;-83.854577863393
1194.1936666666668;-84.17491280501987
1195.1456666666666;-83.57632991562913
1195.6653333333334;-86.83718631390155
1196.3846666666668;-85.2826569382857
1196.883;-84.38899057679285
1197.879;-84.79128892443234
1198.4323333333334;-85.25776609234286
1199.4396666666669;-83.64651574385803
1200.5026666666665;-83.51042793327869
1201.156;-82.81516754755856
1202.0416666666667;-84.5310486632092
1202.5946666666669;-86.29309648940719
1203.536;-85.10232386522081
1204.1553333333334;-86.58673928823617
1204.9186666666667;-84.41298242895687
1205.6473333333333;-83.85201983702935
1206.256;-84.0068966273858
1207.2736666666667;-83.36293783073185
1207.838;-82.47232516584457
1208.6016666666667;-84.63893143479629
1209.5420000000001;-84.23969795995079
1210.1286666666667;-85.63331123451185
1210.6049999999998;-85.414268040422
1211.2693333333334;-86.54644608154979
1211.8116666666667;-86.50742461270761
1212.697;-86.1319464877835
1213.4603333333334;-87.17485400795698
1214.3346666666666;-86.56026453915408
1215.1313333333335;-85.71489526326594
1216.2493333333334;-83.6289747338628
1217.113;-86.51392968730266
1217.943;-83.78789241226951
1218.5743333333332;-85.00961623846686
1218.917;-86.01059697043651
1219.581;-84.72105608280481
1220.3556666666666;-84.08856973055467
1220.9530000000002;-83.74334386416051
1221.5276666666666;-84.85965834286712
1222.4349999999997;-84.5652521590889
1222.9883333333335;-85.19227548826808
1223.4750000000001;-85.96408171494213
1223.9293333333333;-84.40010100758887
1224.8033333333333;-82.64883494449694
1225.523;-83.3187265621035
1226.3086666666668;-83.74668501626147
1227.3376666666666;-82.47681533230721
1228.3556666666666;-81.75431407944224
1229.1303333333333;-84.07029938177979
1230.0163333333333;-85.05117998293127
1230.736;-84.5980301023053
1231.389;-85.31770737907495
1231.965;-82.64225136378107
1232.7396666666666;-84.63748467478277
1233.426333333333;-82.91663908784722
1234.5003333333334;-85.4259632714693
1235.2083333333333;-85.68121268060956
1235.795;-84.01860985862345
1236.36;-84.90385209579419
1237.035;-84.19909824999782
1238.0200000000002;-83.53450341473139
1238.3626666666667;-83.23315394522851
1238.916;-83.44174301618573
1239.392;-84.565464768105
1240.1003333333333;-83.91715945547445
1240.8419999999999;-85.11957631296059
1241.2839999999999;-85.35100562435423
1241.8819999999998;-83.9525573687783
1242.7786666666664;-85.287821235678
1243.8413333333335;-82.68314938459051
1244.5829999999999;-86.24953383282406
1245.4133333333332;-85.88487931272208
1246.0663333333334;-86.58202140147048
1246.9853333333333;-84.671098353582
1247.7160000000001;-85.94920715504827
1248.1693333333335;-86.95587140447248
1249.1213333333333;-85.78006827593734
1249.9186666666667;-84.7869699693308
1250.3833333333334;-85.42424645940277
1251.0806666666667;-85.4925205616953
1251.4460000000001;-86.2635537873431
1252.309;-85.31772703308901
1253.3053333333335;-84.43909442385878
1253.9806666666666;-85.20811247721531
1254.8553333333332;-82.86161645057908
1255.453;-83.01762826676364
1256.1506666666667;-84.5020748096044
1256.6490000000001;-85.54241222045789
1257.1693333333335;-86.11077631117797
1257.8003333333334;-86.76846574009079
1258.52;-84.76279700015816
1259.018;-85.2800544728916
1259.4826666666665;-87.04039492010773
1260.0690000000002;-84.99786538060286
1260.8996666666667;-84.16060210180562
1261.5303333333334;-84.43291803494336
1262.2050000000002;-85.23941658941409
1262.836;-86.58557822732521
1263.466666666667;-86.2478016832062
1264.009;-85.40450404219406
1264.7506666666666;-84.58140738447415
1265.769;-84.14384348217104
1266.4106666666667;-85.05930401400197
1267.0303333333334;-83.60206697080062
1267.6616666666669;-85.93635482758347
1268.9123333333334;-86.55637609561795
1269.499;-84.79053715994472
1270.0963333333332;-82.50348617143142
1270.7936666666667;-83.92786721075733
1271.7566666666664;-85.13870342184387
1272.6203333333333;-86.48902134331031
1273.1956666666667;-85.14544637260438
1273.6603333333333;-82.88923486837614
1274.2913333333333;-82.613330477037
1274.9556666666667;-83.9212769732091
1275.8863333333331;-83.6337566887539
1276.8383333333331;-86.19019996096705
1277.9903333333332;-84.81343500959903
1278.9203333333335;-85.57593414314204
1279.8276666666668;-85.80571845504889
1280.5583333333334;-83.9300848436223
1281.3999999999999;-85.74692793704155
1282.4406666666666;-84.8309755619974
1283.4146666666666;-82.47989665776173
1283.957;-84.34431264081516
1284.599;-84.52780046329036
1285.3626666666667;-83.7071401542085
1286.148;-85.95921259419865
1286.713;-84.28718269017827
1287.454;-85.49351758660849
1288.4279999999999;-82.55642876822456
1289.3356666666668;-83.8344269042795
1290.5533333333333;-84.89820361354307
1291.2173333333333;-83.75083806725328
1292.4573333333335;-84.03161257157808
1293.7303333333332;-83.7999426243848
1294.549;-85.31747992719804
1294.9363333333333;-83.70548817799735
1295.3126666666667;-84.53987900304877
1295.9763333333333;-86.49788642139397
1296.5073333333332;-85.95959174075519
1297.492;-83.67034749612483
1298.145;-86.98684235567112
1298.886;-86.67459967703681
1299.6053333333332;-85.65622327451022
1300.4353333333331;-83.63309807909705
1301.2326666666668;-83.2817531631075
1302.2846666666667;-83.47774080568183
1302.9713333333332;-84.06702522280425
1303.5803333333333;-85.2206232111796
1304.1116666666667;-87.07470272429373
1304.6873333333333;-85.89898226737073
1305.285;-85.01219667031165
1306.0046666666667;-86.43164959859362
1306.6356666666668;-84.45495407683502
1307.2446666666667;-84.68768034259826
1308.1746666666666;-83.90838760358275
1308.982;-82.44379547009342
1310.3323333333335;-85.79640798347874
1311.1406666666667;-84.775307642003
1311.9153333333334;-85.61546462107384
1312.546;-84.82539805611785
1313.3093333333334;-83.60432885067326
1314.4163333333333;-84.41420210993115
1315.3573333333334;-83.57235895363587
1316.121;-85.82059977362645
1316.6413333333333;-85.75257273333636
1317.073;-86.18013292008317
1317.427;-86.23807428031252
1317.9803333333332;-84.37993195996185
1318.567;-83.59726151861224
1319.6073333333334;-82.601415577245
1320.3826666666666;-83.44282992602632
1321.5780000000002;-83.7795918240303
1322.63;-85.99701695672384
1323.67;-83.45379376642208
1324.2016666666666;-82.95018662228196
1325.131666666667;-82.04035128102694
1326.1056666666666;-82.98868779318707
1327.1573333333336;-83.20244623881605
1327.688;-84.00329320418706
1328.3296666666668;-83.78329986464631
1329.182;-85.12290584098008
1330.366;-83.99750201364286
1330.8973333333333;-84.73829389700632
1331.4506666666666;-85.31086592514578
1332.0486666666668;-85.85749712273861
1332.7459999999999;-85.29542040206816
1333.7973333333334;-86.44139399229114
1334.4950000000001;-85.1176959760644
1335.3803333333333;-84.23050567444484
1336.122;-84.97218521192892
1336.5433333333333;-85.93545408608546
1337.4176666666665;-87.236246867896
1338.5363333333335;-86.53741056164505
1339.588;-86.2971292585402
1340.3406666666667;-86.23130588396369
1341.204;-86.26154930702394
1341.9566666666667;-85.16941330136346
1342.7316666666668;-85.65181859185418
1343.5396666666666;-83.18885603316792
1344.4803333333332;-83.15802375021796
1345.233;-84.85274144197538
1345.986;-82.69690576335665
1346.55;-82.9624734868657
1347.1476666666667;-82.201014922151
1347.9669999999999;-83.35329137297862
1349.0183333333334;-83.50368490814176
1350.0253333333333;-83.86503603046688
1351.298;-83.52354403964799
1352.062;-83.48324124869781
1352.5933333333332;-83.88614213796153
1353.2906666666668;-85.31443506655903
1353.9436666666666;-83.27346768762405
1355.0953333333334;-84.55294006786957
1355.9363333333333;-82.98044451412045
1356.5456666666666;-82.07821537655433
1356.9663333333335;-84.85724634661649
1357.6303333333335;-85.41410924483596
1358.383;-84.58408328300649
1359.3683333333336;-82.79990496916147
1359.9993333333334;-84.57070414862375
1360.5196666666666;-86.015141650126
1361.3163333333334;-84.93293215159576
1362.191;-85.6084908074882
1362.9103333333335;-84.2293021194542
1363.9623333333332;-83.86210989869005
1364.947;-82.06372215853867
1365.7883333333332;-81.6875735174773
1366.6076666666668;-83.29034100421893
1367.2716666666668;-85.5023857311221
1367.725333333333;-85.6858844562573
1368.4783333333335;-83.57806118903699
1369.043;-86.00229170796783
1369.696;-84.55500761346731
1370.6593333333333;-86.51543952484708
1371.6009999999999;-86.24367384008323
1372.088;-84.4783972448559
1372.7300000000002;-84.12082128013935
1373.6053333333336;-85.53843010235465
1374.5913333333335;-86.56877158149712
1375.609333333333;-83.54251840537704
1376.827;-82.8550614797009
1377.8346666666666;-83.71608286786076
1378.5763333333334;-83.96245677897426
1379.6166666666666;-85.42362991735178
1380.524666666667;-86.03812863946281
1380.9893333333332;-84.67731893603515
1381.3323333333335;-84.18458866688357
1381.997;-85.19884250327054
1382.7610000000002;-85.44992097352286
1383.3363333333334;-83.22406687550827
1383.9113333333335;-84.98273296520841
1384.5200000000002;-84.68984583871755
1385.1616666666666;-85.52995600187549
1386.1136666666669;-85.97847168898181
1386.9546666666665;-84.75936682847988
1388.2160000000001;-85.22470465491145
1389.1566666666668;-84.30569861716012
1389.4993333333332;-83.55469488245207
1390.1196666666667;-84.06016005770579
1390.7839999999999;-84.10764111646219
1391.282;-84.27317304644895
1391.5806666666667;-84.89097519694411
1392.3106666666665;-84.54898955121303
1392.819666666667;-84.96071133996013
1393.638;-83.85956059338478
1394.4016666666666;-85.28532723328583
1395.1653333333334;-84.03265871967972
1396.2060000000001;-84.67826258626275
1396.8256666666666;-84.87212974599095
1397.5006666666666;-83.53829930102698
1398.9513333333334;-83.9241830422069
1400.1363333333331;-82.78638922096117
1401.1103333333333;-84.99722573756932
1402.195333333333;-86.36452016206307
1402.6273333333336;-85.47373148002028
1403.2803333333334;-86.83391346387825
1404.3769999999997;-85.73478887156993
1405.2736666666667;-84.49509256628137
1405.9603333333334;-82.61391131143742
1406.5910000000001;-84.41142512298786
1407.4543333333334;-84.77527995015839
1408.2516666666668;-86.61901158926155
1409.0710000000001;-86.69769927756982
1409.7023333333334;-84.82755421855268
1410.4886666666669;-87.45359930975141
1411.2966666666664;-86.20538568716486
1411.8499999999997;-85.3502594161037
1412.8676666666668;-82.68113313553079
1413.664;-83.24824712689178
1414.350333333333;-82.18111864004014
1415.546;-81.66190201996314
1416.741;-83.89544937427677
1417.4276666666667;-82.3548997100684
1418.2023333333334;-83.06784790268594
1418.8890000000001;-84.46324182247226
1419.741;-85.23514002112442
1420.7816666666665;-85.17940653558894
1421.955;-85.79464025971556
1423.3166666666666;-84.23373956288859
1424.2693333333334;-82.57762558756399
1425.4096666666665;-83.05952442636874
1426.0296666666666;-83.85260196769251
1426.9709999999998;-84.9835546979927
1427.7016666666668;-83.89253741210177
1428.8523333333333;-84.0718717375496
1429.6050000000002;-85.57940191350713
1430.390666666667;-84.53185755251066
1430.933;-83.5708716824972
1431.541;-84.19375625751965
1432.2713333333334;-82.6040322827179
1433.3226666666667;-81.70623078851128
1434.1633333333332;-84.95276921601933
1434.9826666666668;-83.75974100265235
1435.7023333333334;-84.40714652404358
1436.3663333333334;-85.61296452101733
1437.4063333333334;-85.46327125136175
1437.8490000000002;-85.4842025468563
1438.668333333333;-86.36422969576333
1439.299;-87.14846938199882
1439.9633333333334;-86.15969087493693
1440.9816666666666;-86.74719975286303
1441.4350000000002;-85.97926572868953
1442.0996666666667;-87.00666458050064
1442.8633333333335;-84.85534667093492
1443.6383333333333;-84.64987685515753
1444.6670000000001;-85.39969502309032
1445.7403333333334;-85.00365176564998
1446.5366666666666;-85.50473578779612
1447.278;-86.12077261119276
1448.2186666666666;-86.18546410604169
1449.8566666666666;-85.64303228252074
1450.521;-86.35313513181767
1451.650333333333;-84.15319314753253
1452.104;-83.66151232473425
1452.801666666667;-82.27522404499483
1454.0856666666668;-83.52227203012703
1454.9493333333332;-84.18867048712623
1455.6136666666669;-85.54275076577272
1456.698666666667;-86.93807256326032
1457.5393333333334;-86.57964743954574
1458.1703333333335;-86.30095512278677
1459.0446666666667;-85.57685689604008
1459.929666666667;-86.88128814050958
1460.8373333333332;-85.39263763330727
1462.5093333333334;-84.28452397915814
1463.0403333333334;-85.12506838351382
1463.6266666666663;-85.84426377834836
1464.4350000000002;-86.08145572489369
1465.5636666666667;-85.90274525741239
1466.26;-82.94038037140476
1467.2453333333335;-83.67617910275801
1468.2523333333336;-83.98756855325273
1468.8723333333335;-83.09391314172927
1469.5476666666666;-84.17745273824863
1470.6436666666668;-85.14893048484734
1471.5076666666666;-83.33477803926692
1472.2383333333335;-83.69273085706494
1473.0019999999997;-85.31068580207584
1474.8509999999999;-86.80105525606523
1475.5816666666667;-85.75422212744229
1476.5673333333332;-85.34990803421553
1477.4413333333334;-85.40952773781711
1478.2713333333331;-84.62015240527167
1479.0573333333332;-85.38600410697576
1479.6326666666666;-84.42851008477209
1480.5173333333332;-84.07922728158825
1481.137;-84.85157287078553
1481.8346666666669;-85.40052291294904
1482.5656666666666;-84.39459782261484
1483.3186666666668;-84.290766743863
1484.2263333333333;-84.6632745991365
1485.1343333333334;-87.1468792145227
1485.6989999999998;-85.03642844724385
1486.6836666666666;-87.08414797026312
1487.6246666666666;-83.52359917600586
1488.2996666666668;-85.42530622209128
1489.4846666666665;-84.51002303061614
1490.2486666666666;-86.49785731607683
1490.8576666666668;-86.08859764165837
1491.466333333333;-86.2857887973404
1492.0529999999999;-85.31408421716024
1492.8726666666669;-85.79089403042367
1494.057;-86.70328085281429
1494.6663333333333;-83.90401346633907
1495.3633333333335;-82.79174684717634
1496.293;-83.21365132948878
1496.8463333333336;-83.1486653941393
1497.4216666666664;-82.62385340928952
1498.0196666666668;-80.82097235943041
1499.415;-83.83596501300582
1500.134;-83.48550184206337
1500.765;-85.18766949869915
1501.2406666666666;-82.41157747007138
1502.4143333333334;-81.95039459831818
1503.6983333333335;-85.04616178671131
1504.7053333333333;-85.05070386898082
1505.8680000000002;-84.34577680277741
1506.9746666666667;-86.23516671749786
1507.7939999999999;-85.61951099840974
1508.3143333333335;-86.02112244653654
1509.0783333333331;-86.31677973044279
1509.6760000000002;-86.11731742002863
1510.6286666666667;-85.6471488852062
1512.0900000000001;-85.39866988846214
1513.186333333333;-86.9588571917689
1514.305;-85.96591050796727
1515.1016666666667;-84.92471359153917
1515.5333333333335;-85.61898382643832
1516.098;-85.71034284104009
1516.5736666666664;-84.21296491291511
1517.1823333333334;-84.79882118815577
1518.0236666666667;-86.25997257363089
1518.8873333333333;-87.07907036310552
1519.7510000000002;-85.9846614688433
1520.769;-84.38991778079357
1522.0973333333332;-86.45182747295387
1522.983;-83.52649122744414
1524.1786666666667;-84.7902695884617
1524.8533333333332;-84.31247374604331
1525.6616666666669;-83.06081160996273
1526.6356666666668;-85.20443317749952
1527.5436666666667;-85.92531909610686
1528.329;-85.63946425854822
1528.9813333333332;-86.63029164661863
1529.9333333333332;-85.65059643878726
1530.697;-84.22670031765905
1531.759;-85.34410964760859
1532.6106666666667;-84.73984744014743
1533.1973333333333;-85.35273144651654
1533.7616666666665;-84.2410660783433
1534.6136666666669;-84.56072320566214
1535.7986666666666;-84.03620015170851
1536.3966666666668;-84.90444090849446
1536.8833333333332;-82.39011477462846
1538.256;-83.36170454681809
1538.8203333333333;-84.53086388456137
1539.4070000000002;-83.68287445944094
1540.2373333333335;-85.16516716654914
1540.979;-84.63129786765519
1541.6763333333336;-83.06566702909706
1542.518;-81.75535484351363
1543.4033333333334;-85.35185508150184
1544.1343333333334;-85.47348824046948
1544.9533333333331;-85.57132763360758
1545.7953333333335;-83.35621079554865
1546.5036666666667;-83.26272840761251
1547.3116666666665;-82.18593476614227
1548.1636666666666;-84.38607656364317
1548.8276666666668;-85.49869284980367
1549.713;-87.07877331140153
1550.6866666666665;-86.16023917736827
1552.1470000000002;-84.49836183060243
1553.3416666666665;-83.33234132888776
1554.116;-86.38256439712642
1554.8909999999998;-86.3567514393071
1556.363;-83.79814484564012
1557.5253333333333;-83.90486544451119
1558.7540000000001;-83.51640760217022
1559.485;-82.5766082254093
1560.492;-83.11775690881927
1561.079;-85.02624638318369
1561.9093333333333;-85.73781017591898
1562.5956666666668;-84.1673306624767
1563.1296666666667;-82.52925072152259
1564.3556666666666;-84.0180892801499
1565.1193333333333;-83.8736201389775
1565.7609999999997;-85.88022259810894
1566.6686666666667;-84.16859940154188
1567.3766666666668;-83.9029497785677
1567.8303333333333;-85.54585554623141
1569.158666666667;-84.1987326824016
1570.0;-84.4741965973317
1570.7083333333333;-86.82851020485954
1571.2613333333331;-84.70530229205193
1572.7893333333332;-83.90455261581522
1573.3760000000002;-85.58199400365552
1573.9623333333332;-87.61337762659193
1574.6483333333333;-85.90670180614411
1575.345;-84.64836057995774
1575.8100000000002;-85.0986862727825
1576.9499999999998;-85.77159061414893
1579.2749999999999;-83.13636719594072
1580.0053333333333;-85.37771461274764
1581.1676666666665;-85.43946497350599
1581.8873333333333;-84.2444514639916
1582.5739999999998;-85.18079572060776
1583.936;-85.75303120963079
1586.018;-85.47266771337493
1586.8706666666667;-84.44362875644649
1587.8116666666667;-83.15010982829844
1588.93;-83.0262855038593
1590.192;-84.03346402687166
1590.9226666666666;-84.2035498656135
1591.5976666666668;-82.32571320389253
1592.8813333333335;-84.4281891890861
1593.5566666666666;-84.94064473055558
1594.4650000000001;-86.61358898317401
1595.174;-84.51288975963665
1595.6606666666667;-83.60343437469456
1596.8566666666666;-83.9035438987529
1597.7643333333333;-86.59826626253653
1598.3619999999999;-86.02846369828988
1599.0703333333333;-84.68212826779333
1599.768;-84.81653326464321
1600.3876666666667;-83.94241954144756
1600.8860000000002;-85.4868691054981
1601.4393333333335;-85.59201655592022
1601.9926666666668;-85.46856538100864
1602.5019999999997;-86.07397112517529
1603.122;-86.77433660077752
1604.0303333333331;-84.75793787973952
1604.8276666666668;-86.6460229497319
1605.591333333333;-87.08550515971051
1606.3663333333334;-86.93180483607638
1606.964;-85.48253079961785
1607.7943333333333;-84.53797702686835
1608.68;-85.76690230588775
1609.4883333333335;-84.88578822619687
1610.2523333333331;-84.29882122442118
1611.171;-83.46703215268582
1611.9126666666668;-82.8514435319592
1612.6539999999998;-86.39058047809796
1613.3513333333333;-85.77635315408706
1614.015;-83.39000963302057
1614.923;-83.326200418711
1615.698;-84.94203477215495
1616.54;-85.77445674809246
1617.7913333333333;-82.8607778149731
1618.356;-84.03403639558847
1619.0753333333332;-86.03540243116387
1619.7286666666666;-85.66226452367383
1620.3263333333334;-86.83986005832725
1621.345;-84.51817853633948
1622.5633333333335;-86.09937093473496
1623.2276666666667;-85.17141442086981
1623.9473333333333;-83.19860960677445
1625.131666666667;-84.12603524462084
1626.1056666666666;-85.30553751072932
1626.9696666666666;-84.85847555134767
1627.9099999999999;-84.64075299976068
1628.7846666666667;-86.47601666098295
1629.5593333333334;-84.54434758283178
1630.3786666666665;-84.3330868706279
1631.1419999999998;-82.24226626818745
1632.2046666666665;-85.00128742815753
1632.791;-84.36572537177699
1633.2556666666667;-84.78329886016962
1634.0526666666665;-84.03831773033191
1635.0159999999998;-84.67107719405466
1635.68;-86.7335748332583
1636.4876666666667;-85.49846911427758
1637.5726666666667;-85.63456222881504
1638.2146666666667;-84.71099935029669
1639.2226666666666;-85.69004722933529
1640.2079999999999;-87.4775032975528
1640.6726666666666;-86.06123199578761
1641.2259999999999;-85.3004153309369
1641.5693333333331;-85.33542404540738
1641.934;-86.05138837053572
1642.7306666666666;-86.74969764079756
1643.7153333333333;-87.35634089942073
1644.4126666666664;-86.12179579117193
1644.9223333333332;-84.74251595684997
1645.6306666666667;-83.74134183745426
1646.6046666666668;-86.04673396981505
1647.4126666666664;-85.0154984440283
1648.0323333333333;-84.52910337634162
1648.7293333333334;-82.46424546901207
1649.305;-83.63265345063633
1649.7586666666666;-85.91633641011472
1650.3559999999998;-83.70887715588817
1651.12;-82.58471866737561
1651.8946666666664;-84.23738272962969
1652.9796666666668;-83.59490025916658
1653.644;-85.09362430487485
1654.0643333333335;-84.66843438919732
1655.1496666666665;-84.26610561346723
1655.836;-82.85677401016036
1656.5886666666665;-84.83192160623075
1657.2309999999998;-84.53055692786961
1657.8950000000002;-83.56867559887806
1659.1906666666666;-83.21126528209749
1660.032;-83.37276201641305
1660.6623333333334;-81.83902761880526
1661.227;-84.3295546842935
1661.6359999999997;-85.3084044550755
1662.4113333333332;-85.1818563803424
1663.552;-84.94035971837565
1664.7036666666665;-85.84064362368463
1665.4556666666667;-86.70554740708687
1666.2196666666666;-83.96032263288289
1666.7733333333333;-84.34569105126685
1667.4266666666665;-84.55193759084716
1668.1353333333334;-83.53749591477494
1668.7333333333333;-82.62177699174053
1670.2830000000001;-83.91280075057283
1671.4226666666666;-83.05806704181579
1672.2640000000001;-84.93018920223595
1673.0053333333333;-85.6496772955567
1673.6473333333333;-85.39978643186875
1674.3556666666666;-85.63183219316616
1675.0083333333332;-86.59727509410953
1675.6833333333334;-86.75633145650106
1676.3256666666666;-85.73169367059806
1677.3769999999997;-86.17234728774251
1678.041;-87.24385369477484
1678.7716666666668;-84.6825664037307
1679.945;-85.38626436603688
1680.7973333333332;-83.21606882750496
1681.5720000000001;-83.49563137254157
1683.4533333333331;-82.39742810877831
1684.572;-82.27111794372128
1685.269;-84.6089288221647
1686.0109999999997;-82.96775604799724
1686.6863333333333;-84.66235847173184
1688.0923333333333;-85.75424598477754
1688.723;-85.64928889112213
1689.2876666666664;-84.27676321444149
1689.8966666666668;-86.4923107957807
1690.5826666666665;-85.52459827065177
1691.1359999999997;-84.76480717951594
1691.9113333333332;-82.61958585064465
1692.4426666666666;-84.58504599583922
1693.1066666666666;-84.87435001707972
1693.8370000000002;-84.13578989372401
1694.6673333333335;-83.64871972274562
1695.2876666666664;-82.4281907714815
1696.0743333333332;-85.2883947519347
1696.9486666666664;-83.56865365356538
1697.7896666666666;-84.1186595673526
1698.6200000000001;-84.94120100525758
1699.273;-84.2753036292748
1700.0923333333333;-86.54650381050335
1700.8673333333334;-85.83285114477515
1701.6973333333335;-86.61789169334416
1702.5826666666665;-86.30738295482368
1703.3463333333336;-85.4521446882497
1704.287;-86.22042316750587
1705.2060000000001;-86.72344327950739
1705.9693333333335;-87.02813053193847
1706.811;-86.35650907699974
1707.6746666666668;-84.2900168364357
1708.2943333333333;-86.62579207072595
1709.2576666666666;-84.81809096774423
1710.1653333333334;-83.0459865638883
1710.763;-83.33082037311107
1711.3386666666665;-83.82769617545823
1712.390666666667;-84.71308213271604
1713.3419999999999;-84.93629287357437
1714.3716666666667;-83.93668688587384
1715.2790000000002;-83.24200482134732
1716.796;-84.63114776170795
1717.438;-86.3711490856161
1717.9136666666666;-84.85678382394798
1718.5776666666668;-85.53718148168448
1719.6626666666668;-83.08521394637766
1720.57;-82.33792205962146
1721.278;-84.00949797406794
1722.1416666666667;-86.24632666665387
1722.7283333333332;-84.258893423194
1723.2706666666666;-85.37376196252376
1723.8793333333333;-86.12141510940214
1725.075;-86.33814434001063
1725.9826666666668;-85.97091105259076
1726.857;-85.72174698812957
1727.820333333333;-87.15003208685089
1728.916;-82.92077045000725
1729.7353333333333;-84.39133002559747
1730.3770000000002;-83.04122717492334
1731.229;-86.07097135797025
1732.912;-85.51067837433142
1733.7976666666666;-82.87958179043281
1734.849;-82.97250180196795
1735.7016666666668;-85.72688725693581
1737.0303333333334;-85.81738080284563
1739.079;-86.55314480176321
1740.0533333333333;-85.0882228892104
1740.4963333333333;-86.58237356310363
1741.2046666666668;-86.21266255617016
1742.0903333333333;-87.40927347361114
1742.843;-84.80895763635553
1743.9173333333335;-84.2281044551931
1744.7586666666666;-84.8784196478331
1745.6553333333334;-84.54896404244352
1746.4743333333336;-83.64778920707504
1747.2163333333335;-83.9651629555992
1747.7586666666666;-84.08517256641042
1749.375;-85.10779451468983
1750.4043333333332;-84.03601671800007
1751.3336666666667;-85.38183418094319
1752.1636666666666;-85.989759510665
1753.8803333333335;-84.98901093795838
1754.8546666666668;-84.25070793448735
1756.282;-84.42745764113995
1757.0566666666666;-83.5865925978604
1757.5656666666666;-84.10142081787978
1758.473;-85.135392051663
1759.5463333333335;-82.92382565421295
1760.6646666666666;-81.93327544986693
1761.805;-85.11007810430824
1762.3700000000001;-84.30744411548876
1763.0226666666667;-85.84776936907053
1763.819666666667;-85.20384646249968
1764.7713333333334;-84.97549774634462
1765.4573333333335;-86.45172106623228
1766.077;-85.33179993848648
1766.6303333333333;-86.149056582007
1767.6043333333334;-86.03706458416579
1768.5666666666666;-85.06919918809324
1769.7956666666669;-84.6499692401756
1771.0566666666666;-84.68125421015012
1771.8536666666666;-83.5217274310081
1772.4846666666665;-84.25864645477992
1773.691;-83.70270906562777
1774.4660000000001;-85.63920079167212
1775.418;-83.4024598123885
1776.193;-84.77686928065066
1777.3773333333331;-85.7208797991037
1778.207333333333;-86.25107276002734
1778.9936666666665;-86.3301656660258
1779.9676666666667;-87.02077700446817
1781.751;-84.71101909047556
1782.7913333333333;-83.46137972539671
1783.8986666666667;-85.6294660313261
1784.5406666666668;-87.20965378864256
1786.1786666666667;-86.47398183105389
1786.8763333333334;-85.05098914184632
1788.0283333333334;-85.18086578017804
1789.1793333333333;-86.54725166742047
1789.8770000000002;-84.62232718592219
1790.508;-85.48543099020964
1791.0063333333335;-85.2913829389739
1791.682;-83.63799851420785
1792.6230000000003;-84.77940308686368
1793.9173333333335;-85.29293754480875
1795.4343333333334;-85.5149571347283
1796.4193333333333;-84.23818057943336
1797.0729999999996;-85.69523285023035
1797.9586666666667;-85.4041252519008
1798.5336666666665;-86.17502365212013
1799.032;-86.73356997696413
1799.9400000000003;-85.1593958608498
1800.6813333333332;-85.11384050558489
1801.4343333333334;-86.6768524665783
1802.298;-83.78065184410806
1802.8073333333334;-85.89991618274044
1803.405;-85.95690535254525
1804.822;-85.6737722456693
1805.9180000000003;-85.19036845093449
1806.826;-84.29860006052115
1807.6009999999999;-86.64805506565756
1808.575;-83.4303593683227
1809.582333333333;-85.03356097232236
1810.6343333333334;-83.88644825203443
1811.4306666666664;-85.02175549455832
1812.4713333333332;-85.85511687404525
1813.301333333333;-84.28994935570543
1814.32;-84.06711207671283
1815.5046666666667;-85.01745981517078
1816.634;-86.74453152702222
1817.9840000000002;-84.08920764662155
1819.4896666666664;-84.96367684754647
1820.9283333333333;-85.28669334225971
1821.4263333333336;-84.84507862693727
1822.4220000000003;-83.6126835365919
1823.4733333333334;-83.73798534061245
1824.237;-83.3680783418013
1824.9783333333335;-82.43813652781817
1825.6756666666668;-81.92427562900379
1826.24;-84.2232088239999
1826.7600000000002;-84.18023686406147
1827.4129999999998;-84.12295540472248
1827.9993333333332;-84.67613940084019
1828.7300000000002;-86.46783852817879
1829.3059999999998;-85.31930636460284
1830.036;-82.52127192661466
1830.9326666666666;-84.37908520369446
1831.6746666666668;-85.11396787407713
1832.7263333333333;-86.22809216055587
1833.357;-87.42252969375397
1834.3313333333335;-86.84993562708298
1835.7369999999999;-87.6945022809445
1836.5559999999998;-85.46944161364753
1837.441;-82.83381259563623
1838.3596666666665;-83.02156466356276
1838.6916666666666;-84.73262298644501
1839.5326666666667;-85.47985865154115
1840.4513333333334;-83.37090178386978
1841.0380000000002;-86.34547336037963
1842.4996666666666;-83.86502184373833
1843.5843333333332;-83.86824621070821
1844.504;-85.66865012559118
1845.2456666666665;-84.89191199749692
1846.2643333333335;-83.89904117869676
1847.006;-83.92183369392616
1848.0686666666668;-84.3576787400879
1848.943;-84.47186811353352
1849.9726666666666;-82.4220966523554
1850.6366666666665;-85.71784333396755
1851.3453333333334;-83.81484565672099
1852.0093333333334;-84.1942347437321
1853.0606666666665;-84.62347965129118
1853.7579999999998;-86.29547843443355
1854.5993333333336;-86.33011205034826
1856.1599999999999;-86.11258272331841
1857.189;-85.33112886646487
1857.687;-86.95886937913843
1858.329;-87.91850101789308
1858.8383333333331;-85.6170788217087
1859.3813333333335;-85.71774066727623
1859.901;-83.33117586176913
1860.4099999999999;-85.84436180449596
1861.3953333333332;-86.9611179806907
1862.514;-87.00730500131613
1863.4989999999998;-84.44414797633196
1864.5836666666667;-84.79997407868196
1865.2363333333335;-85.88905479734883
1865.9783333333335;-84.72117991626178
1866.8419999999999;-85.29160790513463
1867.5506666666668;-86.07282175944033
1868.1809999999998;-84.86817472071715
1868.845;-83.56524106614216
1869.4979999999998;-84.4326715430273
1869.9516666666666;-84.47689374916595
1870.5383333333332;-83.6850776190314
1871.2243333333333;-86.33392642357607
1871.977;-85.14027099152835
1872.8850000000002;-85.51071044052925
1873.693;-85.86479538554357
1874.4786666666669;-84.41245073446123
1875.4750000000001;-86.02409508244952
1876.658666666667;-84.50965554418818
1877.2896666666666;-84.57097043178874
1878.0199999999998;-85.53443054261396
1879.061;-82.8309173991456
1879.7583333333332;-84.9532974002387
1880.611;-84.16850252736731
1881.441;-85.02996981269837
1882.0823333333335;-84.44143906181226
1882.702;-86.48842056764126
1883.4436666666668;-86.2319869705126
1883.9526666666668;-83.89055951351547
1885.314;-86.42850432995321
1886.0559999999998;-84.66564903531922
1886.897;-86.01407650719311
1887.561;-84.60581128569683
1888.7453333333335;-86.7259982338465
1889.531;-85.19059745183544
1889.8739999999998;-83.89793836528064
1890.461;-85.34853043871803
1891.0253333333333;-85.44898622808243
1891.8553333333332;-85.91165010506944
1892.8846666666666;-84.79900215330872
1893.859333333333;-86.37626860610717
1894.9986666666666;-84.18537173158676
1895.7183333333332;-85.24310784069364
1896.139;-83.27248662397034
1896.6483333333333;-83.37193257203472
1897.1796666666667;-85.30817506960678
1897.7330000000002;-86.0691912904584
1898.6303333333333;-86.73022880162128
1899.405;-86.06874434510732
1900.2463333333335;-87.47628354590296
1900.9433333333334;-87.539501955395
1901.5853333333334;-87.08626053346964
1902.316;-85.95426850206039
1903.1906666666666;-87.04564575910817
1904.0983333333334;-85.687396327192
1904.5076666666666;-84.1008914222979
1905.1823333333334;-85.90212829207078
1905.9133333333332;-85.38914965887074
1907.0643333333335;-84.86839800703365
1907.8833333333332;-84.40020577263537
1909.2003333333334;-84.77265878447866
1910.2403333333332;-84.50215936257825
1910.9376666666667;-83.07881935820507
1911.5793333333331;-83.95849878646482
1912.0113333333331;-84.8473149225027
1912.6419999999998;-85.20414149024751
1913.3283333333336;-83.34224288292118
1914.1036666666666;-82.36749577812238
1914.8783333333333;-82.74338637333629
1915.6976666666667;-84.59980831487712
1916.9039999999998;-84.79184792098147
1917.2583333333334;-83.79855958717474
1917.7673333333332;-83.94688920755084
1918.4976666666669;-84.88673634683848
1919.4823333333334;-84.18725822215269
1920.567;-85.43988434251163
1921.2866666666666;-85.72611797027471
1921.9173333333335;-86.9850278827726
1922.8696666666667;-84.900622844927
1923.401;-85.42146834261288
1923.8216666666667;-83.5612075548104
1924.6403333333335;-83.99663466966452
1925.1273333333331;-83.45043252101844
1925.847;-83.23729554384401
1926.5886666666668;-84.4426732687738
1927.2193333333335;-84.91447859746722
1927.795;-84.40263509329026
1928.5696666666665;-86.68197383214847
1929.3326666666665;-83.30912900680828
1929.8083333333332;-84.65120787422481
1930.3396666666667;-86.79836032149254
1931.137;-84.6124629993411
1931.6899999999998;-86.73475557123865
1932.5093333333334;-87.11910513121879
1933.162;-85.71343431102167
1933.9143333333334;-85.60658797272963
1934.6563333333334;-86.97340458301164
1935.3536666666666;-87.46268665718735
1936.184;-85.9009677212218
1937.2686666666668;-85.67254778623851
1937.9660000000001;-85.65077256587563
1938.9186666666667;-85.34694583082822
1939.7046666666665;-83.9374261398479
1940.7003333333334;-84.04936856428623
1941.1319999999998;-82.64494373382924
1941.7403333333332;-85.55014716747677
1942.5146666666667;-83.32137512277976
1943.2226666666668;-85.15861529103807
1943.821;-84.04395624214905
1944.4740000000002;-82.20077599937869
1945.393;-85.9589384945196
1946.0016666666663;-85.00679776804515
1946.843;-85.47659513495105
1947.961;-83.0828252887903
1948.8243333333332;-86.78561400745606
1949.5216666666668;-84.58858392311137
1950.3519999999999;-83.68827552906525
1951.1156666666666;-83.85475601011905
1952.0233333333333;-86.92864948020394
1952.809;-84.82082304571608
1953.883;-82.16648659557083
1954.4693333333335;-83.58545526603167
1955.2669999999998;-83.74736727177216
1955.92;-84.05449409371094
1956.7390000000003;-82.41868173542761
1957.193;-83.24273981847116
1957.9343333333334;-84.7961527643028
1958.7203333333334;-83.56363452200638
1959.7386666666669;-83.21602253750589
1960.3473333333334;-84.6325446676289
1961.0453333333335;-84.93579443699615
1961.9633333333331;-85.30250737499736
1962.528;-83.94384261605643
1963.0146666666667;-83.82217971100881
1964.077;-84.49564272739468
1965.3723333333335;-83.49048658510793
1966.446;-82.37835869945087
1967.4203333333332;-82.7350903500305
1968.428;-84.62361033546746
1969.2806666666665;-83.59340566366718
1970.2986666666666;-83.38315827584363
1972.158666666667;-85.60630563013343
1972.7783333333334;-83.1084330414114
1973.454;-85.80282352942211
1974.792333333333;-86.82128760670159
1975.8886666666667;-88.29321811367856
1976.8843333333334;-86.43849441360456
1977.769;-85.13506385694464
1979.0413333333333;-86.13547032729325
1979.926666666667;-85.50545860363277
1981.1663333333333;-84.66335344915582
1982.3386666666665;-84.39932976840093
1983.2456666666665;-86.21557781715595
1983.9093333333333;-86.2513783046625
1984.4959999999999;-84.73322382465932
1985.4256666666668;-85.2142576598925
1986.1446666666668;-86.59646083000979
1986.997;-85.5435107839387
1988.1156666666666;-83.575475585478
1989.0893333333333;-83.46108711060917
1989.6723333333332;-84.44497498868188
1990.0813333333335;-84.7338316903177
1990.823;-82.82141529330951
1991.6196666666667;-83.47128667725707
1992.4163333333333;-83.68447171857534
