17.188;-86.95523646322168
18.305999999999997;-86.32933325604662
25.528666666666666;-85.49624337982908
38.389;-87.16599881318821
39.983333333333334;-89.05211302134961
41.267;-89.43028890315517
42.108333333333334;-86.75482650867461
42.66166666666667;-85.87301335107045
44.90866666666667;-86.34593303284653
46.736333333333334;-86.1711096733334
48.220333333333336;-86.49307724582297
49.172333333333334;-93.02869002002464
51.232;-88.46252105379915
52.681999999999995;-87.28057626558461
53.81133333333333;-88.2820022259716
54.89666666666667;-89.34232781741878
56.24766666666667;-87.6677609983596
57.577333333333335;-87.14494661094322
58.89566666666666;-87.57205480575719
60.047000000000004;-89.77909692746479
60.77733333333333;-90.66451275747917
62.78133333333333;-88.15183999260239
65.06166666666667;-86.8513677811454
67.21;-88.78170747104055
68.23966666666666;-86.20128949473657
68.782;-87.28018249669265
69.34599999999999;-87.8621618934941
70.01033333333334;-85.45869982650439
70.81833333333334;-85.15385691507466
71.405;-85.63993481246777
71.95833333333333;-85.84444176025895
72.32333333333334;-85.9333386069635
72.83233333333332;-85.46665408198886
73.596;-85.25331991324173
74.18299999999999;-87.0334334054538
75.11266666666667;-86.31686379185838
75.96566666666666;-86.25621964583883
76.86233333333332;-85.40972539450279
78.35633333333334;-86.22302170694672
79.05333333333334;-85.07053827024251
79.89366666666668;-85.79526392194623
80.34666666666668;-85.4661997747178
80.80000000000001;-85.33979598402306
81.397;-86.07906143128376
82.36966666666667;-84.86489847154147
83.26799999999999;-85.3722751606963
83.807;-85.78390295361481
84.24933333333333;-86.0859442097733
84.68;-85.96365025057668
85.09966666666666;-86.84692610321045
85.95133333333335;-86.84923410690931
86.82466666666666;-86.15261903181118
87.31066666666668;-85.88436652778287
87.68566666666668;-86.07525958566559
88.18266666666666;-85.07697064807584
88.89033333333333;-85.22288273094931
89.996;-87.7091153672506
90.91366666666666;-86.19683448776769
91.80900000000001;-87.19529367843526
92.36099999999999;-87.36726694496336
92.858;-85.24927105213652
93.71966666666667;-83.96666188343698
94.35033333333332;-84.07985830850859
95.23566666666666;-84.66237831437488
95.87733333333334;-85.46098836396627
96.39733333333334;-86.90404906364341
97.29466666666667;-86.67384935152754
98.61200000000001;-85.01956734168427
99.98433333333332;-86.2919642744636
101.04666666666668;-87.38053142184509
102.03233333333333;-85.1449055697841
102.92833333333333;-85.14618633971385
103.49266666666666;-86.42004008740139
104.20133333333335;-87.47035039935496
105.29733333333333;-88.06657385248586
107.56599999999999;-86.18665163980766
108.795;-85.35170029148125
109.65833333333335;-86.09189533607525
110.38900000000001;-85.65699243239575
110.96533333333333;-86.48449491294171
112.08299999999998;-86.69281325767373
113.11200000000001;-85.93563656896174
114.04199999999999;-85.55810536626907
114.98266666666667;-84.61634944436443
115.96766666666667;-84.63803843336113
116.565;-85.29969452366983
117.05233333333332;-84.72096408984602
118.28033333333333;-84.6176709810685
118.99966666666667;-84.98523211012693
119.77433333333335;-84.21265040480111
120.28399999999999;-86.43498220350818
121.19166666666666;-85.87699653959436
121.97766666666666;-86.3183495020629
122.63100000000001;-87.19251269372691
123.54966666666667;-86.30813156762527
124.59066666666666;-86.21764318682924
125.09999999999998;-85.4045593079322
125.87466666666666;-85.75834727351521
126.65999999999998;-85.08432666596944
127.334;-86.02355513175567
127.96366666666665;-86.22663264498169
128.947;-85.79749291962688
129.83133333333333;-84.82178025459302
130.871;-85.59495381651814
131.53466666666668;-84.78651741872794
132.70833333333334;-84.97805303327036
134.00166666666667;-85.00100978855076
134.80966666666666;-86.05175588515392
135.30733333333333;-86.6928540133401
135.794;-86.9589412551549
136.67966666666666;-87.3567693877267
138.12933333333334;-86.80819449199916
139.20166666666668;-88.06922320816969
139.71;-87.58530784271551
140.46233333333336;-85.11590841865396
141.436;-87.01736210049498
142.46433333333334;-89.7886929418857
143.09433333333334;-86.76670606170696
143.62533333333332;-85.01329172851565
144.62133333333335;-86.80186919524924
145.45133333333334;-87.65890338956129
146.15966666666665;-86.09058293707966
146.934;-85.16148401296525
148.218;-85.49430930405084
149.34633333333332;-87.53506437990757
150.04333333333332;-87.0784144015671
150.87299999999996;-85.88455014771493
151.50366666666667;-85.90327807016303
152.34433333333334;-85.96279969416
152.95266666666666;-86.17807807174239
153.40599999999998;-88.09473450019186
154.09266666666667;-86.88150505041263
154.701;-86.49318447836285
155.53066666666666;-86.91931751806177
156.87966666666668;-86.77812766927772
157.62133333333333;-85.83763327784096
158.83733333333333;-86.61103328579708
159.58933333333334;-86.5706029731955
160.38566666666668;-84.9842354170185
161.12699999999998;-85.41112569988235
161.79033333333334;-86.08809960316705
162.90866666666668;-84.45686874705778
164.04833333333332;-86.82324112802722
164.85666666666665;-87.41836426555946
165.37633333333335;-88.01353777702994
165.88533333333334;-87.27238782735611
166.45000000000002;-86.49389827613399
167.06933333333333;-87.96280380923561
167.833;-87.26551909109666
168.519;-87.26020443030309
169.11666666666665;-85.6091994292295
170.135;-84.65753963904375
172.64700000000002;-86.90400639711847
173.93033333333335;-87.7699304575186
175.19133333333332;-87.48005217497966
176.088;-87.26491779517846
176.8183333333333;-86.77690145063191
177.63766666666666;-86.31035236824965
178.41233333333332;-86.82441240079092
179.22033333333334;-87.59779358758854
180.14999999999998;-86.80930146719528
181.14633333333333;-85.08904632924663
181.94333333333336;-85.47571754319519
182.89566666666667;-84.16921832053711
183.74766666666667;-86.06796470602337
184.46666666666667;-87.97729626677878
185.45133333333334;-88.460871837188
186.79;-90.62802685886798
188.40599999999998;-90.37526363799739
188.95899999999997;-87.67651179448683
189.7893333333333;-89.6611323375264
190.5086666666667;-86.05485657314635
191.018;-88.2939619102485
192.0583333333333;-87.70434835695775
192.91066666666666;-86.09791565108381
193.75133333333335;-85.29648384434671
194.9243333333333;-86.9251495320758
195.73299999999998;-89.76947947309311
196.49633333333335;-89.02014551460954
197.40366666666668;-85.51730809890203
198.322;-85.12144582501388
198.82000000000002;-86.03939246450663
199.43966666666665;-85.4619030862061
199.95933333333332;-85.28864034081884
200.87699999999998;-84.57601289172223
201.70600000000002;-85.19390506054195
202.50266666666667;-86.65571461375741
203.44266666666667;-86.13807529717849
204.95966666666664;-86.27001289384853
206.31966666666665;-84.63707705321269
207.0716666666667;-85.2421913919634
207.91233333333332;-85.31058272101022
208.94066666666666;-85.1386124371111
209.75966666666667;-85.39363541518694
210.54533333333333;-86.46440942571942
211.375;-84.72934644582281
212.1496666666667;-83.42424642698674
212.66966666666667;-83.92716994904602
213.30033333333333;-85.18492543801962
213.98600000000002;-85.41784371033243
215.02566666666667;-85.73530885923223
215.856;-85.99963468331221
217.096;-84.789164837389
217.76;-85.53363083057428
218.56733333333332;-86.35988723947804
219.60733333333334;-85.49230115448968
220.5146666666667;-84.6900302830346
221.433;-85.42493505582925
222.438;-84.99276005779635
223.389;-84.61708286389953
224.00900000000001;-85.32679964491776
224.55100000000002;-85.39694763428503
225.61266666666666;-84.76941523829845
226.7073333333333;-84.84720313122924
227.96866666666665;-85.86937959002833
228.92066666666665;-85.90944702561981
229.58433333333335;-86.53894348122876
230.79;-85.55813687716008
231.852;-85.61543178157862
233.49933333333334;-86.14329975761792
234.683;-85.01978406714429
235.41366666666667;-85.31458374602349
236.04433333333336;-85.57178798838632
236.67499999999998;-84.27575011660565
237.75966666666667;-84.25277791162347
238.70100000000002;-84.65350746431771
239.75199999999998;-85.0327049939965
240.76966666666667;-84.76278840891058
241.311;-85.34805343327035
242.528;-85.59960431109778
243.16899999999998;-86.19493831399815
243.86666666666667;-86.28537752517816
244.53;-84.23526631266125
245.25966666666667;-85.703914914747
246.03266666666664;-86.08275571329685
247.393;-86.01010041437249
247.95633333333333;-85.2730064655799
248.52066666666667;-85.02551372864903
249.18433333333334;-84.34585271372862
250.11366666666666;-84.5917982789094
251.309;-85.30715689626301
252.61366666666666;-84.99280375375228
254.09566666666663;-85.51138222328463
256.541;-85.4536327854084
257.17100000000005;-85.78577605942903
257.82366666666667;-85.31317801838739
258.59833333333336;-84.90566669124806
259.1513333333333;-84.8531729130178
260.2796666666666;-85.87970255567554
261.1983333333333;-85.32767266994064
262.8133333333333;-85.42028153419324
263.8966666666667;-85.91855362244809
264.627;-85.3067709312582
265.3576666666667;-85.16129092106273
266.06566666666663;-85.05417596802114
267.02833333333336;-84.09722059314626
267.659;-84.40665398830043
268.1123333333333;-84.11457215257863
269.827;-83.93658755033951
271.09833333333336;-83.62013377618162
271.96133333333336;-84.33357354582488
272.9796666666667;-85.50642593030344
273.577;-85.05236889903752
274.529;-84.51127123416863
275.514;-84.95943740446683
276.211;-85.1062938364158
276.8086666666666;-84.64016880485525
277.6273333333333;-85.05087852932246
278.3353333333334;-85.09879432622819
279.08733333333333;-85.31341260688788
280.238;-85.01542544034956
280.924;-85.92124146777171
281.632;-85.30782720352843
282.4286666666667;-84.8261519767699
283.3693333333333;-85.07178367279911
284.077;-84.90336823769654
284.718;-84.91722015777685
285.50399999999996;-85.00587787353119
286.82033333333334;-84.99639179663403
287.981;-85.03434871847249
288.87566666666663;-84.45071277411665
289.61633333333333;-85.59564964868989
290.45633333333336;-85.55281869005199
291.22933333333333;-85.56934418300158
292.3466666666667;-85.54347613844439
293.808;-86.30889735676487
294.472;-85.53938196567634
295.291;-85.12718148024217
296.2316666666666;-86.2318442460062
297.00600000000003;-85.31298609591782
297.8136666666667;-84.64806770521699
298.3336666666667;-85.47176629374584
299.24133333333333;-85.10518469365246
300.5796666666667;-85.61691727037984
301.69533333333334;-85.05553875747589
302.281;-85.61949873806833
303.0216666666667;-85.705509133101
303.6856666666667;-85.45528384095496
304.22766666666666;-85.69686878842829
304.84666666666664;-85.65757792278959
305.95233333333334;-85.5426371823797
306.57199999999995;-85.60038667863996
307.357;-85.0027075380015
307.95433333333335;-85.47192256726849
308.441;-85.37516200066699
309.26;-85.13018523307287
310.644;-85.72515396789154
311.264;-86.23962316579478
311.8616666666666;-84.99385835092475
313.223;-84.51225028968419
315.2933333333333;-84.983862337891
316.245;-84.0514939476912
316.8653333333333;-84.21000794346952
317.66266666666667;-84.27997648153165
318.3156666666667;-85.58306315450072
319.057;-85.33861068489784
319.87566666666663;-85.12796065956783
320.49566666666664;-85.12529351709725
321.13733333333334;-85.70910115361012
322.17766666666665;-85.71461162765307
323.5056666666667;-86.10282135037869
324.39033333333333;-83.80808545495081
325.276;-84.44090372503877
326.1503333333333;-85.03251649264071
327.5346666666667;-85.28158981967673
328.69599999999997;-85.5665249521879
329.8143333333333;-86.27738614070704
330.74466666666666;-85.42721059451559
331.37566666666675;-86.34708986443896
332.9693333333333;-85.64528069322239
333.965;-84.97329680311397
334.96133333333336;-85.34818888961628
335.87966666666665;-85.39991816854815
336.32233333333335;-85.88264715927062
336.93066666666664;-85.70561731192623
337.68333333333334;-86.0825824152655
338.36999999999995;-85.41768558033502
339.13433333333336;-86.24193836964355
339.99766666666665;-86.45710008089432
341.016;-86.13647355154356
341.8453333333334;-86.68609081547666
343.07300000000004;-85.92061508755243
344.0806666666667;-85.79769839555593
344.67833333333334;-85.97025590319808
345.5306666666667;-86.25628209552042
346.05033333333336;-85.53849353663375
346.714;-86.36015441783935
347.2896666666666;-85.93660334388444
347.82099999999997;-86.55183680938667
348.529;-86.0625842360879
349.2036666666667;-86.59893569358998
350.0003333333334;-87.26943949766085
350.863;-86.41373698153875
351.4373333333333;-85.67558835446039
351.99033333333335;-85.63927445273558
352.521;-86.05511434083137
353.395;-86.17519275162367
353.92633333333333;-85.98961703131658
354.9336666666666;-86.57858152610044
355.7516666666667;-87.0458133897867
356.769;-86.75492442884091
357.6203333333333;-87.11419123644944
358.327;-85.70126836133866
360.9023333333333;-85.36230108358794
361.82033333333334;-86.30283486867712
362.3403333333333;-86.30078350370998
362.79400000000004;-86.21852591502712
363.67900000000003;-86.16516576147086
364.44233333333335;-86.77212119525096
365.08500000000004;-85.53486934863741
365.61566666666675;-85.9372827083994
366.1023333333333;-85.04283481289721
367.04266666666666;-85.03137037253796
368.22666666666663;-86.44510119955919
368.912;-86.31573964205838
369.50933333333325;-86.54140375580396
370.20599999999996;-86.68961260924073
370.80366666666663;-85.72757046171712
371.26800000000003;-85.25047896824603
372.06500000000005;-84.53157387112073
372.7513333333333;-84.66671090012129
373.593;-86.11652178181468
374.5;-84.67005910479095
375.46133333333336;-85.92466750181754
376.2463333333333;-86.08027749074839
377.353;-86.05800492274061
378.8473333333333;-85.77495884065424
380.35266666666666;-85.99231846200817
381.39366666666666;-86.38113296828445
381.99066666666664;-85.76289691859444
383.339;-87.33711184726135
384.33466666666664;-85.74228075124518
385.2093333333334;-86.95232802913984
386.04999999999995;-86.97536662582256
386.6806666666667;-84.95631136074141
387.3776666666667;-84.1471301982436
388.152;-84.06273015023267
388.9826666666667;-84.57387627870094
389.91266666666667;-84.88377454563134
390.7863333333333;-86.39117572511636
391.6273333333333;-85.6069640683289
392.314;-86.15887903067215
392.97800000000007;-86.54250572549458
393.897;-86.69341213432575
396.1326666666667;-85.03940811485745
397.17333333333335;-86.30296367933519
398.03700000000003;-84.8359008870182
399.33199999999994;-87.10977352591011
400.15066666666667;-86.14773563367336
400.7373333333333;-84.98950628721748
401.512;-84.74100597403789
402.22;-85.87037231027156
402.78433333333334;-86.76144100875405
403.32633333333337;-86.66302159542894
403.7463333333333;-85.25631473478325
404.37699999999995;-86.10378609591672
404.91933333333327;-86.81007481033345
405.69399999999996;-87.42088773701504
406.645;-86.4313999203034
407.9176666666667;-85.44902638406815
408.57;-86.00163086349714
409.47700000000003;-86.10598150517316
410.141;-87.45867775118366
411.0596666666667;-87.29637966909085
411.9556666666667;-87.48280179495667
412.6523333333334;-86.30428996445971
413.43799999999993;-85.23785250456024
413.991;-85.24333703753972
414.6213333333333;-86.19479138843548
415.35166666666663;-85.59285360001392
416.0596666666667;-85.9817706703387
416.6903333333334;-85.92376579902016
417.388;-86.43851926860228
418.406;-87.19623233547038
419.1023333333333;-85.87666168323719
420.1306666666666;-85.4641658554752
421.11400000000003;-84.89979696697813
421.96600000000007;-85.40922130645575
422.8283333333334;-84.1244299002208
424.1886666666667;-84.5343626534413
424.95266666666663;-85.46262003702739
425.76066666666674;-84.94941651751417
426.5903333333333;-86.23354040947576
427.52;-86.37110977029182
428.12899999999996;-86.89971796829195
428.7706666666666;-86.04906817675398
431.0273333333333;-85.76628336957886
432.731;-86.57621604504601
433.75966666666665;-87.74865302642085
434.556;-87.560269838809
435.55133333333333;-86.41304661704633
436.358;-87.20637893111552
437.13200000000006;-87.14617173078582
438.128;-88.65372922955802
439.035;-87.6051401936233
439.8096666666667;-87.30852109566663
440.307;-85.9942908722322
440.89366666666666;-86.13726323163343
441.491;-85.88626162505744
442.34166666666664;-86.83927360094299
443.4256666666667;-85.40993590045773
445.385;-84.34169871292359
446.2363333333333;-87.09519037731363
449.35699999999997;-85.52867892555267
451.32633333333337;-87.16846875749637
452.6656666666667;-86.90048128187836
453.6066666666666;-85.9090110105622
454.65766666666667;-87.21376925934054
455.3326666666667;-86.39390068169017
456.041;-86.70566794332017
456.70433333333335;-86.10801241264912
457.512;-86.27747962709928
458.05400000000003;-86.56144426596762
458.674;-85.44406584174374
459.19399999999996;-85.25154485174879
459.9356666666667;-85.62219593905535
461.15333333333336;-86.286385614872
462.0493333333334;-86.78966583912525
463.1556666666666;-85.75673481744562
464.34;-86.14126467972719
464.98199999999997;-87.00640875617813
466.1766666666667;-86.81407227845182
467.195;-85.65006383014443
467.65899999999993;-85.91500891396171
468.3673333333333;-84.85055255171444
468.99800000000005;-84.47537569792134
469.58466666666664;-85.69186823371064
469.96066666666667;-86.89963374291344
470.558;-87.022730921311
471.167;-86.61825550250887
471.85366666666664;-86.48501286358058
472.451;-87.31612574295289
473.502;-87.69521558212624
474.233;-86.38652575349757
474.86400000000003;-87.38502317979844
476.1043333333334;-86.7717533909331
476.901;-86.46193494290792
477.31;-86.02143912254256
477.7863333333333;-86.53572182891618
478.45166666666665;-86.67838272224176
479.1266666666667;-86.14255558818681
480.067;-86.37964286029236
480.80833333333334;-86.16020060783805
481.4056666666666;-86.17985275630356
481.8706666666667;-86.58170427018904
482.3573333333334;-86.82887038681494
483.07633333333337;-86.10857869161248
483.7626666666667;-86.79453795972796
484.51533333333333;-86.50138640017171
487.26;-86.38425767525352
487.9683333333333;-86.2796472902417
488.54333333333335;-87.06969227989256
489.08500000000004;-86.84091782401171
489.4723333333333;-85.95930211340428
490.11366666666663;-86.74583302832586
490.66633333333334;-86.1236597653029
491.42966666666666;-86.46475133884681
492.204;-85.30242534122209
492.9676666666667;-86.54388404361585
494.01866666666666;-86.56926042041317
494.75966666666665;-87.41449671146245
495.578;-87.66392800483769
496.242;-88.51663893321054
497.0823333333333;-87.71956144907242
497.71299999999997;-88.02660069719754
498.34400000000005;-87.09360185508075
498.90799999999996;-86.1834810335459
499.362;-86.49285994095793
499.782;-87.18177254966197
500.346;-85.99710869841192
500.99899999999997;-86.22597663873204
501.5733333333333;-86.117054742287
502.12600000000003;-86.17703257588292
502.77833333333336;-86.46431178407681
503.44166666666666;-86.59273083511117
503.895;-87.73926040502208
504.48033333333336;-88.2539271199605
505.15500000000003;-87.87655096419863
505.78566666666666;-88.68010382072553
506.88033333333334;-87.66448269008316
507.4883333333333;-86.24888193475954
508.01933333333335;-87.50370866911302
509.0153333333333;-86.46686527268425
509.63500000000005;-85.53502241302127
510.07766666666663;-86.39512248019729
510.6086666666667;-85.9597273964562
511.20666666666665;-85.21028605315598
511.91433333333333;-86.83563413120783
512.5776666666667;-86.37512705415841
513.1753333333332;-86.81353817016193
514.149;-87.16213295431722
514.9116666666667;-87.23996122745582
515.62;-88.3448404917856
516.3163333333333;-88.44412189414935
517.0913333333333;-86.1863796046907
517.7109999999999;-86.72176688675613
518.198;-86.8277801661975
519.4593333333333;-86.16391466452747
520.0669999999999;-86.02817614726472
520.663;-86.88545147990894
521.294;-88.10512095541857
521.9246666666667;-85.71172644198619
522.4;-86.53440796350989
523.364;-86.12042190997713
524.1943333333332;-84.74587992603763
525.0246666666667;-85.30837020257873
525.9756666666667;-84.98994539105897
526.739;-85.3003634752177
527.37;-85.21894543677341
527.9786666666668;-85.32807712864143
528.7643333333334;-84.32239276860656
529.627;-84.9965156849361
530.202;-84.84312530948961
530.5563333333333;-85.72577944011138
531.0206666666667;-86.2892908514076
531.7173333333333;-86.2799120696074
532.4806666666667;-86.50736835469098
532.9673333333334;-87.00242487048693
533.8193333333334;-85.4098589229598
535.1463333333332;-85.94536752253926
535.7773333333333;-85.24614010796846
536.1976666666666;-86.11663849643374
536.6956666666666;-87.05502184398935
537.7683333333333;-85.63141266536387
538.9743333333333;-85.9390599529346
541.131;-85.76978445491544
541.684;-85.57775301615395
542.4810000000001;-87.14351295484741
543.1999999999999;-87.45695384609094
543.9083333333333;-86.6338390405059
544.439;-86.78324436281329
544.9036666666667;-86.31954534270449
545.357;-86.52858151434047
546.1529999999999;-85.73127265899737
546.939;-85.54334208635481
547.5360000000001;-86.11494458057079
548.3656666666667;-84.99690931510479
548.7973333333333;-86.0330309605215
549.25;-86.10797313686993
549.6706666666666;-87.24564406436028
550.2453333333333;-87.42051120544187
551.295;-86.5994259964401
551.848;-86.31526643224328
552.666;-86.16981802867039
553.352;-85.24350946212324
554.3466666666667;-86.2065227294612
555.0099999999999;-85.8568833215632
555.6743333333334;-86.60132937177252
556.1059999999999;-87.41695904019991
556.9356666666666;-87.0139902145354
557.71;-86.64910956704479
558.695;-85.88014416040407
559.4803333333333;-86.35995312959997
560.3766666666667;-86.66872151414644
560.9516666666667;-85.96803334293955
561.549;-86.08870171286122
562.1796666666665;-84.96785882923024
562.766;-84.81062089492836
563.2196666666666;-85.18595144360674
563.8503333333333;-85.41439973641546
564.7019999999999;-86.96851219735494
565.3766666666667;-85.77556697684777
566.084;-87.38080386280886
566.7146666666666;-86.01385555073337
567.544;-84.46199580353327
568.064;-86.52186998134292
568.7716666666666;-86.63367621317839
569.5126666666667;-86.89311148113076
570.154;-85.7594192952074
570.9173333333333;-86.40891865463723
571.5913333333334;-87.5107213890314
572.3213333333333;-87.79309534536952
573.2610000000001;-87.38160515940176
574.7993333333334;-86.73783786280711
575.33;-87.2534718798924
576.005;-86.47374266989111
576.5586666666667;-86.99521551736176
577.1893333333334;-86.35278879128315
577.61;-87.3544471391812
578.1850000000001;-86.28079603599322
578.7489999999999;-86.4849557602883
579.4343333333333;-86.33650221279697
579.9983333333333;-87.16492350809709
580.5736666666667;-87.87462717647674
581.348;-88.02134760857113
582.6753333333334;-86.04364649880958
583.306;-86.2823217595124
583.7483333333333;-85.59499539623926
584.379;-84.29486911619621
585.2193333333333;-85.25843368106142
585.784;-84.80228143748751
586.271;-86.95308656935761
586.9786666666666;-86.46255012299545
587.62;-86.47391283316793
588.273;-87.01791232413304
588.915;-87.31648682301663
589.5236666666667;-85.74114962144421
590.3756666666667;-85.64576146412678
591.504;-86.63699346720803
592.0906666666666;-87.73672158244796
592.6103333333334;-87.83632643720668
593.042;-85.742174748896
593.8159999999999;-86.69476651953141
594.6123333333334;-88.45119807190859
595.7076666666667;-86.87978963914394
596.57;-87.96414409211427
597.3123333333334;-87.21080056413493
598.0003333333334;-86.73523102521493
598.5863333333333;-86.86994184793735
599.1066666666667;-87.2197139744832
599.9253333333334;-87.17571305306123
600.5783333333334;-86.93706327437282
601.563;-86.17586627305411
602.747;-85.89439051059145
603.366;-85.35047136067378
603.9413333333333;-86.09233191151228
604.727;-86.09003465258938
605.4466666666667;-87.39694701169998
606.0993333333333;-86.86463522675375
606.785;-86.67806808009428
607.449;-85.62381263620075
608.146;-86.59854781124531
608.8543333333333;-87.44226617638189
609.551;-86.45699703799738
610.2256666666667;-87.05592284066923
610.6683333333334;-86.32560638190665
611.343;-86.99810675345938
612.0726666666666;-87.72648913342256
612.8576666666668;-88.0956021940726
613.6433333333333;-87.3580131667655
614.4066666666668;-87.08131646882866
615.28;-86.80159708370016
615.8776666666666;-86.12418188255424
616.3090000000001;-86.51686864682983
616.973;-86.88226979797595
618.2556666666667;-85.16772474423476
619.2073333333334;-85.70062182686725
619.8603333333334;-85.51947827682193
620.645;-85.75428570484576
621.309;-85.64418060136815
621.9166666666666;-84.91047463821644
622.6806666666666;-84.71078737389713
623.3776666666666;-86.19667718985443
624.3176666666667;-86.36126971863673
625.3023333333334;-85.91320840448849
626.3423333333334;-84.62083132112987
627.36;-85.12366070177846
628.1893333333334;-85.86252018525117
629.527;-86.40670010533049
630.7546666666667;-86.69798247863778
631.341;-86.5732480272445
631.7833333333334;-86.29453505213908
632.1373333333332;-86.34201042675235
632.9330000000001;-87.29281370907995
633.4630000000001;-86.61780939236127
634.037;-87.12502652778143
635.2399999999999;-86.20283632930149
636.0013333333333;-86.15063613563203
636.3986666666666;-85.20804750832909
638.132;-85.75831867168864
638.939;-86.23221566536557
639.5126666666666;-85.76949547966085
640.1313333333334;-86.66628842763497
641.1596666666667;-86.15079946549702
641.8893333333334;-86.31787717854682
642.63;-85.03293279612299
643.238;-85.98960683126307
643.7023333333333;-86.66439194817524
644.2553333333334;-86.72281509993562
644.9073333333333;-85.22753163308768
646.0463333333333;-85.75193998895777
647.151;-85.30949881775871
648.0353333333334;-86.97714284705624
648.8763333333333;-87.38653722189531
650.3916666666665;-86.19052984684456
651.122;-86.1234657396728
651.8743333333333;-84.74259809208365
652.8589999999999;-85.40681767185251
653.545;-86.18812667672353
654.0203333333334;-86.51028566495953
654.6283333333334;-86.04972191245048
655.6236666666667;-86.16844755498568
656.3206666666666;-87.01541816308215
656.918;-87.05710327297149
657.592;-86.66749545871211
658.366;-86.14410909197142
659.1513333333334;-86.27685887071263
659.9029999999999;-86.12067212912086
660.4346666666667;-86.65887731449011
661.0763333333333;-86.16594591642097
661.784;-86.79673900967362
662.381;-86.77210674004142
663.0223333333333;-85.24061852630311
663.8850000000001;-85.7725463195801
664.6703333333334;-85.88217187524134
665.3226666666666;-86.32261623397291
665.8536666666666;-86.84395275725916
666.7383333333333;-86.95142509189465
667.5790000000001;-86.99988446651314
668.9726666666667;-85.66763040702857
670.1223333333334;-86.26398292328054
671.5269999999999;-87.67090525148659
672.3333333333334;-86.3968810551879
673.196;-85.88337045421113
673.727;-86.49327767884932
674.346;-87.04402478659806
674.822;-86.816204501957
675.4193333333334;-85.65557169920552
676.1603333333334;-86.70253055324534
676.78;-86.52789732702355
677.4763333333334;-86.99624066922556
678.3483333333334;-87.35016415976197
678.9773333333333;-87.69549734864846
680.0146666666666;-85.8177651117518
681.1513333333332;-85.41618335166626
681.8910000000001;-86.92010778666689
683.1060000000001;-86.78108113841864
684.1116666666667;-86.22788600637685
684.775;-86.08962186610336
685.4716666666667;-85.68963507907344
686.2019999999999;-86.31054405649958
686.9093333333334;-86.19385698302094
687.7716666666666;-85.80993879032394
688.402;-85.62694837827402
689.2310000000001;-87.08524800112619
689.9166666666666;-86.28508745266709
690.7453333333333;-85.90471291068319
691.685;-85.73875518245384
692.4596666666666;-85.64292073031172
693.0683333333333;-85.73464827838143
694.1296666666667;-86.13225894058733
694.77;-85.3121336478938
695.4776666666667;-84.89222599025321
696.937;-86.06319626635374
697.5233333333334;-86.8522457290109
698.9830000000001;-85.48116083968961
700.2660000000001;-86.95140904173915
700.9960000000001;-87.23447833493623
701.7919999999999;-86.63817934283966
702.4563333333334;-86.29254849861061
703.1973333333334;-85.2770665462038
703.9606666666665;-85.61009463857394
704.5246666666666;-86.21395246785421
705.2546666666667;-86.00783773256308
706.2723333333333;-86.58722589797529
707.3453333333333;-85.98405014276385
708.0873333333334;-87.79012558140299
708.917;-86.13821907780839
709.5366666666667;-85.39194847252779
710.2343333333333;-85.60430980496567
710.8096666666667;-85.88808462197916
711.9606666666667;-86.02118255069905
712.9123333333333;-86.5443838745913
713.4433333333333;-85.75399818036091
714.0300000000001;-85.9768799900702
715.2353333333334;-85.69667144962841
716.1863333333334;-85.58306332496039
716.8276666666667;-86.64131276646555
717.5576666666667;-86.67282573842523
718.5086666666666;-85.57859367507224
719.404;-84.83638883849919
720.034;-84.87801177876747
720.6866666666666;-85.67107486317154
721.6493333333333;-86.49773852223802
722.346;-86.32844460562684
723.187;-87.89393525042534
723.8179999999999;-86.68974448956823
724.614;-86.47955160386628
725.0790000000001;-84.80258763792088
725.4876666666665;-86.16526509582161
726.0066666666667;-86.1499736951495
726.6926666666667;-86.36609480780369
727.389;-86.70661025625115
728.02;-86.90374196314225
728.7826666666666;-87.6994450383818
729.5676666666667;-86.68059061390176
730.0546666666665;-87.24174302173682
730.873;-86.93625443473279
731.7139999999999;-86.97428953619509
732.344;-86.39920721624952
732.853;-86.45981737701472
733.5056666666666;-86.05495503930743
734.2913333333332;-85.73738893491473
735.043;-85.67846934855262
735.6619999999999;-85.15526866472975
736.503;-85.46456287232594
737.996;-85.88849400863265
739.0906666666666;-86.40711525738844
739.776;-86.06985658699446
740.3736666666667;-86.56897665746826
740.9266666666666;-86.93385678433867
741.6563333333334;-86.82659467179838
742.5966666666667;-85.20655808250308
743.648;-86.33134051673602
744.7426666666667;-85.43032839852904
745.8713333333332;-86.3250092230466
746.3579999999998;-86.61623184863782
746.9766666666666;-85.83629421790103
747.9499999999999;-85.69440385355405
748.8906666666667;-85.87201464237906
749.7093333333333;-85.3921073002336
750.3290000000001;-84.7966416583765
751.0706666666666;-84.90801827787521
751.7896666666667;-86.01341453988688
752.6186666666667;-85.35117243250656
753.282;-84.90627340661862
754.056;-85.10719154284905
755.0966666666667;-85.76608739954065
755.805;-85.92181011492454
756.335;-85.6735797541552
757.2196666666667;-84.89139770723668
757.8056666666668;-84.62416728360917
758.447;-85.76402363571184
759.067;-85.57449022619255
759.6756666666666;-86.06414020314165
760.6379999999999;-84.86655096492667
761.6999999999999;-85.82974273149347
762.727;-85.49231071694685
763.4119999999999;-84.8953538622912
764.2199999999999;-85.30830801971688
764.6733333333333;-84.70254265506487
765.5250000000001;-84.25822282745713
766.2326666666667;-85.71420924081416
768.1243333333333;-85.65568472433058
768.8873333333335;-85.52445268320304
769.407;-84.90609857632776
770.357;-84.87008662995464
771.0096666666667;-84.59129789211335
772.3816666666667;-84.91608087891939
773.2006666666666;-85.76190319003759
773.6986666666667;-85.5938582901718
774.1519999999999;-85.83668856193151
774.5943333333333;-85.89634921136832
775.3356666666667;-86.16143170228054
776.2869999999999;-85.35462296113556
776.9176666666667;-85.39829094978222
777.648;-84.93494050809349
778.2563333333334;-85.17185570251347
779.2083333333334;-85.87101769789226
780.2263333333334;-85.50333176243001
780.7686666666667;-85.65442198552823
781.7093333333333;-86.0522197528594
782.5056666666666;-86.27890704433864
783.2026666666666;-84.87501711274177
783.8993333333333;-84.52018567930708
784.5856666666667;-84.58663052692256
785.5480000000001;-84.58573200628186
786.2563333333334;-85.13994153478528
787.5170000000002;-84.45668201023528
788.5016666666667;-84.98817392089393
789.21;-84.82305586155587
789.6303333333332;-85.6585521991864
790.2829999999999;-85.1585685772565
790.8473333333333;-84.79680306317157
791.4446666666666;-84.55717129112332
792.1636666666667;-85.11896831963915
793.1476666666666;-85.32331660356378
793.9549999999999;-84.92176542793553
794.5079999999999;-85.26973056062789
795.094;-85.3722108755454
795.6136666666666;-85.75671070745966
796.3546666666666;-85.37348007016031
797.5486666666666;-84.71596898149896
798.8093333333333;-85.09174492845908
800.0806666666667;-85.02869145323058
801.0526666666666;-85.50287343016083
802.169;-85.49349672478459
803.3633333333333;-84.25526320309152
804.4036666666666;-84.56389946644103
805.178;-85.20941042711544
806.4946666666666;-85.44683763749823
807.2573333333333;-85.42619318426974
808.009;-85.33771950366463
808.7170000000001;-84.48693970995663
809.9336666666667;-84.82841781904041
811.349;-85.03061994494865
812.2123333333334;-85.08967098965738
813.1966666666667;-85.73529338459161
813.8269999999999;-85.2570725601719
814.966;-85.32687352024512
816.0726666666668;-86.37934673142804
816.736;-86.70603714697184
817.4656666666666;-86.27034238777287
818.5053333333334;-86.2790569261775
819.1686666666666;-86.64064048002739
820.319;-86.50962839992833
822.0776666666667;-85.80243039758354
823.4053333333333;-85.69443353158853
824.6776666666666;-85.72389861574507
825.4409999999999;-86.2165863436828
826.0266666666666;-84.80010874378695
827.0996666666666;-85.21006285938536
828.349;-85.7022418459855
829.034;-85.02043962585418
829.8746666666666;-85.27031508006108
830.5606666666666;-85.55734064093194
831.401;-85.62521626927297
832.0203333333333;-84.78872640284295
832.663;-84.85936307959959
834.1113333333333;-85.38870756816205
834.9173333333333;-85.80642037976686
835.7803333333333;-85.432994087678
836.5433333333334;-85.40424933076116
837.2399999999999;-85.3070787439152
837.6929999999999;-85.89175437036195
838.5783333333334;-85.43314831637355
839.1640000000001;-85.18916638327781
840.3589999999999;-85.18927642564623
841.1556666666667;-86.10624539528453
841.7750000000001;-85.40986588432597
842.627;-85.35101171152687
843.9663333333333;-85.54225594353031
845.9023333333334;-85.67704025976042
847.152;-85.06435954394436
848.5576666666666;-84.79834749710551
850.0303333333333;-84.61112940348767
851.4683333333332;-85.01085394013856
852.198;-85.23204021959661
852.8946666666667;-85.53150299026287
853.37;-85.76020569561457
854.0009999999999;-85.93334623822766
854.9303333333332;-86.0167084002432
855.6046666666666;-85.58775686898022
856.2243333333332;-85.64020706971276
857.0210000000001;-85.67360130024593
857.7176666666668;-86.00186648098249
858.8236666666667;-85.51147920152476
859.5426666666667;-84.91709527291155
860.2063333333332;-85.55750781173543
860.9476666666666;-85.19186827714614
862.1419999999999;-85.7131286538297
862.927;-86.35645611464372
863.4029999999999;-86.05656086763031
864.343;-86.00059486327797
865.5483333333333;-86.6253609818935
866.6433333333333;-86.54775559541312
867.4063333333334;-85.46549938683663
869.0540000000001;-85.56768374578037
872.1073333333334;-85.82508397581216
872.9476666666668;-86.02406295863636
873.8543333333333;-85.80476750341779
874.4963333333334;-85.47211221336266
875.2370000000001;-86.12921000825553
876.4983333333333;-85.48814440925408
877.5499999999998;-85.50658397348894
878.0483333333333;-84.91262302345368
878.9673333333334;-85.73202413974937
879.62;-85.6741357166041
882.1316666666667;-85.63012000144509
883.127;-85.25873162973555
884.0333333333333;-85.74133503405886
885.1283333333334;-85.89881976016545
886.3446666666667;-85.6839328739705
886.8756666666668;-86.03718555075768
887.6500000000001;-85.0407425535032
888.5233333333332;-85.99793392299614
889.165;-85.27727192447107
890.0826666666667;-85.51068377369558
891.2663333333334;-85.18243161794175
891.9409999999999;-85.3065192383932
892.9246666666667;-85.8480163375956
893.621;-85.50232676828757
894.1406666666667;-85.34358678382206
895.0146666666666;-85.51303435900171
895.9766666666668;-86.31792030969062
896.9943333333334;-86.11429537041357
897.8136666666666;-85.79923482382746
899.4830000000001;-86.03193711696989
900.0360000000001;-85.73793266319339
900.8326666666667;-85.64675344520055
901.7396666666667;-85.15826086734339
903.8960000000001;-85.39783686074864
904.88;-86.15924441158259
905.6210000000001;-84.6000454221852
906.1410000000001;-85.24324934179825
906.859;-84.51826454507653
907.4006666666666;-85.31969046977167
908.0646666666667;-85.31703351316389
909.116;-85.09382574713325
910.8646666666667;-85.64789401672904
911.7280000000001;-85.81485004560241
912.944;-85.44584248397388
913.7623333333332;-85.42834978469826
915.555;-85.31538304193165
917.0163333333334;-85.75125663990997
917.869;-86.44833993648447
918.2996666666667;-85.87486670139842
919.6719999999999;-85.48657987245691
921.3633333333332;-85.47072662756334
922.6346666666667;-85.00924892021025
924.6706666666665;-85.803808242678
926.395;-85.67102919243425
928.5183333333333;-85.33952577109334
930.3436666666666;-85.70837117782732
930.9743333333332;-85.73097265867575
931.7156666666666;-85.82351212594256
932.7660000000001;-85.65502401187952
933.2963333333333;-85.93600623780812
934.0480000000001;-85.58544245510183
934.6013333333334;-85.73084505038605
935.4203333333334;-85.72173203793793
936.77;-86.25175050590612
937.6773333333334;-85.95913910090538
938.3853333333333;-84.963938215269
939.116;-85.41942586442838
939.9903333333333;-85.0937324381581
940.875;-85.27347872380865
941.8926666666666;-85.07462934799995
942.877;-85.27239203539006
944.6240000000001;-85.77542541181724
945.3213333333333;-85.55519098299101
946.151;-85.34881658029751
947.6103333333334;-86.18773730006117
948.8506666666666;-85.62848676916542
949.5803333333333;-85.13906727146764
951.8373333333334;-86.32622479764082
952.8886666666667;-85.94454165685563
953.6523333333334;-85.80564930946204
954.1059999999999;-85.72744805693172
954.8359999999999;-85.61275769595663
955.6320000000001;-86.32048034565642
956.274;-85.9761121297557
956.8816666666667;-85.12796597194682
957.4339999999999;-85.84851545079349
957.9983333333333;-85.7563518860358
958.939;-85.74192217778928
960.245;-85.43886011435497
961.4183333333334;-84.69217306539589
962.3586666666666;-85.41688770386592
962.9549999999999;-85.7324388110709
963.6406666666667;-86.68440548898732
964.5813333333332;-86.06616814943078
965.698;-85.38776588821625
966.3726666666666;-85.02935958702226
967.1463333333335;-85.041078728574
967.9536666666667;-85.3789385649991
969.8563333333333;-85.23516361048908
971.4376666666667;-85.76870650909319
973.152;-85.30494491994034
974.2689999999999;-85.65641548551295
975.1536666666667;-85.82744593421171
975.8830000000002;-85.47073494598207
976.6239999999999;-85.30782533348744
977.2869999999999;-85.85913792189817
978.3606666666666;-86.18194709439894
979.3669999999998;-85.85923591919908
980.0526666666666;-86.06165330507007
980.628;-85.69650428354751
981.9433333333333;-85.44547776323446
983.2479999999999;-85.3295001677353
983.8006666666666;-85.06427604617755
984.4753333333333;-86.00932010726812
985.3159999999999;-86.42377368563918
986.0790000000001;-85.86310584648515
986.7983333333333;-86.07628160859245
987.5603333333333;-85.9763103926547
988.433;-85.07788476915218
989.206;-84.62650948391853
989.8579999999998;-84.45879475071345
991.4833333333332;-84.89057967119527
992.5773333333333;-83.86974654975481
993.4176666666667;-84.4591475518816
994.4903333333333;-85.02654756983543
995.143;-85.09108749256687
995.8826666666668;-85.05887798843564
996.6990000000001;-84.6394425751394
997.4056666666667;-84.8484494856173
998.0896666666667;-85.27073137573915
998.5533333333334;-85.64582237558422
999.1709999999999;-85.76500591200846
1000.1203333333333;-85.91793351000359
1000.784;-85.45889063775546
1001.4140000000001;-85.39550985410997
1001.8343333333332;-85.22971915227437
1002.9513333333333;-85.65160474095609
1003.5593333333333;-85.57787149478595
1004.2779999999999;-85.61952270474882
1005.0946666666665;-85.05733706289423
1005.8686666666666;-84.90608357446045
1006.3446666666667;-85.25494565541901
1006.8090000000001;-85.458610556756
1007.406;-85.0320560839911
1008.0353333333333;-85.2553795923758
1008.6759999999999;-85.75265094089558
1009.3713333333334;-85.15258089934889
1010.2556666666666;-85.7846594420021
1011.063;-85.37483882756135
1011.7923333333334;-84.68852440413437
1012.9983333333333;-84.75781020961354
1013.9830000000001;-85.44836589169036
1014.701;-85.64959757404445
1015.5413333333332;-85.92403416490387
1016.3156666666667;-85.81897864102699
1017.2220000000001;-85.51040182119095
1017.7420000000001;-85.2495066701435
1018.538;-85.32800280166764
1019.091;-85.34641491325857
1019.9200000000001;-85.97451862139691
1020.7033333333333;-85.46389770342444
1021.3766666666667;-85.25345725756435
1022.4580000000001;-85.47262684242246
1023.0763333333333;-86.39632233406175
1023.7933333333334;-85.12215995187871
1024.3343333333332;-84.87155770297356
1025.1733333333334;-84.60386664329927
1025.8686666666665;-85.12815110505292
1026.8086666666668;-85.19501406641716
1028.025;-85.80949595852917
1028.8536666666669;-85.08411595592712
1029.55;-85.27892759335428
1030.6666666666667;-85.55914661537754
1032.1806666666666;-85.75664609610104
1033.9143333333334;-85.51971681044343
1036.388;-85.5306725530236
1037.0836666666667;-84.68619912762375
1037.6796666666667;-84.8338242956087
1038.0986666666668;-85.4990759317504
1038.6396666666667;-85.93793862424701
1039.1696666666667;-85.4462190901291
1039.9756666666665;-85.26341737287508
1040.749;-85.23213138503144
1041.368;-85.65417587410884
1042.3526666666667;-85.12224902809284
1043.0483333333334;-85.52633968626886
1043.6453333333334;-85.30387782006409
1044.2643333333333;-85.41537749750825
1046.4003333333333;-85.2696689497539
1047.9243333333334;-85.77927828046248
1048.433;-85.40838858730172
1048.809;-85.24468114410404
1049.207;-85.30447776885201
1049.8376666666666;-85.90922355299737
1050.5343333333333;-85.78612031716509
1052.482;-85.20545093669564
1053.3113333333333;-85.743430988548
1054.0403333333334;-85.35092518278859
1054.8923333333335;-84.9479916697657
1055.4563333333333;-86.02790176406107
1055.954;-85.52487378501338
1056.6513333333335;-85.26995149436138
1057.99;-84.44455411816305
1059.262;-85.08251027723557
1059.9470000000001;-85.36414259946937
1060.6433333333334;-85.2903377493731
1061.4163333333333;-86.09249264717812
1062.0233333333333;-85.29511091432094
1062.6413333333333;-85.92183760896856
1063.2703333333332;-85.6697574520466
1063.789;-84.63656932873012
1064.3296666666665;-85.44264204872046
1064.7273333333333;-85.54074296099061
1065.3123333333333;-85.61525142202038
1066.0076666666666;-85.42663581217631
1066.6033333333335;-85.57040160811822
1067.4096666666667;-85.3102752517073
1068.1606666666667;-85.07784826206003
1069.001;-85.1050403732965
1069.576;-85.26885780808166
1070.129;-85.37816820257066
1070.9806666666666;-85.17082143650198
1071.8429999999998;-85.75165812526757
1072.7830000000001;-85.57349969023119
1073.5573333333334;-85.49434569404438
1074.2543333333335;-84.70336555677171
1075.603;-84.92007326153374
1076.3763333333334;-84.0463910188043
1076.6753333333334;-85.33642679443821
1077.2726666666667;-86.51796624117274
1077.9136666666666;-86.45616337059724
1078.4446666666665;-86.3179507172382
1079.1413333333333;-86.71680932867022
1079.6833333333334;-86.95295293259082
1080.0813333333335;-86.45284928482576
1080.612;-86.07430826852462
1081.1866666666665;-86.1798185146697
1081.9166666666667;-86.27058273686343
1082.8010000000002;-86.5113917866947
1083.4313333333332;-87.06026967204807
1084.0173333333335;-86.25310693848002
1084.6033333333335;-86.09113514691805
1085.234;-86.35625685429478
1085.6536666666668;-86.38865631292296
1086.1953333333333;-86.46000280066471
1087.2243333333333;-87.07792418987886
1089.259;-86.08889334175987
1090.066;-86.33542242102281
1090.4196666666667;-86.1616157535254
1090.8733333333332;-85.7987897444352
1091.4373333333333;-86.06494485460463
1092.0233333333335;-86.30731728635347
1092.82;-86.66295426363814
1093.461;-85.79915248260248
1094.5556666666666;-85.77515852444506
1095.5736666666664;-85.7131641313919
1096.2373333333335;-86.82939224324238
1097.089;-86.44448475744467
1097.7293333333334;-86.21609001509604
1099.045;-85.69416747745532
1099.7643333333333;-85.43210887104163
1100.461;-86.32521324715024
1101.036;-86.12064070116884
1102.2963333333335;-85.55043355961058
1104.254;-85.82473942714802
1105.238;-86.04791450020213
1105.7803333333334;-86.59325793862402
1106.245;-86.00835966842166
1106.7206666666668;-86.09347301967831
1107.141;-86.65286522906402
1107.9806666666666;-86.20752259308055
1109.8163333333334;-85.97172655774966
1110.4800000000002;-86.4348400601492
1111.0553333333335;-86.84527102208507
1111.7740000000001;-87.14930215196026
1112.483;-85.57508610839825
1113.1576666666667;-85.48838031687022
1113.4673333333333;-86.45131654427774
1115.0040000000001;-87.17341395371612
1116.8613333333335;-86.46011485415676
1119.5710000000001;-85.83586704482305
1120.5886666666668;-85.99687832318897
1121.2523333333334;-85.2857936866282
1121.9486666666664;-85.68951795550358
1122.6779999999999;-85.70287206800874
1123.486;-86.19827784645595
1124.8906666666667;-86.61473505831388
1125.455;-86.37263899839795
1126.0073333333335;-86.9705789637608
1127.0583333333334;-86.45243223464655
1128.2086666666667;-87.1189143603211
1129.2699999999998;-86.56648883185207
1130.7413333333334;-86.83036699963213
1131.427;-86.28555383611106
1132.1233333333332;-86.42085824969027
1136.4053333333334;-86.65476472812486
1136.87;-86.48978588620304
1137.3126666666667;-86.71620514633358
1138.1206666666667;-86.25899667006045
1138.8286666666665;-86.4281323228283
1139.4483333333335;-86.48563039907276
1140.0236666666667;-86.08621520683222
1141.1193333333333;-86.17449098086192
1141.972;-86.75709317868446
1143.2549999999999;-86.6287888220758
1144.0623333333333;-86.56848335680563
1144.7923333333335;-86.43103589702785
1145.533;-86.25032992436978
1146.7389999999998;-85.87783211209045
1147.6016666666667;-86.13454913948087
1148.265;-85.781172834525
1149.028;-86.01287042478283
1149.4156666666668;-86.16006018791501
1150.0353333333333;-85.80339484470328
1151.097;-86.45136989347715
1151.7376666666669;-86.60606142905719
1152.5116666666665;-86.73283929868833
1153.629;-86.55678154151528
1154.2596666666668;-86.45281583099073
1154.89;-85.60416692961638
1156.15;-86.47342794584125
1157.0240000000001;-86.55172466240198
1157.831;-86.26060093310213
1158.6053333333334;-85.95339949426092
1159.081;-86.61269023619533
1159.5126666666667;-86.06533579398962
1160.3646666666666;-86.60498248402054
1161.117;-85.97984164181746
1162.0020000000002;-86.38134417803028
1162.666;-86.2899084926143
1163.5736666666664;-87.00957738771402
1164.8010000000002;-86.95029915863107
1165.7403333333334;-86.40039229969838
1166.4143333333334;-85.88978766634224
1167.0006666666666;-86.97737110808421
1167.7083333333333;-86.9130876696923
1168.6270000000002;-86.36102254936004
1169.302;-86.56843617206576
1169.811;-86.5113377616976
1170.9283333333333;-86.19773888150621
1172.433;-87.08943123176041
1173.074;-86.07607324052621
1173.704;-86.38116490284887
1174.3563333333332;-86.64249346190788
1175.186;-86.25422221735353
1176.026;-86.29657323673949
1176.645;-86.12111967777625
1177.164;-86.01069475595487
1178.1589999999999;-85.8773074968457
1179.077;-87.05998399308227
1179.8063333333332;-87.81000855721729
1181.1889999999999;-87.04606092129883
1182.1843333333334;-86.32606667344376
1183.5336666666667;-86.71092623972817
1184.6066666666668;-86.26243909377465
1185.3363333333334;-86.83487645559086
1185.8783333333333;-86.7213590154987
1186.4636666666668;-87.15427361675057
1187.2916666666667;-86.80120505861623
1188.6946666666665;-86.92092813038201
1189.1359999999997;-86.80132569167827
1189.6543333333334;-86.71764084290442
1190.4153333333334;-86.91315592575671
1190.934;-87.4696482097591
1191.5296666666666;-87.68262744653879
1191.9823333333334;-87.65188342094535
1192.7103333333332;-87.40093606620927
1193.24;-87.54752209411701
1194.0893333333333;-87.80026116697465
1194.7733333333333;-86.69468637780457
1195.8770000000002;-86.67670777441506
1196.6603333333333;-86.4915360138345
1197.3443333333332;-86.5800582709618
1197.8963333333331;-86.75587904568053
1198.5583333333334;-86.93201619574943
1199.143;-87.1320446964512
1199.9930000000002;-87.09134932598428
1201.0076666666666;-86.48258131216772
1201.9123333333332;-87.461290131285
1202.41;-86.50150025538639
1203.051333333333;-86.67896747537648
1203.7476666666666;-86.95373233205439
1204.5776666666668;-86.99158809009461
1205.352;-87.35838565265698
1206.1153333333332;-87.41841913384042
1206.8006666666668;-86.76675290858229
1207.3423333333333;-87.1647675467233
1208.039;-88.0950760851507
1208.6136666666664;-87.55697824302374
1208.9116666666666;-87.18970711090967
1209.3100000000002;-86.96995180074337
1209.763;-86.00397368659489
1210.3936666666668;-86.03705866916401
1210.88;-86.34518396444366
1211.6209999999999;-86.53028252450089
1212.1736666666668;-87.67228932423635
1213.036;-86.57108878814634
1213.4560000000001;-86.01701725141248
1213.943;-87.00320762223726
1214.6836666666666;-87.21091334265749
1216.0443333333333;-86.70437507234983
1217.084;-86.80089666558354
1217.7583333333334;-87.03485919185084
1218.2453333333333;-86.59312470980093
1219.1516666666666;-86.25306783952604
1219.5276666666666;-86.65354008188328
1220.2466666666667;-87.18811773738244
1220.8653333333334;-87.24519402318842
1221.496;-87.2613604667078
1222.0603333333333;-85.49685029867607
1222.6136666666669;-86.29232129279255
1223.5876666666666;-85.89146395609461
1224.2623333333333;-85.26858607305292
1225.678;-85.666628974156
1226.7066666666667;-85.96541598074866
1227.348;-87.21486209368689
1227.8783333333333;-86.87566105517618
1228.5966666666666;-87.10111466410132
1229.2603333333334;-86.94546412490784
1229.6913333333334;-86.73878977062469
1230.3216666666667;-87.4605226586317
1230.941;-87.49882362092997
1231.5376666666668;-87.4433327254787
1232.3446666666666;-86.70489858170362
1233.229;-87.39246367348498
1234.5240000000001;-86.73145309321751
1235.11;-86.48659061301107
1235.4973333333335;-86.86831615374692
1236.1496666666667;-87.09761181204274
1237.6326666666666;-87.99607515652859
1238.8833333333334;-88.28565736742355
1239.58;-87.33110828661982
1240.3100000000002;-86.68518027277705
1241.2283333333335;-86.73504193852509
1242.08;-87.37319376482088
1242.7883333333332;-86.39019165140799
1243.5516666666665;-85.56427339447819
1244.6576666666667;-85.74101067505629
1245.432;-85.73190908349797
1246.073;-86.86552889631972
1247.2236666666668;-85.89370611815792
1248.3853333333334;-86.64973900662183
1249.038;-86.86349560573602
1249.5576666666668;-86.73789430858582
1249.9669999999999;-86.13371398055077
1250.4646666666667;-86.57478285781175
1251.3493333333333;-86.3089201437221
1252.09;-86.06259655137453
1252.721;-86.16909253480561
1253.352;-85.85682315350215
1253.9936666666665;-86.60401336809213
1254.768;-86.77543466513612
1255.5643333333335;-86.63535459098244
1256.2836666666665;-87.24339859002245
1256.671;-86.95639207310697
1257.1356666666668;-87.24451628917069
1258.0866666666666;-86.47187829923998
1259.1926666666666;-86.24249604261783
1260.2103333333332;-86.87969789848644
1260.8073333333334;-86.84965010416596
1261.305;-86.49166961207702
1262.112;-86.25314992199856
1262.665;-86.80657270512253
1263.7816666666668;-86.13418177315441
1264.5116666666665;-86.00288590576957
1265.0539999999999;-86.17883233229358
1265.607;-86.94927300235138
1267.0223333333333;-86.62456627120156
1267.9406666666666;-86.46196284716191
1268.4383333333333;-86.75982056499387
1269.256666666667;-87.06128591396501
1271.6683333333333;-86.46472401601568
1272.3210000000001;-86.57941559034774
1273.0616666666667;-85.39373367396557
1273.648;-84.80975637349397
1274.699;-86.45575468882441
1275.4293333333335;-86.48894549184615
1276.1593333333333;-85.86205966397529
1276.6899999999998;-85.9481308282036
1277.4203333333335;-85.74330830963203
1278.405;-86.55534524731277
1279.1793333333335;-86.81819036475366
1280.1423333333332;-86.81078211605498
1281.492;-86.94101449026361
1282.963;-85.97906239375011
1283.494;-86.6038805024942
1284.113;-85.79632132232868
1284.743333333333;-85.64455575861311
1285.3406666666667;-86.45796570287249
1285.894;-85.9006586399442
1286.4253333333334;-86.74777991895668
1287.2883333333332;-86.36397144026884
1288.018;-86.0277291186893
1288.615;-86.98127604614567
1289.0686666666668;-86.99273089470492
1289.832;-86.82438231877879
1290.4399999999998;-85.92031343915912
1290.9263333333336;-85.75054877250574
1291.8006666666668;-86.96897106518693
1292.8743333333334;-86.83132705185858
1294.1913333333334;-87.30825684336924
1294.8886666666665;-85.9306392338834
1295.7403333333332;-86.17275194973132
1296.8029999999999;-86.47646453604646
1297.5886666666665;-86.17588382153436
1298.5286666666668;-86.49693772902009
1299.115;-86.17408074664499
1299.8006666666668;-86.07992673935794
1300.4643333333333;-85.83077102750879
1301.0283333333334;-86.14312232255735
1302.3563333333334;-86.59353677374774
1303.7403333333334;-86.21827315047133
1304.758;-85.5772257813674
1305.533;-86.48422962923365
1306.252;-87.18986522582664
1306.9596666666666;-86.0078657574176
1307.966666666667;-87.36848126140633
1308.6083333333333;-87.32088685355379
1309.161;-88.11315154885948
1309.548;-87.86298597712798
1310.2783333333334;-86.42183277766804
1311.927;-86.97983021546455
1314.1406666666667;-86.60249395652741
1315.28;-87.0421060376463
1315.7666666666667;-86.99333349592625
1316.994;-87.55187832776377
1318.045;-87.13797797903214
1318.7413333333334;-87.3352348563407
1319.9256666666668;-86.49993120156395
1320.5226666666667;-86.56507007085847
1321.6066666666668;-87.2692474182712
1322.2479999999998;-87.9657456929531
1322.867;-87.29336797974696
1324.405;-86.52584923284915
1325.268;-86.54985723985915
1325.8546666666668;-86.34527166896606
1327.1046666666668;-86.1090193077057
1327.9346666666668;-87.0550405016236
1328.92;-87.52256885445118
1329.6386666666665;-86.67302658568029
1330.4793333333334;-86.3680326453844
1331.198;-86.12844223767719
1331.9056666666665;-86.48278806409103
1332.7790000000002;-85.97985282578834
1333.3316666666667;-85.91519311749641
1334.0726666666667;-86.35039929350351
1334.4486666666664;-86.54283859185998
1335.2459999999999;-87.6561213839233
1336.6176666666668;-86.21307183466806
1337.6243333333334;-86.63795684901459
1338.4323333333334;-86.48013711295029
1339.827;-87.12697185731987
1340.723;-86.82764954524924
1341.874;-86.83118055455611
1342.9473333333333;-87.04882678869397
1343.8653333333332;-86.87043195776577
1344.562;-87.50627420027888
1345.193;-87.69875819856989
1345.8226666666667;-87.12642609648215
1346.7073333333333;-86.72916141493197
1347.5476666666666;-86.66250165001935
1348.3216666666665;-86.79839186944679
1349.062;-85.78226172368748
1349.759;-85.61955480678816
1350.434;-85.87525713352466
1350.8210000000001;-85.95749510351625
1351.3743333333334;-86.32695125859092
1352.116;-86.77875717050578
1352.6023333333333;-86.52842416358658
1353.1776666666667;-86.71462317202473
1353.9636666666668;-87.00506344998645
1354.7269999999999;-86.23449438013844
1355.2473333333335;-86.58745136247512
1355.8886666666667;-86.64745373866931
1356.2540000000001;-86.23514085711504
1356.8509999999999;-85.96178181954204
1357.9566666666667;-85.37539952373889
1358.521;-85.72115496392915
1359.085;-86.24894399150789
1359.439;-86.1482603937445
1360.1133333333335;-86.41779639608342
1360.9426666666666;-86.76741274604561
1361.9276666666667;-86.46969515703225
1363.023;-86.46448546413716
1363.8193333333331;-86.87541424374571
1364.45;-85.51893075649292
1365.081;-86.07237292319373
1365.9219999999998;-86.58218956853125
1366.8963333333331;-86.24965297515962
1367.9033333333334;-87.17716833557667
1368.954;-87.81048194949891
1370.326;-88.27634173630611
1370.9889999999998;-86.9512819584487
1371.6966666666667;-86.31571442762939
1372.3493333333336;-85.85420645421456
1373.7093333333332;-87.37986624596624
1374.7273333333333;-86.93996866493019
1375.1696666666667;-86.49510801916698
1376.2866666666666;-86.42944905240068
1377.5486666666666;-85.50661583280773
1378.478;-86.55239490723919
1379.4403333333332;-86.2295569753658
1380.6903333333332;-85.24053078625514
1381.4203333333335;-84.91204857614778
1382.095;-85.71648652455137
1383.1126666666667;-85.90542347177166
1384.2849999999999;-87.6728084407062
1385.0476666666666;-87.09225036231679
1386.3190000000002;-86.45128147787007
1387.3146666666664;-85.24611617683564
1388.0223333333333;-86.46734511871637
1389.3609999999999;-85.70253377215559
1390.124;-85.72339620297281
1390.765;-86.58832398620751
1391.3400000000001;-86.30247852904766
1392.1593333333333;-86.14328985494862
1393.2883333333332;-86.09054984147103
1394.5713333333333;-86.54451456721578
1395.1686666666667;-85.3784903981655
1396.1973333333333;-86.54184293181825
1397.1933333333334;-85.20582810243532
1397.9566666666667;-85.3862584568505
1398.6866666666665;-85.8098227858139
1399.218;-86.61562675101368
1399.7489999999998;-86.21146045056145
1400.4683333333332;-86.42909844000576
1401.3093333333334;-86.44067158031271
1402.0056666666667;-86.27123248584664
1402.8460000000002;-86.73134472393065
1403.5649999999998;-86.35140261171124
1404.826;-87.3706622322112
1406.573666666667;-86.90097452680317
1407.7463333333333;-85.53922503905449
1408.6313333333335;-86.51405085607414
1409.571;-86.79357091200941
1410.5663333333334;-86.6863315064001
1411.7273333333333;-86.7327991373935
1412.9883333333335;-85.63924594247412
1413.4086666666665;-85.87814498706527
1414.2830000000001;-87.16594738400667
1415.0346666666667;-87.43517750981616
1415.488;-86.53084173385054
1416.107;-85.68262397376951
1416.7373333333335;-85.83056730721204
1417.4346666666668;-85.66777731337653
1418.2316666666666;-85.14394134452029
1419.084;-84.65363725489256
1419.7803333333334;-84.71069547876266
1420.7643333333333;-84.31319483933547
1421.649666666667;-85.4966189252228
1423.598;-85.89669775889247
1426.3756666666668;-85.79629978615728
1427.7246666666667;-85.11410056757987
1428.4213333333335;-86.080113121135
1428.985;-85.65035061465268
1429.7036666666665;-87.0616291480969
1430.4996666666666;-85.75282089291917
1431.1299999999999;-84.92348341621621
1431.9043333333332;-85.30080761893298
1432.8223333333333;-86.28133069047908
1433.84;-85.7895564456784
1434.5036666666667;-86.28090147747434
1435.1556666666668;-85.70296364637404
1435.8526666666667;-86.38403167919566
1436.472;-86.32742390798671
1437.2353333333333;-85.00047127131691
1438.5070000000003;-86.1609279056445
1439.7683333333332;-85.84145729516668
1442.036;-85.57520385619
1442.6440000000002;-85.83038378972137
1444.4563333333333;-84.92341366189171
1445.441;-86.2339187375936
1446.0053333333333;-85.85395485771895
1446.8460000000002;-85.53445443073737
1447.631;-84.99993906146415
1448.2616666666665;-84.5100272842988
1448.9693333333335;-85.53639417930313
1451.137;-85.61817056235382
1452.055333333333;-86.23330228931246
1453.0726666666667;-86.90037873400142
1453.847;-86.31925736914458
1454.3116666666665;-85.76165607060742
1454.7873333333334;-86.13949605991864
1455.7716666666668;-86.56909420689186
1456.2133333333334;-86.09743810069071
1456.9650000000001;-85.71602595568626
1457.9816666666666;-85.26645735607414
1459.031;-85.46158528512682
1460.1136666666669;-85.9318649723296
1462.5883333333334;-85.3661331216309
1464.5893333333333;-84.6580166995935
1465.8273333333334;-85.32682026895974
1467.1536666666668;-85.12411150414285
1469.5633333333335;-85.94178328834295
1471.9966666666667;-86.79119280754679
1473.1253333333334;-85.96764153772864
1474.2533333333333;-86.30655636152072
1474.961;-86.5032786331544
1476.4423333333332;-85.92726569051169
1477.4703333333334;-85.29814266924984
1478.3986666666667;-85.06584576057544
1479.4039999999998;-86.62401201773277
1480.012;-86.01829690205827
1481.5380000000002;-86.08731785268989
1482.445;-85.3123592804736
1483.043;-87.07146458434303
1483.4963333333335;-86.66542080324783
1484.447666666667;-85.93026407154818
1485.6086666666667;-85.22893274255502
1486.4930000000002;-86.69772092651823
1487.0226666666667;-86.19699520542736
1487.4093333333333;-85.83517117899513
1487.8616666666667;-85.01414402141268
1488.38;-84.85876582814964
1493.8613333333333;-86.32353462916466
1497.0559999999998;-86.23037455781531
1497.6410000000003;-85.7639649402739
1498.8776666666665;-85.4574762292651
1500.2036666666665;-85.52614222478579
1500.756;-85.92661651800847
1501.33;-85.89568778249091
1501.9826666666668;-85.51775131173638
1502.579;-85.98890903238262
1503.6723333333332;-86.91375434960837
1504.357;-85.04558932947567
1505.2306666666666;-86.48303007006707
1506.2596666666668;-86.35408014012958
1506.7570000000003;-86.37395140463124
1507.188;-86.32189512755461
1509.0796666666665;-86.47102602086134
1509.7213333333332;-86.87980998213251
1510.3409999999997;-86.49330796026447
1512.5960000000002;-87.08652222805057
1514.0006666666666;-85.95120265882012
1514.786;-85.67705483184311
1515.2839999999999;-86.35972239168113
1515.881;-86.46735200666808
1517.0083333333332;-86.02364202549113
1517.9923333333334;-86.80494258017241
1519.2966666666669;-86.39235893360436
1519.883;-86.84330816533395
1520.5796666666665;-86.42089773537866
1521.8886666666667;-85.95660086596035
1522.5856666666668;-86.68037409151133
1523.603;-85.32975552224076
