54.734;-84.44897876844917
55.75133333333334;-83.04065954750345
56.757000000000005;-83.91387849230317
57.354000000000006;-83.08766909835161
58.13833333333333;-84.89813411715784
59.321333333333335;-85.02496307175298
60.62533333333334;-88.82834432028167
61.454;-88.45065301135028
62.16133333333334;-87.7679343086228
63.730333333333334;-87.61316023250063
64.31533333333333;-86.49579630393191
64.78000000000002;-87.65921771837723
65.38766666666668;-87.19867285307882
66.62466666666667;-88.06851034215403
67.365;-90.45733259210441
68.128;-88.23986457765903
68.65866666666666;-88.2697359768772
69.134;-88.10142059345452
69.85266666666666;-87.02154181769004
70.61533333333334;-87.52034888280862
71.21166666666666;-88.4373887860825
71.93066666666667;-87.48722105063699
72.68233333333333;-87.78028636831336
73.52166666666666;-88.91841137060251
74.11866666666667;-88.34953113402358
74.69333333333333;-88.5169783079285
75.19099999999999;-88.09334563469564
75.78699999999999;-87.45084973427538
76.54966666666667;-87.08314853455632
77.157;-89.38868837533035
77.96366666666667;-89.83020072250554
78.72699999999999;-87.696076731848
79.57833333333333;-88.05866629745611
80.27499999999999;-87.54831815182575
80.88333333333334;-88.317146676097
81.29233333333333;-87.58109995834957
81.82300000000001;-86.47341434419498
82.41966666666666;-87.24559795390556
82.96199999999999;-87.26063877832794
83.75800000000001;-86.75376799639879
84.64233333333334;-87.25216411914053
85.04033333333332;-88.88333256995668
85.46033333333332;-87.82819506496031
86.22266666666667;-85.76860976509853
86.80866666666667;-86.8062451568885
87.27300000000001;-87.0669000052786
87.95866666666666;-87.66908712379924
88.72166666666665;-86.53374441403965
89.57266666666668;-86.85968847494279
90.09199999999998;-86.93698022304768
90.60033333333332;-85.77770479786457
90.97633333333333;-86.11833454604901
91.474;-87.30467707722406
92.01533333333334;-88.49395489600384
92.82266666666665;-88.22242075977319
93.43066666666665;-88.76317575353833
94.14933333333333;-88.93919074921477
95.02300000000001;-87.99326221200188
95.43200000000002;-87.99435484587377
96.37066666666665;-88.79661188442876
97.266;-90.18702000932623
98.22800000000001;-88.24454815684376
98.64766666666668;-87.10411323391739
99.3;-88.67022285810188
99.79766666666667;-88.67199240985452
100.34966666666666;-87.52798984429997
101.15633333333335;-88.90929291361289
101.98433333333332;-87.92433860335221
103.34533333333333;-85.55294854003938
104.70533333333333;-87.01058916718242
105.51233333333333;-88.59962012096649
106.07600000000001;-88.33568740457841
107.015;-86.06630458245087
107.67866666666667;-88.73239318679043
108.45333333333333;-89.17382822686147
109.71366666666665;-88.71518269810417
110.29966666666667;-89.25866158442253
110.99666666666667;-89.9973772958602
111.62700000000001;-88.48621714626276
112.05766666666666;-88.75156140026276
112.52199999999999;-88.89328302016769
112.92033333333332;-90.05380449890633
113.584;-88.97039674391682
115.05466666666666;-90.73964021587791
115.70666666666666;-87.41761126072804
116.19333333333333;-88.60127976321296
116.55799999999999;-89.2974305363819
116.98966666666666;-87.29604762669967
117.71866666666666;-88.16208987167278
118.21633333333334;-88.2831789653829
119.01133333333333;-89.64761603853532
120.005;-87.29589751359708
120.613;-87.95195531286242
120.96666666666665;-88.39796744509998
121.65266666666666;-87.63091895130317
122.67033333333335;-86.41893863812302
123.60966666666667;-86.91273618940828
124.26100000000001;-87.54620890845725
124.69233333333334;-88.22537891176366
125.41133333333335;-88.51379646406521
126.21866666666666;-88.93720916556012
126.97033333333333;-89.32094514695713
127.55533333333334;-87.72255693438753
128.694;-90.14180726392688
129.46766666666667;-90.13749461286353
129.99800000000002;-88.37261463241704
130.57266666666666;-88.89861193307293
130.89266666666666;-88.96536812220148
131.39;-88.84159755399034
131.99800000000002;-87.57720435764229
132.451;-87.62182355643678
133.037;-89.4889911460634
133.63366666666664;-88.80202525949736
134.20833333333334;-89.28509462349899
134.94933333333333;-88.21616985154064
135.6676666666667;-87.77846819593022
136.27599999999998;-86.62182912716551
136.9723333333333;-86.78068922355689
137.47;-87.40204169024068
138.155;-88.29718336854827
138.96200000000002;-88.32329906028964
139.99;-88.11887697805045
140.576;-87.30657644742735
141.096;-89.66413750343716
141.52700000000002;-86.87031376710911
141.89166666666665;-87.32483446849066
142.23466666666667;-87.57625224942288
142.69933333333333;-87.41673424062775
143.485;-87.93163785489267
144.08166666666668;-87.46083045620617
144.44666666666663;-87.7738998634581
145.23133333333334;-85.95831653230366
145.751;-89.2824673447972
146.45866666666666;-89.85728167171635
147.13266666666667;-89.71491780812634
147.79566666666668;-88.33222361128749
148.34766666666667;-88.25827469747232
149.2313333333333;-86.91540022310262
150.28099999999998;-86.26246978498276
151.42933333333335;-86.1383491101616
152.36766666666668;-89.79455209597617
153.41666666666666;-87.84876671791011
153.892;-89.0544365009886
154.34500000000003;-87.43412191944235
154.94166666666666;-88.74715896681164
155.605;-89.18360699880832
156.09133333333332;-87.9946129073823
156.75433333333334;-87.8907187893832
157.20700000000002;-87.98918182305721
157.60466666666667;-88.23120997400494
157.94766666666666;-88.2089433623291
158.39000000000001;-87.48207156466502
158.88733333333334;-89.83036251036361
159.96;-88.55690430470514
160.70033333333333;-86.82097921828223
161.054;-87.63698782269543
161.562;-87.15059177060174
162.53466666666668;-86.89920909867939
163.441;-87.146956188345
164.29166666666666;-87.89251118538907
164.96599999999998;-89.15411525024382
165.475;-88.35006017637554
166.116;-88.1700011911498
166.66833333333332;-88.47936955936264
167.15433333333337;-89.32047734255221
167.75166666666667;-89.32807419948928
168.31566666666666;-88.26505241772497
169.36599999999999;-89.46533629962161
170.228;-88.88629907984603
170.703;-89.08395864690637
171.03433333333336;-89.67549476037128
171.68666666666664;-88.84444661324456
172.726;-87.50131870152103
173.489;-86.05718950175802
174.218;-87.57224701063909
174.64866666666663;-88.29472904137678
175.17933333333335;-88.7256060638504
175.99699999999999;-88.94235226819058
176.53833333333333;-89.1556024636287
176.88133333333334;-88.79857776450146
177.29066666666665;-87.70541535322828
178.03166666666667;-88.28131462840642
178.79466666666667;-89.83614437897108
179.811;-87.51383536934333
180.55166666666665;-89.04511718337507
180.94899999999998;-88.30930882393811
181.62333333333333;-91.12527231639723
182.37466666666668;-88.91854782217952
182.89433333333332;-86.23510481899288
183.69066666666666;-87.93310468544236
184.17666666666665;-89.37156482508531
184.82900000000004;-91.41294115210684
185.56866666666667;-89.9147052112827
186.375;-87.54551686057768
186.90533333333335;-88.86422747479784
187.54600000000002;-89.62512572870543
188.165;-88.43800523538054
188.92766666666662;-86.71168101421499
189.58033333333333;-86.8874347092645
190.0773333333333;-86.95061709165596
190.49733333333333;-87.39124737556808
190.89466666666667;-86.52760795395587
191.33633333333333;-87.9841719325705
191.68999999999997;-88.7948049508731
192.40866666666668;-90.42621509037916
193.09333333333333;-89.32602708176034
194.35233333333335;-88.41156197856574
195.346;-88.48261284846633
196.20733333333337;-87.08310988480693
197.245;-86.80876111599586
198.17333333333332;-89.36726093409237
198.947;-89.09553103077624
199.57666666666668;-86.85444297950076
200.52599999999998;-86.48974895046774
201.28733333333332;-86.8143067305565
201.97166666666666;-86.7691218619288
202.71099999999998;-88.98318214951863
204.01500000000001;-88.04013743596235
204.80033333333336;-88.13131304859978
205.96033333333332;-88.12683325459226
206.524;-89.18603420252613
207.14266666666666;-88.25353760068644
207.48533333333333;-87.84535669603093
208.39166666666665;-87.40385092088519
209.05499999999998;-88.27508984750847
209.48566666666667;-88.36092463950872
210.08266666666668;-87.77355030991147
210.80133333333333;-88.04786200522614
211.67533333333336;-88.29434443051028
212.869;-89.09203179469618
213.798;-88.99234261664576
214.57233333333332;-89.71615455707696
215.18033333333332;-89.67739410749756
216.218;-88.4944616966031
216.98066666666668;-89.52194517570118
217.423;-88.25334398336403
217.8646666666667;-88.25952028648739
218.43966666666665;-88.33879149760021
218.936;-87.36926542889906
219.64333333333332;-88.36177984553602
220.40633333333335;-88.02223229982707
220.92600000000002;-88.22720905010127
221.46733333333336;-88.50519116711692
222.1963333333333;-87.66122637553597
223.203;-88.59608245623122
223.94366666666667;-89.17913919847292
224.806;-89.24674594718842
225.34800000000004;-88.30674512241063
225.91166666666666;-88.71241600457135
226.44266666666667;-88.1879402378502
227.11733333333336;-87.60745922110655
228.14433333333332;-88.20119231024768
228.86300000000003;-88.07828190781869
229.88066666666666;-87.91992030432996
230.665;-89.14196496257902
231.11800000000002;-88.52872127325104
231.5713333333333;-88.17763827478468
232.04666666666665;-86.96579858920416
232.588;-87.3367073043061
233.08533333333335;-89.36341968535672
234.05733333333333;-88.2572183188831
235.05166666666665;-86.8107400296997
235.63733333333334;-87.82784329845194
236.31199999999998;-88.08236745684135
236.886;-88.99408509254606
237.33933333333334;-88.07187766850284
237.8803333333333;-88.55105919517604
238.78666666666666;-87.34658091888875
239.61566666666667;-89.74330638536055
240.25666666666666;-88.1555725057496
241.14133333333336;-87.0233699766467
241.69366666666664;-89.74047483792364
242.08066666666664;-88.7369412442896
242.87633333333335;-89.74364326797557
243.55033333333333;-87.7112251727775
244.7123333333333;-88.14632204225667
245.65233333333333;-87.59146659895988
246.32666666666668;-88.92644489041353
247.00066666666666;-87.82279067147569
248.06166666666664;-89.37974533726091
248.92399999999998;-88.8286880611957
249.48766666666666;-88.98966383986728
250.13933333333333;-88.40818491763837
251.00133333333335;-87.21902121494907
251.50966666666667;-88.8929146216796
252.029;-88.40617502849656
252.537;-88.25841016381239
253.178;-88.83427296255189
254.04066666666665;-89.56599802547288
255.047;-87.01838280712342
255.47766666666666;-87.85059815443101
256.48199999999997;-88.48617576602675
257.002;-87.80840470977512
257.6103333333333;-88.46854270702973
258.27400000000006;-89.19615800170718
258.7486666666667;-88.31184984136476
259.74333333333334;-89.77874628879093
260.484;-88.55439894858611
261.0813333333333;-88.91871247986691
263.05966666666666;-89.694594542046
264.29766666666666;-88.9281834800827
264.95;-88.15129427456355
265.55766666666665;-89.12380790520905
266.188;-87.42003878774733
266.7076666666667;-87.87372115493775
267.404;-88.29698390143658
267.9676666666666;-87.78525616259809
268.377;-88.35717892797163
269.007;-89.0962818168759
269.892;-88.4024068484964
270.4993333333333;-89.36210216457259
271.5606666666667;-87.6357780778319
272.42233333333337;-87.45252637488313
272.9533333333333;-87.44678636033996
274.07933333333335;-87.80007298212558
274.84133333333335;-87.19467887979467
275.449;-88.5171356571199
276.31166666666667;-88.1459164028157
277.1513333333333;-88.87372722907888
311.3763333333333;-88.6998269191389
329.124;-87.59455847422709
329.82099999999997;-87.04167465754637
330.2853333333333;-87.92686544207486
331.026;-84.99772111270758
331.5013333333333;-85.1266691857316
331.95366666666666;-85.6642703271304
332.6173333333333;-88.67587630260455
334.25399999999996;-87.76493639337868
335.43666666666667;-90.8369253390636
336.41;-90.02177338012109
337.60366666666664;-88.77098708073231
338.5433333333333;-86.21326428255924
339.439;-85.41999813004233
340.06966666666665;-86.28693543136359
340.37899999999996;-86.78141982126651
343.5396666666666;-86.25331701050013
345.0533333333333;-88.46458904435055
347.07700000000006;-89.6965615018947
349.531;-89.14177994729931
350.42699999999996;-85.87826232217155
351.2563333333333;-86.18522397870058
352.19666666666666;-88.85345839615455
353.15866666666665;-86.94553340240842
353.9983333333333;-89.12568892251338
354.97166666666664;-88.83925510462385
355.88966666666664;-89.04943210854405
364.45599999999996;-89.51050661801452
379.5333333333333;-87.63746114421207
380.108;-88.59038563363791
380.7383333333334;-87.9757636610673
382.65000000000003;-87.4898780987262
384.253;-87.71408730160982
385.44699999999995;-86.5003637800095
386.51933333333335;-90.0379199360301
387.55733333333336;-88.43389249401564
388.4636666666667;-87.73816927706017
389.061;-87.95953281573236
389.9676666666667;-88.6102571482593
390.6193333333333;-86.4155525347403
391.53733333333327;-86.86765522003074
392.7093333333334;-87.24044758946258
393.5163333333333;-86.97668329787321
394.12433333333337;-85.6157614648169
395.1306666666666;-86.6511114442416
395.75;-85.92848423475559
396.2916666666667;-86.34659877124074
396.612;-87.0963460172127
397.27566666666667;-86.74648647184688
398.0056666666666;-88.46689120031499
399.17699999999996;-87.92712248502642
399.7076666666667;-87.36659705075127
400.526;-88.45674922429123
401.47700000000003;-87.3167272878028
402.39466666666664;-88.64235106822792
403.057;-87.85302270682564
403.65433333333334;-86.7774467560744
404.17333333333335;-86.23208006398788
405.0246666666667;-88.56065104084703
405.81033333333335;-89.25800988769195
406.87166666666667;-87.78097528485453
407.48;-87.26793722324672
408.0443333333333;-86.96992732620814
408.9726666666667;-87.13140505883308
409.88899999999995;-86.83636366393935
410.51966666666664;-87.83945129625282
410.973;-88.99768166267319
411.5919999999999;-90.09564516519261
412.4203333333333;-89.93712750142421
412.97299999999996;-87.9542942209149
413.603;-86.76937518021313
414.266;-86.48291170279212
414.92900000000003;-86.27378789256767
415.5696666666667;-85.96384966669139
415.9783333333333;-84.78043386143992
416.90766666666667;-85.6071305721457
417.394;-86.3759897922917
417.8253333333333;-87.36689375846873
418.6093333333333;-87.90463714508849
419.449;-86.86843898165478
419.858;-88.70153826430175
420.4663333333333;-87.28206340259433
421.1956666666667;-86.7198247335497
421.7256666666667;-87.01513317758477
422.10133333333334;-87.46634535278058
422.8306666666667;-87.25357513009209
423.406;-88.41219611198827
424.29;-87.41220176152355
424.7866666666667;-88.02649919504077
425.50399999999996;-89.14113707323017
426.2763333333333;-89.12908978885419
427.03766666666667;-89.68634852055801
427.391;-87.48860291148152
428.15433333333334;-86.90419831129363
429.29366666666664;-88.17786299370984
430.0903333333333;-87.32260844864058
430.6863333333333;-84.79919067437129
431.58199999999994;-84.62150835859289
432.146;-86.31855967700999
432.654;-84.98273591740832
433.39466666666664;-87.4146790526466
434.0463333333334;-89.68231323332091
434.666;-87.94760883085715
435.307;-88.02533940223663
435.94733333333335;-87.4236376342842
436.6323333333333;-86.17331944434785
437.163;-86.59063200033579
437.76;-86.22126956361417
438.4013333333334;-85.94176772102594
439.3183333333333;-88.76789052127246
439.82633333333325;-88.00418657452184
440.213;-87.20981919348728
440.987;-86.48912209219547
441.8383333333333;-85.60600865701446
442.5016666666667;-86.21599627418578
443.11999999999995;-85.938662870939
443.66166666666663;-88.40794592478696
444.23633333333333;-88.86904114642954
444.96600000000007;-88.66120565212191
445.6956666666667;-87.77810185880165
446.48033333333325;-87.03048915398958
447.2436666666667;-87.71754201885162
447.8296666666667;-88.0290229716052
448.26066666666674;-86.71806778411873
448.69233333333335;-88.12546365240384
449.4433333333333;-86.5983490338329
450.262;-86.99412542370669
450.95866666666666;-87.34814830007429
452.04133333333334;-85.16807515534622
452.98133333333334;-87.60074114477861
453.50066666666663;-89.00909108875504
453.921;-87.69054946761017
454.451;-87.72359066380513
455.0696666666666;-87.82598883448311
456.46233333333333;-88.28200236472765
457.56733333333335;-88.36289188979777
458.05333333333334;-86.67335510892627
458.72700000000003;-86.61359821370877
459.60099999999994;-89.02884722189243
460.872;-86.63348311951714
477.4636666666667;-87.05172199329182
485.8093333333333;-87.62724835181
486.4723333333333;-89.20645178303923
487.16799999999995;-87.37346271738754
487.67699999999996;-86.99572918231263
488.09633333333335;-88.4612977564447
488.627;-89.83795764126396
488.9583333333333;-89.45400336602474
489.31233333333336;-87.81279037635022
490.097;-86.57531056822164
490.57233333333335;-87.39955722452964
490.926;-88.49248550058739
491.7443333333333;-88.9634670470017
492.45166666666665;-87.51281488564464
493.08166666666665;-88.98801844846847
493.37999999999994;-89.44879141885983
493.65633333333335;-86.64584202931266
494.41966666666667;-86.14236988618951
495.23766666666666;-87.04044340950222
495.88966666666664;-88.29023485109965
496.9393333333333;-87.39673256926676
497.95599999999996;-87.42790122749432
498.3543333333333;-88.24668727270021
498.91766666666666;-91.15258144620118
499.60366666666664;-92.38284774777726
500.278;-91.16042879777496
501.184;-90.56701406170595
501.90200000000004;-87.7487844868003
502.8633333333333;-86.62953419466226
503.8136666666667;-86.96531462743877
504.88599999999997;-85.94359080405052
505.34933333333333;-87.25431917506046
506.0013333333333;-86.63536402796448
506.5756666666667;-87.29999095951966
507.01833333333326;-86.98661520158095
507.43833333333333;-87.24435974142412
508.0793333333333;-86.92561238567333
508.3883333333333;-86.48415010064592
509.6483333333333;-86.23386920409243
510.3006666666667;-87.68253804472776
510.73199999999997;-88.30962303828699
511.152;-87.54585166936404
511.627;-88.81484297695917
512.4013333333334;-87.83039295972844
513.2743333333333;-85.02057252909195
513.838;-84.37232234630058
514.5566666666667;-85.11357473092588
515.3746666666666;-88.25068410464877
516.126;-88.4273006300921
517.0;-87.52196253208727
517.586;-85.91136167081385
517.9286666666666;-85.06121832868402
518.2493333333333;-86.62796722770639
518.6253333333333;-90.91937446228398
519.0893333333333;-91.45269008267415
519.576;-86.68868678440614
520.206;-86.73111287640629
520.925;-85.450956205668
521.8863333333334;-85.40961999552323
522.959;-86.53445804359025
523.893;-84.92102219730039
525.1313333333333;-87.23670632509405
525.7723333333333;-88.39812270318951
526.303;-87.32928030423412
526.7013333333333;-87.70953762066495
527.1103333333334;-86.94355663445678
527.5966666666667;-88.49301694029924
528.17;-87.28636359564251
528.844;-86.93911469440206
529.386;-87.57195705224134
530.1153333333333;-87.47174649133453
530.4803333333333;-88.56724806847473
531.0986666666666;-89.77300415548132
531.5076666666668;-89.11426433396875
531.895;-88.83416730250755
532.2493333333333;-87.72746805426321
532.9456666666666;-88.83902337742663
533.8413333333334;-87.7592849005682
534.5036666666666;-89.37699281044341
534.8356666666667;-88.01155826537344
535.289;-87.6249405540781
535.7866666666667;-86.8607160958694
536.5386666666667;-89.02396900070057
537.2573333333333;-89.39161516600423
538.2523333333334;-88.9385434304023
539.8886666666666;-88.30389615677069
540.541;-87.01291287820374
540.9833333333332;-87.50261094386751
541.3593333333333;-87.71530054747302
542.0556666666666;-87.05832695501299
542.7626666666666;-84.85350861695423
544.0006666666667;-87.43568129976326
544.8186666666667;-86.42353036064856
546.277;-85.3940601870755
546.9946666666666;-83.80935711527161
547.6353333333333;-87.44096879245222
548.3093333333333;-88.3643051808094
548.6966666666667;-88.33373793904553
549.404;-88.77677616866282
549.9123333333333;-89.88456346681001
550.2653333333334;-88.3579398167101
550.7413333333334;-88.40101819164244
551.0396666666667;-87.72257563805246
552.023;-87.75732635024792
552.6976666666666;-89.3968010874459
553.4713333333333;-88.48315437643355
554.0680000000001;-88.67202978464788
554.7973333333333;-89.46464797430033
556.013;-88.60034979919848
556.865;-89.70763767521053
557.4616666666667;-89.56484518639712
557.8483333333334;-89.40941004491062
558.5886666666667;-89.27182182113806
559.197;-89.46165461142829
559.971;-88.22383106929203
560.8993333333334;-87.18401157355294
561.7166666666667;-87.84497106263136
562.2810000000001;-87.65446470692837
562.8006666666666;-88.3158302218288
563.4863333333334;-87.7033396316492
564.2716666666666;-87.44846063406119
565.0673333333333;-86.9909005560556
566.0403333333334;-87.84133360868617
566.692;-88.89241000720341
567.598;-88.74217488363017
568.328;-89.38500389686884
568.9693333333333;-89.41202461827636
569.423;-88.20665118973216
571.0696666666666;-87.28148766880955
572.7606666666666;-87.97646557914767
573.2906666666667;-87.15504468537485
574.1419999999999;-89.62398314338922
574.8163333333333;-88.42367269967971
575.3026666666667;-88.28973034181548
576.529;-87.11643988025607
577.302;-87.28415378017304
578.4183333333334;-87.20272973819417
579.8443333333333;-86.7126853365736
580.4193333333334;-86.89382899743775
581.105;-87.36641769685806
582.0666666666666;-87.4954142146685
582.6856666666666;-88.49860264648011
583.3820000000001;-89.19077355998309
584.2003333333333;-90.86654456380117
584.7313333333333;-89.37175603795147
585.3393333333332;-89.28730949350259
586.0133333333333;-87.71881865868883
586.7436666666667;-89.4852156850904
587.606;-89.52780757976635
588.2686666666667;-87.84323596146366
589.0526666666666;-88.86416177394018
589.683;-89.64170591080226
590.645;-88.66676122644631
591.2863333333333;-87.67806513898945
591.9713333333334;-88.19683648566448
592.524;-86.89207472729433
593.077;-88.75777256750597
593.574;-88.56050583661954
593.8833333333333;-89.30017773053652
594.48;-90.53307310777461
595.0323333333333;-90.42516238855498
595.5293333333334;-89.22451225520015
596.016;-89.98170290402066
596.7346666666666;-89.38796687479282
597.2766666666666;-89.25624537070792
597.8176666666667;-89.83552220051742
598.348;-87.94826465644263
599.0446666666667;-88.0801704098825
600.3603333333334;-87.66891448332527
600.8353333333333;-88.58900519721068
601.4096666666666;-88.49017553531124
601.7743333333334;-88.61978028462183
602.5043333333334;-88.0447877834553
603.0796666666666;-87.14404484136706
603.6646666666667;-88.32382397208669
604.5816666666666;-88.43672985014592
605.4546666666666;-88.11273266024921
606.3606666666666;-86.70961188367554
607.3433333333334;-87.22618001784181
607.708;-88.60922693896504
608.4933333333333;-87.36683555175921
609.3333333333334;-86.96509646706397
610.526;-87.21552700223803
611.056;-87.97476170135269
611.7416666666667;-88.5891082869812
612.6263333333333;-89.33611151233688
613.5323333333334;-88.01077260529466
614.4833333333335;-87.40278159185699
615.4566666666666;-86.5725685659052
616.2963333333333;-89.04966449333291
617.1696666666667;-88.94245488283197
617.6673333333333;-86.79541020898063
618.552;-88.51604286934364
619.083;-88.89109187388546
619.7906666666667;-89.08600712104972
620.4209999999999;-87.52315148440803
620.9956666666667;-88.46097172397032
621.814;-87.84237267340053
622.511;-89.51398383786692
623.1080000000001;-88.85974802201216
624.1476666666666;-88.37467813914124
624.899;-88.39108197223896
625.7836666666667;-88.63042612842618
626.8896666666666;-88.39051515823307
628.0826666666667;-87.96489747264678
628.8563333333334;-88.07445003162299
629.4536666666667;-86.94606670979162
629.7963333333333;-89.0811145696257
630.2166666666667;-88.1047350181604
630.8903333333333;-87.61969016532142
631.564;-87.57694882147723
631.9176666666666;-88.06445846121497
632.5816666666666;-87.007742809546
632.9906666666667;-88.3428736197337
633.4216666666667;-88.61414023560357
634.0733333333334;-88.01237998492832
635.974;-85.78562490168403
637.3223333333334;-87.2458495942802
638.0966666666667;-87.24251902918033
638.7710000000001;-88.46964098341113
639.4676666666666;-87.27662224596642
640.031;-87.69125325191294
640.5836666666667;-88.26710529653496
641.4346666666667;-87.001326632164
641.965;-86.51108397011106
642.4956666666666;-86.42296610523283
643.0813333333333;-87.32658635796868
643.5673333333333;-89.1518276320121
644.208;-87.3589617152296
644.6503333333334;-86.71341260028949
645.1036666666668;-87.39255643305003
645.9323333333333;-87.17869019295551
646.3963333333332;-87.34987405562528
646.7833333333334;-87.74033676742354
647.1373333333332;-87.37493006061388
647.9879999999999;-87.204679209604
648.7176666666667;-87.52095947326856
649.348;-86.26952056743765
650.0333333333333;-87.79502699628911
650.398;-87.74270280423929
651.3153333333333;-87.82612402583479
652.0453333333334;-87.05815311130391
654.4223333333333;-87.22744454068906
655.1406666666667;-87.403255004559
655.605;-89.74281593314994
656.6886666666666;-88.10350527411275
658.5016666666667;-88.31365536541573
659.353;-85.6481446160888
661.2543333333333;-87.06738914668406
663.61;-86.96268958760609
664.7483333333333;-88.15686189403756
665.1796666666665;-87.86270067676185
665.567;-87.31636486657439
666.087;-87.88697368611568
666.8386666666667;-87.69194786299826
671.1273333333332;-88.24275487325798
671.9676666666667;-88.02928940683408
672.631;-89.027606141367
673.1503333333334;-86.86203028322834
673.9683333333334;-87.52718383371143
674.3553333333333;-86.84397907593532
674.7976666666667;-87.47559718789529
675.2063333333334;-86.30244717287889
675.8476666666667;-87.62989011959769
676.3009999999999;-88.48223620581476
677.118;-87.25302482138692
678.0136666666667;-86.38818052161925
678.7979999999999;-87.1098382928429
679.8470000000001;-87.57567187416052
680.7756666666666;-87.28709409970882
681.6379999999999;-87.22166870113296
682.29;-86.26669684476579
683.0966666666667;-87.17502924462173
683.9043333333334;-88.95195947891978
684.9216666666666;-88.2381211214731
685.585;-88.06822174978798
686.5136666666667;-87.64941352722049
687.188;-87.28383714214584
687.6083333333332;-89.59178402646879
688.194;-86.54248366705232
689.31;-87.25066056933933
689.7966666666666;-87.06471672893264
690.3376666666667;-88.55733157197383
691.0116666666667;-88.4149948772567
691.553;-87.23555142879927
692.1053333333334;-88.43023180062913
692.725;-87.18855331612986
693.1776666666666;-85.05808206605246
693.774;-86.49009203258956
694.227;-85.69313290960724
694.957;-87.24865254661502
695.6093333333333;-86.58654929973993
696.549;-86.54262129688286
697.101;-87.78339405852057
697.8856666666667;-87.5795221206538
698.5716666666667;-87.47345028450697
699.168;-88.06568397281613
699.8753333333334;-86.68729503112868
700.3613333333333;-88.10951165052823
701.2903333333334;-88.64740608484732
702.5613333333334;-88.12400773857533
704.4843333333333;-88.66748537325321
705.0923333333334;-86.86705753141527
706.197;-86.05190356201803
707.0366666666667;-87.42669039547788
708.3960000000001;-88.79698724457451
709.114;-87.48959126009723
709.6446666666667;-87.30739511650137
711.2806666666667;-88.83321011806795
713.79;-88.59799858878408
714.332;-88.23516774795955
715.0169999999999;-88.0536225704181
715.5256666666666;-88.0438838411592
716.244;-87.40836576185673
717.0623333333333;-87.31125874019699
718.0126666666666;-88.78887993740274
718.4873333333334;-87.10314013085946
719.7366666666667;-87.58001718353533
722.766;-87.72629853716589
725.1646666666667;-87.84255639015076
726.6456666666667;-88.56549081199971
727.1756666666666;-86.71128529759442
728.0600000000001;-87.24592591618409
728.7893333333333;-85.51750930605226
730.8123333333333;-86.6500028161407
731.3313333333334;-88.90409590361736
731.851;-87.87953718455009
732.4256666666666;-88.05769846864064
733.4423333333334;-87.8763155798521
734.304;-89.50865589553459
735.1993333333334;-87.45399657458786
735.6966666666667;-86.77758256536833
736.1713333333333;-87.94624694252771
736.6460000000001;-89.43566511393568
737.0880000000001;-87.52825906924475
738.061;-87.26682941894511
738.603;-87.77441573609026
739.111;-86.90339307301092
739.6863333333334;-88.17771714807051
740.1836666666668;-88.89416271235584
740.4706666666667;-88.2272738138941
740.9783333333334;-88.65989313713972
741.663;-88.25816110275576
742.348;-89.2659297149718
742.8676666666667;-89.78595692087015
743.4979999999999;-87.4610888313434
744.2719999999999;-88.31495149588622
745.0790000000001;-88.83793878486314
746.1506666666666;-89.74839633128919
746.6923333333334;-88.9332318517946
747.4996666666666;-87.49578602963736
748.7813333333334;-86.49307570966471
749.677;-87.56289028887474
750.23;-86.91454789125275
751.6893333333334;-87.0476578621116
752.7620000000001;-87.51172535767593
753.4803333333334;-88.84228899523296
754.651;-88.65384194688207
755.248;-87.75295354831783
755.8783333333334;-86.41721709036796
757.5469999999999;-86.49043038059959
759.1166666666668;-86.7598707326855
759.9563333333334;-87.35005612885475
761.1503333333334;-88.66094319152451
763.0636666666666;-87.65967202084175
763.9813333333333;-86.15859076008394
764.578;-86.33692000329745
767.6376666666666;-86.04662810531995
773.8036666666667;-86.33771719532602
775.3293333333332;-87.00587622271087
776.8773333333332;-87.25779010180334
778.3686666666666;-88.88500076833418
779.1643333333333;-87.40590135742178
780.06;-87.49029645597787
781.11;-87.57861818464006
782.226;-88.43814087744472
783.1103333333334;-87.95922764139405
783.7516666666667;-87.80642166480277
784.4816666666666;-88.55005610796618
785.288;-88.2977850374739
786.0843333333332;-88.0956590452225
787.0903333333334;-88.15929851854216
787.7973333333334;-86.70024225967062
788.6816666666667;-89.31844193346426
790.562;-88.51953064647255
791.7666666666668;-89.30738842764399
792.2196666666667;-90.26874448414756
792.8389999999999;-87.72728689632642
793.602;-87.02901139639567
794.0876666666667;-87.07439881426657
795.0826666666667;-88.71489123482924
795.9339999999999;-87.19346600145745
797.57;-87.88760332390868
799.2063333333334;-86.28726907546283
800.6986666666667;-87.57725814315432
802.8650000000001;-88.56383660438819
804.0696666666666;-87.87543062952919
805.0316666666668;-87.2470178525129
805.474;-87.13813339075963
806.2803333333333;-86.99188975247041
806.7006666666666;-87.44580637179533
807.1203333333333;-87.78383518066542
808.27;-87.09419464295101
809.585;-86.28322550095923
810.8786666666666;-87.30702638521053
811.6186666666666;-86.9108729173277
812.37;-86.01254658272342
812.9893333333333;-86.01075060797294
813.5423333333333;-88.78171732528514
814.0506666666666;-89.51743552498574
814.526;-86.92113526355519
815.1446666666667;-87.18432153917391
815.7076666666667;-88.38843132712881
816.1493333333334;-87.4532958544604
816.6803333333334;-88.1617887371077
817.067;-87.7631694999067
817.5316666666668;-88.83417404654735
818.1836666666667;-88.30456673288036
819.1446666666667;-88.4795784464399
819.7633333333333;-87.16178036786829
820.2276666666667;-87.29252763561416
820.9463333333333;-86.2123443984253
821.3879999999999;-88.68378916067749
822.4050000000001;-87.85494563278544
827.9746666666666;-89.65638723883085
828.66;-87.40857457780837
828.9696666666667;-86.2811950023436
830.042;-87.54373892658717
830.5726666666666;-87.98776404315936
831.6776666666666;-87.41505202909364
832.7280000000001;-88.15248222575981
834.1843333333333;-87.19534768360941
836.6266666666667;-86.66083357615733
837.6330000000002;-85.06997886295015
838.1416666666668;-88.02957985197698
839.38;-86.78092315405436
840.9383333333334;-87.67587157294919
841.855;-88.16312066839059
843.6233333333333;-86.76107504020078
844.6066666666667;-87.86393549159722
845.4356666666667;-88.76844247561768
846.065;-89.3600242416007
846.607;-88.55125345450395
847.1709999999999;-87.15870589620317
847.878;-87.215419324351
848.3976666666667;-88.20273474852002
849.127;-87.66534642510304
849.8353333333333;-87.93991042811886
850.2110000000001;-86.78723881995943
858.7083333333334;-88.80363931030965
859.56;-86.2689346567896
868.8563333333333;-86.43357918872204
869.928;-87.55080359017431
870.9333333333334;-89.31559156684446
871.7073333333333;-87.98860317554937
872.2926666666667;-89.2885776352545
873.177;-86.3676243340194
873.7736666666666;-87.4303716753462
877.1560000000001;-86.31547273515096
882.5176666666666;-86.38119124848674
883.7673333333333;-86.19042372600904
884.6183333333333;-87.1106213275231
885.4586666666668;-87.10652600074474
886.023;-86.46588285867082
886.797;-87.36557697019214
887.4266666666666;-89.25362146874667
887.791;-88.79377799186116
888.1116666666667;-89.31459271851213
888.6316666666667;-87.9341336572682
889.1730000000001;-89.06833787054289
890.0356666666667;-88.08342926690426
891.3073333333332;-85.91695772532731
891.9153333333334;-88.93257322032223
892.4789999999999;-89.33404039325197
894.6666666666666;-87.53236949097754
897.7603333333333;-88.2009094575395
898.976;-88.01988849946082
899.573;-88.1951625226422
900.236;-89.12039501865372
900.8666666666667;-90.39544055409652
901.6730000000001;-89.05432007346462
902.3916666666668;-88.64486462662308
903.1433333333333;-90.2012028025967
904.4473333333334;-90.75875646954941
905.5083333333333;-90.9487846353
906.3486666666668;-88.56482635068092
907.0673333333334;-89.63818603237848
907.8083333333334;-87.47858142075759
908.3166666666667;-89.45302733970374
908.8136666666666;-87.8693589011321
909.444;-89.28720786366159
910.0963333333333;-87.75063921938788
910.5713333333333;-88.79120216475275
911.5333333333333;-90.21130537503274
913.0923333333334;-88.19375490416445
913.8886666666667;-86.81567975875808
914.2756666666666;-88.80363097703228
914.817;-88.80774881084284
915.303;-88.82831876182767
916.1656666666667;-85.65279716843534
916.8620000000001;-86.45106556732134
917.89;-88.31440833561909
919.0273333333334;-89.60131192811026
919.7236666666666;-88.26224989311699
920.6303333333332;-86.15408320446139
921.7129999999999;-86.1855679811253
923.5376666666666;-86.47664142127151
924.3336666666668;-89.47476994208932
925.7813333333334;-87.29032403908394
926.8536666666665;-87.06580134563592
927.5280000000001;-85.08905277994528
928.1026666666667;-89.38962524507322
928.6003333333333;-91.01974110909441
929.4183333333334;-90.21078044610186
930.0033333333334;-91.66634382267529
931.538;-89.96350690964826
933.0296666666667;-89.36291033822161
933.7473333333332;-89.95579856639543
934.6756666666666;-89.26952345162051
935.5156666666667;-87.0158657310121
936.0133333333333;-88.46608192357522
936.4879999999999;-88.86087536453601
937.107;-90.09829557145875
938.0356666666667;-91.6025611975055
938.986;-89.77334318920424
941.2379999999999;-89.6056323341164
942.695;-86.66903581949482
943.2473333333334;-87.91027402760386
944.6726666666667;-87.79241642121397
945.4903333333333;-88.06762838642875
947.5570000000001;-88.95544899883221
949.2153333333334;-87.95247638412377
949.989;-88.98561708139015
952.1786666666667;-88.93347117066808
953.1956666666666;-90.6226356005486
954.0793333333332;-89.97427342886822
955.2733333333332;-91.0283693298684
956.4346666666667;-89.80202731795424
957.4296666666665;-90.78596788011691
958.6456666666667;-90.11839790041503
959.364;-90.70935153935687
960.2476666666666;-89.51675724179051
960.723;-87.98808916248036
961.5636666666666;-87.84748590534556
962.2046666666666;-88.65455906924252
962.746;-89.3517762968753
963.7956666666668;-89.39999956300345
964.1053333333333;-87.76396094163519
964.7026666666667;-85.48656013047543
965.3546666666667;-87.1231031779817
966.1289999999999;-86.38422958605527
966.6923333333333;-88.10849286218883
967.0459999999999;-89.35106155275957
967.5436666666666;-88.58117270186563
968.042;-88.55188886049508
968.3626666666668;-86.60575626695483
968.8383333333333;-88.34946044520478
969.2803333333333;-88.09036076896271
969.844;-88.75011950997852
970.5403333333334;-88.58585970999526
971.2806666666665;-88.87548791666411
971.5346666666668;-90.35818263087931
972.121;-88.21283446056927
972.9383333333334;-88.56805412031272
974.6186666666666;-88.57135509832736
975.282;-88.72700176443716
976.0886666666667;-86.35079255718176
976.7853333333333;-88.02565478251398
977.7246666666666;-88.45928109077362
978.619;-88.77560519373175
979.547;-90.66373894545258
980.4866666666667;-88.38149723810139
982.0673333333334;-85.72786676457582
983.305;-86.88719225569923
984.1006666666667;-87.73414769238681
984.8193333333334;-88.77682120731492
985.5603333333333;-89.85350728935117
986.3343333333332;-89.15498144408627
987.4506666666666;-88.37849032104188
987.9923333333332;-87.1093293431837
988.622;-86.57843645861166
989.1863333333334;-86.80280500835318
989.695;-90.32406499075324
990.3359999999999;-89.70998578846559
990.745;-87.86591990327494
991.2310000000001;-87.48027571811639
992.038;-86.58057565253696
992.547;-88.7920960865783
993.078;-87.27975019870487
994.1610000000001;-87.6801091519099
995.2326666666668;-88.49628088841945
998.217;-86.95207059449417
999.2896666666666;-85.63101343408232
1000.0413333333332;-88.61536981992602
1000.9586666666668;-90.05043844254811
1001.799;-90.6965698515858
1002.5169999999999;-89.26798186654209
1003.6553333333333;-88.93591418527402
1004.572;-89.96237597536916
1005.5006666666667;-87.64468802037582
1006.185;-86.26366475039548
1006.7379999999999;-86.01070887337754
1007.1916666666667;-87.2047497567676
1007.6336666666666;-87.27496999186351
1008.0649999999999;-89.1379420153658
1008.5293333333333;-88.32222728601339
1009.7663333333334;-88.69748749250948
1010.3739999999999;-89.13683126278062
1010.938;-88.27746748833515
1011.314;-88.09126990310017
1011.8670000000001;-88.3014666728703
1012.4416666666666;-88.8111576650324
1013.5810000000001;-87.667656066708
1014.5426666666666;-86.83011791364477
1015.891;-87.51646958801719
1017.3726666666666;-87.67674974140996
1018.3449999999999;-89.81990999181811
1019.1953333333335;-89.03882059987696
1019.6376666666666;-88.970029805445
1020.1899999999999;-87.59181718341031
1020.8756666666668;-90.61198861225758
1021.6379999999999;-89.63989541909928
1022.29;-86.30222806767574
1023.4503333333333;-86.0628897819227
1024.5776666666668;-87.54406871019754
1028.2613333333334;-89.10051227094883
1037.6793333333333;-88.88342781020226
1039.7786666666668;-87.61505706633532
1040.4413333333332;-87.6856567725177
1041.4693333333335;-88.63435814091247
1041.989;-87.36246953267379
1044.543;-87.69572408597035
1045.9246666666666;-90.7081801750657
1047.3726666666664;-89.80736932638278
1048.8543333333334;-88.52287128633355
1049.7376666666667;-89.08782010874214
1050.9103333333333;-89.13949846852698
1052.512;-90.00539918882907
1053.905;-89.7719280812331
1054.69;-89.24105280901335
1055.6960000000001;-90.58844785148491
1056.5583333333334;-90.27312082962112
1058.082666666667;-89.1097385743754
1059.7519999999997;-88.48814924940275
1060.106;-87.84814382485466
1060.7913333333333;-87.99348804172487
1061.2773333333334;-87.63047725255606
1061.863;-87.88089207790827
1062.4156666666668;-87.421706536245
1063.4096666666667;-88.80663244664272
1064.1286666666667;-89.86639045793869
1064.5706666666667;-88.02235998226139
1065.7096666666666;-88.58656518465412
1066.472;-88.19981905991226
1067.8419999999999;-87.11277530788374
1076.852;-88.87167606037308
1077.5706666666667;-88.92350847479827
1079.0736666666664;-88.78416952371663
1079.5376666666668;-88.54958224911327
1080.0906666666667;-87.65029445149901
1080.5766666666666;-87.8419993321401
1081.052;-86.77855836325614
1081.5603333333331;-87.7450567151623
1082.3556666666666;-87.37792798327733
1082.8743333333334;-88.31257580555862
1083.438;-87.60644761204354
1083.9246666666666;-87.96244170122878
1084.8646666666666;-86.64743278795795
1085.7153333333333;-88.75360094203518
1086.9316666666666;-88.76173503680148
1088.4343333333334;-88.49189020476982
1089.164;-88.12472525698021
1090.2033333333334;-87.43160219759064
1091.364;-87.60743759121213
1092.3916666666667;-85.85534641483676
1093.9613333333332;-87.627198131631
1095.221;-86.27589334719184
1096.028;-87.01645775926671
1097.1670000000001;-86.54379537350313
1098.2833333333333;-88.97522771381162
1098.7476666666666;-88.54119655757988
1100.063;-85.99671708152665
1101.0686666666668;-88.43819858297003
1102.5506666666668;-88.90611432973498
1103.5446666666667;-88.87427471772621
1104.7613333333336;-88.9160864145205
1105.8663333333334;-87.64229070013118
1106.904;-88.3826686176036
1107.6223333333335;-86.2260330849506
1108.682;-87.01645649247854
1109.4653333333333;-87.05879398152842
1110.006;-86.92935702065198
1110.5919999999999;-86.96556521064096
1111.9626666666666;-87.96688113593339
1113.1996666666666;-88.68976961494926
1115.4650000000001;-87.6280109839831
1116.459;-87.4774475541885
1117.3656666666666;-88.56351322758763
1118.3056666666666;-88.34432110581278
1118.8909999999998;-88.31591061919282
1119.5876666666666;-87.10527124673173
1120.45;-87.91972263881955
1121.556;-87.01636796731697
1123.0573333333334;-87.41646113500389
1123.8313333333333;-87.5079555398584
1124.8263333333332;-87.82595191031753
1125.4896666666666;-88.26220878667445
1125.7436666666665;-89.70314723646548
1126.1753333333334;-89.21401456179183
1127.0600000000002;-89.76868878473482
1128.464;-89.11213459797372
1129.7459999999999;-87.95993723568547
1131.7906666666665;-86.80617018358362
1132.421;-87.34243130160006
1133.1726666666666;-88.21558429438558
1134.3553333333332;-87.19324731580394
1135.6273333333336;-87.24842228894833
1137.2196666666666;-90.37041886561435
1141.6303333333333;-88.97063714644247
1142.305;-88.27420996662285
1143.4986666666666;-85.95116968298441
1145.0016666666668;-87.9821830885953
1146.096;-87.57153295957015
1147.411;-87.35086802062943
1149.367;-86.94639045364622
1150.8156666666666;-87.06199787752604
1151.6670000000001;-87.53118611726144
1152.452;-87.743092650469
1152.9273333333333;-89.10032157642826
1153.624;-86.53969521080451
1154.3206666666667;-88.62628151220252
1155.4923333333334;-89.46539025048094
1156.8076666666668;-87.66411131355126
1158.6313333333335;-86.84117440961404
1159.5813333333333;-87.75445804516801
1160.9186666666667;-87.81413319998913
1163.1296666666667;-87.44553538950854
1163.7933333333333;-88.43191182915851
1164.5453333333332;-89.22001797229814
1165.827;-88.77444236444
1166.8653333333334;-87.09585442942242
1167.7483333333332;-87.6056006793823
1168.4113333333332;-88.0868722040064
1168.9973333333335;-88.66315853308966
1169.9256666666668;-87.52994808460245
1170.8423333333333;-86.08247004267403
1171.4936666666665;-86.85933360963622
1172.1903333333332;-87.06271622876733
1173.3500000000001;-86.5139537188877
1174.1456666666666;-88.98942680130307
1176.6873333333333;-88.36286869543025
1177.582;-88.14367340810485
1178.1566666666665;-87.8383472729328
1179.1513333333332;-87.07077816700217
1181.139;-86.38990045867146
1182.375;-87.59718530935943
1182.6290000000001;-87.764491598095
1183.2913333333333;-86.4851583128821
1184.076;-89.59867796130183
1184.9379999999999;-89.44846418861783
1185.8003333333334;-87.42108316326282
1186.3633333333332;-87.28694267200136
1191.334;-85.53065103529224
1192.2296666666668;-86.41838788277377
1194.7259999999999;-86.35249696764545
1197.0793333333334;-87.56689120084633
1199.0796666666665;-87.88078521604517
1199.6103333333333;-88.56704419991541
1200.4066666666665;-89.29692649044794
1201.4126666666668;-87.90114491438386
1201.9979999999998;-88.69358036361525
1203.5346666666667;-87.86236203970465
1204.8933333333334;-87.08342629313086
1205.4023333333332;-88.03103164661306
1207.3483333333334;-89.2959306101068
1209.99;-89.38799451858472
1211.1836666666666;-88.17177056594608
1212.244;-88.3724136815448
1213.0069999999998;-87.8660344566882
1214.7983333333334;-89.121345933042
1217.3286666666665;-91.67315606336294
1218.0690000000002;-88.67930237088244
1219.0086666666668;-89.12343778080843
1220.4563333333333;-87.34487717471697
1221.4073333333333;-85.84051257298094
1222.5466666666666;-89.85316574766448
1222.8776666666665;-87.88058568072397
1224.3046666666667;-88.27168541002222
1225.277;-88.33525225255315
1226.2276666666667;-87.66025732465188
1226.9686666666666;-89.384105189899
1229.1026666666667;-90.08264224096035
1232.0426666666665;-88.99230674476829
1233.137;-88.41304952990347
1235.7569999999998;-87.49171050822042
1238.675;-87.76414470462109
1239.504;-87.4290207984493
1241.3836666666668;-89.61947300950246
1242.3126666666665;-89.56830641645715
1243.0093333333334;-88.15426418501725
1243.827;-88.81937617817427
1244.4116666666666;-89.17940866033796
1245.008;-89.35569359866216
1245.7933333333333;-87.83609174145518
1246.4016666666666;-88.38975445870864
1250.591333333333;-88.81100261456164
1253.2443333333333;-87.5317018753575
1254.5916666666665;-89.04850382840786
1257.2116666666666;-88.35999103546345
1259.9093333333333;-89.0348747238805
1260.2963333333335;-89.8492927446475
1261.7333333333333;-87.70068748433297
1262.7606666666668;-89.58786394432101
1264.043;-89.66486455994675
1265.3693333333333;-88.92837855964969
1266.1326666666666;-88.80344791373395
1266.84;-88.2715076785617
1267.4143333333334;-88.28259003768551
1268.287;-87.6598332407133
1268.9616666666668;-88.13984319384001
1270.4433333333334;-87.9862905369786
1271.173;-87.84860150551222
1272.3876666666665;-89.34102040284274
1273.117;-86.93539760578352
1274.0893333333333;-87.58397339290157
1275.4156666666668;-86.28336832164491
1277.4046666666666;-88.30317813259141
1278.1123333333333;-86.63680493769552
1278.6986666666667;-88.56630943986376
1279.1850000000002;-87.89128859269672
1279.8043333333333;-89.11781153934155
1280.2243333333333;-89.40291711553743
1280.9979999999998;-88.81952115178814
1282.1363333333336;-88.32478424375728
1283.4296666666667;-87.9914396060082
1284.9660000000001;-86.93301515703456
1286.1699999999998;-87.96954299137838
1287.2416666666666;-87.48802504378136
1288.071;-87.76234745159574
1289.022;-88.63409584874758
1289.5853333333334;-89.99971718306345
1289.9383333333333;-90.10137403674662
1292.1696666666667;-90.03212968981644
1294.0159999999998;-90.03312189924524
1298.6923333333334;-88.28565411378715
1301.2456666666667;-89.7760206243447
1301.8753333333334;-91.45054693959055
1302.6493333333335;-89.48891131152973
1304.1533333333334;-88.51587882123813
1304.9816666666668;-89.04173231904585
1306.0976666666666;-89.08007243684257
1307.8883333333333;-89.20407654792925
1309.1043333333334;-87.24697707298529
1310.4966666666667;-85.49714345282088
1312.3413333333335;-85.94544242655155
1313.4356666666667;-87.02881315455386
1314.3083333333334;-87.77039823000491
1314.8823333333332;-89.12821683082016
1315.1806666666664;-88.52434433290415
1316.187;-88.12090185639602
1317.911;-88.44102335249364
1320.8303333333333;-87.49966292574797
1322.4883333333335;-86.9450851285217
1324.4123333333334;-85.81024331353362
1325.2193333333335;-86.9580467360187
1326.457666666667;-90.03992538063429
1327.4526666666668;-90.1227253112438
1328.9343333333334;-88.19009165278204
1329.8626666666667;-88.24606762863563
1330.4816666666668;-87.93260119211676
1330.902;-87.34502903008776
1331.8306666666665;-87.41075480508559
1333.3886666666665;-87.21012006311197
1334.572;-87.35143103184525
1335.5003333333332;-87.31687647094597
1336.6836666666668;-86.35215132012716
1338.1543333333332;-88.60509231293605
1338.9943333333333;-87.23859696305031
1339.502;-87.8383298304112
1340.2096666666666;-88.79502635088124
1340.7516666666668;-87.28489740771116
1341.1383333333333;-88.56771672996369
1342.321;-87.8821509086118
1344.023;-85.88842855041186
1347.0843333333335;-86.78987450544369
1349.582666666667;-86.84862689039508
1350.5113333333334;-87.55120644889162
1351.3623333333333;-88.90600510257092
1352.247;-89.63541553012752
1353.0763333333334;-89.71917092627739
1353.7393333333334;-89.3402935048172
1354.8666666666666;-89.3937767866098
1355.3866666666665;-88.96948334330602
1356.2263333333333;-89.37809165926221
1357.6303333333333;-88.67797716248072
1358.814;-87.7017037024554
1360.0503333333334;-87.48725631957552
1360.836;-88.04097404310056
1362.1186666666665;-88.19309215862533
1362.6376666666667;-87.93965442165837
1363.3893333333333;-88.02038577674475
1363.9423333333334;-88.07652923353176
1366.2083333333333;-88.38098378407906
1367.5896666666667;-87.2376508907789
1368.6513333333332;-88.17984187353447
1369.2586666666666;-89.67888644461
1370.5856666666668;-89.94239466915522
1371.3376666666666;-88.90431150331759
1372.4096666666667;-88.37591453820482
1373.2056666666667;-88.17862065459218
1374.0240000000001;-87.79030224652512
1374.7423333333334;-89.27994168220916
1375.7033333333331;-90.38416193430925
1379.883;-89.40182947903291
1380.4576666666665;-88.99763852275548
1381.3863333333336;-88.73219226813504
1382.0056666666667;-89.48529060300234
1382.7463333333333;-89.13269035841076
1386.2933333333333;-89.27976306565625
1387.631;-88.61284676708095
1389.3336666666667;-88.02577494376155
1421.1456666666666;-87.7062293521804
1437.0253333333333;-88.66093729018368
1438.2196666666666;-87.49367339788232
1438.9823333333334;-88.2621169490522
1439.579;-87.56299021377609
1440.032;-88.0635189490961
1440.8723333333335;-88.71459696822932
1441.5240000000001;-89.37223490156234
1444.1543333333332;-86.7792707843635
1446.8956666666666;-87.57659909923089
1448.177;-86.30896758093894
1448.7740000000001;-89.1543343852135
1449.88;-87.9742576942232
1451.2613333333331;-88.98557322679025
1452.2016666666668;-86.03957404831321
1453.3626666666667;-87.54769675195506
1454.1359999999997;-88.97631035126598
1466.9243333333334;-88.74832713792685
1467.7866666666669;-88.73700247951821
1476.9719999999998;-89.87010672528008
1482.4986666666666;-90.52199341744904
1483.095;-89.37357348950857
1483.603;-88.51546295627067
1484.0783333333336;-87.44246644193996
1484.6193333333333;-87.69654433017485
1484.9953333333333;-88.13665733381046
1485.5483333333334;-90.48152388566281
1486.3336666666667;-87.42959680146146
1487.1626666666664;-87.51274562469905
