19.861;-80.61735507980843
20.767333333333337;-81.14913507755074
21.243;-81.3991407401212
21.840333333333334;-80.45444756239856
22.823666666666668;-80.2964535166734
23.453666666666663;-80.43329298801044
24.714;-80.30380874198758
25.410666666666668;-80.51928830202516
26.151;-80.80321382084949
26.991;-81.37932286404052
28.008666666666667;-80.44296807808658
28.639;-80.65978594736147
29.236333333333334;-80.40405540458445
30.474666666666668;-80.02826860922636
31.59166666666667;-81.0782841522831
32.565;-81.89965760078948
33.704;-81.12812887219077
35.760999999999996;-80.92924714724418
36.823;-81.03726169389999
37.57466666666667;-80.47940420215839
37.995;-80.58000647146092
38.913;-81.24528723077793
39.676;-81.379138479436
40.592666666666666;-80.64349630132187
41.433;-80.34680592954464
42.284333333333336;-81.5622416983991
43.125;-81.24239885114018
43.821;-80.92436056326451
44.451;-81.48145203976637
45.02633333333333;-80.39989220116632
45.59;-81.09892181592102
46.971666666666664;-80.89946448005517
48.452999999999996;-81.49262359126604
49.23833333333332;-80.715752061699
50.25533333333333;-81.15008962840457
51.150666666666666;-80.8140489948837
51.814;-80.76824743144398
52.477666666666664;-82.01697806252561
53.23;-82.21791564031967
53.76066666666666;-81.57658063511798
54.369;-81.61659293806588
55.12133333333333;-81.38302925800868
55.983666666666664;-81.36761252505585
56.89066666666667;-80.9184074564844
57.29999999999999;-81.14048554772242
58.383;-81.23550710920662
59.422000000000004;-80.80150596614591
60.084333333333326;-80.90162674821771
61.211000000000006;-81.20636227705509
62.69333333333333;-80.9447409082139
63.66633333333334;-80.91732100981278
64.78266666666667;-80.32642313931001
65.756;-80.36868955573848
66.75099999999999;-80.49768977436418
67.37;-80.34775876172866
68.67533333333333;-80.48157806081124
69.26100000000001;-81.04272717278985
69.792;-81.37745934089217
71.03066666666666;-81.41423140938683
72.37933333333335;-81.42877124341844
73.14233333333333;-80.84163160482
73.906;-80.57381915250231
74.76766666666667;-80.75593454269986
75.851;-80.82205207668041
76.30466666666666;-80.64900203656885
77.067;-80.64336810469145
77.807;-80.50689333368871
78.44866666666667;-80.54240821631107
79.63233333333334;-80.75575946808841
81.004;-80.99144128284337
81.86566666666666;-81.33941522653444
82.66200000000002;-81.47630928920205
83.46866666666666;-81.47915552165863
84.57466666666667;-81.1517673625909
85.12666666666667;-80.99577832467773
85.73533333333334;-80.84566851134895
86.42099999999999;-80.97089306991141
87.01766666666667;-81.11121371347826
87.73633333333333;-80.73161400898925
88.39999999999999;-80.66739622352912
88.99733333333332;-82.03020640557459
89.418;-81.3281524549174
90.24666666666667;-81.62434538113544
91.10933333333332;-80.5267333775089
91.717;-81.0918849678566
92.45833333333333;-80.95908548296916
93.24399999999999;-80.9077471878842
94.08433333333333;-80.16897731566982
94.79199999999999;-80.28731249200791
95.37833333333333;-80.71627806482756
96.15166666666669;-81.07330953248902
97.12466666666667;-80.97309076461922
97.921;-81.4272013389458
98.61766666666666;-81.0559556878658
99.35866666666668;-81.1912565766763
100.97366666666666;-80.64894734513473
101.81333333333333;-81.31297492084352
102.28800000000001;-80.87117088071773
102.863;-81.29608535196766
103.52666666666669;-81.4535843731013
104.24566666666668;-81.57161500292342
104.85366666666668;-80.99260118197836
105.22966666666666;-81.59502070582546
105.74966666666667;-80.97956066781823
106.60066666666665;-81.42097382075609
107.927;-81.63573557843651
109.44099999999999;-81.84292547036236
109.96100000000001;-81.24348218500597
110.67999999999999;-80.87571104944686
111.36566666666666;-80.96429120353758
112.09533333333333;-80.93725937043564
112.692;-81.01285911676553
113.234;-80.68281735859215
114.02966666666667;-80.77484939142424
114.825;-80.89825335457559
115.62066666666665;-80.94923926275082
116.93666666666668;-80.64853401617815
117.589;-80.82680967776085
118.396;-81.1776489268053
119.57900000000001;-80.58997021686775
120.75133333333332;-80.72381308131467
121.62400000000001;-80.80183818391899
122.43166666666666;-80.60650162832289
122.85200000000002;-80.90317535198895
123.40466666666667;-80.43536531931002
123.97933333333333;-80.73947560285353
124.57666666666667;-80.79450810274187
125.27300000000001;-80.80246608777149
126.06966666666666;-80.80780682682968
126.95400000000001;-80.29412003790073
128.11566666666667;-80.0440667763184
129.31;-80.6987948465748
130.1833333333333;-81.056132536836
131.212;-80.75109819047165
131.909;-80.82767428376008
132.62766666666667;-81.18259100798747
133.14733333333334;-81.2076676913265
133.74433333333334;-80.91670977344543
134.59633333333332;-81.22782973513331
135.43666666666667;-80.9019693294646
135.96766666666667;-80.74016567431138
136.59799999999998;-80.91907807005249
137.22833333333332;-80.48840232756092
137.90266666666665;-80.79691071026589
138.49966666666666;-81.3205052337989
139.13;-81.35907925257149
139.82600000000002;-81.94559420223638
140.52133333333333;-81.11474512712499
141.70433333333335;-81.15955597442688
143.242;-81.67794694571053
144.10433333333333;-81.38400866201016
144.91133333333335;-81.70503641453098
146.28133333333332;-81.7223745454377
147.16533333333334;-81.75761449938186
148.138;-82.38286384283145
148.647;-82.05998155703476
149.23299999999998;-81.6518508819871
150.31633333333335;-82.06879671698493
151.013;-81.61393977630277
151.433;-81.0386316405035
152.61599999999999;-81.16859593019733
154.34033333333335;-81.33611917480553
155.14766666666665;-82.02179237030872
156.364;-81.55277392396863
157.48133333333334;-80.69585428293018
158.388;-81.2510762673951
159.04066666666665;-81.397078758863
159.726;-81.70078172540701
161.44033333333334;-80.83914616845878
162.9223333333333;-81.5186276021975
164.106;-81.92024089489492
165.04600000000002;-81.061074283858
166.26233333333332;-81.50127476491929
166.948;-81.07505899931576
167.83266666666668;-80.8628456391775
168.9606666666667;-80.79940829673711
170.144;-80.6288787228851
171.01733333333334;-81.1885597564113
172.48833333333334;-82.29725217871126
173.22933333333333;-81.6537944490921
173.85933333333332;-81.12461814847788
174.24633333333335;-81.12093466332772
175.0533333333333;-81.39158010960121
175.80499999999998;-81.47518156541342
176.51233333333334;-81.00791709671041
177.14333333333335;-81.79052417239447
178.01666666666665;-81.57626476993568
178.82433333333333;-81.23399664930545
180.00699999999998;-80.96804154457382
180.71400000000003;-81.69485071978598
181.52133333333333;-81.55641458202238
182.31766666666667;-81.55068784365204
182.9043333333333;-81.86559294315073
184.13166666666666;-82.37422279892921
185.14866666666663;-81.74998096660221
185.8563333333333;-81.23818426283923
186.86233333333334;-80.77417040674891
187.57066666666665;-80.84609735337636
188.201;-81.21535335755833
188.798;-81.21546487540213
189.45000000000002;-81.1167773820927
190.114;-80.7432965325269
190.95466666666667;-81.56102598621379
191.71766666666667;-81.75370858598532
192.42600000000002;-81.08802946548812
193.4766666666667;-82.09258692346147
194.184;-81.96263586211822
194.9143333333333;-81.92726235482463
195.64433333333332;-81.75756457976263
196.27433333333337;-81.00392130682543
196.78266666666664;-81.39940105307942
197.39066666666668;-82.24363391788327
198.01;-81.7132655859573
198.7396666666667;-80.7932634684442
199.624;-81.31737896348764
200.354;-81.4893486391428
201.39333333333335;-81.21516400826172
201.81333333333336;-81.47243235555615
202.43266666666668;-81.32492538628061
203.11800000000002;-81.3424839469819
203.6933333333333;-81.59183082781644
204.33433333333335;-81.33353633882264
204.69933333333333;-81.27846676859627
205.816;-81.04339329608784
206.667;-81.05920730810783
207.275;-81.60206216592263
207.905;-80.05609967217337
208.95566666666664;-80.23583565473224
210.17200000000003;-80.90294769757625
210.62566666666666;-81.49418327972413
211.399;-80.8997212173193
211.96266666666665;-81.38312024938429
212.92566666666667;-80.60870795592525
213.567;-81.70314941946738
214.22899999999996;-81.09063781825202
214.9476666666667;-80.83629421338097
215.821;-81.36265780867096
216.51733333333334;-80.88171672074476
216.971;-81.15652912318194
217.977;-80.93734320841733
219.038;-81.2852573657158
219.94500000000002;-81.00713826610836
220.72;-81.0000176809399
221.21699999999998;-82.0031273115644
221.70333333333335;-81.99680364800128
222.14533333333335;-81.80074122161085
222.97433333333333;-81.60167137720184
223.56066666666666;-81.65505899915985
224.34533333333334;-81.80572971929733
225.00900000000001;-80.84591579701711
225.88233333333332;-81.4878059510756
226.646;-81.15822226679344
227.287;-81.2528853907001
227.92766666666668;-81.69305916763038
228.61266666666666;-81.69744816548916
229.16600000000003;-81.77176887987855
229.97266666666667;-81.09103403460367
230.68066666666667;-81.47784245483278
231.41066666666666;-81.56110808405633
232.00733333333332;-80.9251350221894
232.66033333333334;-80.7219304659566
233.39033333333336;-80.84689906136177
234.153;-80.45772717882733
234.99266666666665;-80.80698934839074
235.65566666666666;-81.02506438376783
236.56266666666667;-81.18114230153147
237.5136666666667;-80.55349623832616
238.354;-81.03515914641652
238.91799999999998;-81.73901680456044
239.946;-81.93536205065149
240.665;-81.80826917254268
241.57166666666663;-80.7347819865324
242.5783333333333;-81.5779928482727
243.42999999999998;-81.32958069231607
244.20366666666666;-81.21890820104244
244.76666666666665;-81.99216432216986
245.56300000000002;-82.03907701116255
246.4696666666667;-81.29451982739613
247.25466666666662;-81.08450466334632
248.095;-81.0645162690735
249.03433333333336;-81.60998083920133
250.062;-81.69822227680156
251.23433333333332;-81.78549044551012
252.008;-81.27707456592923
252.726;-81.3867379117469
253.5666666666667;-81.33268828894646
254.53966666666668;-81.43939995910199
255.336;-81.16277805149068
256.176;-81.9077991316977
257.459;-80.97292493321325
258.0783333333333;-80.50852269298397
258.68666666666667;-81.23573524605145
259.44933333333336;-80.851463047026
260.2126666666666;-81.44577487578577
260.97599999999994;-80.8065107937841
262.02500000000003;-80.48710794875389
263.1196666666667;-80.74560939140784
263.8163333333333;-81.00967504757133
264.7896666666666;-81.24626697073674
266.0613333333333;-81.64277940445774
267.18966666666665;-81.16189892688512
267.9306666666667;-81.35375448377874
268.76933333333335;-81.62216282416993
269.963;-81.63721725331209
270.83666666666664;-81.03963283625606
271.3553333333333;-81.54073281032632
272.019;-81.14567649405924
272.771;-81.73745549469254
273.3346666666667;-82.13513421018993
274.1193333333333;-81.78685411755123
274.738;-80.90498144057003
275.36899999999997;-81.11580385370502
276.29766666666666;-81.28345916578404
277.02733333333333;-80.82962029463724
277.7456666666667;-81.20612354594482
278.61899999999997;-81.0337986329437
279.32666666666665;-81.06015463280121
280.21133333333336;-81.33641179727438
280.952;-81.42739569475904
281.72566666666665;-82.14448732371208
282.422;-82.05986689066879
283.01933333333335;-81.63750661758843
284.1036666666667;-81.17839372436652
284.94399999999996;-80.87861125033196
285.98333333333335;-81.88860818524917
286.84566666666666;-81.16780983416157
288.12833333333333;-80.98839969956298
288.61466666666666;-81.80989132497217
289.16800000000006;-81.80676356766722
290.2626666666667;-81.45990417830875
291.103;-81.5138109544364
292.0753333333334;-81.7392730449157
293.015;-81.90457212079346
293.78866666666664;-81.76104671491919
294.4856666666667;-81.0819768901092
295.0596666666667;-81.18285999942476
295.656;-82.06307136696941
296.3416666666667;-82.10993230309441
297.215;-81.85606809086684
298.12166666666667;-81.60993192707826
299.0836666666667;-82.10069364966175
299.8586666666667;-81.82856244509509
300.75466666666665;-82.2583957387097
301.661;-81.97974682638012
302.5683333333333;-81.52125119062886
303.1326666666667;-82.24717875726937
303.962;-81.89898963228222
304.65933333333334;-82.05915531874966
305.776;-82.33104501634242
306.6936666666666;-82.42881706597777
307.424;-82.11295180758033
307.944;-81.84830298178224
309.7126666666666;-81.6696686074578
310.387;-81.32234211596293
311.01666666666665;-82.2624083663999
311.71333333333337;-81.96921684689879
312.44300000000004;-81.44212607821726
313.0063333333333;-80.80775890904494
314.25600000000003;-81.47337034418659
314.798;-80.99369056084943
315.516;-81.27217329068614
316.26866666666666;-81.22253088111209
316.667;-81.38479809564556
317.25333333333333;-80.71727773300188
317.917;-80.47334883389094
318.54733333333337;-81.20710491588981
319.1773333333333;-81.71727400846447
320.87999999999994;-81.8282213778537
321.5663333333334;-82.08096595948462
322.29633333333334;-82.1217973844235
323.07;-81.06836780453347
323.6893333333333;-80.9389164698824
324.872;-82.4423567564027
325.88933333333335;-81.69121713294093
326.8296666666667;-82.00889436674984
327.71433333333334;-81.31804638849296
328.51033333333334;-81.97381457254856
329.2616666666667;-81.16738453891152
330.31299999999993;-82.1056298224478
331.20966666666664;-81.99124902248424
331.741;-82.02764209336895
332.5036666666667;-81.43610461980133
332.913;-81.47985711858647
333.4986666666667;-81.70796118753634
334.20666666666665;-82.2068560499976
334.6933333333333;-81.91201635622281
335.30133333333333;-81.55980656782891
336.24133333333333;-80.88281226671694
337.08200000000005;-81.41692981877456
338.92900000000003;-82.07473219334653
340.68800000000005;-81.02216802564946
341.8043333333333;-81.13327820329707
342.7556666666666;-81.74554063975647
343.38533333333334;-81.15383211787208
344.4683333333334;-81.67590218714935
345.1983333333333;-81.09742566905415
346.0163333333333;-81.56734994895974
346.95533333333333;-81.5822882631007
348.36033333333336;-81.37182095498947
349.4986666666667;-81.71039086253208
350.2833333333333;-81.73061128261308
351.45433333333335;-81.76113961104532
352.383;-81.33236235963038
353.2563333333333;-81.67603990140319
354.396;-80.88263411323166
355.4463333333333;-81.16908917389244
356.00933333333325;-80.99200109224367
356.73900000000003;-81.20363377852594
357.63466666666665;-81.59544432108065
358.55266666666665;-81.89237580364559
359.6033333333333;-82.08923487156741
360.7416666666666;-81.14158881257852
361.527;-80.85487086505508
362.787;-81.72712175990434
363.76;-81.4574644570394
364.52299999999997;-82.71829329867992
365.22;-82.90876629077766
366.98966666666666;-81.7638373282717
368.007;-82.19177308449736
368.8476666666667;-81.7492963233525
369.555;-80.90408264366549
370.6276666666667;-81.33028759223639
371.347;-81.09895484558986
372.11033333333336;-81.28601998559238
372.77399999999994;-81.66880549196686
373.49233333333336;-81.17455054158353
374.887;-81.15215511972127
376.0813333333333;-81.30149117744647
376.778;-80.83711176230904
378.116;-81.1292645164788
378.912;-82.01444747897084
379.7083333333333;-81.5860592283871
381.3443333333333;-81.25212886299525
382.3503333333333;-81.99151053726993
383.18;-81.67208917424222
383.9433333333333;-82.83616461867723
384.71733333333333;-82.22141500037887
385.22599999999994;-81.60403241890084
385.8343333333334;-81.74153286986771
387.038;-81.087534654297
387.65766666666667;-81.88870990605582
388.21033333333327;-83.3684558519056
389.128;-83.00229981336933
389.626;-83.67389487635515
390.50933333333336;-81.85550807462599
391.1383333333333;-81.83004139523516
391.8343333333334;-81.1520726491237
392.5756666666667;-83.00341250672919
393.2283333333333;-83.62718488684993
393.74766666666665;-83.59938855558119
394.8086666666666;-81.74205646526404
395.65000000000003;-81.42665707530399
396.39033333333333;-81.90139303201204
397.4073333333333;-82.19763204353171
398.40166666666664;-81.19950959617049
399.16533333333336;-81.41019063055613
399.7176666666667;-84.4240855988374
400.31466666666665;-83.87325496449566
401.1666666666667;-82.33871366588203
401.73;-82.48797938326567
402.6143333333334;-83.35865552668015
403.9853333333333;-81.99703704366306
404.95866666666666;-81.02366483661127
405.9096666666667;-82.61361512904412
406.971;-81.88465878190317
408.01066666666674;-80.97621649160065
409.22599999999994;-81.46407033803067
410.243;-81.07143662071901
411.2163333333333;-80.22358264103559
412.267;-80.68644672692243
413.1406666666667;-81.45027008359189
413.8476666666667;-81.99891580306414
414.99766666666665;-81.28727386481204
416.137;-81.59457082239571
416.83366666666666;-81.35746836356323
417.4753333333333;-80.56785012343833
418.017;-81.29978827163355
418.73566666666665;-80.74679429253088
419.5203333333333;-81.49192938095949
420.03999999999996;-82.7121847082574
420.69266666666664;-82.33025084453553
421.499;-81.84092345451947
422.16266666666667;-82.52286647602506
422.814;-83.38238895870897
423.278;-82.86403161914494
424.05166666666673;-81.39443120155232
424.74766666666665;-81.08516420969733
425.378;-82.23958404033267
426.53866666666664;-83.12409949270972
427.4336666666666;-82.52442909622849
427.931;-82.13026218532764
428.71600000000007;-82.0352877368335
429.91;-82.99989532059688
430.7726666666667;-82.23254512060139
431.90000000000003;-81.69978798204353
432.59633333333335;-80.85893213378957
433.358;-80.86228823679222
433.96600000000007;-82.43709381560481
434.5516666666667;-82.94054689914863
435.1383333333333;-81.6637661327132
436.84099999999995;-82.2401682114312
437.9693333333333;-81.96016668258116
438.96433333333334;-82.08547421398325
439.8153333333333;-81.7944165144757
440.52333333333337;-82.10951314521415
441.2966666666667;-81.88490172618712
442.2803333333334;-82.41712233605037
442.877;-82.29199742133189
443.363;-82.61147022606835
444.269;-82.0354992171319
445.319;-81.32273648699069
446.3693333333334;-81.73950951661193
447.884;-81.6705826975999
449.067;-81.77228425941297
450.38166666666666;-82.56741116470374
451.07733333333334;-83.30854785296475
451.695;-84.0180529623277
452.0043333333333;-83.26294300609524
452.546;-81.91012696754765
453.3093333333333;-81.13835446461198
454.5166666666667;-82.43675035117684
455.047;-81.88705154110816
455.52299999999997;-82.82333928326972
455.9316666666667;-83.42967358203751
456.3736666666666;-83.38627633393683
457.1366666666666;-83.36944269510376
457.82199999999995;-82.02058448312658
458.4736666666666;-82.48862844015727
459.413;-81.92327916247147
460.14300000000003;-82.32938785381258
460.67333333333335;-83.1956073602451
461.90000000000003;-82.75548009696409
463.1493333333333;-81.38309491360627
464.0116666666667;-81.50827882860075
464.85099999999994;-82.73266142249045
465.6143333333334;-82.2131641128846
466.17800000000005;-82.07475999753385
467.3703333333333;-83.33086056979906
468.0450000000001;-82.76963718235642
468.66366666666664;-82.27390041468117
469.30400000000003;-81.69067741381419
470.32033333333334;-81.47356549996253
471.34799999999996;-83.08219076507419
472.15500000000003;-81.93535279834916
472.94966666666664;-83.7608095849301
474.2093333333334;-82.72730332192239
475.3586666666667;-81.8660848910473
476.98133333333334;-81.98516271933364
478.0743333333333;-82.30336509924922
478.847;-80.6694317970821
479.753;-82.08541502187674
481.40000000000003;-82.12873568405824
482.2726666666667;-81.3836795918435
483.1123333333333;-81.72961614047637
484.92366666666663;-80.84019327164229
486.526;-80.088019517015
487.92900000000003;-81.0136909967853
488.8566666666666;-81.29428429010427
489.41966666666667;-81.00535154035263
490.182;-83.86665645498911
490.8123333333333;-82.00311720459294
491.70699999999994;-81.72245078821058
492.43800000000005;-81.20043374829339
493.392;-80.58215703798379
494.1213333333333;-82.43668852447142
494.61833333333334;-83.73888002219232
495.16;-82.16664092635699
495.8233333333333;-82.60691196662158
496.387;-81.83599640549795
496.85099999999994;-82.99203295706329
497.40366666666665;-82.1242745798457
499.182;-83.09593890505941
500.2753333333333;-81.60359838480991
501.86533333333335;-82.45483516252257
502.74899999999997;-81.32463160035951
503.644;-80.98648232765925
504.51666666666665;-80.44560033877544
506.62733333333335;-80.41505424219322
507.87600000000003;-80.73524843995509
508.9156666666667;-81.53893909603732
510.087;-81.30719137404542
511.01533333333333;-81.05063758047943
511.7003333333334;-80.59856830270716
512.408;-81.17918426651985
513.0160000000001;-81.48134638320475
513.6683333333332;-81.25992149375429
514.0546666666667;-84.01419830052765
514.7843333333334;-83.56638648844708
515.746;-82.11900037198828
516.906;-81.7763432030257
517.9993333333333;-81.6679443734575
519.147;-81.36096723577984
519.8423333333334;-81.45539804915228
520.9013333333334;-81.38460375750833
521.431;-81.28685952496565
522.3243333333334;-81.03949877430446
523.2403333333333;-80.47357936850923
524.707;-81.07553467882929
525.7660000000001;-82.50838885180515
526.2956666666668;-82.13815157409616
526.9363333333333;-83.06770464283821
527.4226666666667;-82.66955191573753
528.097;-82.3247885132917
529.114;-81.49426391651282
529.9763333333334;-80.79462601212367
530.9499999999999;-80.79701627480816
531.8226666666667;-80.70714055234707
532.5413333333333;-80.89974259509549
533.5363333333333;-81.20008003184108
534.4206666666665;-82.42360503340133
535.0396666666667;-83.46129428169203
535.6473333333333;-81.84028429911837
537.5043333333333;-82.13578654811849
538.212;-81.52756710441099
538.7423333333332;-82.47762974720604
539.0846666666666;-81.26594230766449
539.8249999999999;-80.75668796972047
540.4;-80.8691429302437
541.3713333333334;-81.08550513626336
542.2226666666667;-80.834722912112
543.1503333333334;-81.69426681383783
545.0606666666666;-81.80240175323254
546.011;-81.73745320705233
546.9056666666667;-81.91134532397298
547.8783333333334;-81.96106446412863
548.6853333333333;-81.88919375151778
549.7579999999999;-81.04862356231075
551.792;-81.89668218609391
552.4993333333333;-82.54834704869258
553.5156666666667;-81.5820715607553
554.5656666666667;-81.69679191970174
555.727;-81.473467619175
556.3126666666667;-83.05171571594414
557.0859999999999;-81.55778478500253
557.6926666666667;-81.26315769034488
558.544;-81.23257061991742
559.9253333333332;-81.51549862239777
560.334;-82.559149799512
560.8646666666667;-81.42369564976079
562.5333333333334;-81.29880198519726
563.7596666666667;-81.25302090932855
564.6439999999999;-80.90919575991204
570.38;-82.2338487831008
573.1873333333333;-83.25369528291795
573.8506666666666;-83.35365605751781
574.8616666666667;-83.35404196500768
575.8040000000001;-82.46000955772138
577.0306666666667;-81.72162481917877
579.6716666666667;-80.89757568892834
581.7606666666667;-81.3855700081505
583.8933333333333;-81.02239677055468
585.428;-80.83841743481234
586.2663333333334;-81.70094237276086
587.0500000000001;-80.70783138738715
588.0096666666667;-81.5823370409419
589.6756666666666;-81.32191240297624
590.371;-82.61548295596629
591.0996666666666;-81.17682193877533
591.774;-81.1031901479233
592.525;-81.07371480710005
593.1313333333334;-83.05923358550925
593.5953333333333;-82.11916258578502
594.3016666666666;-81.69549055523889
595.3846666666667;-81.79075700989054
596.0256666666668;-82.89493474849479
596.7219999999999;-84.44642185034586
597.286;-82.39948545919951
597.8936666666667;-82.63887137815604
598.3693333333334;-81.77725149292297
599.21;-81.23534488325255
599.6303333333334;-82.76074541113937
600.4033333333333;-82.17436331372761
601.5749999999999;-81.67447861783226
602.2379999999999;-82.9228432190393
603.0336666666667;-82.04702415340057
604.0283333333333;-80.96539755421553
604.8013333333333;-81.83920513137257
605.4856666666666;-83.12665244522067
606.226;-81.31770891816643
606.6460000000001;-81.61821882851794
607.1986666666667;-81.61009890143528
608.226;-81.56770347302121
608.8223333333334;-81.93176490908859
609.4963333333334;-81.87804265232172
610.2146666666666;-81.37455833844038
610.6013333333333;-82.7283146087818
611.1643333333333;-81.8465697865568
612.2933333333334;-81.3855902079178
613.1156666666667;-82.90755773184272
613.5146666666666;-82.09277265682333
614.1886666666668;-82.26532057345457
614.8956666666667;-83.03221948441018
615.7906666666667;-81.80842461015422
616.9726666666667;-82.30577425661693
618.3203333333333;-81.66792521028427
620.5736666666667;-81.7016917722657
621.3686666666666;-82.83985500525566
622.0983333333332;-81.65422719286987
622.7943333333334;-82.87123903304374
623.3133333333334;-83.5163402560716
623.899;-82.44552842598878
624.4293333333334;-81.49938419809325
625.2026666666667;-81.48627574284231
625.9319999999999;-81.25279179828689
626.5283333333333;-84.62379729395457
626.9373333333334;-83.86059194381085
627.5446666666667;-84.38943776141075
628.373;-83.08667380931945
629.036;-82.40757344608576
629.555;-81.76869303694536
630.406;-81.002001796115
631.3443333333333;-81.4096337290519
631.9193333333333;-82.12638518770252
632.4716666666667;-81.9018459584534
632.9906666666667;-81.53353531671357
634.5806666666666;-81.99478583553974
635.2436666666666;-81.42404160094965
635.951;-81.22473380645832
636.5703333333333;-82.08970260207826
637.9200000000001;-81.80291070593319
638.771;-82.05183641650703
639.7779999999999;-81.17383433119242
640.5403333333333;-81.74678200434163
641.5576666666666;-81.16570014093104
642.5753333333333;-81.98092349973422
643.7246666666666;-81.2888236430136
644.7306666666667;-82.5671067341787
645.3056666666668;-81.44077420153795
645.9573333333333;-82.43313173306927
646.8406666666666;-83.67447761821141
647.5816666666666;-82.38244950263795
648.212;-81.7362317314007
650.8753333333334;-80.78435894743166
652.9303333333334;-81.66666494178737
654.2669999999999;-82.9707701853667
655.3613333333333;-82.1269218503517
656.024;-81.72325200566685
656.9183333333333;-81.17325981773303
657.703;-81.8896856094481
658.1116666666666;-82.87113368656925
659.0733333333334;-82.11405626983634
660.8863333333334;-81.13386392009177
662.0466666666666;-82.69932902276466
662.6213333333334;-82.1420918904219
662.9413333333333;-82.21479968469795
663.45;-82.3643960060224
663.9806666666667;-82.92865262467964
664.677;-82.79426329596056
666.3673333333332;-82.12528665950697
667.1636666666667;-82.23003952983623
668.1473333333333;-81.89993679033986
668.634;-84.28034592601705
669.5293333333333;-83.01224807146465
670.6456666666667;-83.19153684395955
671.6843333333334;-81.26568494371438
672.4256666666666;-81.60174144914912
673.4100000000001;-81.32109749380896
675.279;-80.38171709931508
676.506;-81.33366406206173
677.6113333333334;-82.80791758027881
678.1750000000001;-81.51527284690637
679.1916666666667;-81.68701332206237
680.131;-82.09936658886241
680.7723333333333;-81.79925984410373
681.7893333333333;-81.70445429990852
682.6736666666667;-81.50675400556804
683.6133333333333;-81.86059439725808
684.2436666666666;-82.69332326444186
685.2603333333333;-81.67909281373096
685.9903333333333;-82.12626837707455
686.698;-82.03694073167955
687.8029999999999;-81.65966389493781
688.4776666666667;-81.68012028040849
689.0743333333334;-81.4172782835055
689.957;-82.8155010227711
690.8063333333333;-82.86506391138977
691.5790000000001;-81.28743871177119
692.0646666666668;-81.17129864517118
693.3776666666666;-81.27664479182026
694.2379999999999;-81.70965142586581
694.9436666666667;-81.80264367189598
695.7383333333333;-81.25777478296116
696.5219999999999;-81.30966240969343
697.8923333333333;-81.18969920079806
698.6096666666666;-81.51063909471841
699.1169999999998;-82.19448019012185
700.1323333333333;-82.33072720997853
700.8286666666667;-83.68997414979292
701.677;-83.24593509765566
702.4866666666667;-81.91737024839772
703.1716666666666;-82.69404625198534
703.9016666666666;-82.27377291488135
704.8746666666666;-82.85502011847751
706.2016666666667;-81.2669044456953
706.8316666666666;-83.45347903814101
707.6056666666667;-82.0190828125208
708.8546666666667;-81.37419531101361
709.938;-82.76547429297996
710.7336666666666;-81.66822136306499
711.8943333333333;-81.79134826885068
713.1876666666667;-82.72657822989788
714.3483333333334;-81.88231869464246
715.2996666666668;-82.00732624238472
716.051;-81.6303923558526
716.7806666666667;-81.58538940270023
717.123;-81.4413217208217
717.7310000000001;-81.88040196414241
718.2393333333333;-83.1256545540318
718.8919999999999;-81.82884729989607
719.8753333333334;-81.8097172099667
720.7153333333332;-82.45021506857526
721.323;-81.48798326813557
722.3186666666667;-81.68448563058442
722.8040000000001;-82.948629266108
723.5780000000001;-83.25543394400933
724.3406666666666;-82.30612542942609
724.993;-82.7616403470671
725.909;-83.46337589746317
726.549;-82.2528374908667
727.1456666666667;-82.2926307001351
727.8083333333334;-81.87057027911264
728.5600000000001;-81.39374118799275
729.0793333333335;-81.3521709816012
729.919;-81.12293532490615
730.7526666666666;-81.91552205292221
732.0323333333334;-82.20739413536221
732.8830000000002;-83.28570712638444
733.578;-84.22210400976878
734.5486666666667;-82.30789732648624
735.1553333333333;-81.47777471522988
736.4466666666667;-81.00731608418926
737.2196666666665;-82.88618821535229
737.584;-82.28632267187581
738.1803333333334;-81.35122139376875
739.273;-82.863809866068
740.4866666666667;-82.01922085218136
741.25;-81.91346552279899
742.3209999999999;-81.971317888724
742.9609999999999;-80.51201911524036
743.8100000000001;-80.75897443634838
745.4573333333333;-80.88773888221088
748.465;-81.12330413496338
749.1393333333334;-81.0724084264974
749.4376666666667;-81.82514243946761
750.067;-80.75842898396475
750.8073333333333;-82.5543506248692
752.8416666666667;-81.6384184064562
753.4933333333333;-82.07050173053666
754.1990000000001;-81.22691529343496
754.6623333333333;-82.79878837068757
755.2253333333333;-83.82790765476744
755.7103333333333;-83.87282026872637
756.2289999999999;-82.64611137728721
757.2673333333332;-82.26622460375881
758.0743333333334;-81.98135270955152
759.3443333333333;-80.92143451286702
760.4263333333333;-81.6139806121464
762.0386666666667;-81.41619985494847
763.0436666666668;-81.81900738294325
764.0263333333334;-82.21788613174307
764.976;-81.41882928844075
765.8153333333333;-82.33830706585054
767.35;-81.88615390236554
768.0459999999999;-82.16987078658266
768.8186666666667;-80.75810562774602
770.011;-80.93435872571949
771.2370000000001;-82.16379053460629
772.4626666666667;-82.04109191023898
773.0260000000002;-82.98450874312707
773.8543333333333;-82.34916453709765
775.4340000000001;-81.05495971027858
776.2733333333334;-81.69076972060687
778.0403333333334;-80.7250520316325
779.5313333333334;-80.86668407199569
780.8449999999999;-80.48795684569707
781.7286666666668;-81.00064282452726
784.5453333333334;-81.01753594047749
787.9473333333334;-81.4779590059703
788.7863333333333;-81.13894784545182
789.6143333333333;-81.4859065625974
790.531;-81.52501093396532
791.4803333333333;-82.6329647781789
792.0986666666668;-83.20800392065368
792.8056666666668;-82.52696326174114
793.3253333333333;-81.64560722386031
793.8773333333334;-81.98848560481038
795.8209999999999;-81.0775866058036
796.451;-82.1531925873833
797.4113333333333;-81.54089988203913
799.4876666666668;-81.21158717647435
803.1533333333333;-82.64045054270673
805.0526666666666;-81.63195990025787
806.0016666666667;-81.31323939229026
807.4156666666668;-81.07013539261122
808.5416666666666;-81.70803387660432
809.2370000000001;-81.34277416090578
810.7926666666666;-81.52993780319524
812.9353333333333;-82.62404078910802
815.1996666666665;-83.24813039582952
815.8953333333334;-81.86526465431042
816.447;-82.9981806316076
817.154;-82.40645834894532
817.6733333333333;-81.98473815252997
818.8330000000001;-81.88597806396069
819.7389999999999;-80.98731181160339
820.4576666666666;-82.21972742450205
821.1876666666667;-82.32912454775744
821.7956666666668;-81.49901224590307
822.4483333333333;-81.5890471511578
822.9243333333334;-82.51464728876888
823.3666666666667;-82.31863092273713
824.2176666666668;-82.60438167790845
825.102;-83.2730637317355
826.042;-82.93961776383456
826.8273333333333;-83.86370925898734
827.4136666666667;-82.24730049579512
829.4033333333333;-82.33074669516968
831.0070000000001;-82.35328892621308
831.6473333333333;-81.15781206151519
832.3993333333333;-81.75517470284996
833.4056666666667;-81.56795440379271
834.2126666666667;-81.394915250102
834.953;-82.31725275055415
835.3286666666667;-81.85818213531766
836.7109999999999;-82.27833760547614
837.4516666666665;-84.73864376794012
837.8273333333333;-82.77214293352662
838.457;-81.3700487691709
839.1536666666667;-80.99186798774255
839.9943333333334;-80.60382737747663
841.939;-81.6689326494942
843.1109999999999;-81.14878946812748
843.8623333333334;-81.18722797780966
844.9463333333333;-81.97608748648142
845.5766666666667;-82.89909730892283
846.0743333333334;-81.75200474690521
846.5596666666667;-81.24792428645928
847.0126666666666;-81.13406737116188
847.7536666666666;-82.15604906049455
848.7266666666668;-81.69184815979676
849.5443333333333;-81.9271239507728
850.185;-81.6127635817767
850.6153333333333;-82.16292139405451
851.1673333333333;-81.57498678743694
851.6763333333333;-82.76868660423291
853.5436666666666;-81.77101845049377
854.2716666666666;-81.12202625582128
855.0659999999999;-80.88111889795553
855.7613333333334;-82.1438917210383
856.5346666666668;-81.88454031501175
857.3746666666666;-83.0758908973377
858.07;-81.75222542221222
859.3299999999999;-82.18805516943613
860.4896666666667;-82.07878422772835
861.4290000000001;-82.17678204362369
862.6566666666666;-82.05977711352315
863.6516666666666;-82.73801465721424
864.4919999999998;-81.58102619849149
865.718;-82.8176208841293
866.448;-82.21224874214171
867.5649999999999;-81.50234092910422
868.2610000000001;-81.62572824330748
868.5816666666666;-81.97203382253693
869.2563333333334;-82.51187324435992
870.881;-81.9051385633415
871.9206666666665;-81.86183082923918
872.728;-82.89848323275281
873.6346666666667;-81.93780645210077
874.5843333333333;-83.03265152565338
887.8916666666668;-81.69726874477641
919.4836666666666;-81.31185107717674
920.125;-82.23525338255637
920.9876666666665;-84.75614168124801
921.5956666666667;-82.8361467797501
922.0046666666667;-83.13322705931441
922.4793333333333;-83.30351263688867
923.0766666666667;-83.97619263702094
924.3923333333333;-83.53915382026476
925.0556666666666;-82.68749788179879
925.6966666666667;-83.3320537089485
926.4699999999999;-82.74815878228458
927.1883333333334;-83.85286302219892
927.6640000000001;-81.9389663906325
928.2166666666667;-81.35614607487794
928.9786666666668;-80.69675931308186
929.5086666666666;-80.53585607910101
930.3266666666667;-80.01257520803233
931.4313333333333;-80.12776625204594
932.0390000000001;-81.50981655711304
932.503;-81.5885773314046
933.1553333333333;-82.65294635358126
933.5973333333333;-85.59185957621732
934.2826666666666;-84.32239725073603
935.0790000000001;-85.21517842102276
935.7753333333334;-82.90883086807527
936.3166666666666;-84.00251288023202
937.0346666666666;-83.5694228089873
937.7756666666666;-81.67443405504332
938.7476666666666;-81.52579737966077
939.7316666666667;-81.27947758457876
940.373;-82.20103309634008
941.2903333333334;-82.88406831675306
942.1306666666666;-83.03815824256972
942.6173333333332;-84.25406854933695
942.9706666666666;-84.53922954514837
944.3629999999999;-83.40012693370119
945.1813333333333;-81.92123449543905
945.823;-82.41454823299296
946.3093333333333;-83.16694183200183
946.7959999999999;-84.16250941337073
947.1936666666667;-84.4195187653106
947.6909999999999;-82.77597056042146
948.2323333333334;-81.78524608814546
948.8406666666666;-81.69047196736607
949.8249999999999;-81.13504469214463
950.7536666666666;-82.68796555387779
951.3729999999999;-83.56439348791756
952.2473333333334;-85.6266277464959
953.0880000000001;-84.64174422569288
953.9383333333334;-84.53466019348066
954.6786666666667;-82.30020061206177
956.0716666666667;-81.56880164846534
956.7903333333334;-81.76286217837593
957.8406666666666;-84.8853282128391
958.2163333333333;-84.87715379008678
958.6696666666667;-82.87723533606673
959.5536666666667;-84.3708155983086
960.1386666666667;-81.72072601590861
961.0456666666668;-80.64930002197488
961.565;-81.66510400303949
962.2510000000001;-82.20060987961553
962.9586666666665;-81.3497320336793
963.4119999999999;-84.22652157973636
964.0310000000001;-83.46071355578117
964.8380000000001;-81.82760398223311
965.5790000000001;-83.1171142707181
966.3863333333333;-84.01252243034355
966.9503333333332;-81.81096583785191
968.3656666666667;-82.99734735358969
969.1616666666667;-81.39757479897132
969.781;-81.39549194007641
970.3446666666665;-83.15523006783441
970.9633333333335;-84.16085527570822
971.881;-82.79135087187879
972.6;-84.15090778032219
973.2743333333333;-84.19168069859676
974.38;-83.32830697645942
975.0099999999999;-81.65743666811704
975.4963333333334;-82.4117614595869
976.0266666666666;-82.50579332730766
977.4073333333332;-81.95285486257528
979.285;-81.98746086623635
980.2019999999999;-82.59427368412011
980.6333333333332;-82.63295095942898
981.152;-83.18721744085165
981.9906666666667;-83.0030943840341
983.2713333333332;-81.74539707767562
984.2436666666667;-82.27556445591294
984.7636666666667;-83.5684792699887
985.2386666666666;-82.30125235090263
986.1013333333334;-80.92075068495662
987.14;-80.06038864141061
988.3226666666666;-82.46503469892133
988.8093333333333;-82.3045145092279
989.727;-83.22615483547426
990.4793333333333;-81.1669152249894
991.275;-80.14627907086091
992.2253333333333;-80.81824796389203
993.12;-80.70796467189737
993.7826666666666;-82.83309201222076
994.4793333333333;-84.96184095657291
994.8443333333333;-82.55160363518566
995.3753333333334;-85.90024855855613
996.6586666666667;-82.98318800410237
998.1293333333333;-81.2330234988498
998.8043333333334;-82.54872397026773
999.3463333333334;-83.9461046391352
1000.4073333333332;-82.4544948734809
1012.7716666666665;-80.89720643152052
1035.7420000000002;-81.41370759917474
1036.8593333333333;-79.96726485238231
1037.7776666666666;-81.18558726764749
1038.2416666666668;-81.97074377863748
1039.1036666666666;-83.5468854716063
1039.5126666666667;-81.79474693565696
1040.6186666666665;-82.19684529009831
1042.1676666666667;-82.89387056060886
1043.0863333333334;-81.55323915850349
1043.595;-81.24624022103859
1044.6786666666667;-82.67176530650565
1045.6843333333334;-82.6187506724223
1046.5463333333335;-81.42919075695431
1047.7299999999998;-81.06275144985486
1048.8143333333335;-80.52310873172546
1049.5556666666666;-80.64305557281055
1050.3190000000002;-81.09363618569984
1051.0376666666668;-81.57986904479965
1051.9003333333333;-82.67245762354241
1052.863;-83.54643020300949
1053.7806666666668;-83.14508187176278
1054.4883333333335;-82.07875253053844
1055.4726666666668;-81.36089794967
1056.3136666666667;-82.78437711803123
1056.8999999999999;-82.12170586105502
1057.575;-82.07619020648058
1058.4486666666667;-81.31465262873843
1059.2669999999998;-84.39841146193027
1075.4046666666666;-82.42497650867625
1091.8100000000002;-83.33123275057171
1096.634;-81.94829406713237
1097.4966666666667;-82.08486169224602
1098.558;-81.16563436124608
1100.007;-82.76351487065051
1100.759;-83.67194287402288
1101.5223333333333;-81.77721897767067
1102.1963333333333;-81.36632712178319
1102.9043333333332;-82.22860758881775
1104.0876666666666;-82.30338279341602
1105.4363333333333;-81.69508631515734
1105.9123333333332;-82.66952086327483
1106.6423333333332;-83.08686593032793
1107.3833333333334;-82.58879526824228
1107.9033333333334;-82.35007826945119
1108.5339999999999;-82.33395210973133
1108.8876666666667;-81.55483476581918
1109.4846666666665;-81.73981157001244
1110.2479999999998;-84.75485389650771
1110.7566666666667;-83.98046213882576
1111.4866666666667;-82.40950636415425
1112.1946666666665;-81.49445362620759
1112.913;-81.8442221576469
1113.754;-82.45399353780343
1114.4626666666666;-83.0140302924049
1115.1373333333333;-81.08249310145317
1116.0886666666668;-83.71844239951842
1117.0293333333332;-82.67091036153722
1117.77;-82.51838688886978
1118.489;-83.50338494584163
1119.2849999999999;-84.90423655869976
1120.5563333333332;-82.67519070025213
1121.2083333333333;-82.63090414030476
1121.706;-83.88530793946494
1122.0156666666664;-84.03753910459709
1122.79;-84.4735849912382
1123.3433333333332;-85.47747362961185
1124.671;-82.77847177209611
1125.3456666666668;-83.11083478937833
1125.8206666666667;-83.39239409511691
1126.385;-81.68358849986572
1127.059;-82.921605819597
1127.822;-82.95755302420594
1128.8280000000002;-83.0213783422239
1129.237;-84.20189062019321
1129.8120000000001;-83.59755262882166
1130.3423333333333;-83.93439716665813
1131.1593333333333;-84.2529624132928
1132.0323333333333;-83.48604507574925
1132.8173333333334;-81.87226111377558
1134.2313333333334;-82.31606904990286
1135.182;-84.47467874349975
1135.779;-83.85233258813982
1136.805;-84.95543371273627
1137.5783333333331;-87.489583159576
1137.9759999999999;-84.59598500806896
1138.6056666666666;-84.58036901943328
1139.1136666666666;-83.15264662487577
1139.5993333333333;-83.68632670031802
1140.2506666666666;-81.66367900856808
1141.4226666666666;-82.30523170844852
1142.0523333333333;-82.68304966492023
1142.8700000000001;-83.72515016497779
1143.8423333333333;-82.76310635012581
1144.892;-82.76282069325336
1145.8753333333332;-81.98821206535384
1147.3346666666666;-83.42139128248367
1148.518;-82.85857740019622
1149.1803333333335;-84.01277251484687
1149.7656666666667;-83.08949302283739
1150.4736666666668;-83.41940037684108
1150.8936666666668;-82.90860736555409
1151.7773333333334;-84.32892351542257
1152.5183333333332;-82.7908296146605
1153.0266666666669;-81.55802491532482
1154.0330000000001;-82.13586389797632
1155.6783333333333;-83.8644356846796
1156.618;-82.94054912165583
1157.3696666666667;-81.3834359404702
1158.2763333333335;-83.57822400202086
1159.0943333333335;-85.445934094209
1160.3976666666665;-85.18746248187456
1161.183;-82.73481642988703
1161.813;-82.16190835868458
1163.162;-84.41288045159513
1164.1786666666665;-85.010494965598
1165.1290000000001;-82.15539542046542
1166.29;-81.89803660733884
1167.13;-82.01990298319528
1167.981;-83.47591222207109
1169.0533333333333;-82.0361478521748
1171.4966666666667;-82.48541704529472
1172.5906666666667;-82.09080848824655
1173.475;-84.02700336936613
1174.2486666666666;-84.69562391815043
1174.945;-84.09604638573353
1175.5739999999998;-81.94422074331808
1176.0383333333332;-83.74928182242621
1176.6793333333335;-82.28602702810394
1177.839;-83.29987271096672
1179.428;-83.8483478376133
1180.1356666666668;-82.749911071077
1181.1183333333333;-83.82608307895019
1182.3226666666667;-85.55273853296146
1183.0739999999998;-83.51178567651448
1183.6923333333334;-86.144927979657
1184.1670000000001;-83.77668733701834
1184.7299999999998;-83.00109136444851
1185.46;-84.4230735770272
1186.3443333333332;-83.55513546638338
1187.5056666666667;-83.13228118929774
1187.9473333333333;-85.2047217957014
1188.7876666666668;-82.80937860473463
1189.6606666666667;-82.70074174451403
1190.1139999999998;-83.31743608854768
1190.6663333333333;-81.69551710638807
1191.5496666666668;-81.08699549522825
1192.0576666666666;-84.59123185737283
1192.434;-82.44330942457154
1193.1410000000003;-81.25061613727324
1193.6486666666667;-84.87036569947354
1194.301;-83.83825524054252
1195.2066666666667;-83.69345959449386
1195.8590000000002;-84.75036439193045
1196.3123333333333;-85.03413929954021
1196.6766666666665;-83.9963050335503
1197.0853333333332;-83.79776598588764
1198.3113333333333;-82.96714284734962
1199.2066666666667;-83.84441691244162
1199.7926666666665;-84.00478687763068
1200.3123333333335;-82.54791417746583
1201.0866666666668;-80.96988846517682
1201.6506666666667;-83.12090788256097
1202.3239999999998;-83.8087610314829
1202.7106666666668;-85.30734247143138
1203.1973333333333;-85.03189430407589
1203.7506666666668;-83.25887535840168
1205.4966666666667;-81.77105692631348
1206.8556666666666;-85.21756469128425
1207.4746666666667;-82.72747069020512
1208.3036666666665;-83.26064920116248
1209.0333333333335;-82.94864488127408
1209.7516666666668;-82.22130106729198
1211.8183333333334;-83.96235019667277
1212.8893333333333;-83.5109014218656
1213.4643333333333;-81.67093634682013
1213.9286666666667;-83.77670476355833
1214.7796666666666;-82.54654098048812
1215.6863333333333;-82.0043398488043
1216.7693333333334;-83.18176989218668
1217.4213333333335;-82.46898232403035
1218.6806666666669;-84.18561017367425
1219.5763333333334;-83.8343239424548
1220.2283333333332;-84.17338002699921
1220.814;-84.09712852066907
1221.7646666666667;-83.96401282521353
1222.7813333333334;-85.31580231399163
1223.3673333333334;-84.66527953417068
1224.5613333333333;-82.5615507486893
1225.3676666666668;-82.97548206250691
1226.031;-82.09029637255031
1226.8603333333333;-81.45114449041812
1227.2913333333336;-81.79817133960971
1227.8883333333333;-85.27283612023406
1228.9046666666666;-82.77414486159537
1229.8770000000002;-83.4174817747328
1230.4413333333332;-82.51746424922159
1230.9053333333334;-82.58818445516891
1231.4130000000002;-84.03992863780253
1231.8663333333334;-84.40558606046301
1232.4303333333332;-82.29310104855537
1232.9716666666668;-81.76990691904882
1233.524333333333;-84.90032166484824
1233.9666666666665;-84.1646298038649
1234.3093333333334;-84.88718562166991
1235.116;-82.36893044381202
1235.9779999999998;-82.40352206886723
1237.094;-81.4780079695208
1237.923;-83.14455454877113
1238.4643333333333;-84.14682091537017
1239.0063333333335;-82.56151512373381
1239.6916666666666;-81.80271845988189
1240.2876666666668;-84.16878170249046
1240.8726666666669;-84.65416554643136
1241.4903333333334;-85.35385906886444
1242.4406666666666;-83.80050039735849
1244.0656666666666;-84.48988162733852
1244.8283333333336;-82.19096303426126
1245.292333333333;-84.0946471597656
1246.2210000000002;-83.78143519030176
1247.503;-83.30211795448136
1248.0666666666666;-82.55294501663906
1249.0290000000002;-84.2866204895125
1249.3386666666668;-85.15948753899232
1249.6813333333332;-85.37212227356105
1250.4216666666669;-82.7993706535744
1251.3393333333333;-83.61058700345907
1252.2786666666668;-83.11001942708194
1253.329;-81.0111325660447
1254.058;-81.28960645900361
1254.6883333333333;-81.42460567192465
1255.451;-82.53134032144322
1256.7216666666666;-83.71710244140817
1257.517;-83.10295600270548
1258.1806666666669;-84.3297139630693
1258.6446666666668;-85.14111172374518
1259.153;-83.85069244878709
1259.7276666666667;-84.17444342763602
1260.557;-84.99346655032166
1261.4080000000001;-82.51267748937903
1262.2250000000001;-82.66039023347588
1263.1743333333334;-82.41630092693227
1263.904;-83.43968726637664
1264.7103333333334;-81.41493382599933
1265.6393333333333;-84.26323512438118
1266.6233333333332;-84.58195809081299
1267.187;-83.22633316585066
1267.6403333333335;-83.17140085370198
1268.0603333333331;-83.89164959584596
1268.8006666666668;-81.75858584573469
1269.751;-81.69281080786484
1271.0666666666668;-84.44375440463286
1271.8400000000001;-81.7147974823998
1272.3266666666668;-82.28912707063182
1273.4103333333333;-81.75951360617255
1273.7193333333332;-82.01116683943944
1274.2383333333335;-82.81618673322835
1274.691;-83.14844869163448
1275.6526666666666;-84.11833005587508
1276.084;-83.04636289585426
1276.7363333333333;-83.06895200203184
1277.3666666666668;-83.54737243560966
1278.0739999999998;-82.69294263448404
1278.8700000000001;-82.38334371409671
1280.2953333333332;-83.41223840200405
1282.6943333333331;-82.89676486199912
1283.7893333333334;-85.54933892143387
1284.463;-81.90004718939116
1285.4143333333334;-82.04339187420922
1286.321;-82.16679772634669
1287.7583333333332;-82.00761240038217
1288.411;-83.48875268229304
1289.1516666666666;-83.95983655380311
1290.1356666666668;-83.87730220372475
1291.1086666666667;-84.12935730016581
1291.7053333333333;-82.22841365318624
1292.8993333333335;-84.3599885760399
1294.7116666666666;-83.95597522323352
1295.5510000000002;-84.8976492185217
1296.015;-83.84462038467333
1296.7113333333334;-83.52709856406179
1297.563;-84.32263535440755
1298.2700000000002;-84.23669571424304
1299.0103333333332;-84.27605729064092
1299.7176666666667;-83.56013978923379
1300.358;-84.29898345179953
1301.263;-84.09321844286319
1302.0473333333332;-85.04862130024358
1302.765;-82.42593379309031
1303.6373333333333;-81.92543913866008
1304.874;-83.21998390351456
1305.8786666666665;-83.90557419929576
1307.104;-84.23304259460838
1307.6229999999998;-83.75033444038726
1308.1203333333333;-84.87963816232089
1308.5286666666668;-84.9198132685975
1309.4233333333334;-83.02433498606096
1310.2846666666667;-83.1117645896529
1311.3113333333333;-82.97218629923927
1312.206;-84.64836648768171
1313.1779999999999;-83.66490416167878
1313.8526666666667;-81.97037003980705
1314.626;-81.71787203192028
1315.454;-81.96251583963925
1316.2936666666667;-82.57706468874815
1317.2103333333334;-84.41974488005127
1318.0163333333333;-85.23045269375115
1318.5243333333333;-84.75966941272883
1318.9443333333334;-84.49931757965837
1319.7396666666666;-85.66336672058851
1320.347;-83.01004764297802
1320.921;-81.12382656053722
1321.3296666666665;-80.62337921689124
1322.291;-82.15999124972635
1322.7656666666664;-81.27740312833234
1323.4840000000002;-82.69310613852028
1324.6436666666666;-83.18576183314218
1325.473;-80.78014943011947
1326.2136666666668;-81.53151457491606
1326.9206666666666;-82.83453721632213
1327.9246666666668;-82.05901876651635
1328.4766666666667;-81.83016487745206
1329.3043333333333;-84.31184494564205
1330.365;-85.53048384374122
1331.2713333333334;-83.83535381047173
1332.2663333333333;-84.07666597753679
1332.863;-84.41257584403529
1333.4930000000002;-82.62343792162595
1334.2223333333332;-83.32084622348243
1334.8306666666667;-83.06197531456006
1335.3723333333335;-81.0126084076571
1335.9143333333334;-82.81296968950348
1336.3336666666667;-80.58954323848003
1337.1186666666665;-82.00866507640075
1338.0919999999999;-82.44458042862824
1338.545;-84.44724996134126
1339.1193333333333;-84.86633711799233
1340.0919999999999;-82.06180009796344
1340.744;-81.86891776870345
1341.518;-81.50690240345041
1342.2806666666668;-81.70517248585378
1343.32;-82.11569569884921
1343.8496666666667;-81.57330932911161
1344.414;-82.73609174016501
1345.099;-80.71612745366986
1345.5410000000002;-82.32914461279228
1346.2373333333333;-83.85131565620597
1346.8446666666666;-86.48624364308608
1347.4966666666667;-84.15402106028426
1348.2246666666667;-84.82111403265723
1349.2073333333335;-84.44915847008883
1349.7596666666668;-83.76222794340256
1350.6206666666667;-83.54885019866427
1351.5036666666667;-82.76015888449322
1352.564;-85.02640532525459
1353.1823333333334;-85.0553563076563
1354.1426666666666;-83.88470574917486
1355.1253333333332;-82.72756780098348
1356.573;-82.82429862436322
1357.8103333333331;-82.35645707189111
1359.0043333333333;-83.48201695086343
1359.7006666666666;-82.32033324059566
1360.805;-82.33389393569048
1362.199;-81.28112022159209
1363.3376666666666;-82.75957281720605
1363.7359999999999;-84.88088056380441
1364.244;-84.24996532813499
1364.8743333333334;-82.26349858341015
1365.6470000000002;-85.3455867849319
1365.982;-85.06138847026168
1366.9669999999999;-82.06413250594284
1368.1596666666667;-82.08005269035027
1368.8553333333332;-81.91936629676445
1369.4513333333332;-81.03465209689499
1370.3026666666667;-81.86619440363351
1371.4293333333333;-83.74908801053361
1373.0196666666668;-82.56978845016516
1374.135;-82.21430081571162
1375.1516666666666;-82.70393631039741
1375.6823333333334;-84.04230256466346
1376.3680000000002;-83.85785320648388
1377.3966666666668;-85.08454346428145
1378.6233333333332;-83.50414589279153
1379.8616666666667;-82.24990548897452
1380.691;-83.27718799590795
1381.122;-83.78233589903157
1381.7076666666665;-84.11945780227914
1382.2716666666668;-83.86366793112379
1383.1229999999998;-82.08871779658577
1386.1073333333334;-82.6715589770004
1386.8703333333333;-81.29335513208798
1387.5006666666666;-82.35694849576312
1388.1203333333333;-84.60511537603209
1388.8173333333334;-84.0211186923781
1389.2706666666666;-84.2092551518533
1390.265333333333;-84.89157822614789
1391.6033333333332;-82.62225024306925
1392.167666666667;-83.94684839327418
1392.8753333333334;-83.13055345782465
1393.5379999999998;-84.70399428616719
1394.3116666666667;-82.46856619407589
1395.1513333333332;-80.64750378528635
1396.0240000000001;-85.60505136274045
1398.0693333333331;-84.60993649239535
1399.0093333333334;-82.34189172910516
1399.8936666666666;-81.07336095844032
1400.755;-80.59089286011763
1402.1033333333335;-83.30175468667011
1403.0526666666667;-82.2388526758167
1403.7700000000002;-83.15208622729378
1404.8853333333334;-85.48131545740401
1405.4489999999998;-85.52555948400385
1406.0016666666668;-84.8515722458241
1407.0853333333334;-82.73531362317381
1407.7706666666666;-83.33358348185388
1408.3456666666668;-82.16870574700246
1409.1083333333336;-82.86808632448256
1410.1256666666668;-81.2270363395322
1410.9660000000001;-83.74402891617423
1411.729;-82.38137573949953
1412.8896666666667;-80.63238625026197
1414.0606666666665;-81.55070741286501
1415.01;-84.0988673185483
1416.1256666666668;-85.22442746948254
1416.5453333333332;-83.93282069521284
1417.8926666666666;-81.53831077749483
1419.1080000000002;-82.95611920254905
1420.6433333333334;-81.50730398574362
1421.5163333333333;-81.9395388061421
1421.903;-83.63940307798373
1423.3486666666668;-81.77957069521217
1424.2096666666666;-83.38354174427558
1424.8623333333333;-81.76843904815661
1425.5366666666669;-81.18192900032662
1426.41;-81.90535139304448
1427.0956666666668;-82.79772689557547
1427.8693333333333;-82.93805672742045
1429.3736666666666;-82.20208437137866
1430.1693333333333;-82.2061915204156
1431.0983333333334;-81.01047392447039
1431.4413333333334;-81.2499865211104
1432.2593333333334;-81.26634641263426
1433.5093333333334;-82.4548765202995
1434.515666666667;-82.6641430212157
1434.9026666666668;-82.9108122565221
1435.5216666666668;-82.89706541981339
1436.0529999999999;-81.6096977569751
1436.9373333333333;-81.82418791966563
1437.6670000000001;-82.16076435285717
1438.4743333333336;-84.9157918110795
1439.3036666666667;-82.52833897906245
1441.847;-82.10595948011739
1443.03;-81.47152827014168
1444.4126666666668;-81.45921402377365
1445.0323333333333;-81.37682422068399
1448.1393333333333;-82.06551718022718
1449.6213333333333;-81.65092796321146
1450.3183333333334;-81.17591421300968
1451.4346666666668;-80.95819147933013
1452.695;-80.5885492457336
1453.5576666666666;-82.3377471068374
1454.2983333333334;-82.28428497318166
1455.3819999999998;-82.12824324139409
1456.4326666666666;-84.35839818793238
1457.3283333333331;-83.44481194058646
1457.9143333333334;-83.76347558653987
1458.4786666666666;-82.80257538328084
1459.5283333333334;-81.83104486722902
1460.6236666666666;-81.18604622084773
1461.552;-81.44488770553346
1462.6136666666669;-82.70286100251646
1463.6093333333336;-81.71889395696329
1464.438;-81.67372604878894
1465.621;-83.86555345701079
1466.97;-83.2934881546046
1467.7763333333332;-84.17980251101358
1468.639;-81.99275581392612
1469.7330000000002;-81.7346320325817
1470.3956666666666;-83.11623507948462
1470.9920000000002;-82.46677249123276
1471.688;-84.4061542000533
1472.3613333333333;-84.78613735119136
1472.957333333333;-81.93796417546804
1473.6856666666665;-83.12609075511477
1474.3806666666667;-84.1535158091415
1475.3190000000002;-83.88241693831856
1476.0363333333335;-82.48975255111606
1477.5706666666667;-84.19911325869599
1478.0786666666665;-82.34832053069805
1478.6193333333333;-84.46465724982944
1479.006;-82.3795925729946
1479.801333333333;-82.79079317656041
1480.2213333333332;-82.08987324788923
1480.6523333333334;-83.1770079566649
1481.4813333333332;-82.96635877082934
1482.2543333333333;-84.25081321405479
1483.1156666666666;-84.20125997735495
1484.0330000000001;-82.20128087156584
1484.95;-82.79311622525033
1485.735;-85.11715264603001
1486.7183333333335;-81.9300465898642
1487.7120000000002;-82.28529946616376
1488.728;-81.36743212705277
1489.9653333333333;-81.89173839260886
1490.9706666666668;-81.0318441529446
1493.39;-82.53762724611622
1493.7546666666667;-83.33184326213028
1495.789;-82.42792566643699
1498.4636666666665;-82.83206502295741
1498.9163333333333;-83.32404622307953
1499.5910000000001;-80.8315834415498
1500.1773333333333;-83.27082027654382
1501.095;-83.57327209586632
1501.581666666667;-83.62851244681326
1502.1343333333334;-82.09596433219365
1502.5876666666666;-83.87247680321647
1503.8483333333334;-83.73518241688971
1505.1753333333334;-83.52888683355901
1505.8280000000002;-81.62122914526057
1506.832333333333;-82.34795609967877
1507.617;-81.7142760818829
1508.5216666666665;-81.33290160729841
1510.0123333333333;-83.58608580795452
1510.8733333333332;-83.68675445614974
1511.7456666666667;-83.790982372283
1512.6186666666665;-83.4116333912153
1513.9890000000003;-83.79093920677896
1515.183;-82.81681110917746
1515.769;-82.61226752257139
1516.4863333333335;-83.05301574598498
