0:00:00.000000;-83;100
0:00:00.232000;-87;100
0:00:00.630000;-90;100
0:00:00.763000;-83;100
0:00:00.896000;-87;100
0:00:01.823000;-86;100
0:00:02.253000;-87;100
0:00:02.386000;-84;100
0:00:02.618000;-87;100
0:00:02.817000;-88;100
0:00:03.149000;-87;100
0:00:03.348000;-83;100
0:00:03.780000;-86;100
0:00:04.277000;-87;100
0:00:04.509000;-88;100
0:00:04.808000;-87;100
0:00:05.372000;-84;100
0:00:05.505000;-87;100
0:00:06.102000;-83;100
0:00:06.301000;-84;100
0:00:06.533000;-86;100
0:00:06.632000;-87;100
0:00:07.196000;-84;100
0:00:07.395000;-83;100
0:00:07.495000;-91;100
0:00:07.594000;-83;100
0:00:07.827000;-86;100
0:00:07.926000;-84;100
0:00:08.125000;-82;100
0:00:08.258000;-86;100
0:00:08.391000;-89;100
0:00:08.789000;-84;100
0:00:08.988000;-94;100
0:00:09.319000;-83;100
0:00:09.518000;-87;100
0:00:09.617000;-84;100
0:00:09.717000;-89;100
0:00:09.816000;-87;100
0:00:09.982000;-91;100
0:00:10.280000;-89;100
0:00:11.010000;-84;100
0:00:11.375000;-86;100
0:00:11.673000;-89;100
0:00:12.105000;-82;100
0:00:12.204000;-83;100
0:00:12.304000;-91;100
0:00:13.663000;-84;100
0:00:13.763000;-90;100
0:00:13.862000;-85;100
0:00:13.962000;-92;100
0:00:14.260000;-88;100
0:00:14.460000;-87;100
0:00:14.659000;-84;100
0:00:14.758000;-90;100
0:00:14.924000;-83;100
0:00:15.089000;-88;100
0:00:15.288000;-88;100
0:00:15.620000;-94;100
0:00:15.719000;-85;100
0:00:53.938000;-85;100
0:00:54.071000;-88;100
0:00:54.436000;-85;100
0:00:54.767000;-83;100
0:00:54.999000;-83;100
0:00:55.398000;-88;100
0:00:55.497000;-80;100
0:00:56.359000;-79;100
0:00:56.558000;-84;100
0:00:56.790000;-86;100
0:00:56.923000;-82;100
0:00:57.089000;-83;100
0:00:57.387000;-82;100
0:00:57.586000;-84;100
0:00:57.784000;-89;100
0:00:58.216000;-84;100
0:00:58.415000;-83;100
0:00:59.045000;-83;100
0:00:59.244000;-85;100
0:00:59.675000;-87;100
0:01:00.073000;-89;100
0:01:00.802000;-94;100
0:01:01.001000;-90;100
0:01:01.200000;-89;100
0:01:01.531000;-84;100
0:01:01.631000;-92;100
0:01:01.730000;-84;100
0:01:02.062000;-84;100
0:01:02.692000;-93;100
0:01:03.454000;-90;100
0:01:03.753000;-84;100
0:01:03.984000;-89;100
0:01:04.183000;-90;100
0:01:04.282000;-84;100
0:01:04.481000;-84;100
0:01:04.614000;-90;100
0:01:04.813000;-89;100
0:01:04.913000;-88;100
0:01:05.144000;-84;100
0:01:05.244000;-91;100
0:01:05.775000;-84;100
0:01:06.404000;-84;100
0:01:06.536000;-89;100
0:01:06.934000;-92;100
0:01:07.166000;-92;100
0:01:07.365000;-92;100
0:01:07.564000;-91;100
0:01:07.929000;-93;100
0:01:08.128000;-83;100
0:01:08.327000;-83;100
0:01:08.559000;-92;100
0:01:08.659000;-84;100
0:01:08.758000;-90;100
0:01:08.957000;-90;100
0:01:09.156000;-91;100
0:01:09.289000;-83;100
0:01:09.388000;-92;100
0:01:09.985000;-84;100
0:01:10.185000;-84;100
0:01:10.317000;-91;100
0:01:10.615000;-83;100
0:01:10.914000;-90;100
0:01:11.046000;-94;100
0:01:11.145000;-83;100
0:01:11.444000;-90;100
0:01:11.776000;-89;100
0:01:11.908000;-84;100
0:01:12.108000;-88;100
0:01:12.439000;-85;100
0:01:12.638000;-88;100
0:01:12.970000;-89;100
0:01:13.168000;-89;100
0:01:13.599000;-89;100
0:01:13.798000;-91;100
0:01:13.931000;-86;100
0:01:14.163000;-89;100
0:01:14.262000;-89;100
0:01:14.594000;-88;100
0:01:14.693000;-92;100
0:01:14.793000;-84;100
0:01:14.992000;-88;100
0:01:15.191000;-89;100
0:01:15.390000;-85;100
0:01:15.588000;-90;100
0:01:15.787000;-85;100
0:01:15.986000;-85;100
0:01:16.185000;-84;100
0:01:16.616000;-89;100
0:01:16.848000;-87;100
0:01:16.914000;-88;100
0:01:17.113000;-95;100
0:01:17.444000;-90;100
0:01:17.643000;-90;100
0:01:18.074000;-92;100
0:01:18.174000;-86;100
0:01:18.506000;-89;100
0:01:18.738000;-85;100
0:01:18.937000;-86;100
0:01:19.136000;-89;100
0:01:19.733000;-85;100
0:01:19.866000;-90;100
0:01:20.032000;-89;100
0:01:20.231000;-88;100
0:01:20.562000;-85;100
0:01:20.762000;-89;100
0:01:20.894000;-84;100
0:01:20.994000;-93;100
0:01:21.093000;-86;100
0:01:21.193000;-92;100
0:01:21.591000;-86;100
0:01:21.690000;-89;100
0:01:21.790000;-85;100
0:01:21.989000;-86;100
0:01:22.121000;-90;100
0:01:22.519000;-89;100
0:01:22.619000;-85;100
0:01:22.752000;-92;100
0:01:22.951000;-86;100
0:01:23.183000;-85;100
0:01:23.382000;-85;100
0:01:23.581000;-85;100
0:01:24.311000;-89;100
0:01:24.410000;-88;100
0:01:24.709000;-90;100
0:01:24.808000;-86;100
0:01:24.941000;-94;100
0:01:25.040000;-89;100
0:01:25.140000;-85;100
0:01:25.239000;-90;100
0:01:25.372000;-86;100
0:01:25.770000;-85;100
0:01:26.001000;-85;100
0:01:26.234000;-86;100
0:01:26.433000;-84;100
0:01:26.632000;-89;100
0:01:26.731000;-85;100
0:01:27.063000;-88;100
0:01:27.162000;-85;100
0:01:27.262000;-87;100
0:01:27.395000;-88;100
0:01:27.594000;-89;100
0:01:27.826000;-89;100
0:01:28.456000;-85;100
0:01:28.556000;-85;100
0:01:28.755000;-88;100
0:01:28.854000;-85;100
0:01:29.318000;-85;100
0:01:29.650000;-85;100
0:01:29.750000;-91;100
0:01:29.948000;-85;100
0:01:30.048000;-89;100
0:01:30.280000;-88;100
0:01:30.379000;-84;100
0:01:30.645000;-87;100
0:01:30.777000;-85;100
0:01:30.877000;-86;100
0:01:30.976000;-84;100
0:01:31.076000;-88;100
0:01:31.308000;-88;100
0:01:31.507000;-88;100
0:01:31.607000;-90;100
0:01:31.839000;-87;100
0:01:32.004000;-89;100
0:01:32.203000;-93;100
0:01:32.535000;-89;100
0:01:32.867000;-85;100
0:01:33.066000;-91;100
0:01:33.298000;-93;100
0:01:33.397000;-87;100
0:01:33.597000;-88;100
0:01:33.796000;-89;100
0:01:34.127000;-94;100
0:01:34.525000;-84;100
0:01:34.857000;-89;100
0:01:35.056000;-90;100
0:01:35.156000;-84;100
0:01:35.255000;-88;100
0:01:35.355000;-89;100
0:01:35.686000;-85;100
0:01:36.216000;-89;100
0:01:36.415000;-89;100
0:01:36.481000;-90;100
0:01:36.713000;-89;100
0:01:37.443000;-92;100
0:01:37.642000;-91;100
0:01:38.040000;-87;100
0:01:38.272000;-90;100
0:01:38.372000;-84;100
0:01:38.471000;-85;100
0:01:38.670000;-84;100
0:01:38.802000;-91;100
0:01:39.101000;-85;100
0:01:39.300000;-91;100
0:01:39.499000;-91;100
0:01:39.632000;-88;100
0:01:39.831000;-89;100
0:01:39.930000;-90;100
0:01:40.228000;-85;100
0:01:40.361000;-91;100
0:01:40.460000;-85;100
0:01:40.560000;-92;100
0:01:41.355000;-86;100
0:01:41.554000;-90;100
0:01:41.885000;-91;100
0:01:41.984000;-84;100
0:01:42.084000;-86;100
0:01:42.826000;-84;100
0:01:43.356000;-85;100
0:01:43.854000;-84;100
0:01:43.954000;-90;100
0:01:44.882000;-90;100
0:01:45.280000;-84;100
0:01:45.413000;-89;100
0:01:45.479000;-89;100
0:01:45.645000;-91;100
0:01:45.943000;-84;100
0:01:46.043000;-92;100
0:01:46.242000;-89;100
0:01:46.871000;-85;100
0:01:47.037000;-88;100
0:01:47.137000;-84;100
0:01:47.336000;-90;100
0:01:47.535000;-89;100
0:01:48.165000;-90;100
0:01:48.265000;-85;100
0:01:48.365000;-93;100
0:01:48.730000;-90;100
0:01:49.261000;-89;100
0:01:49.791000;-90;100
0:01:50.089000;-86;100
0:01:50.222000;-94;100
0:01:50.289000;-84;100
0:01:50.388000;-89;100
0:01:50.720000;-90;100
0:01:51.019000;-91;100
0:01:51.251000;-90;100
0:01:51.417000;-89;100
0:01:51.616000;-84;100
0:01:51.848000;-90;100
0:01:51.947000;-89;100
0:01:52.047000;-84;100
0:01:52.179000;-94;100
0:01:52.378000;-90;100
0:01:52.478000;-88;100
0:01:52.710000;-90;100
0:01:52.810000;-85;100
0:01:52.909000;-95;100
0:01:53.042000;-92;100
0:01:53.241000;-89;100
0:01:53.639000;-85;100
0:01:53.872000;-90;100
0:01:54.734000;-91;100
0:01:55.165000;-94;100
0:01:55.265000;-90;100
0:01:55.397000;-84;100
0:01:55.762000;-84;100
0:01:55.961000;-89;100
0:01:56.094000;-85;100
0:01:56.193000;-93;100
0:01:56.293000;-89;100
0:01:56.392000;-89;100
0:01:56.591000;-86;100
0:01:56.691000;-94;100
0:01:56.824000;-85;100
0:01:57.023000;-86;100
0:01:57.122000;-89;100
0:01:57.421000;-88;100
0:01:57.818000;-95;100
0:01:57.917000;-85;100
0:01:58.017000;-89;100
0:01:58.250000;-85;100
0:01:58.382000;-91;100
0:01:58.680000;-89;100
0:01:58.912000;-89;100
0:01:59.442000;-95;100
0:01:59.640000;-89;100
0:01:59.972000;-86;100
0:02:00.403000;-84;100
0:02:00.536000;-91;100
0:02:00.602000;-86;100
0:02:00.701000;-88;100
0:02:00.834000;-85;100
0:02:00.933000;-90;100
0:02:01.133000;-90;100
0:02:01.431000;-88;100
0:02:01.531000;-86;100
0:02:01.996000;-89;100
0:02:02.427000;-87;100
0:02:02.527000;-85;100
0:02:03.057000;-85;100
0:02:03.389000;-90;100
0:02:03.621000;-85;100
0:02:03.819000;-88;100
0:02:04.150000;-85;100
0:02:04.250000;-93;100
0:02:04.383000;-85;100
0:02:04.549000;-86;100
0:02:04.648000;-88;100
0:02:04.880000;-91;100
0:02:04.947000;-90;100
0:02:05.478000;-85;100
0:02:05.809000;-90;100
0:02:05.909000;-86;100
0:02:06.340000;-89;100
0:02:06.407000;-92;100
0:02:06.804000;-89;100
0:02:07.004000;-88;100
0:02:07.103000;-90;100
0:02:07.334000;-90;100
0:02:07.434000;-85;100
0:02:07.898000;-85;100
0:02:08.329000;-88;100
0:02:08.827000;-93;100
0:02:08.926000;-91;100
0:02:09.158000;-89;100
0:02:09.523000;-89;100
0:02:09.722000;-91;100
0:02:09.821000;-85;100
0:02:10.020000;-91;100
0:02:10.153000;-86;100
0:02:10.451000;-84;100
0:02:10.584000;-93;100
0:02:10.683000;-89;100
0:02:10.782000;-91;100
0:02:10.882000;-86;100
0:02:11.014000;-89;100
0:02:11.147000;-85;100
0:02:11.346000;-91;100
0:02:11.677000;-91;100
0:02:11.810000;-86;100
0:02:11.976000;-85;100
0:02:12.208000;-90;100
0:02:12.307000;-89;100
0:02:12.407000;-84;100
0:02:12.639000;-89;100
0:02:12.838000;-93;100
0:02:13.037000;-90;100
0:02:13.236000;-89;100
0:02:13.468000;-90;100
0:02:13.667000;-89;100
0:02:13.766000;-85;100
0:02:13.899000;-88;100
0:02:14.098000;-90;100
0:02:14.628000;-90;100
0:02:14.728000;-86;100
0:02:14.861000;-85;100
0:02:15.259000;-91;100
0:02:15.391000;-85;100
0:02:15.690000;-85;100
0:02:15.922000;-90;100
0:02:16.121000;-90;100
0:02:16.254000;-85;100
0:02:16.453000;-85;100
0:02:16.884000;-86;100
0:02:16.950000;-90;100
0:02:17.083000;-87;100
0:02:17.282000;-86;100
0:02:17.415000;-90;100
0:02:17.713000;-88;100
0:02:17.945000;-89;100
0:02:18.144000;-89;100
0:02:18.376000;-90;100
0:02:18.542000;-89;100
0:02:18.741000;-90;100
0:02:19.603000;-86;100
0:02:19.703000;-87;100
0:02:19.968000;-89;100
0:02:20.299000;-89;100
0:02:20.399000;-86;100
0:02:20.598000;-90;100
0:02:20.731000;-85;100
0:02:20.930000;-89;100
0:02:21.129000;-89;100
0:02:21.229000;-95;100
0:02:21.328000;-86;100
0:02:21.560000;-85;100
0:02:21.693000;-86;100
0:02:21.792000;-90;100
0:02:21.892000;-88;100
0:02:21.991000;-85;100
0:02:22.091000;-89;100
0:02:22.190000;-85;100
0:02:22.423000;-88;100
0:02:22.522000;-85;100
0:02:22.721000;-86;100
0:02:22.855000;-90;100
0:02:23.286000;-89;100
0:02:23.485000;-89;100
0:02:23.684000;-88;100
0:02:23.916000;-86;100
0:02:24.115000;-85;100
0:02:24.214000;-90;100
0:02:24.314000;-86;100
0:02:24.414000;-91;100
0:02:24.612000;-88;100
0:02:24.911000;-86;100
0:02:25.242000;-85;100
0:02:25.541000;-85;100
0:02:25.640000;-92;100
0:02:25.740000;-92;100
0:02:25.873000;-92;100
0:02:26.072000;-91;100
0:02:26.503000;-90;100
0:02:26.801000;-90;100
0:02:26.934000;-90;100
0:02:27.133000;-89;100
0:02:27.331000;-89;100
0:02:27.597000;-86;100
0:02:27.796000;-90;100
0:02:27.994000;-88;100
0:02:28.226000;-93;100
0:02:28.359000;-89;100
0:02:28.458000;-84;100
0:02:28.855000;-86;100
0:02:29.055000;-89;100
0:02:29.784000;-85;100
0:02:29.916000;-89;100
0:02:30.215000;-85;100
0:02:30.712000;-85;100
0:02:31.010000;-85;100
0:02:31.209000;-86;100
0:02:32.069000;-90;100
0:02:32.202000;-91;100
0:02:32.401000;-95;100
0:02:32.500000;-91;100
0:02:33.030000;-85;100
0:02:33.560000;-90;100
0:02:33.660000;-86;100
0:02:33.759000;-85;100
0:02:33.859000;-92;100
0:02:34.058000;-93;100
0:02:34.157000;-85;100
0:02:34.389000;-89;100
0:02:34.489000;-84;100
0:02:34.687000;-91;100
0:02:34.953000;-91;100
0:02:35.185000;-90;100
0:02:35.384000;-85;100
0:02:35.616000;-90;100
0:02:35.815000;-93;100
0:02:35.914000;-89;100
0:02:36.014000;-85;100
0:02:36.346000;-89;100
0:02:36.545000;-88;100
0:02:36.743000;-90;100
0:02:36.975000;-86;100
0:02:37.074000;-91;100
0:02:37.174000;-84;100
0:02:37.373000;-90;100
0:02:37.505000;-91;100
0:02:37.605000;-89;100
0:02:37.704000;-84;100
0:02:37.837000;-91;100
0:02:37.970000;-85;100
0:02:38.036000;-91;100
0:02:38.235000;-93;100
0:02:38.368000;-85;100
0:02:38.567000;-84;100
0:02:38.666000;-92;100
0:02:38.799000;-92;100
0:02:39.197000;-90;100
0:02:39.728000;-89;100
0:02:39.927000;-89;100
0:02:40.225000;-86;100
0:02:40.524000;-89;100
0:02:40.755000;-84;100
0:02:40.822000;-85;100
0:02:40.954000;-90;100
0:02:41.054000;-85;100
0:02:41.154000;-90;100
0:02:41.352000;-90;100
0:02:41.551000;-86;100
0:02:41.783000;-84;100
0:02:42.181000;-90;100
0:02:42.380000;-85;100
0:02:43.043000;-85;100
0:02:43.341000;-85;100
0:02:43.441000;-86;100
0:02:43.541000;-90;100
0:02:43.838000;-89;100
0:02:44.369000;-90;100
0:02:44.668000;-86;100
0:02:44.800000;-90;100
0:02:44.999000;-90;100
0:02:45.099000;-90;100
0:02:45.298000;-89;100
0:02:45.464000;-88;100
0:02:45.663000;-89;100
0:02:45.862000;-88;100
0:02:46.094000;-88;100
0:02:46.392000;-90;100
0:02:46.525000;-91;100
0:02:46.624000;-91;100
0:02:46.856000;-86;100
0:02:46.955000;-91;100
0:02:47.154000;-88;100
0:02:47.354000;-90;100
0:02:47.586000;-91;100
0:02:47.685000;-85;100
0:02:47.984000;-92;100
0:02:48.216000;-92;100
0:02:48.316000;-85;100
0:02:48.415000;-85;100
0:02:49.278000;-92;100
0:02:49.377000;-91;100
0:02:49.443000;-86;100
0:02:49.841000;-90;100
0:02:50.372000;-89;100
0:02:50.471000;-86;100
0:02:50.571000;-92;100
0:02:50.703000;-90;100
0:02:50.835000;-86;100
0:02:50.902000;-94;100
0:02:51.001000;-85;100
0:02:51.200000;-91;100
0:02:51.333000;-85;100
0:02:51.432000;-90;100
0:02:52.295000;-90;100
0:02:52.594000;-88;100
0:02:52.693000;-86;100
0:02:52.891000;-85;100
0:02:53.024000;-85;100
0:02:53.622000;-84;100
0:02:53.821000;-89;100
0:02:54.052000;-89;100
0:02:54.251000;-86;100
0:02:54.351000;-91;100
0:02:54.549000;-85;100
0:02:54.649000;-94;100
0:02:54.748000;-86;100
0:02:54.981000;-89;100
0:02:55.179000;-84;100
0:02:55.378000;-94;100
0:02:55.710000;-89;100
0:02:56.041000;-91;100
0:02:56.240000;-88;100
0:02:56.439000;-89;100
0:02:56.538000;-85;100
0:02:56.638000;-90;100
0:02:56.804000;-86;100
0:02:56.870000;-91;100
0:02:56.970000;-91;100
0:02:57.069000;-86;100
0:02:57.302000;-85;100
0:02:57.501000;-89;100
0:02:57.700000;-91;100
0:02:58.098000;-90;100
0:02:58.297000;-85;100
0:02:58.397000;-91;100
0:02:58.728000;-92;100
0:02:59.259000;-90;100
0:02:59.557000;-86;100
0:02:59.789000;-85;100
0:03:00.087000;-90;100
0:03:00.287000;-92;100
0:03:00.618000;-85;100
0:03:00.750000;-92;100
0:03:00.850000;-84;100
0:03:00.949000;-92;100
0:03:01.048000;-86;100
0:03:01.347000;-90;100
0:03:01.579000;-96;100
0:03:01.944000;-92;100
0:03:02.275000;-86;100
0:03:02.375000;-92;100
0:03:02.474000;-84;100
0:03:02.673000;-85;100
0:03:02.905000;-86;100
0:03:03.105000;-84;100
0:03:03.503000;-89;100
0:03:03.735000;-86;100
0:03:03.834000;-91;100
0:03:04.033000;-93;100
0:03:04.133000;-89;100
0:03:04.364000;-89;100
0:03:04.564000;-94;100
0:03:04.796000;-91;100
0:03:05.127000;-90;100
0:03:05.326000;-86;100
0:03:05.425000;-91;100
0:03:05.955000;-91;100
0:03:06.154000;-84;100
0:03:06.386000;-90;100
0:03:06.585000;-85;100
0:03:06.685000;-91;100
0:03:06.916000;-93;100
0:03:07.115000;-85;100
0:03:07.347000;-86;100
0:03:07.546000;-92;100
0:03:07.745000;-91;100
0:03:07.911000;-90;100
0:03:08.143000;-91;100
0:03:08.441000;-84;100
0:03:08.640000;-86;100
0:03:08.972000;-85;100
0:03:09.171000;-89;100
0:03:09.271000;-89;100
0:03:09.635000;-86;100
0:03:09.835000;-89;100
0:03:09.934000;-85;100
0:03:10.033000;-85;100
0:03:10.265000;-92;100
0:03:10.365000;-85;100
0:03:10.464000;-91;100
0:03:10.663000;-89;100
0:03:10.795000;-85;100
0:03:10.862000;-90;100
0:03:11.027000;-85;100
0:03:11.226000;-90;100
0:03:11.325000;-85;100
0:03:11.458000;-92;100
0:03:11.557000;-85;100
0:03:11.657000;-92;100
0:03:11.856000;-90;100
0:03:12.188000;-91;100
0:03:12.353000;-90;100
0:03:12.685000;-91;100
0:03:12.884000;-89;100
0:03:12.983000;-85;100
0:03:13.413000;-93;100
0:03:13.911000;-89;100
0:03:14.308000;-89;100
0:03:14.838000;-84;100
0:03:15.037000;-84;100
0:03:15.401000;-91;100
0:03:15.600000;-89;100
0:03:16.031000;-85;100
0:03:16.130000;-89;100
0:03:16.461000;-85;100
0:03:16.991000;-86;100
0:03:17.223000;-85;100
0:03:17.521000;-89;100
0:03:17.952000;-90;100
0:03:18.151000;-90;100
0:03:18.417000;-92;100
0:03:18.649000;-90;100
0:03:19.046000;-91;100
0:03:19.146000;-85;100
0:03:19.378000;-85;100
0:03:19.577000;-85;100
0:03:19.775000;-86;100
0:03:20.206000;-88;100
0:03:20.603000;-86;100
0:03:20.769000;-85;100
0:03:21.034000;-89;100
0:03:21.232000;-86;100
0:03:21.596000;-88;100
0:03:21.729000;-84;100
0:03:22.027000;-90;100
0:03:22.159000;-86;100
0:03:22.457000;-88;100
0:03:22.689000;-90;100
0:03:22.987000;-94;100
0:03:23.750000;-89;100
0:03:24.048000;-88;100
0:03:24.247000;-86;100
0:03:24.380000;-85;100
0:03:24.911000;-90;100
0:03:25.110000;-90;100
0:03:25.772000;-88;100
0:03:26.005000;-91;100
0:03:26.104000;-86;100
0:03:26.303000;-88;100
0:03:26.535000;-89;100
0:03:26.734000;-91;100
0:03:27.032000;-85;100
0:03:27.132000;-93;100
0:03:27.264000;-85;100
0:03:27.364000;-88;100
0:03:27.496000;-86;100
0:03:27.596000;-88;100
0:03:28.126000;-88;100
0:03:28.259000;-86;100
0:03:28.790000;-88;100
0:03:28.889000;-89;100
0:03:29.088000;-91;100
0:03:29.188000;-86;100
0:03:29.320000;-90;100
0:03:29.519000;-91;100
0:03:29.618000;-85;100
0:03:29.817000;-85;100
0:03:30.149000;-85;100
0:03:30.282000;-89;100
0:03:30.580000;-84;100
0:03:30.812000;-91;100
0:03:31.012000;-90;100
0:03:31.244000;-84;100
0:03:31.443000;-92;100
0:03:32.339000;-89;100
0:03:32.571000;-90;100
0:03:32.670000;-88;100
0:03:33.366000;-89;100
0:03:33.599000;-88;100
0:03:33.798000;-89;100
0:03:33.997000;-90;100
0:03:34.329000;-90;100
0:03:34.528000;-90;100
0:03:34.860000;-88;100
0:03:35.059000;-86;100
0:03:35.191000;-94;100
0:03:35.291000;-86;100
0:03:35.920000;-89;100
0:03:36.251000;-86;100
0:03:36.483000;-87;100
0:03:36.815000;-88;100
0:03:37.014000;-87;100
0:03:37.113000;-95;100
0:03:37.246000;-87;100
0:03:37.412000;-89;100
0:03:37.611000;-87;100
0:03:37.743000;-90;100
0:03:37.876000;-89;100
0:03:37.975000;-87;100
0:03:38.208000;-89;100
0:03:38.506000;-86;100
0:03:38.605000;-89;100
0:03:38.837000;-88;100
0:03:38.936000;-87;100
0:03:39.035000;-85;100
0:03:39.367000;-88;100
0:03:39.665000;-90;100
0:03:39.898000;-89;100
0:03:40.296000;-86;100
0:03:40.395000;-89;100
0:03:40.528000;-88;100
0:03:40.760000;-86;100
0:03:40.959000;-86;100
0:03:41.059000;-91;100
0:03:41.158000;-86;100
0:03:41.357000;-89;100
0:03:41.887000;-89;100
0:03:42.086000;-91;100
0:03:42.218000;-84;100
0:03:42.285000;-85;100
0:03:42.882000;-86;100
0:03:43.214000;-89;100
0:03:43.513000;-91;100
0:03:43.612000;-89;100
0:03:43.844000;-90;100
0:03:44.375000;-90;100
0:03:44.607000;-89;100
0:03:44.806000;-90;100
0:03:45.005000;-88;100
0:03:45.204000;-87;100
0:03:45.304000;-89;100
0:03:45.536000;-86;100
0:03:45.735000;-87;100
0:03:45.834000;-91;100
0:03:46.166000;-89;100
0:03:46.299000;-88;100
0:03:46.465000;-89;100
0:03:46.564000;-86;100
0:03:46.763000;-91;100
0:03:47.096000;-86;100
0:03:47.493000;-86;100
0:03:47.725000;-89;100
0:03:48.255000;-89;100
0:03:48.453000;-88;100
0:03:48.752000;-86;100
0:03:48.852000;-86;100
0:03:48.985000;-91;100
0:03:49.516000;-85;100
0:03:49.947000;-89;100
0:03:50.179000;-90;100
0:03:50.477000;-90;100
0:03:50.709000;-92;100
0:03:50.809000;-89;100
0:03:50.908000;-86;100
0:03:51.107000;-89;100
0:03:51.339000;-89;100
0:03:51.472000;-86;100
0:03:51.571000;-88;100
0:03:51.671000;-86;100
0:03:51.870000;-87;100
0:03:51.969000;-85;100
0:03:52.301000;-85;100
0:03:52.400000;-86;100
0:03:52.632000;-89;100
0:03:52.732000;-86;100
0:03:52.798000;-94;100
0:03:53.129000;-89;100
0:03:53.329000;-89;100
0:03:53.660000;-85;100
0:03:54.057000;-89;100
0:03:54.455000;-89;100
0:03:54.853000;-86;100
0:03:55.085000;-86;100
0:03:55.217000;-87;100
0:03:55.383000;-89;100
0:03:55.615000;-89;100
0:03:55.914000;-87;100
0:03:56.213000;-90;100
0:03:56.312000;-87;100
0:03:56.411000;-89;100
0:03:56.643000;-89;100
0:03:56.842000;-91;100
0:03:57.173000;-89;100
0:03:57.240000;-85;100
0:03:57.339000;-89;100
0:03:57.439000;-86;100
0:03:57.571000;-91;100
0:03:57.869000;-86;100
0:03:58.201000;-89;100
0:03:58.599000;-86;100
0:03:58.698000;-89;100
0:03:59.063000;-85;100
0:03:59.262000;-94;100
0:03:59.594000;-90;100
0:03:59.991000;-90;100
0:04:00.091000;-86;100
0:04:00.223000;-88;100
0:04:00.456000;-88;100
0:04:00.854000;-85;100
0:04:01.086000;-88;100
0:04:01.484000;-86;100
0:04:01.583000;-93;100
0:04:01.683000;-89;100
0:04:01.815000;-93;100
0:04:01.915000;-86;100
0:04:02.014000;-91;100
0:04:02.313000;-88;100
0:04:02.545000;-93;100
0:04:02.943000;-90;100
0:04:03.141000;-88;100
0:04:03.307000;-86;100
0:04:03.506000;-89;100
0:04:03.838000;-85;100
0:04:04.137000;-90;100
0:04:04.834000;-90;100
0:04:05.166000;-85;100
0:04:05.365000;-86;100
0:04:05.697000;-91;100
0:04:05.895000;-85;100
0:04:06.194000;-89;100
0:04:06.293000;-89;100
0:04:06.493000;-90;100
0:04:06.724000;-88;100
0:04:06.824000;-85;100
0:04:07.454000;-88;100
0:04:07.852000;-92;100
0:04:07.951000;-86;100
0:04:08.382000;-93;100
0:04:08.581000;-89;100
0:04:08.979000;-86;100
0:04:09.212000;-91;100
0:04:09.278000;-90;100
0:04:09.543000;-91;100
0:04:09.642000;-87;100
0:04:09.742000;-85;100
0:04:10.073000;-88;100
0:04:10.603000;-92;100
0:04:10.836000;-86;100
0:04:11.034000;-89;100
0:04:11.134000;-85;100
0:04:11.266000;-92;100
0:04:11.565000;-92;100
0:04:11.698000;-86;100
0:04:11.797000;-90;100
0:04:12.095000;-86;100
0:04:12.195000;-89;100
0:04:12.327000;-86;100
0:04:12.526000;-89;100
0:04:12.758000;-90;100
0:04:12.957000;-90;100
0:04:13.189000;-90;100
0:04:13.388000;-89;100
0:04:13.819000;-89;100
0:04:14.052000;-89;100
0:04:14.251000;-91;100
0:04:14.682000;-85;100
0:04:15.180000;-85;100
0:04:15.279000;-85;100
0:04:15.345000;-93;100
0:04:15.445000;-86;100
0:04:15.643000;-87;100
0:04:16.272000;-85;100
0:04:16.471000;-89;100
0:04:16.703000;-91;100
0:04:16.836000;-86;100
0:04:17.035000;-86;100
0:04:17.135000;-88;100
0:04:17.334000;-89;100
0:04:17.533000;-90;100
0:04:17.964000;-87;100
0:04:18.197000;-90;100
0:04:18.263000;-90;100
0:04:18.362000;-90;100
0:04:18.428000;-87;100
0:04:18.627000;-85;100
0:04:19.191000;-89;100
0:04:19.489000;-87;100
0:04:19.721000;-92;100
0:04:20.020000;-90;100
0:04:20.219000;-85;100
0:04:20.550000;-88;100
0:04:20.683000;-92;100
0:04:20.783000;-93;100
0:04:21.181000;-89;100
0:04:21.280000;-85;100
0:04:21.346000;-94;100
0:04:23.867000;-86;100
0:04:23.966000;-92;100
0:04:24.066000;-86;100
0:04:24.198000;-91;100
0:04:24.629000;-89;100
0:04:24.729000;-86;100
0:04:24.928000;-89;100
0:04:25.193000;-90;100
0:04:25.259000;-86;100
0:04:25.657000;-91;100
0:04:25.757000;-92;100
0:04:26.022000;-86;100
0:04:26.221000;-87;100
0:04:26.321000;-86;100
0:04:26.420000;-89;100
0:04:26.752000;-90;100
0:04:26.951000;-86;100
0:04:27.183000;-90;100
0:04:27.415000;-89;100
0:04:27.614000;-88;100
0:04:27.813000;-90;100
0:04:27.912000;-86;100
0:04:28.178000;-85;100
0:04:28.244000;-94;100
0:04:28.344000;-85;100
0:04:28.543000;-85;100
0:04:28.675000;-85;100
0:04:28.908000;-91;100
0:04:29.438000;-92;100
0:04:29.737000;-86;100
0:04:29.870000;-89;100
0:04:30.069000;-88;100
0:04:30.301000;-89;100
0:04:30.499000;-89;100
0:04:30.698000;-91;100
0:04:31.163000;-86;100
0:04:31.527000;-88;100
0:04:31.992000;-85;100
0:04:32.223000;-91;100
0:04:32.323000;-85;100
0:04:32.721000;-86;100
0:04:32.854000;-85;100
0:04:32.953000;-91;100
0:04:33.053000;-85;100
0:04:33.152000;-89;100
0:04:34.444000;-88;100
0:04:34.642000;-86;100
0:04:34.709000;-87;100
0:04:34.808000;-86;100
0:04:35.007000;-88;100
0:04:35.206000;-88;100
0:04:35.405000;-88;100
0:04:35.736000;-93;100
0:04:36.168000;-88;100
0:04:36.267000;-87;100
0:04:36.500000;-90;100
0:04:37.030000;-86;100
0:04:37.162000;-92;100
0:04:37.262000;-89;100
0:04:37.428000;-89;100
0:05:28.251000;-89;100
0:05:28.450000;-89;100
0:05:28.947000;-85;100
0:05:29.146000;-84;100
0:05:29.279000;-94;100
0:05:29.578000;-84;100
0:05:29.876000;-84;100
0:05:30.009000;-91;100
0:05:30.208000;-93;100
0:05:30.274000;-92;100
0:05:30.374000;-83;100
0:05:30.805000;-88;100
0:05:31.037000;-82;100
0:05:31.236000;-81;100
0:05:31.336000;-87;100
0:05:31.534000;-88;100
0:05:31.634000;-80;100
0:05:31.766000;-88;100
0:05:31.998000;-90;100
0:05:32.097000;-80;100
0:05:32.197000;-90;100
0:05:32.728000;-90;100
0:05:32.927000;-91;100
0:05:33.757000;-87;100
0:05:34.287000;-85;100
0:05:34.718000;-92;100
0:05:35.149000;-87;100
0:05:35.481000;-96;100
0:05:35.680000;-93;100
0:05:36.012000;-90;100
0:05:36.344000;-93;100
0:05:36.874000;-84;100
0:05:37.173000;-83;100
0:05:37.703000;-89;100
0:05:37.935000;-90;100
0:05:38.035000;-87;100
0:05:38.698000;-83;100
0:05:38.897000;-83;100
0:05:39.229000;-89;100
0:05:39.328000;-84;100
0:05:39.760000;-83;100
0:05:39.959000;-83;100
0:05:40.092000;-88;100
0:05:40.158000;-89;100
0:05:40.291000;-89;100
0:05:40.357000;-83;100
0:05:40.489000;-89;100
0:05:42.578000;-89;100
0:05:43.971000;-83;100
0:05:44.070000;-87;100
0:05:44.401000;-87;100
0:05:44.600000;-90;100
0:05:46.159000;-93;100
0:05:46.259000;-88;100
0:05:46.458000;-89;100
0:05:48.514000;-92;100
0:05:49.144000;-83;100
0:05:49.343000;-90;100
0:05:50.106000;-93;100
0:05:50.206000;-85;100
0:05:50.438000;-83;100
0:05:50.637000;-84;100
0:05:50.737000;-90;100
0:05:51.400000;-84;100
0:05:51.632000;-84;100
0:05:51.832000;-91;100
0:05:52.064000;-91;100
0:05:52.694000;-89;100
0:05:52.794000;-83;100
0:05:53.126000;-88;100
0:05:53.556000;-84;100
0:05:53.755000;-88;100
0:05:54.054000;-90;100
0:05:54.186000;-91;100
0:05:54.618000;-84;100
0:05:55.049000;-91;100
0:05:55.248000;-91;100
0:05:55.348000;-91;100
0:05:55.779000;-86;100
0:05:56.542000;-92;100
0:05:56.973000;-92;100
0:05:57.072000;-84;100
0:06:19.323000;-94;100
0:06:19.423000;-85;100
0:06:19.522000;-89;100
0:06:19.655000;-86;100
0:06:19.821000;-86;100
0:06:20.152000;-91;100
0:06:20.351000;-91;100
0:06:20.451000;-91;100
0:06:20.783000;-86;100
0:06:20.981000;-86;100
0:06:21.743000;-86;100
0:06:22.838000;-87;100
0:06:23.369000;-86;100
0:06:23.601000;-86;100
0:06:24.330000;-92;100
0:06:24.828000;-86;100
0:06:25.060000;-86;100
0:06:25.458000;-84;100
0:06:25.823000;-88;100
0:06:25.922000;-93;100
0:06:26.553000;-93;100
0:06:27.083000;-89;100
0:06:27.215000;-83;100
0:06:27.612000;-85;100
0:06:27.845000;-92;100
0:06:28.342000;-84;100
0:06:28.475000;-86;100
0:06:28.574000;-91;100
0:06:28.707000;-90;100
0:06:29.139000;-88;100
0:06:29.337000;-86;100
0:06:29.868000;-86;100
0:06:29.968000;-92;100
0:06:30.067000;-90;100
0:06:30.498000;-83;100
0:06:30.630000;-86;100
0:06:30.730000;-87;100
0:06:30.929000;-87;100
0:06:31.460000;-90;100
0:06:32.223000;-84;100
0:06:32.422000;-89;100
0:06:32.654000;-89;100
0:06:33.052000;-85;100
0:06:33.417000;-86;100
0:06:33.516000;-89;100
0:06:33.616000;-85;100
0:06:33.848000;-86;100
0:06:34.047000;-85;100
0:06:34.478000;-84;100
0:06:34.909000;-85;100
0:06:35.142000;-85;100
0:06:35.341000;-90;100
0:06:35.540000;-85;100
0:06:35.739000;-85;100
0:06:35.971000;-85;100
0:06:36.170000;-83;100
0:06:36.303000;-83;100
0:06:36.402000;-91;100
0:06:36.501000;-84;100
0:06:36.634000;-96;100
0:06:36.701000;-84;100
0:06:36.933000;-88;100
0:06:37.331000;-85;100
0:06:37.563000;-85;100
0:06:37.795000;-86;100
0:06:37.995000;-91;100
0:06:38.227000;-91;100
0:06:38.956000;-85;100
0:06:39.188000;-89;100
0:06:39.387000;-88;100
0:06:39.586000;-89;100
0:06:39.719000;-85;100
0:06:39.818000;-89;100
0:06:40.017000;-89;100
0:06:40.681000;-89;100
0:06:40.880000;-90;100
0:06:41.112000;-89;100
0:06:41.510000;-84;100
0:06:41.809000;-89;100
0:06:42.174000;-89;100
0:06:42.406000;-90;100
0:06:42.604000;-89;100
0:06:42.803000;-90;100
0:06:43.035000;-90;100
0:06:43.333000;-84;100
0:06:43.566000;-84;100
0:06:43.665000;-90;100
0:06:43.732000;-85;100
0:06:43.897000;-84;100
0:06:44.096000;-85;100
0:06:44.527000;-91;100
0:06:44.726000;-90;100
0:06:44.958000;-92;100
0:06:45.390000;-89;100
0:06:45.589000;-89;100
0:06:45.821000;-92;100
0:06:46.021000;-88;100
0:06:46.551000;-86;100
0:06:46.982000;-88;100
0:06:47.082000;-85;100
0:06:47.314000;-84;100
0:06:47.513000;-86;100
0:06:47.613000;-90;100
0:06:47.712000;-85;100
0:06:48.144000;-85;100
0:06:48.277000;-89;100
0:06:48.708000;-89;100
0:06:48.906000;-88;100
0:06:49.304000;-85;100
0:06:49.668000;-86;100
0:06:49.900000;-87;100
0:06:50.099000;-88;100
0:06:50.298000;-89;100
0:06:50.531000;-88;100
0:06:50.730000;-89;100
0:06:50.829000;-89;100
0:06:50.929000;-90;100
0:06:51.161000;-91;100
0:06:51.393000;-95;100
0:06:51.493000;-89;100
0:06:51.890000;-88;100
0:06:52.321000;-85;100
0:06:52.420000;-94;100
0:06:52.520000;-90;100
0:06:52.752000;-84;100
0:06:52.984000;-90;100
0:06:53.183000;-89;100
0:06:53.382000;-85;100
0:06:53.614000;-85;100
0:06:53.813000;-89;100
0:06:54.045000;-88;100
0:06:54.277000;-85;100
0:06:54.476000;-85;100
0:06:54.675000;-86;100
0:06:54.907000;-84;100
0:06:55.205000;-91;100
0:06:55.404000;-85;100
0:06:55.603000;-83;100
0:06:55.702000;-89;100
0:06:55.768000;-85;100
0:06:55.967000;-85;100
0:06:56.200000;-85;100
0:06:56.731000;-84;100
0:06:56.830000;-89;100
0:06:57.162000;-89;100
0:06:57.261000;-86;100
0:06:57.361000;-87;100
0:06:57.560000;-88;100
0:06:57.693000;-87;100
0:06:57.792000;-89;100
0:06:57.991000;-90;100
0:06:58.422000;-89;100
0:06:58.653000;-90;100
0:06:58.753000;-86;100
0:06:59.316000;-85;100
0:06:59.416000;-89;100
0:06:59.615000;-86;100
0:06:59.714000;-92;100
0:06:59.814000;-89;100
0:07:00.046000;-88;100
0:07:00.146000;-86;100
0:07:00.577000;-85;100
0:07:00.676000;-89;100
0:07:00.975000;-84;100
0:07:01.207000;-88;100
0:07:01.405000;-88;100
0:07:01.637000;-88;100
0:07:01.704000;-85;100
0:07:01.836000;-86;100
0:07:01.969000;-88;100
0:07:02.068000;-87;100
0:07:02.267000;-85;100
0:07:02.499000;-88;100
0:07:02.897000;-86;100
0:07:03.096000;-86;100
0:07:03.196000;-87;100
0:07:03.362000;-86;100
0:07:03.660000;-92;100
0:07:03.992000;-86;100
0:07:04.389000;-86;100
0:07:04.489000;-89;100
0:07:04.654000;-86;100
0:07:04.754000;-90;100
0:07:04.952000;-89;100
0:07:05.151000;-90;100
0:07:05.581000;-91;100
0:07:05.780000;-88;100
0:07:06.144000;-97;100
0:07:06.243000;-84;100
0:07:06.442000;-85;100
0:07:06.872000;-92;100
0:07:07.071000;-85;100
0:07:07.170000;-91;100
0:07:07.269000;-85;100
0:07:07.402000;-90;100
0:07:07.502000;-84;100
0:07:07.734000;-89;100
0:07:08.165000;-85;100
0:07:08.564000;-85;100
0:07:08.995000;-91;100
0:07:09.227000;-85;100
0:07:09.659000;-91;100
0:07:09.991000;-86;100
0:07:10.090000;-90;100
0:07:10.190000;-85;100
0:07:10.388000;-83;100
0:07:10.719000;-83;100
0:07:10.952000;-84;100
0:07:11.383000;-85;100
0:07:11.582000;-85;100
0:07:11.781000;-85;100
0:07:11.980000;-85;100
0:07:12.113000;-87;100
0:07:12.345000;-90;100
0:07:12.444000;-84;100
0:07:12.643000;-84;100
0:07:12.875000;-85;100
0:07:13.174000;-88;100
0:07:13.373000;-90;100
0:07:13.637000;-88;100
0:07:13.836000;-89;100
0:07:14.035000;-91;100
0:07:14.268000;-93;100
0:07:14.467000;-90;100
0:07:14.666000;-85;100
0:07:14.865000;-84;100
0:07:14.964000;-89;100
0:07:15.429000;-90;100
0:07:15.528000;-86;100
0:07:15.726000;-86;100
0:07:15.859000;-88;100
0:07:16.257000;-85;100
0:07:16.456000;-86;100
0:07:16.621000;-84;100
0:07:16.820000;-86;100
0:07:17.019000;-85;100
0:07:17.119000;-91;100
0:07:17.351000;-84;100
0:07:17.550000;-86;100
0:07:17.749000;-85;100
0:07:17.981000;-86;100
0:07:18.114000;-85;100
0:07:18.346000;-90;100
0:07:18.744000;-85;100
0:07:18.976000;-89;100
0:07:19.374000;-90;100
0:07:19.605000;-91;100
0:07:19.705000;-89;100
0:07:19.837000;-85;100
0:07:19.937000;-90;100
0:07:20.036000;-84;100
0:07:20.136000;-92;100
0:07:20.467000;-86;100
0:07:20.666000;-87;100
0:07:21.098000;-85;100
0:07:21.197000;-86;100
0:07:21.628000;-86;100
0:07:21.827000;-84;100
0:07:22.060000;-85;100
0:07:22.259000;-85;100
0:07:22.557000;-89;100
0:07:22.689000;-86;100
0:07:22.921000;-86;100
0:07:23.120000;-86;100
0:07:23.319000;-86;100
0:07:23.485000;-89;100
0:07:23.651000;-89;100
0:07:23.849000;-91;100
0:07:24.082000;-90;100
0:07:24.214000;-91;100
0:07:24.413000;-85;100
0:07:24.612000;-85;100
0:07:24.944000;-91;100
0:07:25.342000;-90;100
0:07:25.574000;-89;100
0:07:25.707000;-84;100
0:07:25.806000;-89;100
0:07:26.137000;-86;100
0:07:26.337000;-87;100
0:07:26.967000;-90;100
0:07:27.100000;-91;100
0:07:27.199000;-85;100
0:07:27.432000;-89;100
0:07:27.631000;-88;100
0:07:27.863000;-91;100
0:07:27.995000;-84;100
0:07:28.161000;-85;100
0:07:28.261000;-88;100
0:07:28.360000;-83;100
0:07:28.593000;-89;100
0:07:28.692000;-85;100
0:07:28.792000;-91;100
0:07:29.123000;-83;100
0:07:29.554000;-85;100
0:07:29.653000;-89;100
0:07:29.853000;-89;100
0:07:30.317000;-90;100
0:07:30.616000;-86;100
0:07:30.848000;-88;100
0:07:30.981000;-91;100
0:07:31.047000;-84;100
0:07:31.809000;-83;100
0:07:32.008000;-82;100
0:07:32.307000;-85;100
0:07:32.539000;-90;100
0:07:33.103000;-85;100
0:07:33.302000;-92;100
0:07:33.401000;-92;100
0:07:33.501000;-86;100
0:07:33.600000;-91;100
0:07:33.700000;-86;100
0:07:33.932000;-90;100
0:07:34.131000;-85;100
0:07:34.230000;-90;100
0:07:34.429000;-86;100
0:07:34.694000;-88;100
0:07:34.893000;-89;100
0:07:35.092000;-89;100
0:07:35.224000;-86;100
0:07:36.186000;-90;100
0:07:36.385000;-90;100
0:07:36.816000;-86;100
0:07:37.247000;-89;100
0:07:37.678000;-85;100
0:07:37.777000;-89;100
0:07:37.877000;-85;100
0:07:37.976000;-89;100
0:07:38.307000;-85;100
0:07:38.506000;-88;100
0:07:38.738000;-85;100
0:07:38.937000;-85;100
0:07:39.402000;-89;100
0:07:39.601000;-90;100
0:07:39.800000;-89;100
0:07:40.331000;-83;100
0:07:41.093000;-84;100
0:07:41.192000;-89;100
0:07:41.723000;-89;100
0:08:05.268000;-92;100
0:08:05.400000;-83;100
0:08:05.699000;-88;100
0:08:05.765000;-89;100
0:08:05.964000;-88;100
0:08:06.196000;-88;100
0:08:06.395000;-89;100
0:08:06.826000;-93;100
0:08:06.958000;-84;100
0:08:07.223000;-91;100
0:08:07.323000;-84;100
0:08:07.456000;-84;100
0:08:07.688000;-92;100
0:08:07.887000;-83;100
0:08:07.986000;-89;100
0:08:08.085000;-91;100
0:08:08.218000;-90;100
0:08:08.516000;-91;100
0:08:08.616000;-91;100
0:08:08.749000;-90;100
0:08:08.848000;-94;100
0:08:08.947000;-84;100
0:08:09.080000;-88;100
0:08:09.180000;-83;100
0:08:09.279000;-90;100
0:08:09.478000;-87;100
0:08:09.677000;-83;100
0:08:10.241000;-83;100
0:08:10.373000;-92;100
0:08:10.473000;-84;100
0:08:10.572000;-93;100
0:08:10.672000;-85;100
0:08:10.771000;-89;100
0:08:10.904000;-88;100
0:08:11.103000;-89;100
0:08:11.302000;-88;100
0:08:11.866000;-89;100
0:08:12.065000;-91;100
0:08:12.264000;-88;100
0:08:12.396000;-84;100
0:08:12.695000;-89;100
0:08:12.894000;-90;100
0:08:13.126000;-89;100
0:08:13.225000;-91;100
0:08:13.292000;-95;100
0:08:13.391000;-83;100
0:08:13.457000;-91;100
0:08:13.557000;-83;100
0:08:13.656000;-88;100
0:08:13.756000;-84;100
0:08:14.055000;-83;100
0:08:14.486000;-83;100
0:08:14.718000;-91;100
0:08:14.851000;-86;100
0:08:15.282000;-90;100
0:08:15.580000;-87;100
0:08:15.680000;-92;100
0:08:15.879000;-86;100
0:08:16.110000;-87;100
0:08:16.342000;-87;100
0:08:16.774000;-86;100
0:08:17.702000;-88;100
0:08:17.801000;-89;100
0:08:17.934000;-90;100
0:08:18.133000;-83;100
0:08:18.233000;-91;100
0:08:18.365000;-84;100
0:08:18.465000;-91;100
0:08:18.564000;-92;100
0:08:18.995000;-91;100
0:08:19.194000;-96;100
0:08:19.294000;-94;100
0:08:19.659000;-93;100
0:08:19.858000;-94;100
0:08:20.057000;-90;100
0:08:20.289000;-90;100
0:08:20.488000;-92;100
0:08:20.952000;-89;100
0:08:21.151000;-92;100
0:08:21.449000;-89;100
0:08:21.648000;-87;100
0:08:21.880000;-85;100
0:08:22.178000;-88;100
0:08:22.244000;-87;100
0:08:23.074000;-85;100
0:08:23.272000;-87;100
0:08:23.471000;-87;100
0:08:23.935000;-83;100
0:08:24.035000;-92;100
0:08:24.566000;-83;100
0:08:24.996000;-84;100
0:08:25.096000;-91;100
0:08:25.195000;-85;100
0:08:25.327000;-90;100
0:08:25.526000;-89;100
0:08:25.758000;-90;100
0:08:25.957000;-87;100
0:08:26.289000;-82;100
0:08:26.421000;-90;100
0:08:26.487000;-86;100
0:08:26.819000;-83;100
0:08:26.919000;-89;100
0:08:27.018000;-84;100
0:08:27.118000;-88;100
0:08:27.217000;-84;100
0:08:27.350000;-89;100
0:08:27.748000;-87;100
0:08:27.980000;-87;100
0:08:28.079000;-85;100
0:08:28.179000;-88;100
0:08:28.278000;-88;100
0:08:28.344000;-85;100
0:08:28.543000;-88;100
0:08:29.471000;-85;100
0:08:29.704000;-83;100
0:08:29.770000;-91;100
0:08:30.135000;-89;100
0:08:30.334000;-91;100
0:08:30.433000;-87;100
0:08:30.533000;-90;100
0:08:30.765000;-92;100
0:08:30.898000;-85;100
0:08:30.964000;-89;100
0:08:31.163000;-87;100
0:08:31.329000;-84;100
0:08:31.428000;-90;100
0:08:31.627000;-90;100
0:08:31.826000;-90;100
0:08:32.125000;-88;100
0:08:32.357000;-85;100
0:08:32.722000;-89;100
0:08:33.020000;-85;100
0:08:33.352000;-83;100
0:08:33.451000;-81;100
0:08:33.650000;-81;100
0:08:33.882000;-82;100
0:08:33.982000;-88;100
0:08:34.214000;-90;100
0:08:34.512000;-83;100
0:08:34.944000;-83;100
0:08:35.176000;-86;100
0:08:35.375000;-97;100
0:08:35.573000;-91;100
0:08:35.905000;-88;100
0:08:36.137000;-90;100
0:08:36.336000;-89;100
0:08:36.867000;-87;100
0:08:36.967000;-88;100
0:08:37.166000;-84;100
0:08:37.398000;-84;100
0:08:37.630000;-83;100
0:08:37.730000;-88;100
0:08:37.829000;-84;100
0:08:37.929000;-87;100
0:08:38.028000;-85;100
0:08:38.128000;-87;100
0:08:38.227000;-86;100
0:08:38.393000;-89;100
0:08:38.460000;-91;100
0:08:38.658000;-95;100
0:08:38.758000;-94;100
0:08:38.923000;-92;100
0:08:39.123000;-92;100
0:08:39.222000;-91;100
0:08:39.322000;-85;100
0:08:39.653000;-84;100
0:08:39.753000;-83;100
0:08:40.051000;-87;100
0:08:40.151000;-90;100
0:08:40.416000;-82;100
0:08:40.715000;-85;100
0:08:40.914000;-85;100
0:08:41.146000;-87;100
0:08:41.444000;-82;100
0:08:42.008000;-89;100
0:08:42.207000;-86;100
0:08:42.638000;-87;100
0:08:42.937000;-86;100
0:08:43.302000;-91;100
0:08:43.600000;-88;100
0:08:43.832000;-80;100
0:08:44.247000;-85;100
0:08:44.877000;-87;100
0:08:45.109000;-89;100
0:08:45.408000;-89;100
0:08:45.640000;-88;100
0:08:45.739000;-86;100
0:08:45.938000;-93;100
0:08:46.038000;-85;100
0:08:46.369000;-89;100
0:08:46.502000;-88;100
0:08:46.602000;-90;100
0:08:46.701000;-85;100
0:08:46.801000;-88;100
0:08:47;-86;100
0:08:47.099000;-90;100
0:08:47.232000;-85;100
0:08:47.431000;-90;100
0:08:47.630000;-90;100
0:08:47.729000;-91;100
0:08:47.894000;-88;100
0:08:48.192000;-86;100
0:08:48.424000;-86;100
0:08:48.623000;-85;100
0:08:48.855000;-85;100
0:08:49.054000;-89;100
0:08:49.187000;-88;100
0:08:49.386000;-86;100
0:08:49.585000;-89;100
0:08:50.016000;-86;100
0:08:50.115000;-91;100
0:08:50.215000;-85;100
0:08:50.348000;-94;100
0:08:50.447000;-86;100
0:08:50.646000;-89;100
0:08:50.778000;-93;100
0:08:51.209000;-91;100
0:08:51.309000;-86;100
0:08:51.408000;-89;100
0:08:51.508000;-86;100
0:08:51.607000;-89;100
0:08:51.707000;-86;100
0:08:51.939000;-86;100
0:08:52.039000;-95;100
0:08:52.139000;-89;100
0:08:52.238000;-86;100
0:08:52.371000;-85;100
0:08:52.603000;-90;100
0:08:52.802000;-89;100
0:08:53.432000;-90;100
0:08:53.665000;-86;100
0:08:53.764000;-90;100
0:08:54.095000;-85;100
0:08:54.393000;-92;100
0:08:54.493000;-86;100
0:08:54.625000;-91;100
0:08:54.725000;-86;100
0:08:54.858000;-91;100
0:08:54.924000;-84;100
0:08:55.123000;-85;100
0:08:55.256000;-88;100
0:08:55.488000;-90;100
0:08:55.687000;-85;100
0:08:55.787000;-90;100
0:08:55.886000;-86;100
0:08:56.351000;-91;100
0:08:56.517000;-91;100
0:08:56.748000;-89;100
0:08:56.981000;-90;100
0:08:57.180000;-89;100
0:08:57.611000;-89;100
0:08:58.009000;-88;100
0:08:58.274000;-88;100
0:08:58.474000;-90;100
0:08:59.535000;-90;100
0:08:59.966000;-87;100
0:09:00.165000;-86;100
0:09:00.397000;-86;100
0:09:00.497000;-87;100
0:09:00.729000;-86;100
0:09:00.862000;-87;100
0:09:00.928000;-84;100
0:09:01.160000;-91;100
0:09:01.260000;-84;100
0:09:01.359000;-93;100
0:09:01.459000;-86;100
0:09:01.890000;-89;100
0:09:02.089000;-87;100
0:09:02.188000;-85;100
0:09:02.387000;-85;100
0:09:02.619000;-83;100
0:09:03.282000;-84;100
0:09:03.680000;-98;100
0:09:04.111000;-84;100
0:09:04.211000;-85;100
0:09:04.377000;-86;100
0:09:04.576000;-84;100
0:09:05.503000;-87;100
0:09:06.067000;-86;100
0:09:06.266000;-83;100
0:09:06.498000;-83;100
0:09:06.696000;-83;100
0:09:07.094000;-83;100
0:09:07.194000;-82;100
0:09:07.359000;-89;100
0:09:07.558000;-90;100
0:09:07.989000;-88;100
0:09:08.188000;-90;100
0:09:08.320000;-86;100
0:09:08.420000;-89;100
0:09:08.619000;-90;100
0:09:08.686000;-86;100
0:09:08.785000;-91;100
0:09:08.951000;-92;100
0:09:09.581000;-89;100
0:09:09.680000;-85;100
0:09:09.813000;-93;100
0:09:09.912000;-85;100
0:09:10.012000;-92;100
0:09:10.111000;-88;100
0:09:10.243000;-90;100
0:09:10.442000;-84;100
0:09:10.642000;-84;100
0:09:10.741000;-90;100
0:09:10.841000;-93;100
0:09:10.940000;-89;100
0:09:11.040000;-92;100
0:09:11.139000;-84;100
0:09:11.736000;-92;100
0:09:12.067000;-85;100
0:09:12.266000;-86;100
0:09:12.366000;-91;100
0:09:12.830000;-93;100
0:09:12.897000;-87;100
0:09:13.228000;-87;100
0:09:13.560000;-93;100
0:09:13.626000;-86;100
0:09:13.759000;-87;100
0:09:14.057000;-90;100
0:09:14.388000;-89;100
0:09:14.621000;-91;100
0:09:14.720000;-86;100
0:09:15.051000;-92;100
0:09:15.814000;-91;100
0:09:16.013000;-90;100
0:09:16.212000;-84;100
0:09:16.644000;-90;100
0:09:16.876000;-90;100
0:09:17.075000;-91;100
0:09:17.307000;-90;100
0:09:17.473000;-84;100
0:09:17.605000;-94;100
0:09:17.672000;-90;100
0:09:17.837000;-89;100
0:09:18.036000;-89;100
0:09:18.235000;-88;100
0:09:18.666000;-89;100
0:09:18.865000;-90;100
0:09:19.097000;-90;100
0:09:19.164000;-89;100
0:09:19.330000;-90;100
0:09:19.529000;-90;100
0:09:20.059000;-86;100
0:09:20.325000;-85;100
0:09:20.491000;-85;100
0:09:21.054000;-90;100
0:09:21.153000;-85;100
0:09:21.352000;-86;100
0:09:21.816000;-89;100
0:09:21.982000;-89;100
0:09:22.115000;-86;100
0:09:22.314000;-86;100
0:09:22.414000;-92;100
0:09:22.513000;-87;100
0:09:22.845000;-88;100
0:09:23.044000;-90;100
0:09:23.376000;-86;100
0:09:23.475000;-89;100
0:09:23.608000;-86;100
0:09:24.039000;-87;100
0:09:24.239000;-86;100
0:09:24.537000;-89;100
0:09:24.669000;-87;100
0:09:24.802000;-88;100
0:09:25.731000;-86;100
0:09:25.830000;-93;100
0:09:25.930000;-85;100
0:09:26.361000;-88;100
0:09:26.460000;-91;100
0:09:26.692000;-90;100
0:09:26.924000;-88;100
0:09:27.322000;-88;100
0:09:27.653000;-91;100
0:09:27.819000;-87;100
0:09:28.085000;-94;100
0:09:28.184000;-86;100
0:09:28.715000;-91;100
0:09:28.815000;-86;100
0:09:28.947000;-94;100
0:09:29.146000;-89;100
0:09:29.246000;-86;100
0:09:29.445000;-86;100
0:09:29.578000;-91;100
0:09:30.307000;-85;100
0:09:30.970000;-86;100
0:09:31.932000;-89;100
0:09:32.562000;-88;100
0:09:32.694000;-85;100
0:09:33.026000;-91;100
0:09:33.125000;-85;100
0:09:33.324000;-84;100
0:09:33.423000;-92;100
0:09:33.821000;-92;100
0:09:34.087000;-92;100
0:09:34.518000;-88;100
0:09:34.717000;-88;100
0:09:34.816000;-88;100
0:09:34.916000;-87;100
0:09:35.115000;-85;100
0:09:35.247000;-93;100
0:09:35.546000;-85;100
0:09:36.308000;-87;100
0:09:36.540000;-86;100
0:09:36.739000;-87;100
0:09:37.070000;-88;100
0:09:37.136000;-85;100
0:09:37.700000;-87;100
0:09:37.932000;-87;100
0:09:38.230000;-86;100
0:09:39.093000;-88;100
0:09:39.292000;-87;100
0:09:40.054000;-86;100
0:09:40.187000;-87;100
0:09:40.287000;-86;100
0:09:40.386000;-88;100
0:09:40.585000;-88;100
0:09:40.784000;-86;100
0:09:41.116000;-91;100
0:09:41.415000;-87;100
0:09:41.680000;-87;100
0:09:42.111000;-90;100
0:09:42.409000;-86;100
0:09:42.509000;-93;100
0:09:42.608000;-86;100
0:09:42.940000;-89;100
0:09:43.172000;-88;100
0:09:43.371000;-87;100
0:09:43.603000;-94;100
0:09:44.001000;-88;100
0:09:44.234000;-93;100
0:09:44.366000;-93;100
0:09:44.565000;-91;100
0:09:44.665000;-85;100
0:09:44.964000;-91;100
0:09:45.063000;-90;100
0:09:45.262000;-90;100
0:09:45.693000;-89;100
0:09:45.892000;-85;100
0:09:45.991000;-91;100
0:09:46.157000;-85;100
0:09:46.456000;-90;100
0:09:46.788000;-90;100
0:09:46.987000;-91;100
0:09:47.484000;-90;100
0:09:47.584000;-89;100
0:09:47.750000;-90;100
0:09:47.882000;-87;100
0:09:48.313000;-90;100
0:09:48.611000;-85;100
0:09:48.942000;-90;100
0:09:49.042000;-92;100
0:09:49.174000;-85;100
0:09:49.473000;-89;100
0:09:49.672000;-90;100
0:09:49.904000;-92;100
0:09:50.302000;-90;100
0:09:50.767000;-85;100
0:09:50.866000;-91;100
0:09:50.966000;-86;100
0:09:51.397000;-85;100
0:09:51.496000;-90;100
0:09:51.695000;-90;100
0:09:52.060000;-86;100
0:09:52.159000;-90;100
0:09:52.358000;-85;100
0:09:52.557000;-85;100
0:09:52.657000;-90;100
0:09:52.856000;-90;100
0:09:53.088000;-91;100
0:09:53.287000;-90;100
0:09:53.486000;-91;100
0:09:53.585000;-86;100
0:09:53.651000;-90;100
0:09:53.751000;-84;100
0:09:53.850000;-91;100
0:09:54.049000;-92;100
0:09:54.281000;-92;100
0:09:54.480000;-90;100
0:09:54.679000;-92;100
0:09:54.911000;-92;100
0:09:55.043000;-86;100
0:09:55.143000;-91;100
0:09:55.341000;-92;100
0:09:55.474000;-85;100
0:09:55.773000;-89;100
0:09:55.872000;-91;100
0:09:55.972000;-90;100
0:09:56.204000;-90;100
0:09:56.635000;-94;100
0:09:56.735000;-91;100
0:09:56.834000;-84;100
0:09:56.967000;-91;100
0:09:57.266000;-92;100
0:09:57.597000;-85;100
0:09:57.696000;-90;100
0:09:57.829000;-91;100
0:09:57.928000;-90;100
0:09:58.127000;-84;100
0:09:58.359000;-84;100
0:09:58.558000;-90;100
0:09:58.757000;-85;100
0:09:59.089000;-90;100
0:09:59.288000;-89;100
0:10:00.250000;-84;100
0:10:00.349000;-91;100
0:10:00.482000;-85;100
0:10:00.681000;-86;100
0:10:00.813000;-90;100
0:10:01.012000;-90;100
0:10:01.244000;-90;100
0:10:01.443000;-89;100
0:10:01.542000;-87;100
0:10:01.675000;-90;100
0:10:01.774000;-86;100
0:10:01.874000;-89;100
0:10:02.405000;-85;100
0:10:02.504000;-90;100
0:10:02.604000;-89;100
0:10:02.737000;-90;100
0:10:03.135000;-85;100
0:10:03.367000;-85;100
0:10:03.466000;-88;100
0:10:03.665000;-89;100
0:10:03.863000;-89;100
0:10:04.228000;-88;100
0:10:04.427000;-90;100
0:10:05.090000;-89;100
0:10:05.289000;-89;100
0:10:05.488000;-89;100
0:10:05.587000;-85;100
0:10:06.151000;-88;100
0:10:06.350000;-85;100
0:10:06.581000;-85;100
0:10:07.244000;-84;100
0:10:07.343000;-94;100
0:10:07.443000;-84;100
0:10:07.542000;-90;100
0:10:07.741000;-92;100
0:10:07.841000;-85;100
0:10:08.073000;-86;100
0:10:08.471000;-85;100
0:10:08.936000;-90;100
0:10:09.168000;-87;100
0:10:09.267000;-85;100
0:10:09.565000;-90;100
0:10:10.228000;-86;100
0:10:10.625000;-90;100
0:10:10.725000;-85;100
0:10:10.824000;-89;100
0:10:11.056000;-90;100
0:10:11.288000;-88;100
0:10:11.454000;-89;100
0:10:11.620000;-90;100
0:10:12.151000;-85;100
0:10:12.383000;-92;100
0:10:12.483000;-85;100
0:10:13.013000;-93;100
0:10:13.112000;-85;100
0:10:13.643000;-89;100
0:10:13.842000;-88;100
0:10:14.041000;-89;100
0:10:14.373000;-85;100
0:10:15.036000;-89;100
0:10:15.136000;-85;100
0:10:15.567000;-85;100
0:10:15.667000;-90;100
0:10:15.865000;-91;100
0:10:16.197000;-90;100
0:10:16.827000;-90;100
0:10:17.059000;-91;100
0:10:17.159000;-91;100
0:10:17.291000;-84;100
0:10:17.358000;-90;100
0:10:17.623000;-83;100
0:10:18.021000;-85;100
0:10:18.353000;-90;100
0:10:18.552000;-91;100
0:10:18.751000;-89;100
0:10:18.983000;-88;100
0:10:19.050000;-90;100
0:10:19.216000;-90;100
0:10:19.514000;-93;100
0:10:19.813000;-85;100
0:10:20.045000;-90;100
0:10:20.244000;-88;100
0:10:20.476000;-89;100
0:10:20.543000;-85;100
0:10:20.642000;-93;100
0:10:20.907000;-85;100
0:10:21.438000;-90;100
0:10:21.637000;-89;100
0:10:21.836000;-89;100
0:10:21.969000;-84;100
0:10:22.301000;-91;100
0:10:22.500000;-91;100
0:10:22.732000;-89;100
0:10:22.931000;-91;100
0:10:23.130000;-90;100
0:10:23.263000;-84;100
0:10:23.694000;-85;100
0:10:24.325000;-94;100
0:10:24.424000;-85;100
0:10:24.755000;-85;100
0:10:24.855000;-90;100
0:10:25.087000;-90;100
0:10:25.286000;-89;100
0:10:25.618000;-86;100
0:10:26.447000;-91;100
0:10:26.580000;-90;100
0:10:26.779000;-88;100
0:10:27.310000;-88;100
0:10:27.939000;-85;100
0:10:28.006000;-91;100
0:10:28.303000;-88;100
0:10:28.403000;-86;100
0:10:29.033000;-93;100
0:10:29.133000;-85;100
0:10:29.332000;-89;100
0:10:29.465000;-85;100
0:10:29.564000;-86;100
0:10:29.697000;-96;100
0:10:29.796000;-86;100
0:10:29.896000;-91;100
0:10:29.995000;-85;100
0:10:30.228000;-89;100
0:10:30.427000;-89;100
0:10:30.625000;-89;100
0:10:30.957000;-88;100
0:10:31.089000;-86;100
0:10:31.387000;-88;100
0:10:31.586000;-89;100
0:10:31.719000;-85;100
0:10:31.818000;-90;100
0:10:31.918000;-85;100
0:10:32.017000;-90;100
0:10:32.449000;-87;100
0:10:32.515000;-88;100
0:10:32.781000;-84;100
0:10:32.880000;-89;100
0:10:32.980000;-85;100
0:10:33.112000;-92;100
0:10:33.212000;-89;100
0:10:33.411000;-88;100
0:10:33.642000;-90;100
0:10:33.974000;-89;100
0:10:34.073000;-89;100
0:10:34.173000;-85;100
0:10:35.300000;-85;100
0:10:35.664000;-84;100
0:10:36.958000;-85;100
0:10:37.190000;-90;100
0:10:37.289000;-85;100
0:10:37.488000;-88;100
0:10:37.920000;-90;100
0:10:38.019000;-84;100
0:10:38.351000;-90;100
0:10:38.550000;-94;100
0:10:38.682000;-84;100
0:10:39.081000;-89;100
0:10:39.280000;-84;100
0:10:39.512000;-85;100
0:10:39.611000;-89;100
0:10:39.810000;-91;100
0:10:40.042000;-88;100
0:10:40.241000;-84;100
0:10:40.374000;-91;100
0:10:40.473000;-90;100
0:10:40.904000;-85;100
0:10:41.302000;-88;100
0:10:41.435000;-84;100
0:10:41.567000;-88;100
0:10:41.766000;-88;100
0:10:41.965000;-88;100
0:10:42.164000;-84;100
0:10:42.396000;-84;100
0:10:42.496000;-91;100
0:10:42.595000;-85;100
0:10:42.828000;-89;100
0:10:43.158000;-91;100
0:10:43.258000;-84;100
0:10:43.358000;-90;100
0:10:43.556000;-90;100
0:10:43.788000;-90;100
0:10:43.987000;-88;100
0:10:44.252000;-87;100
0:10:44.385000;-84;100
0:10:44.551000;-85;100
0:10:44.650000;-89;100
0:10:44.750000;-85;100
0:10:44.849000;-89;100
0:10:44.949000;-84;100
0:10:45.513000;-90;100
0:10:45.811000;-89;100
0:10:45.943000;-89;100
0:10:46.043000;-83;100
0:10:46.142000;-88;100
0:10:46.474000;-84;100
0:10:46.573000;-93;100
0:10:46.673000;-85;100
0:10:46.772000;-94;100
0:10:46.905000;-85;100
0:10:47.005000;-91;100
0:10:47.104000;-86;100
0:10:47.303000;-84;100
0:10:47.634000;-84;100
0:10:47.866000;-90;100
0:10:48.464000;-85;100
0:10:48.596000;-90;100
0:10:48.729000;-85;100
0:10:48.828000;-89;100
0:10:49.127000;-88;100
0:10:49.359000;-85;100
0:10:49.558000;-85;100
0:10:49.890000;-93;100
0:10:49.989000;-89;100
0:10:50.221000;-85;100
0:10:50.321000;-89;100
0:10:50.387000;-88;100
0:10:50.486000;-86;100
0:10:51.050000;-84;100
0:10:51.183000;-90;100
0:10:51.713000;-88;100
0:10:51.913000;-89;100
0:10:51.979000;-84;100
0:10:52.244000;-89;100
0:10:54.168000;-90;100
0:10:54.367000;-89;100
0:10:54.732000;-85;100
0:10:54.798000;-90;100
0:10:55.262000;-90;100
0:10:55.362000;-84;100
0:10:55.461000;-90;100
0:10:55.561000;-89;100
0:10:55.793000;-91;100
0:10:55.992000;-90;100
0:10:56.722000;-84;100
0:10:57.352000;-87;100
0:10:58.115000;-89;100
0:10:58.645000;-92;100
0:10:58.745000;-84;100
0:10:58.944000;-85;100
0:10:59.375000;-83;100
0:10:59.740000;-85;100
0:10:59.839000;-89;100
0:11:00.901000;-88;100
0:11:03.023000;-88;100
0:11:03.256000;-91;100
0:11:03.455000;-87;100
0:11:04.119000;-83;100
0:11:04.649000;-90;100
0:11:04.748000;-84;100
0:11:04.848000;-92;100
0:11:04.947000;-84;100
0:11:05.213000;-89;100
0:11:05.379000;-89;100
0:11:05.445000;-84;100
0:11:05.545000;-88;100
0:11:05.711000;-89;100
0:11:05.910000;-88;100
0:11:06.109000;-89;100
0:11:06.242000;-89;100
0:11:06.341000;-85;100
0:11:06.441000;-88;100
0:11:07.734000;-90;100
0:11:10.851000;-89;100
0:11:11.050000;-90;100
0:11:11.481000;-88;100
0:11:11.680000;-85;100
0:11:12.012000;-89;100
0:11:12.211000;-89;100
0:11:12.410000;-89;100
0:11:12.642000;-88;100
0:11:12.841000;-91;100
0:11:12.974000;-84;100
0:11:13.073000;-88;100
0:11:13.404000;-85;100
0:11:13.836000;-84;100
0:11:13.935000;-89;100
0:11:14.134000;-90;100
0:11:14.267000;-84;100
0:11:14.366000;-88;100
0:11:14.433000;-88;100
0:11:14.698000;-90;100
0:11:14.798000;-84;100
0:11:14.897000;-90;100
0:11:14.997000;-85;100
0:11:15.195000;-84;100
0:11:15.427000;-89;100
0:11:15.759000;-84;100
0:11:15.859000;-95;100
0:11:15.925000;-88;100
0:11:16.091000;-90;100
0:11:16.290000;-89;100
0:11:16.522000;-87;100
0:11:16.720000;-89;100
0:11:17.251000;-84;100
0:11:17.383000;-84;100
0:11:17.815000;-91;100
0:11:17.914000;-84;100
0:11:18.312000;-84;100
0:11:18.544000;-89;100
0:11:18.875000;-85;100
0:11:18.975000;-89;100
0:11:19.604000;-89;100
0:11:19.803000;-88;100
0:11:20.134000;-85;100
0:11:20.466000;-90;100
0:11:20.665000;-90;100
0:11:21.196000;-83;100
0:11:21.428000;-85;100
0:11:21.527000;-88;100
0:11:21.959000;-89;100
0:11:22.058000;-83;100
0:11:22.290000;-84;100
0:11:22.522000;-90;100
0:11:22.820000;-84;100
0:11:23.185000;-91;100
0:11:23.285000;-89;100
0:11:23.451000;-90;100
0:11:24.081000;-88;100
0:11:24.181000;-92;100
0:11:24.811000;-85;100
0:11:24.911000;-89;100
0:11:25.043000;-88;100
0:11:25.275000;-90;100
0:11:25.375000;-84;100
0:11:26.105000;-89;100
0:11:26.304000;-89;100
0:11:26.569000;-89;100
0:11:26.668000;-84;100
0:11:26.967000;-89;100
0:11:27.199000;-88;100
0:11:27.398000;-83;100
0:11:27.498000;-90;100
0:11:27.597000;-88;100
0:11:27.730000;-93;100
0:11:27.830000;-85;100
0:11:28.161000;-84;100
0:11:28.591000;-84;100
0:11:29.122000;-90;100
0:11:29.255000;-84;100
0:11:29.553000;-90;100
0:11:29.653000;-91;100
0:11:29.752000;-85;100
0:11:29.985000;-84;100
0:11:30.084000;-94;100
0:11:30.415000;-88;100
0:11:30.514000;-85;100
0:11:30.813000;-91;100
0:11:31.045000;-90;100
0:11:31.177000;-85;100
0:11:31.376000;-84;100
0:11:31.575000;-85;100
0:11:31.708000;-89;100
0:11:31.907000;-89;100
0:11:32.105000;-89;100
0:11:32.304000;-89;100
0:11:32.537000;-84;100
0:11:32.769000;-84;100
0:11:32.869000;-90;100
0:11:32.968000;-83;100
0:11:33.167000;-85;100
0:11:33.398000;-83;100
0:11:33.597000;-88;100
0:11:33.829000;-89;100
0:11:33.896000;-85;100
0:11:34.061000;-84;100
0:11:34.161000;-89;100
0:11:34.459000;-84;100
0:11:34.791000;-89;100
0:11:34.990000;-90;100
0:11:35.090000;-85;100
0:11:35.322000;-84;100
0:11:35.455000;-89;100
0:11:36.051000;-87;100
0:11:36.284000;-84;100
0:11:36.582000;-88;100
0:11:36.781000;-89;100
0:11:36.913000;-84;100
0:11:37.046000;-92;100
0:11:37.344000;-90;100
0:11:37.576000;-89;100
0:11:37.775000;-91;100
0:11:38.306000;-84;100
0:11:38.406000;-89;100
0:11:38.472000;-89;100
0:11:38.837000;-85;100
0:11:38.969000;-94;100
0:11:39.069000;-84;100
0:11:39.466000;-86;100
0:11:39.566000;-90;100
0:11:39.930000;-84;100
0:11:40.130000;-84;100
0:11:40.262000;-93;100
0:11:40.361000;-83;100
0:11:40.461000;-90;100
0:11:41.191000;-90;100
0:11:41.290000;-89;100
0:11:41.390000;-89;100
0:11:41.456000;-85;100
0:11:42.584000;-89;100
0:11:43.644000;-89;100
0:11:44.075000;-90;100
0:11:44.639000;-84;100
0:11:44.739000;-92;100
0:11:44.838000;-84;100
0:11:45.170000;-89;100
0:11:45.269000;-85;100
0:11:45.501000;-88;100
0:11:46.429000;-85;100
0:11:46.661000;-84;100
0:11:46.760000;-94;100
0:11:47.059000;-85;100
0:11:47.291000;-86;100
0:11:48.054000;-90;100
0:11:48.451000;-89;100
0:11:48.683000;-89;100
0:11:49.014000;-85;100
0:11:49.114000;-89;100
0:11:49.214000;-85;100
0:11:49.545000;-90;100
0:11:49.645000;-85;100
0:11:49.744000;-89;100
0:11:49.943000;-91;100
0:11:51.469000;-89;100
0:11:52.430000;-89;100
0:11:53.624000;-90;100
0:11:53.823000;-84;100
0:11:53.923000;-90;100
0:11:54.122000;-88;100
0:11:54.321000;-89;100
0:11:54.553000;-84;100
0:11:54.752000;-90;100
0:11:54.984000;-90;100
0:11:55.315000;-84;100
0:11:55.415000;-90;100
0:11:55.515000;-83;100
0:11:55.647000;-93;100
0:11:56.045000;-89;100
0:11:56.277000;-89;100
0:11:56.410000;-85;100
0:11:56.609000;-84;100
0:11:56.808000;-90;100
0:11:57.770000;-88;100
0:11:57.836000;-90;100
0:11:58.002000;-89;100
0:11:58.200000;-90;100
0:11:58.299000;-84;100
0:11:58.532000;-84;100
0:11:58.631000;-91;100
0:11:58.731000;-90;100
0:11:58.963000;-91;100
0:12:01.516000;-84;100
0:12:01.848000;-89;100
0:12:03.109000;-90;100
0:12:03.341000;-84;100
0:12:03.540000;-84;100
0:12:05.662000;-89;100
0:12:06.292000;-90;100
0:12:06.524000;-89;100
0:12:06.657000;-85;100
0:12:06.756000;-93;100
0:12:06.855000;-84;100
0:12:07.286000;-84;100
0:12:07.386000;-89;100
0:12:07.585000;-90;100
0:12:08.215000;-89;100
0:12:08.380000;-85;100
0:12:08.579000;-84;100
0:12:08.778000;-84;100
0:12:09.011000;-85;100
0:12:10.702000;-85;100
0:12:10.801000;-92;100
0:12:10.934000;-85;100
0:12:11.166000;-90;100
0:12:11.265000;-90;100
0:12:11.563000;-92;100
0:12:11.663000;-89;100
0:12:11.895000;-84;100
0:12:11.995000;-89;100
0:12:12.094000;-84;100
0:12:12.525000;-89;100
0:12:12.658000;-91;100
0:12:12.724000;-84;100
0:12:13.586000;-90;100
0:12:14.017000;-89;100
0:12:14.216000;-89;100
0:12:14.315000;-91;100
0:12:14.381000;-94;100
0:12:14.879000;-85;100
0:12:15.310000;-83;100
0:12:15.409000;-91;100
0:12:15.509000;-84;100
0:12:15.641000;-91;100
0:12:15.940000;-85;100
0:12:16.072000;-94;100
0:12:16.171000;-85;100
0:12:16.271000;-90;100
0:12:16.469000;-89;100
0:12:16.668000;-91;100
0:12:16.801000;-91;100
0:12:16.900000;-84;100
0:12:17.132000;-84;100
0:12:17.232000;-90;100
0:12:17.862000;-88;100
0:12:18.061000;-89;100
0:12:18.260000;-88;100
0:12:18.492000;-89;100
0:12:18.592000;-90;100
0:12:18.725000;-84;100
0:12:18.857000;-87;100
0:12:19.188000;-83;100
0:12:19.288000;-92;100
0:12:19.587000;-90;100
0:12:19.686000;-93;100
0:12:19.786000;-84;100
0:12:20.018000;-88;100
0:12:20.217000;-88;100
0:12:20.316000;-93;100
0:12:20.382000;-84;100
0:12:20.482000;-91;100
0:12:20.548000;-90;100
0:12:20.780000;-88;100
0:12:20.978000;-89;100
0:12:21.177000;-88;100
0:12:21.409000;-89;100
0:12:21.641000;-87;100
0:12:21.939000;-89;100
0:12:22.237000;-94;100
0:12:22.337000;-85;100
0:12:22.470000;-91;100
0:12:22.768000;-90;100
0:12:22.868000;-96;100
0:12:22.967000;-85;100
0:12:23.332000;-85;100
0:12:23.531000;-85;100
0:12:23.631000;-89;100
0:12:24.062000;-89;100
0:12:24.261000;-89;100
0:12:24.493000;-89;100
0:12:24.726000;-89;100
0:12:25.156000;-90;100
0:12:25.355000;-87;100
0:12:25.985000;-90;100
0:12:26.184000;-92;100
0:12:26.283000;-89;100
0:12:26.449000;-89;100
0:12:26.748000;-85;100
0:12:26.880000;-91;100
0:12:27.179000;-86;100
0:12:27.378000;-89;100
0:12:27.942000;-85;100
0:12:28.339000;-85;100
0:12:28.571000;-86;100
0:12:29.434000;-89;100
0:12:29.533000;-86;100
0:12:29.633000;-90;100
0:12:29.865000;-88;100
0:12:30.064000;-85;100
0:12:30.263000;-86;100
0:12:30.363000;-90;100
0:12:30.562000;-89;100
0:12:32.187000;-85;100
0:12:32.319000;-89;100
0:12:32.519000;-86;100
0:12:32.718000;-85;100
0:12:33.049000;-91;100
0:12:33.149000;-86;100
0:12:33.249000;-93;100
0:12:34.043000;-90;100
0:12:34.474000;-85;100
0:12:34.574000;-91;100
0:12:34.905000;-89;100
0:12:35.005000;-85;100
0:12:35.303000;-90;100
0:12:35.436000;-86;100
0:12:35.635000;-86;100
0:12:35.834000;-85;100
0:12:36.166000;-88;100
0:12:36.796000;-85;100
0:12:37.757000;-86;100
0:12:38.088000;-89;100
0:12:38.951000;-88;100
0:12:39.150000;-85;100
0:12:39.249000;-90;100
0:12:39.713000;-90;100
0:12:39.912000;-88;100
0:12:40.244000;-86;100
0:12:40.343000;-94;100
0:12:40.442000;-87;100
0:12:42.666000;-85;100
0:12:42.732000;-85;100
0:12:43.130000;-88;100
0:12:43.329000;-88;100
0:12:43.661000;-86;100
0:12:44.059000;-85;100
0:12:44.224000;-84;100
0:12:44.291000;-91;100
0:12:44.622000;-84;100
0:12:44.821000;-85;100
0:12:45.251000;-89;100
0:12:45.450000;-85;100
0:12:52.212000;-84;100
0:12:52.411000;-84;100
0:12:54.334000;-87;100
0:12:54.666000;-88;100
0:12:54.865000;-90;100
0:12:55.197000;-84;100
0:12:55.926000;-89;100
0:12:56.391000;-89;100
0:12:57.021000;-89;100
0:12:57.220000;-85;100
0:12:57.319000;-91;100
0:12:58.844000;-89;100
0:12:58.943000;-91;100
0:12:59.043000;-84;100
0:12:59.175000;-85;100
0:12:59.275000;-89;100
0:12:59.673000;-90;100
0:13:00.204000;-84;100
0:13:00.303000;-89;100
0:13:00.535000;-89;100
0:13:01.298000;-85;100
0:13:01.497000;-88;100
0:13:01.729000;-89;100
0:13:02.259000;-88;100
0:13:02.690000;-89;100
0:13:02.989000;-85;100
0:13:03.121000;-90;100
0:13:03.221000;-86;100
0:13:03.320000;-92;100
0:13:03.752000;-86;100
0:13:04.183000;-85;100
0:13:04.283000;-88;100
0:13:04.482000;-89;100
0:13:04.680000;-90;100
0:13:04.813000;-85;100
0:13:05.476000;-88;100
0:13:05.575000;-94;100
0:13:05.874000;-85;100
0:13:05.974000;-90;100
0:13:06.405000;-89;100
0:13:06.836000;-89;100
0:13:06.969000;-85;100
0:13:07.466000;-89;100
0:13:07.599000;-85;100
0:13:07.797000;-86;100
0:13:07.996000;-86;100
0:13:08.162000;-90;100
0:13:08.792000;-91;100
0:13:09.091000;-90;100
0:13:09.290000;-88;100
0:13:11.148000;-84;100
0:13:11.248000;-91;100
0:13:11.645000;-89;100
0:13:11.778000;-89;100
0:13:11.877000;-90;100
0:13:11.976000;-89;100
0:13:12.176000;-90;100
0:13:12.507000;-93;100
0:13:12.640000;-85;100
0:13:12.839000;-88;100
0:13:13.038000;-86;100
0:13:13.469000;-84;100
0:13:13.569000;-89;100
0:13:13.768000;-88;100
0:13:13.900000;-84;100
0:13:14.132000;-85;100
0:13:14.231000;-93;100
0:13:14.563000;-89;100
0:13:15.293000;-85;100
0:13:15.392000;-93;100
0:13:15.525000;-89;100
0:13:15.923000;-85;100
0:13:16.354000;-85;100
0:13:17.117000;-86;100
0:13:17.747000;-90;100
0:13:17.846000;-87;100
0:13:18.277000;-85;100
0:13:19.472000;-86;100
0:13:19.870000;-85;100
0:13:20.433000;-84;100
0:13:20.732000;-89;100
0:13:20.931000;-90;100
0:13:22.158000;-88;100
0:13:23.119000;-88;100
0:13:23.318000;-90;100
0:13:23.749000;-89;100
0:13:23.849000;-85;100
0:13:24.611000;-89;100
0:13:24.910000;-84;100
0:13:25.043000;-90;100
0:13:25.142000;-85;100
0:13:25.341000;-84;100
0:13:25.441000;-89;100
0:13:25.640000;-88;100
0:13:26.103000;-84;100
0:13:26.303000;-91;100
0:13:26.435000;-85;100
0:13:26.535000;-90;100
0:13:26.734000;-90;100
0:13:26.833000;-85;100
0:13:26.933000;-89;100
0:13:27.164000;-89;100
0:13:27.264000;-85;100
0:13:27.496000;-84;100
0:13:28.226000;-90;100
0:13:29.088000;-85;100
0:13:29.320000;-84;100
0:13:29.618000;-90;100
0:13:29.817000;-84;100
0:13:30.613000;-88;100
0:13:30.912000;-88;100
0:13:31.111000;-89;100
0:13:31.210000;-85;100
0:13:31.674000;-89;100
0:13:31.972000;-86;100
0:13:32.204000;-86;100
0:13:32.403000;-85;100
0:13:32.503000;-88;100
0:13:32.702000;-88;100
0:13:33.034000;-85;100
0:13:33.232000;-84;100
0:13:33.332000;-90;100
0:13:33.598000;-94;100
0:13:33.697000;-88;100
0:13:33.797000;-90;100
0:13:34.128000;-89;100
0:13:34.227000;-92;100
0:13:34.327000;-86;100
0:13:34.526000;-86;100
0:13:34.725000;-85;100
0:13:34.957000;-86;100
0:13:35.189000;-85;100
0:13:35.288000;-88;100
0:13:35.487000;-89;100
0:13:35.719000;-89;100
0:13:35.917000;-87;100
0:13:36.017000;-85;100
0:13:36.116000;-90;100
0:13:36.315000;-85;100
0:13:36.581000;-85;100
0:13:36.680000;-90;100
0:13:36.780000;-90;100
0:13:36.879000;-85;100
0:13:37.111000;-85;100
0:13:37.211000;-93;100
0:13:37.310000;-89;100
0:13:37.543000;-89;100
0:13:37.742000;-90;100
0:13:38.073000;-90;100
0:13:38.173000;-84;100
0:13:38.305000;-90;100
0:13:38.603000;-89;100
0:13:39.366000;-88;100
0:13:39.465000;-92;100
0:13:39.598000;-88;100
0:13:39.796000;-89;100
0:13:39.896000;-84;100
0:13:39.995000;-89;100
0:13:40.294000;-89;100
0:13:40.394000;-85;100
0:13:40.825000;-86;100
0:13:40.924000;-88;100
0:13:41.090000;-84;100
0:13:41.189000;-91;100
0:13:41.388000;-90;100
0:13:41.587000;-89;100
0:13:42.217000;-88;100
0:13:42.317000;-85;100
0:13:42.681000;-91;100
0:13:47.455000;-89;100
0:13:48.019000;-90;100
0:13:48.450000;-93;100
0:13:48.583000;-85;100
0:13:48.649000;-84;100
0:13:48.748000;-89;100
0:13:48.848000;-85;100
0:13:48.981000;-85;100
0:13:49.080000;-88;100
0:13:49.710000;-92;100
0:13:50.142000;-84;100
0:13:50.274000;-89;100
0:13:50.374000;-84;100
0:13:50.473000;-90;100
0:13:50.871000;-89;100
0:13:51.103000;-89;100
0:13:51.766000;-90;100
0:13:52.164000;-84;100
0:13:52.496000;-90;100
0:13:52.695000;-89;100
0:13:52.993000;-85;100
0:13:53.357000;-85;100
0:13:54.217000;-89;100
0:13:54.979000;-89;100
0:13:55.908000;-83;100
0:13:56.870000;-88;100
0:13:57.102000;-89;100
0:13:57.500000;-84;100
0:13:57.666000;-85;100
0:13:57.733000;-85;100
0:13:57.865000;-94;100
0:13:57.965000;-84;100
0:13:58.595000;-90;100
0:13:58.827000;-88;100
0:13:59.557000;-84;100
0:13:59.756000;-84;100
0:13:59.955000;-85;100
0:14:01.380000;-84;100
0:14:01.480000;-96;100
0:14:01.612000;-87;100
0:14:01.811000;-90;100
0:14:02.142000;-88;100
0:14:03.502000;-88;100
0:14:03.634000;-84;100
0:14:03.734000;-88;100
0:14:03.933000;-84;100
0:14:04.894000;-91;100
0:14:04.993000;-92;100
0:14:05.226000;-89;100
0:14:05.424000;-90;100
0:14:05.657000;-88;100
0:14:05.855000;-90;100
0:14:06.054000;-89;100
0:14:06.286000;-89;100
0:14:06.485000;-89;100
0:14:06.618000;-89;100
0:14:06.718000;-85;100
0:14:06.917000;-85;100
0:14:07.248000;-89;100
0:14:07.348000;-83;100
0:14:07.779000;-85;100
0:14:07.878000;-91;100
0:14:07.977000;-85;100
0:14:08.110000;-88;100
0:14:08.442000;-89;100
0:14:08.641000;-90;100
0:14:08.840000;-84;100
0:14:09.171000;-90;100
0:14:09.370000;-89;100
0:14:09.736000;-89;100
0:14:09.835000;-84;100
0:14:09.935000;-89;100
0:14:10.034000;-85;100
0:14:10.134000;-89;100
0:14:10.465000;-85;100
0:14:18.288000;-89;100
0:14:18.819000;-89;100
0:14:19.018000;-90;100
0:14:19.350000;-84;100
0:14:19.549000;-85;100
0:14:19.781000;-85;100
0:14:28.536000;-84;100
0:14:28.934000;-86;100
0:14:29.099000;-88;100
0:14:29.298000;-91;100
0:14:29.895000;-82;100
0:14:30.591000;-93;100
0:14:30.690000;-84;100
0:14:30.790000;-94;100
0:14:31.320000;-93;100
0:14:31.519000;-85;100
0:14:31.752000;-87;100
0:14:31.851000;-88;100
0:14:32.083000;-88;100
0:14:32.282000;-94;100
0:14:32.513000;-88;100
0:14:32.613000;-84;100
0:14:33.343000;-86;100
0:14:33.575000;-82;100
0:14:33.674000;-94;100
0:14:33.774000;-82;100
0:14:33.873000;-88;100
0:14:34.735000;-88;100
0:14:34.835000;-85;100
0:14:41.898000;-84;100
0:14:42.197000;-84;100
0:14:42.628000;-84;100
0:14:42.728000;-91;100
0:14:43.424000;-84;100
0:14:43.624000;-85;100
0:14:44.254000;-89;100
0:14:44.486000;-93;100
0:14:44.585000;-86;100
0:14:44.784000;-83;100
0:14:45.215000;-85;100
0:14:45.547000;-93;100
0:14:45.614000;-84;100
0:14:45.846000;-87;100
0:14:45.946000;-90;100
0:14:46.277000;-85;100
0:14:46.377000;-89;100
0:14:46.808000;-89;100
0:14:47.206000;-86;100
0:14:47.338000;-96;100
0:14:47.438000;-85;100
0:14:47.504000;-89;100
0:14:47.669000;-89;100
0:14:47.802000;-85;100
0:14:47.902000;-91;100
0:14:48.001000;-85;100
0:14:48.101000;-95;100
0:14:48.233000;-89;100
0:14:48.432000;-90;100
0:14:48.632000;-86;100
0:14:48.831000;-86;100
0:14:48.963000;-89;100
0:14:49.162000;-91;100
0:14:49.394000;-90;100
0:14:49.925000;-85;100
0:14:50.058000;-91;100
0:14:50.124000;-86;100
0:14:50.887000;-85;100
0:14:51.418000;-86;100
0:14:51.617000;-84;100
0:14:51.750000;-96;100
0:14:51.948000;-85;100
0:14:52.048000;-89;100
0:14:52.280000;-89;100
0:14:52.479000;-90;100
0:14:52.678000;-89;100
0:14:53.043000;-85;100
0:14:53.672000;-85;100
0:14:57.285000;-90;100
0:14:57.385000;-91;100
0:14:57.517000;-92;100
0:14:58.379000;-84;100
0:14:58.810000;-91;100
0:14:59.009000;-84;100
0:14:59.109000;-90;100
0:14:59.308000;-90;100
0:14:59.540000;-84;100
0:14:59.871000;-93;100
0:15:00.070000;-92;100
0:15:00.269000;-85;100
0:15:00.369000;-92;100
0:15:00.535000;-91;100
0:15:00.701000;-91;100
0:15:01.364000;-91;100
0:15:01.562000;-89;100
0:15:01.662000;-85;100
0:15:01.795000;-91;100
0:15:02.292000;-93;100
0:15:02.392000;-85;100
0:15:02.491000;-91;100
0:15:02.657000;-91;100
0:15:02.856000;-91;100
0:15:03.917000;-92;100
0:15:03.983000;-90;100
0:15:04.149000;-91;100
0:15:05.210000;-92;100
0:15:05.409000;-90;100
0:15:05.475000;-93;100
0:15:05.641000;-91;100
0:15:05.840000;-93;100
0:15:06.404000;-84;100
0:15:06.802000;-84;100
0:15:06.935000;-84;100
0:15:07.034000;-91;100
0:15:07.233000;-93;100
0:15:07.565000;-84;100
0:15:07.764000;-91;100
0:15:08.096000;-84;100
0:15:08.195000;-93;100
0:15:08.328000;-92;100
0:15:08.427000;-86;100
0:15:08.626000;-84;100
0:15:08.858000;-84;100
0:15:08.957000;-93;100
0:15:09.256000;-85;100
0:15:09.389000;-94;100
0:15:09.687000;-92;100
0:15:09.886000;-85;100
0:15:10.152000;-85;100
0:15:10.251000;-93;100
0:15:10.350000;-88;100
0:15:10.583000;-90;100
0:15:10.781000;-91;100
0:15:11.014000;-89;100
0:15:11.213000;-91;100
0:15:12.373000;-92;100
0:15:12.506000;-84;100
0:15:13.236000;-84;100
0:15:13.535000;-91;100
0:15:13.734000;-91;100
0:15:13.867000;-84;100
0:15:14.065000;-84;100
0:15:14.165000;-93;100
0:15:14.265000;-86;100
0:15:14.397000;-91;100
0:15:14.463000;-89;100
0:15:14.928000;-86;100
0:15:15.060000;-90;100
0:15:15.159000;-85;100
0:15:15.259000;-91;100
0:15:15.491000;-91;100
0:15:15.856000;-85;100
0:15:16.221000;-85;100
0:15:16.420000;-83;100
0:15:16.652000;-86;100
0:15:16.851000;-89;100
0:15:17.083000;-84;100
0:15:17.614000;-91;100
0:15:17.813000;-85;100
0:15:18.243000;-92;100
0:15:18.773000;-85;100
0:15:19.105000;-91;100
0:15:19.204000;-93;100
0:15:19.304000;-85;100
0:15:19.834000;-87;100
0:15:20.033000;-91;100
0:15:20.266000;-87;100
0:15:20.597000;-84;100
0:15:21.028000;-84;100
0:15:21.260000;-86;100
0:15:21.757000;-88;100
0:15:22.122000;-84;100
0:15:23.184000;-92;100
0:15:23.615000;-84;100
0:15:23.814000;-84;100
0:15:23.947000;-93;100
0:15:24.046000;-91;100
0:15:25.008000;-91;100
0:15:25.107000;-84;100
0:15:25.737000;-84;100
0:15:26.500000;-91;100
0:15:26.699000;-93;100
0:15:26.832000;-84;100
0:15:27.030000;-84;100
0:15:27.229000;-85;100
0:15:27.495000;-84;100
0:15:27.860000;-84;100
0:15:27.992000;-93;100
0:15:28.092000;-91;100
0:15:28.224000;-91;100
0:15:28.423000;-92;100
0:15:28.623000;-92;100
0:15:28.755000;-90;100
0:15:29.186000;-92;100
0:15:29.485000;-84;100
0:15:29.584000;-92;100
0:15:29.783000;-93;100
0:15:30.014000;-93;100
0:15:30.213000;-91;100
0:15:30.412000;-93;100
0:15:31.703000;-91;100
0:15:32.499000;-83;100
0:15:32.930000;-90;100
0:15:33.030000;-92;100
0:15:33.129000;-84;100
0:15:33.427000;-91;100
0:15:33.626000;-90;100
0:15:34.189000;-91;100
0:15:34.289000;-91;100
0:15:34.819000;-91;100
0:15:34.919000;-85;100
0:15:35.350000;-84;100
0:15:35.416000;-90;100
0:15:35.781000;-84;100
0:15:35.914000;-91;100
0:15:36.013000;-85;100
0:15:36.113000;-92;100
0:15:36.212000;-85;100
0:15:36.410000;-92;100
0:15:36.842000;-91;100
0:15:36.941000;-91;100
0:15:37.074000;-90;100
0:15:37.306000;-92;100
0:15:37.505000;-90;100
0:15:38.135000;-91;100
0:15:38.467000;-96;100
0:15:38.566000;-84;100
0:15:39.097000;-92;100
0:15:39.295000;-90;100
0:15:39.527000;-92;100
0:15:41.878000;-92;100
0:15:42.309000;-84;100
0:15:42.507000;-84;100
0:15:42.706000;-84;100
0:15:42.872000;-86;100
0:15:42.971000;-90;100
0:15:43.071000;-91;100
0:15:43.700000;-85;100
0:15:44.131000;-89;100
0:15:44.894000;-90;100
0:15:44.993000;-85;100
0:15:45.093000;-90;100
0:15:45.623000;-85;100
0:15:45.755000;-91;100
0:15:45.954000;-85;100
0:15:48.209000;-91;100
0:15:48.508000;-91;100
0:15:48.972000;-85;100
0:15:49.171000;-86;100
0:15:49.503000;-90;100
0:15:49.602000;-85;100
0:15:49.801000;-90;100
0:15:50.564000;-90;100
0:15:51.825000;-84;100
0:15:51.891000;-90;100
0:15:52.820000;-91;100
0:15:53.019000;-92;100
0:15:53.218000;-92;100
0:15:53.350000;-91;100
0:15:53.549000;-91;100
0:15:53.980000;-92;100
0:15:54.709000;-84;100
0:15:54.842000;-93;100
0:15:55.074000;-91;100
0:15:55.904000;-92;100
0:15:56.103000;-91;100
0:15:56.534000;-86;100
0:15:56.667000;-90;100
0:15:56.866000;-92;100
0:15:57.065000;-91;100
0:15:58.358000;-90;100
0:15:58.458000;-84;100
0:15:58.590000;-94;100
0:15:58.889000;-91;100
0:15:59.121000;-91;100
0:15:59.320000;-91;100
0:15:59.651000;-91;100
0:16:00.082000;-91;100
0:16:00.281000;-85;100
0:16:00.380000;-90;100
0:16:00.513000;-85;100
0:16:00.712000;-91;100
0:16:00.944000;-85;100
0:16:01.342000;-85;100
0:16:01.575000;-90;100
0:16:01.774000;-88;100
0:16:02.105000;-89;100
0:16:02.205000;-85;100
0:16:02.304000;-93;100
0:16:02.635000;-91;100
0:16:02.735000;-93;100
0:16:02.868000;-85;100
0:16:03.696000;-85;100
0:16:03.796000;-93;100
0:16:03.895000;-90;100
0:16:03.962000;-85;100
0:16:04.127000;-84;100
0:16:04.227000;-91;100
0:16:04.360000;-84;100
0:16:04.758000;-86;100
0:16:04.990000;-85;100
0:16:05.089000;-91;100
0:16:05.421000;-84;100
0:16:05.554000;-92;100
0:16:05.853000;-89;100
0:16:06.052000;-85;100
0:16:06.482000;-85;100
0:16:06.582000;-90;100
0:16:06.681000;-85;100
0:16:06.814000;-92;100
0:16:06.880000;-89;100
0:16:07.013000;-91;100
0:16:07.245000;-91;100
0:16:07.444000;-91;100
0:16:07.544000;-86;100
0:16:07.643000;-89;100
0:16:07.876000;-84;100
0:16:08.075000;-90;100
0:16:08.175000;-90;100
0:16:08.274000;-85;100
0:16:08.374000;-89;100
0:16:08.440000;-84;100
0:16:08.739000;-90;100
0:16:08.838000;-94;100
0:16:08.938000;-85;100
0:16:09.137000;-84;100
0:16:09.236000;-89;100
0:16:09.468000;-90;100
0:16:09.667000;-89;100
0:16:09.833000;-89;100
0:16:10.032000;-90;100
0:16:10.231000;-90;100
0:16:10.330000;-92;100
0:16:11.060000;-85;100
0:16:11.192000;-92;100
0:16:11.292000;-93;100
0:16:11.358000;-84;100
0:16:11.457000;-94;100
0:16:11.524000;-89;100
0:16:11.623000;-92;100
0:16:11.856000;-91;100
0:16:12.154000;-85;100
0:16:12.353000;-85;100
0:16:12.485000;-89;100
0:16:13.115000;-93;100
0:16:13.215000;-84;100
0:16:14.309000;-87;100
0:16:14.608000;-92;100
0:16:14.939000;-85;100
0:16:15.039000;-90;100
0:16:15.138000;-85;100
0:16:15.669000;-91;100
0:16:15.901000;-89;100
0:16:16.033000;-84;100
0:16:16.332000;-84;100
0:16:16.432000;-93;100
0:16:16.531000;-85;100
0:16:17.393000;-90;100
0:16:17.625000;-85;100
0:16:17.725000;-94;100
0:16:17.824000;-86;100
0:16:18.023000;-93;100
0:16:18.818000;-84;100
0:16:19.016000;-90;100
0:16:19.248000;-91;100
0:16:19.647000;-90;100
0:16:19.746000;-95;100
0:16:20.310000;-88;100
0:16:20.409000;-90;100
0:16:20.741000;-84;100
0:16:21.139000;-84;100
0:16:22.100000;-84;100
0:16:22.963000;-84;100
0:16:23.161000;-85;100
0:16:23.261000;-91;100
0:16:23.493000;-89;100
0:16:23.725000;-91;100
0:16:24.023000;-84;100
0:16:24.554000;-91;100
0:16:24.654000;-89;100
0:16:24.786000;-90;100
0:16:25.018000;-91;100
0:16:25.317000;-95;100
0:16:25.516000;-91;100
0:16:25.848000;-85;100
0:16:26.246000;-84;100
0:16:26.345000;-90;100
0:16:26.412000;-92;100
0:16:27.141000;-90;100
0:16:27.539000;-88;100
0:16:27.672000;-85;100
0:16:27.772000;-90;100
0:16:28.003000;-85;100
0:16:28.202000;-84;100
0:16:28.401000;-85;100
0:16:28.633000;-90;100
0:16:28.832000;-84;100
0:16:28.965000;-94;100
0:16:29.264000;-84;100
0:16:29.330000;-84;100
0:16:29.595000;-95;100
0:16:29.695000;-90;100
0:16:29.795000;-94;100
0:16:30.126000;-90;100
0:16:30.325000;-85;100
0:16:30.557000;-91;100
0:16:30.657000;-91;100
0:16:30.756000;-84;100
0:16:30.822000;-85;100
0:16:30.988000;-85;100
0:16:31.087000;-91;100
0:16:31.618000;-85;100
0:16:31.817000;-85;100
0:16:32.049000;-85;100
0:16:32.248000;-90;100
0:16:32.381000;-89;100
0:16:32.580000;-91;100
0:16:32.680000;-90;100
0:16:32.779000;-83;100
0:16:33.012000;-90;100
0:16:33.443000;-84;100
0:16:33.642000;-88;100
0:16:34.205000;-84;100
0:16:34.636000;-91;100
0:16:34.835000;-86;100
0:16:35.266000;-91;100
0:16:35.597000;-89;100
0:16:37.819000;-85;100
0:16:38.051000;-85;100
0:16:38.781000;-85;100
0:16:39.013000;-84;100
0:16:39.212000;-85;100
0:16:39.644000;-85;100
0:16:39.743000;-89;100
0:16:39.975000;-92;100
0:16:40.406000;-92;100
0:16:40.605000;-90;100
0:16:40.804000;-90;100
0:16:41.467000;-93;100
0:16:41.600000;-90;100
0:16:41.799000;-90;100
0:16:41.998000;-90;100
0:16:42.329000;-85;100
0:16:42.462000;-92;100
0:16:42.760000;-90;100
0:16:43.191000;-90;100
0:16:43.722000;-91;100
0:16:44.053000;-84;100
0:16:44.152000;-92;100
0:16:44.683000;-90;100
0:16:44.881000;-90;100
0:16:45.114000;-90;100
0:16:45.644000;-84;100
0:16:45.744000;-85;100
0:16:45.975000;-84;100
0:16:46.174000;-84;100
0:16:46.406000;-89;100
0:16:46.605000;-90;100
0:16:46.705000;-84;100
0:16:46.904000;-85;100
0:16:47.037000;-90;100
0:16:47.236000;-89;100
0:16:47.302000;-84;100
0:16:47.468000;-84;100
0:16:47.667000;-85;100
0:16:47.766000;-94;100
0:16:47.899000;-91;100
0:16:48.098000;-84;100
0:16:48.198000;-95;100
0:16:48.297000;-84;100
0:16:48.430000;-91;100
0:16:48.861000;-89;100
0:16:49.258000;-91;100
0:16:49.921000;-85;100
0:16:50.120000;-91;100
0:16:50.219000;-91;100
0:16:50.352000;-89;100
0:16:50.551000;-88;100
0:16:50.750000;-89;100
0:16:50.982000;-84;100
0:16:51.082000;-90;100
0:16:51.181000;-84;100
0:16:51.281000;-90;100
0:16:51.480000;-90;100
0:16:51.712000;-90;100
0:16:51.845000;-91;100
0:16:52.044000;-85;100
0:16:52.276000;-89;100
0:16:52.375000;-92;100
0:16:52.674000;-88;100
0:16:53.437000;-90;100
0:16:53.537000;-86;100
0:16:53.769000;-85;100
0:16:53.968000;-85;100
0:16:54.598000;-91;100
0:16:55.062000;-84;100
0:16:55.460000;-85;100
0:16:55.559000;-89;100
0:16:56.654000;-90;100
0:16:56.853000;-89;100
0:16:57.583000;-90;100
0:16:57.682000;-84;100
0:16:57.782000;-89;100
0:16:58.577000;-90;100
0:16:58.676000;-95;100
0:16:59.107000;-85;100
0:16:59.206000;-90;100
0:16:59.273000;-91;100
0:16:59.538000;-92;100
0:16:59.638000;-85;100
0:16:59.737000;-88;100
0:16:59.836000;-85;100
0:17:00.168000;-90;100
0:17:00.566000;-85;100
0:17:00.666000;-93;100
0:17:00.931000;-92;100
0:17:01.030000;-93;100
0:17:01.163000;-89;100
0:17:01.660000;-89;100
0:17:02.091000;-89;100
0:17:02.191000;-86;100
0:17:02.257000;-84;100
0:17:02.422000;-85;100
0:17:02.853000;-84;100
0:17:03.152000;-89;100
0:17:04.346000;-84;100
0:17:04.478000;-90;100
0:17:04.578000;-84;100
0:17:04.677000;-93;100
0:17:04.777000;-93;100
0:17:05.842000;-86;100
0:17:14.165000;-89;100
0:17:14.265000;-90;100
0:17:19.337000;-85;100
0:17:19.436000;-91;100
0:17:19.536000;-85;100
0:17:19.635000;-90;100
0:17:20.165000;-86;100
0:17:20.231000;-86;100
0:17:20.397000;-85;100
0:17:20.696000;-90;100
0:17:21.392000;-92;100
0:17:21.458000;-85;100
0:17:21.558000;-90;100
0:17:21.657000;-85;100
0:17:21.790000;-90;100
0:17:22.520000;-86;100
0:17:24.245000;-85;100
0:17:24.377000;-90;100
0:17:25.007000;-89;100
0:17:25.107000;-93;100
0:17:26.168000;-96;100
0:17:26.499000;-86;100
0:17:26.599000;-90;100
0:17:27.627000;-89;100
0:17:27.892000;-89;100
0:17:28.623000;-86;100
0:17:28.887000;-83;100
0:17:29.053000;-92;100
0:17:29.384000;-90;100
0:17:29.815000;-89;100
0:17:30.014000;-90;100
0:17:30.645000;-85;100
0:17:30.711000;-91;100
0:17:31.375000;-91;100
0:17:32.169000;-90;100
0:17:32.368000;-91;100
0:17:32.999000;-90;100
0:17:33.761000;-95;100
0:17:33.861000;-85;100
0:17:34.093000;-88;100
0:17:34.425000;-86;100
0:17:34.723000;-89;100
0:17:34.922000;-92;100
0:17:35.386000;-89;100
0:17:35.486000;-95;100
0:17:36.216000;-90;100
0:17:36.415000;-90;100
0:17:36.514000;-92;100
0:17:36.746000;-89;100
0:17:37.386000;-95;100
0:17:37.486000;-84;100
0:17:39.376000;-86;100
0:17:39.608000;-84;100
0:17:39.774000;-90;100
0:17:39.874000;-91;100
0:17:39.973000;-85;100
0:17:40.073000;-90;100
0:17:40.272000;-89;100
0:17:40.471000;-91;100
0:17:40.902000;-85;100
0:17:41.001000;-89;100
0:17:41.101000;-84;100
0:17:41.266000;-89;100
0:17:41.465000;-91;100
0:17:41.697000;-91;100
0:17:41.797000;-86;100
0:17:42.095000;-86;100
0:17:42.195000;-91;100
0:17:42.294000;-85;100
0:17:42.758000;-85;100
0:17:43.056000;-91;100
0:17:43.487000;-90;100
0:17:43.686000;-88;100
0:17:43.919000;-90;100
0:17:44.118000;-91;100
0:17:44.349000;-93;100
0:17:44.449000;-85;100
0:17:44.582000;-91;100
0:17:44.681000;-85;100
0:17:45.610000;-89;100
0:17:45.677000;-90;100
0:17:45.842000;-88;100
0:17:46.273000;-89;100
0:17:46.472000;-90;100
0:17:46.671000;-85;100
0:17:47.135000;-90;100
0:17:47.864000;-85;100
0:17:48.527000;-85;100
0:17:56.653000;-94;100
0:17:56.852000;-92;100
0:17:57.051000;-84;100
0:17:57.283000;-91;100
0:17:57.615000;-86;100
0:17:57.814000;-91;100
0:17:58.676000;-91;100
0:17:59.206000;-85;100
0:17:59.339000;-91;100
0:17:59.438000;-90;100
0:17:59.538000;-92;100
0:17:59.637000;-86;100
0:17:59.836000;-86;100
0:18:00.168000;-91;100
0:18:00.268000;-85;100
0:18:00.466000;-84;100
0:18:00.599000;-91;100
0:18:00.665000;-90;100
0:18:00.765000;-85;100
0:18:01.030000;-90;100
0:18:01.361000;-86;100
0:18:01.461000;-90;100
0:18:01.560000;-85;100
0:18:01.660000;-90;100
0:18:02.223000;-90;100
0:18:02.323000;-85;100
0:18:02.521000;-86;100
0:18:02.720000;-85;100
0:18:02.852000;-93;100
0:18:03.051000;-90;100
0:18:03.250000;-89;100
0:18:03.449000;-84;100
0:18:03.615000;-89;100
0:18:03.715000;-94;100
0:18:03.814000;-85;100
0:18:04.245000;-85;100
0:18:04.643000;-85;100
0:18:04.876000;-87;100
0:18:05.075000;-86;100
0:18:05.406000;-89;100
0:18:05.704000;-89;100
0:18:06.036000;-91;100
0:18:06.235000;-88;100
0:18:06.700000;-90;100
0:18:07.860000;-88;100
0:18:07.959000;-92;100
0:18:08.622000;-86;100
0:18:08.722000;-90;100
0:18:08.921000;-85;100
0:18:09.020000;-92;100
0:18:09.551000;-90;100
0:18:09.717000;-91;100
0:18:10.248000;-85;100
0:18:10.645000;-85;100
0:18:11.077000;-92;100
0:18:11.209000;-84;100
0:18:11.806000;-85;100
0:18:12.038000;-85;100
0:18:12.436000;-85;100
0:18:12.701000;-85;100
0:18:13.000000;-89;100
0:18:14.293000;-89;100
0:18:14.591000;-90;100
0:18:15.022000;-88;100
0:18:15.221000;-84;100
0:18:15.420000;-86;100
0:18:15.884000;-94;100
0:18:15.984000;-85;100
0:18:16.216000;-85;100
0:18:16.415000;-89;100
0:18:17.046000;-89;100
0:18:18.040000;-84;100
0:18:18.140000;-91;100
0:18:18.239000;-91;100
0:18:18.471000;-91;100
0:18:18.571000;-84;100
0:18:18.670000;-90;100
0:18:19.002000;-89;100
0:18:19.831000;-84;100
0:18:20.063000;-85;100
0:18:20.295000;-85;100
0:18:20.726000;-89;100
0:18:21.124000;-90;100
0:18:21.356000;-90;100
0:18:21.987000;-89;100
0:18:22.617000;-89;100
0:18:23.048000;-90;100
0:18:23.379000;-90;100
0:18:23.478000;-90;100
0:18:23.777000;-86;100
0:18:24.507000;-89;100
0:18:24.673000;-89;100
0:18:25.104000;-89;100
0:18:25.303000;-85;100
0:18:25.933000;-85;100
0:18:26.363000;-90;100
0:18:26.794000;-90;100
0:18:26.893000;-86;100
0:18:27.025000;-89;100
0:18:27.125000;-85;100
0:18:27.656000;-85;100
0:18:28.086000;-85;100
0:18:28.285000;-85;100
0:18:28.715000;-90;100
0:18:29.046000;-88;100
0:18:29.245000;-85;100
0:18:29.476000;-86;100
0:18:29.675000;-90;100
0:18:29.907000;-89;100
0:18:30.006000;-85;100
0:18:30.105000;-88;100
0:18:30.205000;-85;100
0:18:30.404000;-85;100
0:18:31.167000;-92;100
0:18:31.697000;-85;100
0:18:31.930000;-89;100
0:18:32.261000;-90;100
0:18:32.460000;-89;100
0:18:33.089000;-91;100
0:18:34.050000;-89;100
0:18:35.244000;-85;100
0:18:35.476000;-90;100
0:18:35.675000;-86;100
0:18:35.906000;-92;100
0:18:36.304000;-85;100
0:18:37.167000;-85;100
0:18:37.266000;-89;100
0:18:37.366000;-93;100
0:18:37.465000;-86;100
0:18:38.129000;-90;100
0:18:38.228000;-91;100
0:18:38.560000;-84;100
0:18:38.659000;-90;100
0:18:38.957000;-85;100
0:18:39.057000;-90;100
0:18:39.389000;-84;100
0:18:39.621000;-85;100
0:18:39.753000;-91;100
0:18:40.052000;-85;100
0:18:40.151000;-94;100
0:18:41.147000;-85;100
0:18:41.346000;-90;100
0:18:41.545000;-85;100
0:18:41.777000;-85;100
0:18:42.737000;-89;100
0:18:43.068000;-85;100
0:18:43.367000;-91;100
0:18:43.566000;-90;100
0:18:43.798000;-89;100
0:18:44.130000;-84;100
0:18:44.561000;-85;100
0:18:44.860000;-90;100
0:18:45.058000;-90;100
0:18:45.390000;-84;100
0:18:45.490000;-90;100
0:18:45.589000;-91;100
0:18:45.655000;-91;100
0:18:45.755000;-86;100
0:18:45.821000;-93;100
0:18:45.921000;-87;100
0:18:46.253000;-89;100
0:18:46.352000;-90;100
0:18:46.452000;-88;100
0:18:47.314000;-91;100
0:18:47.414000;-90;100
0:18:47.646000;-90;100
0:18:48.807000;-90;100
0:18:48.939000;-85;100
0:18:49.039000;-90;100
0:18:49.138000;-85;100
0:18:51.061000;-86;100
0:18:51.293000;-87;100
0:18:51.923000;-86;100
0:18:52.156000;-85;100
0:18:52.255000;-90;100
0:18:52.454000;-88;100
0:18:52.554000;-85;100
0:18:52.886000;-90;100
0:18:53.117000;-89;100
0:18:53.515000;-88;100
0:18:53.747000;-84;100
0:18:54.510000;-94;100
0:18:54.809000;-82;100
0:18:55.240000;-83;100
0:18:55.672000;-95;100
0:18:55.970000;-84;100
0:18:57.032000;-90;100
0:18:57.131000;-95;100
0:18:57.496000;-91;100
0:19:01.243000;-85;100
0:19:01.675000;-91;100
0:19:01.973000;-90;100
0:19:02.206000;-85;100
0:19:02.305000;-93;100
0:19:02.404000;-86;100
0:19:02.604000;-85;100
0:19:03.465000;-84;100
0:19:04.427000;-85;100
0:19:04.526000;-89;100
0:19:05.190000;-86;100
0:19:05.289000;-91;100
0:19:05.919000;-86;100
0:19:06.019000;-89;100
0:19:06.350000;-85;100
0:19:06.714000;-89;100
0:19:07.643000;-84;100
0:19:07.876000;-90;100
0:19:09.268000;-84;100
0:19:09.367000;-92;100
0:19:09.466000;-85;100
0:19:09.765000;-85;100
0:19:11.291000;-85;100
0:19:11.391000;-92;100
0:19:11.490000;-84;100
0:19:11.590000;-94;100
0:19:11.921000;-85;100
0:19:12.319000;-85;100
0:19:12.452000;-91;100
0:19:12.585000;-85;100
0:19:12.684000;-90;100
0:19:12.983000;-90;100
0:19:13.115000;-90;100
0:19:13.414000;-86;100
0:19:13.613000;-84;100
0:19:13.845000;-84;100
0:19:13.978000;-90;100
0:19:14.376000;-89;100
0:19:14.608000;-91;100
0:19:15.006000;-91;100
0:19:15.271000;-88;100
0:19:16.200000;-91;100
0:19:16.332000;-85;100
0:19:16.830000;-85;100
0:19:17.261000;-90;100
0:19:18.455000;-84;100
0:19:18.653000;-85;100
0:19:18.786000;-93;100
0:19:18.885000;-85;100
0:19:19.283000;-85;100
0:19:20.576000;-94;100
0:19:20.675000;-85;100
0:19:20.775000;-92;100
0:19:21.306000;-84;100
0:19:22.765000;-84;100
0:19:23.262000;-85;100
0:19:23.362000;-92;100
0:19:23.461000;-85;100
0:19:23.661000;-87;100
0:19:24.258000;-96;100
0:19:24.457000;-92;100
0:19:24.523000;-87;100
0:19:24.656000;-91;100
0:19:25.285000;-89;100
0:19:26.048000;-85;100
0:19:26.148000;-91;100
0:19:26.247000;-85;100
0:19:27.108000;-89;100
0:19:27.241000;-85;100
0:19:27.638000;-89;100
0:19:27.737000;-85;100
0:19:27.870000;-91;100
0:19:28.069000;-89;100
0:19:28.466000;-89;100
0:19:28.699000;-90;100
0:19:28.898000;-85;100
0:19:28.964000;-89;100
0:19:29.130000;-92;100
0:19:29.760000;-86;100
0:19:29.959000;-85;100
0:19:30.058000;-89;100
0:19:30.622000;-85;100
0:19:30.853000;-84;100
0:19:31.052000;-87;100
0:19:31.151000;-88;100
0:19:31.549000;-85;100
0:19:31.781000;-89;100
0:19:31.881000;-90;100
0:19:32.146000;-86;100
0:19:32.544000;-86;100
0:19:33.173000;-85;100
0:19:33.405000;-86;100
0:19:33.472000;-84;100
0:19:33.737000;-93;100
0:19:34.134000;-89;100
0:19:34.566000;-89;100
0:19:35.759000;-85;100
0:19:36.953000;-88;100
0:19:37.350000;-91;100
0:19:37.483000;-85;100
0:19:37.582000;-93;100
0:19:37.681000;-85;100
0:19:37.814000;-89;100
0:19:38.212000;-85;100
0:19:38.444000;-89;100
0:19:38.544000;-90;100
0:19:38.643000;-83;100
0:19:40.267000;-86;100
0:19:40.466000;-85;100
0:19:40.797000;-91;100
0:19:42.154000;-84;100
0:19:42.287000;-89;100
0:19:42.386000;-85;100
0:19:42.452000;-90;100
0:19:42.552000;-85;100
0:19:42.618000;-94;100
0:19:42.717000;-86;100
0:19:42.949000;-86;100
0:19:43.148000;-85;100
0:19:43.777000;-86;100
0:19:43.910000;-91;100
0:19:44.010000;-90;100
0:19:44.308000;-93;100
0:19:44.440000;-85;100
0:19:44.872000;-90;100
0:19:45.502000;-93;100
0:19:45.601000;-85;100
0:19:45.701000;-88;100
0:19:46.099000;-86;100
0:19:46.231000;-93;100
0:19:46.330000;-85;100
0:19:46.529000;-85;100
0:19:50.737000;-84;100
0:19:51.367000;-87;100
0:19:51.898000;-84;100
0:19:52.130000;-85;100
0:19:52.230000;-90;100
0:19:52.329000;-86;100
0:19:52.428000;-88;100
0:19:55.544000;-86;100
0:19:56.206000;-86;100
0:19:56.306000;-91;100
0:19:56.405000;-89;100
0:19:58.527000;-85;100
0:19:58.858000;-88;100
0:19:59.091000;-88;100
0:19:59.290000;-89;100
0:19:59.489000;-90;100
0:19:59.621000;-85;100
0:19:59.721000;-91;100
0:20:00.152000;-92;100
0:20:00.285000;-89;100
0:20:00.783000;-85;100
0:20:01.313000;-89;100
0:20:01.413000;-90;100
0:20:01.512000;-85;100
0:20:01.711000;-86;100
0:20:01.876000;-85;100
0:20:02.407000;-96;100
0:20:03.236000;-89;100
0:20:03.568000;-85;100
0:20:03.800000;-89;100
0:20:04.761000;-90;100
0:20:04.860000;-86;100
0:20:05.059000;-84;100
0:20:05.159000;-89;100
0:20:05.358000;-85;100
0:20:05.690000;-90;100
0:20:06.884000;-87;100
0:20:07.083000;-91;100
0:20:08.078000;-91;100
0:20:09.868000;-93;100
0:20:10.001000;-84;100
0:20:10.101000;-91;100
0:20:10.399000;-85;100
0:20:11.460000;-90;100
0:20:11.692000;-89;100
0:20:12.123000;-90;100
0:20:12.255000;-85;100
0:20:12.354000;-89;100
0:20:12.653000;-85;100
0:20:12.985000;-92;100
0:20:13.383000;-85;100
0:20:13.715000;-94;100
0:20:13.848000;-92;100
0:20:16.832000;-84;100
0:20:16.931000;-95;100
0:20:17.262000;-92;100
0:20:17.793000;-94;100
0:20:17.892000;-85;100
0:20:18.091000;-85;100
0:20:18.224000;-90;100
0:20:18.323000;-86;100
0:20:18.987000;-89;100
0:20:19.716000;-94;100
0:20:20.246000;-85;100
0:20:20.346000;-90;100
0:20:20.777000;-85;100
0:20:20.976000;-85;100
0:20:21.407000;-85;100
0:20:21.839000;-86;100
0:20:22.370000;-93;100
0:20:22.569000;-92;100
0:20:22.701000;-92;100
0:20:22.800000;-85;100
0:20:22.867000;-94;100
0:20:22.966000;-84;100
0:20:23.431000;-85;100
0:20:24.625000;-91;100
0:20:24.858000;-91;100
0:20:25.056000;-89;100
0:20:25.288000;-90;100
0:20:25.487000;-89;100
0:20:26.018000;-90;100
0:20:26.117000;-86;100
0:20:26.548000;-85;100
0:20:26.648000;-93;100
0:20:26.980000;-86;100
0:20:27.278000;-91;100
0:20:27.378000;-90;100
0:20:28.771000;-90;100
0:20:31.159000;-91;100
0:20:31.358000;-90;100
0:20:32.020000;-87;100
0:20:32.750000;-89;100
0:20:32.949000;-90;100
0:20:33.181000;-90;100
0:20:33.281000;-85;100
0:20:33.347000;-85;100
0:20:36.597000;-86;100
0:20:37.327000;-89;100
0:20:37.891000;-85;100
0:20:38.951000;-90;100
0:20:39.183000;-90;100
0:20:39.382000;-86;100
0:20:39.515000;-92;100
0:20:39.615000;-84;100
0:20:40.577000;-91;100
0:20:41.737000;-93;100
0:20:41.837000;-89;100
0:20:42.036000;-84;100
0:20:42.302000;-90;100
0:20:42.600000;-94;100
0:20:42.899000;-84;100
0:20:42.998000;-92;100
0:20:43.131000;-85;100
0:20:43.529000;-90;100
0:20:43.761000;-89;100
0:20:44.191000;-88;100
0:20:44.290000;-94;100
0:20:44.423000;-88;100
0:20:44.522000;-86;100
0:20:44.621000;-89;100
0:20:44.820000;-92;100
0:20:45.583000;-89;100
0:20:45.683000;-84;100
0:20:45.782000;-89;100
0:20:45.915000;-86;100
0:20:46.014000;-93;100
0:20:46.413000;-89;100
0:20:46.778000;-85;100
0:20:48.370000;-91;100
0:20:51.387000;-89;100
0:20:52.017000;-89;100
0:20:53.079000;-85;100
0:20:53.178000;-91;100
0:20:53.476000;-84;100
0:20:53.608000;-93;100
0:20:54.868000;-86;100
0:20:55.299000;-90;100
0:20:55.763000;-91;100
0:20:56.493000;-89;100
0:20:59.379000;-86;100
0:20:59.810000;-89;100
0:20:59.909000;-90;100
0:21:00.009000;-91;100
0:21:00.175000;-90;100
0:21:00.241000;-92;100
0:21:00.473000;-90;100
0:21:00.673000;-90;100
0:21:02.164000;-85;100
0:21:02.363000;-85;100
0:21:02.595000;-90;100
0:21:02.794000;-91;100
0:21:02.893000;-93;100
0:21:03.159000;-90;100
0:21:04.286000;-89;100
0:21:04.684000;-90;100
0:21:04.850000;-90;100
0:21:05.579000;-84;100
0:21:05.679000;-92;100
0:21:05.812000;-84;100
0:21:06.243000;-93;100
0:21:06.343000;-89;100
0:21:06.674000;-85;100
0:21:06.873000;-86;100
0:21:06.973000;-94;100
0:21:07.105000;-89;100
0:21:07.304000;-89;100
0:21:07.834000;-86;100
0:21:08.033000;-85;100
0:21:08.265000;-86;100
0:21:08.563000;-92;100
0:21:08.663000;-85;100
0:21:08.995000;-89;100
0:21:09.227000;-90;100
0:21:10.255000;-90;100
0:21:10.488000;-89;100
0:21:10.587000;-86;100
0:21:10.720000;-89;100
0:21:11.151000;-85;100
0:21:11.648000;-90;100
0:21:12.078000;-91;100
0:21:12.443000;-89;100
0:21:12.642000;-89;100
0:21:12.841000;-89;100
0:21:13.040000;-85;100
0:21:13.470000;-85;100
0:21:13.669000;-85;100
0:21:13.935000;-90;100
0:21:14.664000;-90;100
0:21:15.194000;-86;100
0:21:15.427000;-85;100
0:21:15.626000;-84;100
0:21:16.819000;-89;100
0:21:17.648000;-86;100
0:21:17.747000;-93;100
0:21:17.847000;-85;100
0:21:18.179000;-90;100
0:21:18.311000;-84;100
0:21:18.511000;-89;100
0:21:18.743000;-91;100
0:21:18.842000;-91;100
0:21:18.942000;-86;100
0:21:19.041000;-92;100
0:21:19.572000;-85;100
0:21:19.705000;-90;100
0:21:19.804000;-86;100
0:21:19.904000;-93;100
0:21:20.003000;-85;100
0:21:20.136000;-94;100
0:21:20.534000;-89;100
0:21:20.865000;-85;100
0:21:20.965000;-89;100
0:21:21.164000;-90;100
0:21:21.263000;-90;100
0:21:22.457000;-84;100
0:21:22.689000;-90;100
0:21:22.888000;-90;100
0:21:23.220000;-85;100
0:21:24.181000;-89;100
0:21:24.513000;-84;100
0:21:25.143000;-85;100
0:21:25.242000;-90;100
0:21:25.341000;-86;100
0:21:26.336000;-90;100
0:21:26.833000;-89;100
0:21:27.164000;-85;100
0:21:27.231000;-86;100
0:21:27.330000;-92;100
0:21:27.927000;-86;100
0:21:28.027000;-89;100
0:21:28.259000;-90;100
0:21:28.889000;-86;100
0:21:28.989000;-90;100
0:21:29.188000;-89;100
0:21:29.420000;-91;100
0:21:29.618000;-89;100
0:21:29.718000;-91;100
0:21:29.817000;-85;100
0:21:29.949000;-94;100
0:21:30.049000;-91;100
0:21:30.280000;-90;100
0:21:33.032000;-90;100
0:21:33.197000;-90;100
0:21:33.264000;-91;100
0:21:33.994000;-88;100
0:21:34.790000;-90;100
0:21:34.989000;-89;100
0:21:40.428000;-85;100
0:21:40.660000;-87;100
0:21:40.759000;-90;100
0:21:41.390000;-90;100
0:21:41.588000;-90;100
0:21:41.688000;-94;100
0:21:41.919000;-93;100
0:21:42.019000;-91;100
0:21:42.152000;-86;100
0:21:42.583000;-91;100
0:21:43.213000;-89;100
0:21:43.877000;-84;100
0:21:43.976000;-92;100
0:21:44.607000;-89;100
0:21:44.805000;-89;100
0:21:45.004000;-89;100
0:21:45.136000;-94;100
0:21:45.368000;-86;100
0:21:45.667000;-89;100
0:21:47.258000;-92;100
0:21:47.391000;-90;100
0:21:47.789000;-90;100
0:21:48.485000;-88;100
0:21:48.585000;-85;100
0:21:48.983000;-85;100
0:21:49.745000;-89;100
0:21:50.077000;-85;100
0:21:50.508000;-84;100
0:21:50.905000;-85;100
0:21:51.866000;-85;100
0:21:52.496000;-85;100
0:21:52.662000;-89;100
0:21:53.259000;-89;100
0:21:53.358000;-85;100
0:21:53.690000;-89;100
0:21:54.121000;-90;100
0:21:54.352000;-91;100
0:21:54.452000;-85;100
0:21:54.783000;-93;100
0:21:54.882000;-89;100
0:21:54.982000;-89;100
0:21:55.081000;-90;100
0:21:55.181000;-91;100
0:21:55.280000;-84;100
0:21:55.745000;-92;100
0:21:55.844000;-85;100
0:21:56.972000;-86;100
0:21:57.336000;-90;100
0:21:57.568000;-90;100
0:21:58.829000;-84;100
0:21:58.929000;-90;100
0:22:01.615000;-85;100
0:22:01.947000;-89;100
0:22:02.146000;-86;100
0:22:02.444000;-88;100
0:22:02.875000;-88;100
0:22:04.169000;-86;100
0:22:04.368000;-85;100
0:22:04.700000;-85;100
0:22:04.832000;-91;100
0:22:04.932000;-85;100
0:22:05.894000;-86;100
0:22:06.093000;-90;100
0:22:06.524000;-92;100
0:22:06.756000;-92;100
0:22:07.055000;-90;100
0:22:07.287000;-90;100
0:22:08.016000;-91;100
0:22:08.647000;-88;100
0:22:08.846000;-90;100
0:22:09.310000;-86;100
0:22:09.509000;-85;100
0:22:09.940000;-89;100
0:22:10.139000;-91;100
0:22:10.371000;-90;100
0:22:10.471000;-86;100
0:22:10.603000;-89;100
0:22:10.703000;-86;100
0:22:10.902000;-87;100
0:22:11.101000;-88;100
0:22:11.532000;-91;100
0:22:11.864000;-85;100
0:22:12.096000;-86;100
0:22:13.024000;-85;100
0:22:13.455000;-86;100
0:22:13.687000;-90;100
0:22:14.318000;-85;100
0:22:14.649000;-91;100
0:22:14.749000;-88;100
0:22:14.948000;-90;100
0:22:15.511000;-86;100
0:22:16.042000;-86;100
0:22:16.142000;-89;100
0:22:16.673000;-85;100
0:22:17.236000;-85;100
0:22:17.668000;-91;100
0:22:18.298000;-89;100
0:22:18.497000;-89;100
0:22:18.829000;-84;100
0:22:19.027000;-86;100
0:22:19.127000;-90;100
0:22:19.226000;-87;100
0:22:19.590000;-90;100
0:22:19.690000;-86;100
0:22:19.989000;-91;100
0:22:20.121000;-88;100
0:22:20.519000;-89;100
0:22:20.652000;-85;100
0:22:20.752000;-90;100
0:22:20.851000;-85;100
0:22:20.951000;-88;100
0:22:21.182000;-85;100
0:22:21.282000;-94;100
0:22:21.613000;-90;100
0:22:21.713000;-85;100
0:22:23.637000;-88;100
0:22:23.835000;-85;100
0:22:24.067000;-86;100
0:22:24.167000;-85;100
0:22:24.266000;-85;100
0:22:28.112000;-90;100
0:22:28.875000;-87;100
0:22:29.074000;-85;100
0:22:29.505000;-85;100
0:22:30.169000;-91;100
0:22:30.268000;-87;100
0:22:30.467000;-85;100
0:22:30.799000;-94;100
0:22:30.898000;-86;100
0:22:31.230000;-94;100
0:22:31.959000;-91;100
0:22:32.059000;-85;100
0:22:32.291000;-90;100
0:22:32.391000;-93;100
0:22:32.922000;-85;100
0:22:33.054000;-94;100
0:22:33.253000;-88;100
0:22:33.353000;-87;100
0:22:33.452000;-91;100
0:22:34.413000;-86;100
0:22:34.745000;-91;100
0:22:34.878000;-87;100
0:22:34.977000;-90;100
0:22:35.077000;-85;100
0:22:35.177000;-96;100
0:22:35.906000;-87;100
0:22:36.071000;-89;100
0:22:36.138000;-90;100
0:22:36.470000;-90;100
0:22:36.668000;-89;100
0:22:37.730000;-85;100
0:22:38.493000;-91;100
0:22:38.593000;-86;100
0:22:38.792000;-90;100
0:22:39.057000;-86;100
0:22:39.884000;-86;100
0:22:40.084000;-86;100
0:22:40.183000;-88;100
0:22:40.283000;-86;100
0:22:40.648000;-91;100
0:22:41.577000;-89;100
0:22:41.875000;-86;100
0:22:42.141000;-93;100
0:22:42.340000;-85;100
0:22:42.538000;-85;100
0:22:42.638000;-91;100
0:22:42.737000;-86;100
0:22:42.969000;-87;100
0:22:43.566000;-92;100
0:22:43.633000;-86;100
0:22:43.732000;-93;100
0:22:43.832000;-85;100
0:22:44.263000;-86;100
0:22:44.661000;-86;100
0:22:46.816000;-86;100
0:22:47.148000;-94;100
0:22:47.247000;-86;100
0:22:47.479000;-85;100
0:22:48.043000;-89;100
0:22:48.541000;-86;100
0:22:48.640000;-91;100
0:22:48.773000;-88;100
0:22:48.872000;-90;100
0:22:48.971000;-90;100
0:22:49.933000;-90;100
0:22:50.265000;-91;100
0:22:50.696000;-92;100
0:22:50.796000;-87;100
0:22:51.028000;-85;100
0:22:51.127000;-91;100
0:22:51.858000;-90;100
0:22:52.056000;-88;100
0:22:52.553000;-86;100
0:22:52.620000;-89;100
0:22:53.018000;-88;100
0:22:53.150000;-85;100
0:22:53.449000;-91;100
0:22:53.880000;-89;100
0:22:53.980000;-88;100
0:22:54.212000;-86;100
0:22:54.411000;-86;100
0:22:54.842000;-90;100
0:22:54.974000;-94;100
0:22:55.604000;-89;100
0:22:55.703000;-95;100
0:22:55.803000;-90;100
0:22:59.651000;-86;100
0:22:59.949000;-88;100
0:23:00.049000;-91;100
0:23:00.181000;-85;100
0:23:00.480000;-89;100
0:23:00.712000;-90;100
0:23:01.110000;-90;100
0:23:01.342000;-88;100
0:23:01.707000;-91;100
0:23:01.807000;-95;100
0:23:01.906000;-86;100
0:23:02.304000;-86;100
0:23:02.404000;-88;100
0:23:02.636000;-89;100
0:23:03.199000;-90;100
0:23:06.117000;-90;100
0:23:06.282000;-89;100
0:23:06.481000;-90;100
0:23:07.012000;-85;100
0:23:07.244000;-86;100
0:23:08.637000;-92;100
0:23:08.737000;-91;100
0:23:09.267000;-86;100
0:23:09.997000;-86;100
0:23:10.294000;-88;100
0:23:56.505000;-85;100
0:23:56.638000;-89;100
0:23:56.837000;-88;100
0:23:56.937000;-90;100
0:23:57.302000;-90;100
0:23:57.932000;-88;100
0:23:58.330000;-86;100
0:23:58.397000;-86;100
0:23:58.662000;-90;100
0:23:59.093000;-90;100
0:23:59.192000;-85;100
0:23:59.391000;-85;100
0:23:59.623000;-86;100
0:23:59.723000;-89;100
0:23:59.855000;-85;100
0:23:59.955000;-94;100
0:24:00.286000;-86;100
0:24:00.386000;-90;100
0:24:01.016000;-88;100
0:24:01.215000;-89;100
0:24:01.314000;-92;100
0:24:01.579000;-86;100
0:24:01.679000;-92;100
0:24:02.607000;-86;100
0:24:03.270000;-85;100
0:24:06.586000;-85;100
0:24:06.686000;-89;100
0:24:06.785000;-85;100
0:24:07.216000;-90;100
0:24:07.647000;-85;100
0:24:08.376000;-89;100
0:24:08.508000;-85;100
0:24:08.608000;-94;100
0:24:08.807000;-88;100
0:24:08.907000;-89;100
0:24:09.471000;-85;100
0:24:09.869000;-85;100
0:24:10.300000;-91;100
0:24:10.399000;-89;100
0:24:11.593000;-90;100
0:24:11.792000;-88;100
0:24:11.892000;-85;100
0:24:12.257000;-84;100
0:24:12.456000;-85;100
0:24:13.086000;-90;100
0:24:13.418000;-90;100
0:24:13.584000;-85;100
0:24:13.948000;-92;100
0:24:14.081000;-84;100
0:24:14.379000;-92;100
0:24:26.648000;-88;100
0:24:27.013000;-85;100
0:24:27.112000;-92;100
0:24:27.212000;-85;100
0:24:27.842000;-95;100
0:24:28.306000;-85;100
0:24:28.406000;-90;100
0:24:40.874000;-91;100
0:24:41.636000;-91;100
0:24:42.399000;-95;100
0:24:42.499000;-86;100
0:24:42.598000;-91;100
0:24:42.698000;-84;100
0:24:43.227000;-89;100
0:24:43.360000;-93;100
0:24:43.526000;-90;100
0:24:43.592000;-85;100
0:24:43.691000;-92;100
0:24:43.758000;-86;100
0:24:44.189000;-85;100
0:24:44.288000;-89;100
0:24:44.487000;-86;100
0:24:44.619000;-90;100
0:24:44.752000;-88;100
0:24:44.852000;-84;100
0:24:44.951000;-90;100
0:24:45.183000;-89;100
0:24:45.382000;-93;100
0:24:45.482000;-93;100
0:24:45.781000;-90;100
0:24:46.013000;-86;100
0:24:46.212000;-84;100
0:24:46.776000;-85;100
0:24:46.975000;-85;100
0:24:47.207000;-85;100
0:24:47.306000;-91;100
